[
    {
        "name": "[MyGirl]\u7f8e\u5a9b\u9986 VOL.245 \u4e3d\u4fcagirl",
        "src": "http://d.duotuwang.com/2017/04/17/3722/0.jpg",
        "mtId": "ae6ae69cb08396d9",
        "mtName": "\u4e3d\u4fcagirl",
        "jgId": "mygirl",
        "jgName": "\u7f8e\u5a9b\u9986",
        "href": "http://d.duotuwang.com/2017/04/17/3722/",
        "count": 41,
        "start": 1,
        "hasMtTag": 1,
        "hasJgTag": 1,
        "mtCount": 1,
        "jgCount": 110
    }
]