[
    {
        "name": "[UGirlsAPP]\u7231\u5c24\u7269 No.848 \u96e8\u6b23",
        "src": "http://d.duotuwang.com/2017/09/14/6014/0.jpg",
        "mtId": "dcac6af13d7b9695",
        "mtName": "\u96e8\u6b23",
        "jgId": "ugirlsapp",
        "jgName": "\u7231\u5c24\u7269",
        "href": "http://d.duotuwang.com/2017/09/14/6014/",
        "count": 40,
        "start": 1,
        "hasMtTag": 1,
        "hasJgTag": 1,
        "mtCount": 1,
        "jgCount": 397
    }
]