[
    {
        "name": "[XIUREN]\u79c0\u4eba\u7f51 No.3315 \u6653\u9c7c\u9171",
        "src": "http://d.duotuwang.com/2021/04/19/24859/0.jpg",
        "mtId": "aba33f22a3e6bdaf",
        "mtName": "\u6653\u9c7c\u9171",
        "jgId": "xiuren",
        "jgName": "\u79c0\u4eba\u7f51",
        "href": "http://d.duotuwang.com/2021/04/19/24859/",
        "count": 47,
        "start": 1,
        "hasMtTag": 1,
        "hasJgTag": 1,
        "mtCount": 1,
        "jgCount": 750
    },
    {
        "name": "[XIUREN]\u79c0\u4eba\u7f51 No.3250 \u6653\u9c7c\u9171",
        "src": "http://d.duotuwang.com/2021/03/29/24516/0.jpg",
        "mtId": "aba33f22a3e6bdaf",
        "mtName": "\u6653\u9c7c\u9171",
        "jgId": "xiuren",
        "jgName": "\u79c0\u4eba\u7f51",
        "href": "http://d.duotuwang.com/2021/03/29/24516/",
        "count": 64,
        "start": 1,
        "hasMtTag": 1,
        "hasJgTag": 1,
        "mtCount": 1,
        "jgCount": 750
    },
    {
        "name": "[XIUREN]\u79c0\u4eba\u7f51 No.3221 \u6653\u9c7c\u9171",
        "src": "http://d.duotuwang.com/2021/03/19/24487/0.jpg",
        "mtId": "aba33f22a3e6bdaf",
        "mtName": "\u6653\u9c7c\u9171",
        "jgId": "xiuren",
        "jgName": "\u79c0\u4eba\u7f51",
        "href": "http://d.duotuwang.com/2021/03/19/24487/",
        "count": 100,
        "start": 1,
        "hasMtTag": 1,
        "hasJgTag": 1,
        "mtCount": 1,
        "jgCount": 750
    }
]