[
    {
        "name": "[SunGirl\u9633\u5149\u5b9d\u8d1d] NO.016 \u9f9a\u6620\u7487 \u7edd\u54c1! \u9f9a\u6620\u7487\u611f\u60c5\u548c\u6001\u5ea6",
        "src": "http://d.duotuwang.com/2018/09/19/11067/0.jpg",
        "jgId": "sungirl",
        "jgName": "\u9633\u5149\u5b9d\u8d1d",
        "href": "http://d.duotuwang.com/2018/09/19/11067/",
        "count": 46,
        "start": 1,
        "hasMtTag": 0,
        "hasJgTag": 1,
        "jgCount": 8
    },
    {
        "name": "[SunGirl\u9633\u5149\u5b9d\u8d1d] NO.015 \u6797\u8587\u591aVictoria \u590f\u5b63\u9650\u5b9a\uff01\u8587\u591a\u5357\u5c9b\u51b2\u7ef3\u5199\u771f",
        "src": "http://d.duotuwang.com/2018/08/24/11079/0.jpg",
        "jgId": "sungirl",
        "jgName": "\u9633\u5149\u5b9d\u8d1d",
        "href": "http://d.duotuwang.com/2018/08/24/11079/",
        "count": 43,
        "start": 1,
        "hasMtTag": 0,
        "hasJgTag": 1,
        "jgCount": 8
    },
    {
        "name": "[SunGirl\u9633\u5149\u5b9d\u8d1d] NO.014 LaraFan \u81f4\u547d\u7b2c\u4e8c\u53d1\uff01\u56cd\u5a18Lara\u540e\u964d\u5929\u4e0b\uff01",
        "src": "http://d.duotuwang.com/2018/07/30/11066/0.jpg",
        "mtId": "167b03d2afcc1627",
        "mtName": "LaraFan",
        "jgId": "sungirl",
        "jgName": "\u9633\u5149\u5b9d\u8d1d",
        "href": "http://d.duotuwang.com/2018/07/30/11066/",
        "count": 81,
        "start": 1,
        "hasMtTag": 1,
        "hasJgTag": 1,
        "mtCount": 1,
        "jgCount": 8
    },
    {
        "name": "[SunGirl\u9633\u5149\u5b9d\u8d1d] NO.013 \u9648\u94b0\u6d01Kitty \u592a\u6027\u611f\uff01Kitty \u8fd0\u52a8\u98ce",
        "src": "http://d.duotuwang.com/2018/07/20/11065/0.jpg",
        "jgId": "sungirl",
        "jgName": "\u9633\u5149\u5b9d\u8d1d",
        "href": "http://d.duotuwang.com/2018/07/20/11065/",
        "count": 32,
        "start": 1,
        "hasMtTag": 0,
        "hasJgTag": 1,
        "jgCount": 8
    },
    {
        "name": "[SunGirl\u9633\u5149\u5b9d\u8d1d] NO.012 Lola \u5236\u670d\u8bf1\u60d1! \u6027\u611f\u5c0f\u62a4\u58ebLola",
        "src": "http://d.duotuwang.com/2018/07/20/11064/0.jpg",
        "jgId": "sungirl",
        "jgName": "\u9633\u5149\u5b9d\u8d1d",
        "href": "http://d.duotuwang.com/2018/07/20/11064/",
        "count": 30,
        "start": 1,
        "hasMtTag": 0,
        "hasJgTag": 1,
        "jgCount": 8
    },
    {
        "name": "[SunGirl\u9633\u5149\u5b9d\u8d1d] NO.011 Kimi\u6b65 \u751c\u7f8e\u840c\u5154! \u6df7\u8840\u5c24\u7269Kimi\u6b65",
        "src": "http://d.duotuwang.com/2018/07/20/11063/0.jpg",
        "jgId": "sungirl",
        "jgName": "\u9633\u5149\u5b9d\u8d1d",
        "href": "http://d.duotuwang.com/2018/07/20/11063/",
        "count": 60,
        "start": 1,
        "hasMtTag": 0,
        "hasJgTag": 1,
        "jgCount": 8
    }
]