[
    {
        "name": "\u55b5\u7cd6\u6620\u753b VOL.204 \u7eaf\u767d\u7761\u88d9",
        "src": "http://d.duotuwang.com/2020/05/22/22436/0.jpg",
        "jgId": "mtcos",
        "jgName": "\u55b5\u7cd6\u6620\u753b",
        "href": "http://d.duotuwang.com/2020/05/22/22436/",
        "count": 24,
        "start": 1,
        "hasMtTag": 0,
        "hasJgTag": 1,
        "jgCount": 63
    },
    {
        "name": "\u55b5\u7cd6\u6620\u753b VOL.203 \u6d74\u7f38\u6cf3\u8863",
        "src": "http://d.duotuwang.com/2020/05/21/22435/0.jpg",
        "jgId": "mtcos",
        "jgName": "\u55b5\u7cd6\u6620\u753b",
        "href": "http://d.duotuwang.com/2020/05/21/22435/",
        "count": 27,
        "start": 1,
        "hasMtTag": 0,
        "hasJgTag": 1,
        "jgCount": 63
    },
    {
        "name": "\u55b5\u7cd6\u6620\u753b VOL.202 OL\u5236\u670d\u88d9",
        "src": "http://d.duotuwang.com/2020/05/20/22434/0.jpg",
        "jgId": "mtcos",
        "jgName": "\u55b5\u7cd6\u6620\u753b",
        "href": "http://d.duotuwang.com/2020/05/20/22434/",
        "count": 70,
        "start": 1,
        "hasMtTag": 0,
        "hasJgTag": 1,
        "jgCount": 63
    },
    {
        "name": "\u55b5\u7cd6\u6620\u753b VOL.201 \u6696\u9633\u7684\u6d77",
        "src": "http://d.duotuwang.com/2020/05/19/22433/0.jpg",
        "jgId": "mtcos",
        "jgName": "\u55b5\u7cd6\u6620\u753b",
        "href": "http://d.duotuwang.com/2020/05/19/22433/",
        "count": 22,
        "start": 1,
        "hasMtTag": 0,
        "hasJgTag": 1,
        "jgCount": 63
    },
    {
        "name": "\u55b5\u7cd6\u6620\u753b VOL.200 \u9ed1\u732b\u4e0e\u767d\u5154",
        "src": "http://d.duotuwang.com/2020/05/18/21998/0.jpg",
        "jgId": "mtcos",
        "jgName": "\u55b5\u7cd6\u6620\u753b",
        "href": "http://d.duotuwang.com/2020/05/18/21998/",
        "count": 25,
        "start": 1,
        "hasMtTag": 0,
        "hasJgTag": 1,
        "jgCount": 63
    },
    {
        "name": "\u55b5\u7cd6\u6620\u753b VOL.199 \u7ef5\u7ef5\u767dT",
        "src": "http://d.duotuwang.com/2020/05/16/21997/0.jpg",
        "jgId": "mtcos",
        "jgName": "\u55b5\u7cd6\u6620\u753b",
        "href": "http://d.duotuwang.com/2020/05/16/21997/",
        "count": 30,
        "start": 1,
        "hasMtTag": 0,
        "hasJgTag": 1,
        "jgCount": 63
    }
]