[
    {
        "name": "\u55b5\u7cd6\u6620\u753b VOL.294 \u4f53\u64cd\u5b66\u59b9",
        "src": "http://d.duotuwang.com/2020/10/08/22527/0.jpg",
        "jgId": "mtcos",
        "jgName": "\u55b5\u7cd6\u6620\u753b",
        "href": "http://d.duotuwang.com/2020/10/08/22527/",
        "count": 27,
        "start": 1,
        "hasMtTag": 0,
        "hasJgTag": 1,
        "jgCount": 63
    },
    {
        "name": "\u55b5\u7cd6\u6620\u753b VOL.293 \u7ea2\u8272\u773c\u955c\u5a18",
        "src": "http://d.duotuwang.com/2020/10/05/22526/0.jpg",
        "jgId": "mtcos",
        "jgName": "\u55b5\u7cd6\u6620\u753b",
        "href": "http://d.duotuwang.com/2020/10/05/22526/",
        "count": 45,
        "start": 1,
        "hasMtTag": 0,
        "hasJgTag": 1,
        "jgCount": 63
    },
    {
        "name": "\u55b5\u7cd6\u6620\u753b VOL.292 \u7231\u5b95\u82b1\u5ac1",
        "src": "http://d.duotuwang.com/2020/10/03/22525/0.jpg",
        "jgId": "mtcos",
        "jgName": "\u55b5\u7cd6\u6620\u753b",
        "href": "http://d.duotuwang.com/2020/10/03/22525/",
        "count": 20,
        "start": 1,
        "hasMtTag": 0,
        "hasJgTag": 1,
        "jgCount": 63
    },
    {
        "name": "\u55b5\u7cd6\u6620\u753b VOL.291 OL\u5236\u670d",
        "src": "http://d.duotuwang.com/2020/09/30/22524/0.jpg",
        "jgId": "mtcos",
        "jgName": "\u55b5\u7cd6\u6620\u753b",
        "href": "http://d.duotuwang.com/2020/09/30/22524/",
        "count": 22,
        "start": 1,
        "hasMtTag": 0,
        "hasJgTag": 1,
        "jgCount": 63
    },
    {
        "name": "\u55b5\u7cd6\u6620\u753b VOL.290 \u767d\u8272\u82b1\u5ac1",
        "src": "http://d.duotuwang.com/2020/09/28/22523/0.jpg",
        "jgId": "mtcos",
        "jgName": "\u55b5\u7cd6\u6620\u753b",
        "href": "http://d.duotuwang.com/2020/09/28/22523/",
        "count": 21,
        "start": 1,
        "hasMtTag": 0,
        "hasJgTag": 1,
        "jgCount": 63
    },
    {
        "name": "\u55b5\u7cd6\u6620\u753b VOL.289 \u5bb6\u6709\u5973\u4ec6",
        "src": "http://d.duotuwang.com/2020/09/25/22522/0.jpg",
        "jgId": "mtcos",
        "jgName": "\u55b5\u7cd6\u6620\u753b",
        "href": "http://d.duotuwang.com/2020/09/25/22522/",
        "count": 24,
        "start": 1,
        "hasMtTag": 0,
        "hasJgTag": 1,
        "jgCount": 63
    }
]