[
    {
        "name": "\u55b5\u7cd6\u6620\u753b VOL.184 \u7c89\u7cfb\u5c11\u5973",
        "src": "http://d.duotuwang.com/2020/05/01/21983/0.jpg",
        "jgId": "mtcos",
        "jgName": "\u55b5\u7cd6\u6620\u753b",
        "href": "http://d.duotuwang.com/2020/05/01/21983/",
        "count": 43,
        "start": 1,
        "hasMtTag": 0,
        "hasJgTag": 1,
        "jgCount": 63
    },
    {
        "name": "\u55b5\u7cd6\u6620\u753b VOL.183 \u5927\u51e4\u793c\u670d",
        "src": "http://d.duotuwang.com/2020/04/30/21982/0.jpg",
        "jgId": "mtcos",
        "jgName": "\u55b5\u7cd6\u6620\u753b",
        "href": "http://d.duotuwang.com/2020/04/30/21982/",
        "count": 38,
        "start": 1,
        "hasMtTag": 0,
        "hasJgTag": 1,
        "jgCount": 63
    },
    {
        "name": "\u55b5\u7cd6\u6620\u753b \u534e\u7f8e HML.022 \u516c\u5b59\u79bb\u65d7\u888d",
        "src": "http://d.duotuwang.com/2020/04/29/22584/0.jpg",
        "jgId": "mtcos",
        "jgName": "\u55b5\u7cd6\u6620\u753b",
        "href": "http://d.duotuwang.com/2020/04/29/22584/",
        "count": 20,
        "start": 1,
        "hasMtTag": 0,
        "hasJgTag": 1,
        "jgCount": 63
    },
    {
        "name": "\u55b5\u7cd6\u6620\u753b VOL.182 \u767d\u889c\u4f53\u64cd\u670d",
        "src": "http://d.duotuwang.com/2020/04/29/21981/0.jpg",
        "jgId": "mtcos",
        "jgName": "\u55b5\u7cd6\u6620\u753b",
        "href": "http://d.duotuwang.com/2020/04/29/21981/",
        "count": 50,
        "start": 1,
        "hasMtTag": 0,
        "hasJgTag": 1,
        "jgCount": 63
    },
    {
        "name": "\u55b5\u7cd6\u6620\u753b \u5154\u7f8e TML.020 \u9ebb\u8863\u5154\u5973\u90ce",
        "src": "http://d.duotuwang.com/2020/04/28/22561/0.jpg",
        "jgId": "mtcos",
        "jgName": "\u55b5\u7cd6\u6620\u753b",
        "href": "http://d.duotuwang.com/2020/04/28/22561/",
        "count": 24,
        "start": 1,
        "hasMtTag": 0,
        "hasJgTag": 1,
        "jgCount": 63
    },
    {
        "name": "\u55b5\u7cd6\u6620\u753b VOL.181 \u7eaf\u767d\u7cbe\u7075",
        "src": "http://d.duotuwang.com/2020/04/28/21980/0.jpg",
        "jgId": "mtcos",
        "jgName": "\u55b5\u7cd6\u6620\u753b",
        "href": "http://d.duotuwang.com/2020/04/28/21980/",
        "count": 25,
        "start": 1,
        "hasMtTag": 0,
        "hasJgTag": 1,
        "jgCount": 63
    }
]