[
    {
        "name": "\u55b5\u7cd6\u6620\u753b \u88d9\u7f8e JKL.006 \u6cf3\u88c5JK\u5236\u670d",
        "src": "http://d.duotuwang.com/2020/03/29/22596/0.jpg",
        "jgId": "mtcos",
        "jgName": "\u55b5\u7cd6\u6620\u753b",
        "href": "http://d.duotuwang.com/2020/03/29/22596/",
        "count": 43,
        "start": 1,
        "hasMtTag": 0,
        "hasJgTag": 1,
        "jgCount": 63
    },
    {
        "name": "\u55b5\u7cd6\u6620\u753b VOL.154 \u9ed1\u4e1d\u732b\u8033\u5a18",
        "src": "http://d.duotuwang.com/2020/03/29/21953/0.jpg",
        "jgId": "mtcos",
        "jgName": "\u55b5\u7cd6\u6620\u753b",
        "href": "http://d.duotuwang.com/2020/03/29/21953/",
        "count": 40,
        "start": 1,
        "hasMtTag": 0,
        "hasJgTag": 1,
        "jgCount": 63
    },
    {
        "name": "\u55b5\u7cd6\u6620\u753b \u534e\u7f8e HML.013 \u5c0f\u7389\u65d7\u888d",
        "src": "http://d.duotuwang.com/2020/03/28/22575/0.jpg",
        "jgId": "mtcos",
        "jgName": "\u55b5\u7cd6\u6620\u753b",
        "href": "http://d.duotuwang.com/2020/03/28/22575/",
        "count": 44,
        "start": 1,
        "hasMtTag": 0,
        "hasJgTag": 1,
        "jgCount": 63
    },
    {
        "name": "\u55b5\u7cd6\u6620\u753b VOL.153 \u84dd\u767d\u6cf3\u88c5",
        "src": "http://d.duotuwang.com/2020/03/28/21952/0.jpg",
        "jgId": "mtcos",
        "jgName": "\u55b5\u7cd6\u6620\u753b",
        "href": "http://d.duotuwang.com/2020/03/28/21952/",
        "count": 22,
        "start": 1,
        "hasMtTag": 0,
        "hasJgTag": 1,
        "jgCount": 63
    },
    {
        "name": "\u55b5\u7cd6\u6620\u753b \u5154\u7f8e TML.013 \u52a0\u85e4\u60e0\u5154\u5973\u90ce",
        "src": "http://d.duotuwang.com/2020/03/27/22554/0.jpg",
        "jgId": "mtcos",
        "jgName": "\u55b5\u7cd6\u6620\u753b",
        "href": "http://d.duotuwang.com/2020/03/27/22554/",
        "count": 29,
        "start": 1,
        "hasMtTag": 0,
        "hasJgTag": 1,
        "jgCount": 63
    },
    {
        "name": "\u55b5\u7cd6\u6620\u753b VOL.152 \u5566\u5566\u5c11\u5973\u4e4b\u5236\u670d",
        "src": "http://d.duotuwang.com/2020/03/27/21951/0.jpg",
        "jgId": "mtcos",
        "jgName": "\u55b5\u7cd6\u6620\u753b",
        "href": "http://d.duotuwang.com/2020/03/27/21951/",
        "count": 28,
        "start": 1,
        "hasMtTag": 0,
        "hasJgTag": 1,
        "jgCount": 63
    }
]