[
    {
        "name": "[DKGirl]DK\u5fa1\u5973\u90ce VOL.078 \u4fde\u5915\u68a6",
        "src": "http://d.duotuwang.com/2018/07/27/9414/0.jpg",
        "mtId": "1d617d234d8fd63f",
        "mtName": "\u4fde\u5915\u68a6",
        "jgId": "dkgirl",
        "jgName": "DK\u5fa1\u5973\u90ce",
        "href": "http://d.duotuwang.com/2018/07/27/9414/",
        "count": 40,
        "start": 1,
        "hasMtTag": 1,
        "hasJgTag": 1,
        "mtCount": 2,
        "jgCount": 20
    }
]