[
    {
        "name": "[XIUREN]\u79c0\u4eba\u7f51 No.3264 Angela00",
        "src": "http://d.duotuwang.com/2021/03/31/24530/0.jpg",
        "mtId": "e4d09316d8a9d330",
        "mtName": "\u5c0f\u70ed\u5df4",
        "jgId": "xiuren",
        "jgName": "\u79c0\u4eba\u7f51",
        "href": "http://d.duotuwang.com/2021/03/31/24530/",
        "count": 47,
        "start": 1,
        "hasMtTag": 1,
        "hasJgTag": 1,
        "mtCount": 26,
        "jgCount": 750
    },
    {
        "name": "[UGirlsAPP]\u7231\u5c24\u7269 No.2052 \u5c0f\u70ed\u5df4 \u4e1d\u7ed2\u73ab\u7470",
        "src": "http://d.duotuwang.com/2021/03/27/24588/0.jpg",
        "mtId": "e4d09316d8a9d330",
        "mtName": "\u5c0f\u70ed\u5df4",
        "jgId": "ugirlsapp",
        "jgName": "\u7231\u5c24\u7269",
        "href": "http://d.duotuwang.com/2021/03/27/24588/",
        "count": 35,
        "start": 1,
        "hasMtTag": 1,
        "hasJgTag": 1,
        "mtCount": 26,
        "jgCount": 397
    },
    {
        "name": "[XIUREN]\u79c0\u4eba\u7f51 No.3227 Angela00",
        "src": "http://d.duotuwang.com/2021/03/22/24493/0.jpg",
        "mtId": "e4d09316d8a9d330",
        "mtName": "\u5c0f\u70ed\u5df4",
        "jgId": "xiuren",
        "jgName": "\u79c0\u4eba\u7f51",
        "href": "http://d.duotuwang.com/2021/03/22/24493/",
        "count": 74,
        "start": 1,
        "hasMtTag": 1,
        "hasJgTag": 1,
        "mtCount": 26,
        "jgCount": 750
    },
    {
        "name": "[IMISS]\u7231\u871c\u793e VOL.566 Angela00",
        "src": "http://d.duotuwang.com/2021/03/19/24431/0.jpg",
        "mtId": "e4d09316d8a9d330",
        "mtName": "\u5c0f\u70ed\u5df4",
        "jgId": "imiss",
        "jgName": "\u7231\u871c\u793e",
        "href": "http://d.duotuwang.com/2021/03/19/24431/",
        "count": 62,
        "start": 1,
        "hasMtTag": 1,
        "hasJgTag": 1,
        "mtCount": 26,
        "jgCount": 116
    },
    {
        "name": "[IMISS]\u7231\u871c\u793e VOL.564 Angela\u5c0f\u70ed\u5df4",
        "src": "http://d.duotuwang.com/2021/03/15/24429/0.jpg",
        "mtId": "e4d09316d8a9d330",
        "mtName": "\u5c0f\u70ed\u5df4",
        "jgId": "imiss",
        "jgName": "\u7231\u871c\u793e",
        "href": "http://d.duotuwang.com/2021/03/15/24429/",
        "count": 63,
        "start": 1,
        "hasMtTag": 1,
        "hasJgTag": 1,
        "mtCount": 26,
        "jgCount": 116
    },
    {
        "name": "[IMISS]\u7231\u871c\u793e VOL.563 Angela\u5c0f\u70ed\u5df4",
        "src": "http://d.duotuwang.com/2021/03/12/24428/0.jpg",
        "mtId": "e4d09316d8a9d330",
        "mtName": "\u5c0f\u70ed\u5df4",
        "jgId": "imiss",
        "jgName": "\u7231\u871c\u793e",
        "href": "http://d.duotuwang.com/2021/03/12/24428/",
        "count": 46,
        "start": 1,
        "hasMtTag": 1,
        "hasJgTag": 1,
        "mtCount": 26,
        "jgCount": 116
    }
]