[
    {
        "name": "\u871c\u6c41\u732b\u88d8 NO.045 \u5deb\u5973\u81ea\u62cd\u7248",
        "src": "http://d.duotuwang.com/2019/08/21/29042/0.jpg",
        "mtId": "b9420b0ac431dbc7",
        "mtName": "\u871c\u6c41\u732b\u88d8",
        "jgId": "zipai",
        "jgName": "\u81ea\u62cd",
        "href": "http://d.duotuwang.com/2019/08/21/29042/",
        "count": 20,
        "start": 1,
        "hasMtTag": 1,
        "hasJgTag": 1,
        "mtCount": 13,
        "jgCount": 32
    },
    {
        "name": "\u871c\u6c41\u732b\u88d8 NO.045 \u5deb\u5973\u6b63\u7247",
        "src": "http://d.duotuwang.com/2019/08/21/29008/0.jpg",
        "mtId": "b9420b0ac431dbc7",
        "mtName": "\u871c\u6c41\u732b\u88d8",
        "jgId": "zipai",
        "jgName": "\u81ea\u62cd",
        "href": "http://d.duotuwang.com/2019/08/21/29008/",
        "count": 41,
        "start": 1,
        "hasMtTag": 1,
        "hasJgTag": 1,
        "mtCount": 13,
        "jgCount": 32
    },
    {
        "name": "\u871c\u6c41\u732b\u88d8 NO.044 \u971e\u4e4b\u4e18\u8bd7\u7fbd\u5185\u8863",
        "src": "http://d.duotuwang.com/2019/08/17/29007/0.jpg",
        "mtId": "b9420b0ac431dbc7",
        "mtName": "\u871c\u6c41\u732b\u88d8",
        "jgId": "zipai",
        "jgName": "\u81ea\u62cd",
        "href": "http://d.duotuwang.com/2019/08/17/29007/",
        "count": 49,
        "start": 1,
        "hasMtTag": 1,
        "hasJgTag": 1,
        "mtCount": 13,
        "jgCount": 32
    },
    {
        "name": "\u871c\u6c41\u732b\u88d8 NO.043 \u4e2d\u534e\u5a18\u81ea\u62cd\u7248",
        "src": "http://d.duotuwang.com/2019/08/01/29006/0.jpg",
        "mtId": "b9420b0ac431dbc7",
        "mtName": "\u871c\u6c41\u732b\u88d8",
        "jgId": "zipai",
        "jgName": "\u81ea\u62cd",
        "href": "http://d.duotuwang.com/2019/08/01/29006/",
        "count": 43,
        "start": 1,
        "hasMtTag": 1,
        "hasJgTag": 1,
        "mtCount": 13,
        "jgCount": 32
    },
    {
        "name": "\u871c\u6c41\u732b\u88d8 NO.042 \u4e2d\u534e\u5a18\u6b63\u7247",
        "src": "http://d.duotuwang.com/2019/07/24/29005/0.jpg",
        "mtId": "b9420b0ac431dbc7",
        "mtName": "\u871c\u6c41\u732b\u88d8",
        "jgId": "zipai",
        "jgName": "\u81ea\u62cd",
        "href": "http://d.duotuwang.com/2019/07/24/29005/",
        "count": 34,
        "start": 1,
        "hasMtTag": 1,
        "hasJgTag": 1,
        "mtCount": 13,
        "jgCount": 32
    },
    {
        "name": "\u871c\u6c41\u732b\u88d8 NO.041 \u8d1e\u5fb7\u5973\u4ec6",
        "src": "http://d.duotuwang.com/2019/06/13/29004/0.jpg",
        "mtId": "b9420b0ac431dbc7",
        "mtName": "\u871c\u6c41\u732b\u88d8",
        "jgId": "zipai",
        "jgName": "\u81ea\u62cd",
        "href": "http://d.duotuwang.com/2019/06/13/29004/",
        "count": 40,
        "start": 1,
        "hasMtTag": 1,
        "hasJgTag": 1,
        "mtCount": 13,
        "jgCount": 32
    }
]