[
    {
        "name": "\u871c\u6c41\u732b\u88d8 NO.026 \u900f\u660e\u62a4\u58eb",
        "src": "http://d.duotuwang.com/2019/01/07/28989/0.jpg",
        "mtId": "b9420b0ac431dbc7",
        "mtName": "\u871c\u6c41\u732b\u88d8",
        "jgId": "zipai",
        "jgName": "\u81ea\u62cd",
        "href": "http://d.duotuwang.com/2019/01/07/28989/",
        "count": 52,
        "start": 1,
        "hasMtTag": 1,
        "hasJgTag": 1,
        "mtCount": 13,
        "jgCount": 32
    },
    {
        "name": "\u871c\u6c41\u732b\u88d8 NO.025 \u7cd6\u679c\u5047\u671f",
        "src": "http://d.duotuwang.com/2018/12/22/28988/0.jpg",
        "mtId": "b9420b0ac431dbc7",
        "mtName": "\u871c\u6c41\u732b\u88d8",
        "jgId": "zipai",
        "jgName": "\u81ea\u62cd",
        "href": "http://d.duotuwang.com/2018/12/22/28988/",
        "count": 30,
        "start": 1,
        "hasMtTag": 1,
        "hasJgTag": 1,
        "mtCount": 13,
        "jgCount": 32
    },
    {
        "name": "\u871c\u6c41\u732b\u88d8 NO.024 \u7d22\u5c3c\u5b50\u53cc\u9c7c\u5ea7",
        "src": "http://d.duotuwang.com/2018/12/17/28987/0.jpg",
        "mtId": "b9420b0ac431dbc7",
        "mtName": "\u871c\u6c41\u732b\u88d8",
        "jgId": "zipai",
        "jgName": "\u81ea\u62cd",
        "href": "http://d.duotuwang.com/2018/12/17/28987/",
        "count": 12,
        "start": 1,
        "hasMtTag": 1,
        "hasJgTag": 1,
        "mtCount": 13,
        "jgCount": 32
    },
    {
        "name": "\u685c\u4e95\u5b81\u5b81 \u8349\u8393\u5c11\u5973",
        "src": "http://d.duotuwang.com/2018/12/09/27613/0.jpg",
        "mtId": "466e54535ba3c4c6",
        "mtName": "\u685c\u4e95\u5b81\u5b81",
        "jgId": "zipai",
        "jgName": "\u81ea\u62cd",
        "href": "http://d.duotuwang.com/2018/12/09/27613/",
        "count": 16,
        "start": 1,
        "hasMtTag": 1,
        "hasJgTag": 1,
        "mtCount": 9,
        "jgCount": 32
    },
    {
        "name": "\u685c\u4e95\u5b81\u5b81 JK\u7684\u65e5\u5e38",
        "src": "http://d.duotuwang.com/2018/12/09/27610/0.jpg",
        "mtId": "466e54535ba3c4c6",
        "mtName": "\u685c\u4e95\u5b81\u5b81",
        "jgId": "zipai",
        "jgName": "\u81ea\u62cd",
        "href": "http://d.duotuwang.com/2018/12/09/27610/",
        "count": 51,
        "start": 1,
        "hasMtTag": 1,
        "hasJgTag": 1,
        "mtCount": 9,
        "jgCount": 32
    },
    {
        "name": "\u871c\u6c41\u732b\u88d8 NO.023 \u7d22\u5c3c\u5b50\u548c\u670d",
        "src": "http://d.duotuwang.com/2018/12/08/28986/0.jpg",
        "mtId": "b9420b0ac431dbc7",
        "mtName": "\u871c\u6c41\u732b\u88d8",
        "jgId": "zipai",
        "jgName": "\u81ea\u62cd",
        "href": "http://d.duotuwang.com/2018/12/08/28986/",
        "count": 19,
        "start": 1,
        "hasMtTag": 1,
        "hasJgTag": 1,
        "mtCount": 13,
        "jgCount": 32
    }
]