[
    {
        "name": "\u871c\u6c41\u732b\u88d8 NO.022 \u8bd7\u7fbd\u5154\u5973\u90ce",
        "src": "http://d.duotuwang.com/2018/12/04/28985/0.jpg",
        "mtId": "b9420b0ac431dbc7",
        "mtName": "\u871c\u6c41\u732b\u88d8",
        "jgId": "zipai",
        "jgName": "\u81ea\u62cd",
        "href": "http://d.duotuwang.com/2018/12/04/28985/",
        "count": 25,
        "start": 1,
        "hasMtTag": 1,
        "hasJgTag": 1,
        "mtCount": 13,
        "jgCount": 32
    },
    {
        "name": "\u871c\u6c41\u732b\u88d8 NO.021 \u5e08\u5320\u6559\u5e08",
        "src": "http://d.duotuwang.com/2018/11/22/28984/0.jpg",
        "mtId": "b9420b0ac431dbc7",
        "mtName": "\u871c\u6c41\u732b\u88d8",
        "jgId": "zipai",
        "jgName": "\u81ea\u62cd",
        "href": "http://d.duotuwang.com/2018/11/22/28984/",
        "count": 11,
        "start": 1,
        "hasMtTag": 1,
        "hasJgTag": 1,
        "mtCount": 13,
        "jgCount": 32
    },
    {
        "name": "\u871c\u6c41\u732b\u88d8 NO.020 \u5723\u8def\u6613\u65af",
        "src": "http://d.duotuwang.com/2018/11/17/28983/0.jpg",
        "mtId": "b9420b0ac431dbc7",
        "mtName": "\u871c\u6c41\u732b\u88d8",
        "jgId": "zipai",
        "jgName": "\u81ea\u62cd",
        "href": "http://d.duotuwang.com/2018/11/17/28983/",
        "count": 28,
        "start": 1,
        "hasMtTag": 1,
        "hasJgTag": 1,
        "mtCount": 13,
        "jgCount": 32
    },
    {
        "name": "\u871c\u6c41\u732b\u88d8 NO.019 \u5723\u8bde\u81ea\u62cd",
        "src": "http://d.duotuwang.com/2018/11/11/28982/0.jpg",
        "mtId": "b9420b0ac431dbc7",
        "mtName": "\u871c\u6c41\u732b\u88d8",
        "jgId": "zipai",
        "jgName": "\u81ea\u62cd",
        "href": "http://d.duotuwang.com/2018/11/11/28982/",
        "count": 36,
        "start": 1,
        "hasMtTag": 1,
        "hasJgTag": 1,
        "mtCount": 13,
        "jgCount": 32
    },
    {
        "name": "\u871c\u6c41\u732b\u88d8 NO.018 \u5723\u8bde\u7d22\u5c3c\u5b50",
        "src": "http://d.duotuwang.com/2018/10/29/28981/0.jpg",
        "mtId": "b9420b0ac431dbc7",
        "mtName": "\u871c\u6c41\u732b\u88d8",
        "jgId": "zipai",
        "jgName": "\u81ea\u62cd",
        "href": "http://d.duotuwang.com/2018/10/29/28981/",
        "count": 10,
        "start": 1,
        "hasMtTag": 1,
        "hasJgTag": 1,
        "mtCount": 13,
        "jgCount": 32
    },
    {
        "name": "\u871c\u6c41\u732b\u88d8 NO.017 \u5723\u8bde\u793c\u7269",
        "src": "http://d.duotuwang.com/2018/10/22/28980/0.jpg",
        "mtId": "b9420b0ac431dbc7",
        "mtName": "\u871c\u6c41\u732b\u88d8",
        "jgId": "zipai",
        "jgName": "\u81ea\u62cd",
        "href": "http://d.duotuwang.com/2018/10/22/28980/",
        "count": 40,
        "start": 1,
        "hasMtTag": 1,
        "hasJgTag": 1,
        "mtCount": 13,
        "jgCount": 32
    }
]