[
    {
        "name": "\u8fc7\u671f\u7c73\u7ebf\u7ebf\u55b5\u767d\u8272\u65d7\u888d\u5199\u771f",
        "src": "http://d.duotuwang.com/2018/07/01/20894/0.jpg",
        "mtId": "4a74f340a78fafb1",
        "mtName": "\u8fc7\u671f\u7c73\u7ebf\u7ebf\u55b5",
        "jgId": "zipai",
        "jgName": "\u81ea\u62cd",
        "href": "http://d.duotuwang.com/2018/07/01/20894/",
        "count": 22,
        "start": 1,
        "hasMtTag": 1,
        "hasJgTag": 1,
        "mtCount": 8,
        "jgCount": 32
    },
    {
        "name": "\u8fc7\u671f\u7c73\u7ebf\u7ebf\u55b5\u767d\u8272\u6bd4\u57fa\u5c3c\u81ea\u62cd",
        "src": "http://d.duotuwang.com/2018/07/01/20893/0.jpg",
        "mtId": "4a74f340a78fafb1",
        "mtName": "\u8fc7\u671f\u7c73\u7ebf\u7ebf\u55b5",
        "jgId": "zipai",
        "jgName": "\u81ea\u62cd",
        "href": "http://d.duotuwang.com/2018/07/01/20893/",
        "count": 18,
        "start": 1,
        "hasMtTag": 1,
        "hasJgTag": 1,
        "mtCount": 8,
        "jgCount": 32
    },
    {
        "name": "\u8fc7\u671f\u7c73\u7ebf\u7ebf\u55b5\u767d\u8272\u540a\u5e26\u81ea\u62cd",
        "src": "http://d.duotuwang.com/2018/07/01/20892/0.jpg",
        "mtId": "4a74f340a78fafb1",
        "mtName": "\u8fc7\u671f\u7c73\u7ebf\u7ebf\u55b5",
        "jgId": "zipai",
        "jgName": "\u81ea\u62cd",
        "href": "http://d.duotuwang.com/2018/07/01/20892/",
        "count": 36,
        "start": 1,
        "hasMtTag": 1,
        "hasJgTag": 1,
        "mtCount": 8,
        "jgCount": 32
    },
    {
        "name": "\u8fc7\u671f\u7c73\u7ebf\u7ebf\u55b5\u9ed1\u7eb1\u81ea\u62cd",
        "src": "http://d.duotuwang.com/2018/07/01/20891/0.jpg",
        "mtId": "4a74f340a78fafb1",
        "mtName": "\u8fc7\u671f\u7c73\u7ebf\u7ebf\u55b5",
        "jgId": "zipai",
        "jgName": "\u81ea\u62cd",
        "href": "http://d.duotuwang.com/2018/07/01/20891/",
        "count": 14,
        "start": 1,
        "hasMtTag": 1,
        "hasJgTag": 1,
        "mtCount": 8,
        "jgCount": 32
    },
    {
        "name": "\u8fc7\u671f\u7c73\u7ebf\u7ebf\u55b5JK\u81ea\u62cd",
        "src": "http://d.duotuwang.com/2018/07/01/20890/0.jpg",
        "mtId": "4a74f340a78fafb1",
        "mtName": "\u8fc7\u671f\u7c73\u7ebf\u7ebf\u55b5",
        "jgId": "zipai",
        "jgName": "\u81ea\u62cd",
        "href": "http://d.duotuwang.com/2018/07/01/20890/",
        "count": 36,
        "start": 1,
        "hasMtTag": 1,
        "hasJgTag": 1,
        "mtCount": 8,
        "jgCount": 32
    },
    {
        "name": "\u8fc7\u671f\u7c73\u7ebf\u7ebf\u55b5\u8089\u4e1d\u81ea\u62cd",
        "src": "http://d.duotuwang.com/2018/07/01/20920/0.jpg",
        "mtId": "4a74f340a78fafb1",
        "mtName": "\u8fc7\u671f\u7c73\u7ebf\u7ebf\u55b5",
        "jgId": "zipai",
        "jgName": "\u81ea\u62cd",
        "href": "http://d.duotuwang.com/2018/07/01/20920/",
        "count": 7,
        "start": 1,
        "hasMtTag": 1,
        "hasJgTag": 1,
        "mtCount": 8,
        "jgCount": 32
    }
]