[
    {
        "name": "[UGirlsAPP]\u7231\u5c24\u7269 No.1387 \u827e\u7c73\u513f \u7070\u8272\u604b\u60c5",
        "src": "http://d.duotuwang.com/2019/03/07/11072/0.jpg",
        "mtId": "62a9ebf4ab4b83ff",
        "mtName": "\u827e\u7c73\u513f",
        "jgId": "ugirlsapp",
        "jgName": "\u7231\u5c24\u7269",
        "href": "http://d.duotuwang.com/2019/03/07/11072/",
        "count": 35,
        "start": 1,
        "hasMtTag": 1,
        "hasJgTag": 1,
        "mtCount": 1,
        "jgCount": 397
    },
    {
        "name": "[UGirlsAPP]\u7231\u5c24\u7269 No.1028 \u827e\u7c73\u513f",
        "src": "http://d.duotuwang.com/2018/03/13/8348/0.jpg",
        "mtId": "62a9ebf4ab4b83ff",
        "mtName": "\u827e\u7c73\u513f",
        "jgId": "ugirlsapp",
        "jgName": "\u7231\u5c24\u7269",
        "href": "http://d.duotuwang.com/2018/03/13/8348/",
        "count": 40,
        "start": 1,
        "hasMtTag": 1,
        "hasJgTag": 1,
        "mtCount": 1,
        "jgCount": 397
    }
]