[
    {
        "name": "[LeYuan]\u661f\u4e50\u56ed VOL.028 \u6768\u6668\u6668sugar",
        "src": "http://d.duotuwang.com/2017/02/15/2204/0.jpg",
        "mtId": "48bada5e7225ec9f",
        "mtName": "\u6768\u6668\u6668sugar",
        "jgId": "leyuan",
        "jgName": "\u661f\u4e50\u56ed",
        "href": "http://d.duotuwang.com/2017/02/15/2204/",
        "count": 51,
        "start": 1,
        "hasMtTag": 1,
        "hasJgTag": 1,
        "mtCount": 89,
        "jgCount": 8
    },
    {
        "name": "[LeYuan]\u661f\u4e50\u56ed VOL.027 \u51ef\u7af9BuiBui",
        "src": "http://d.duotuwang.com/2017/02/06/2088/0.jpg",
        "mtId": "1aaa50d9fb5e31ce",
        "mtName": "\u51ef\u7af9BuiBui",
        "jgId": "leyuan",
        "jgName": "\u661f\u4e50\u56ed",
        "href": "http://d.duotuwang.com/2017/02/06/2088/",
        "count": 52,
        "start": 1,
        "hasMtTag": 1,
        "hasJgTag": 1,
        "mtCount": 9,
        "jgCount": 8
    },
    {
        "name": "[LeYuan]\u661f\u4e50\u56ed VOL.026 \u51ef\u7af9BuiBui",
        "src": "http://d.duotuwang.com/2017/01/25/2058/0.jpg",
        "mtId": "1aaa50d9fb5e31ce",
        "mtName": "\u51ef\u7af9BuiBui",
        "jgId": "leyuan",
        "jgName": "\u661f\u4e50\u56ed",
        "href": "http://d.duotuwang.com/2017/01/25/2058/",
        "count": 58,
        "start": 1,
        "hasMtTag": 1,
        "hasJgTag": 1,
        "mtCount": 9,
        "jgCount": 8
    },
    {
        "name": "[LeYuan]\u661f\u4e50\u56ed VOL.025 Wendy\u667a\u79c0",
        "src": "http://d.duotuwang.com/2017/01/20/2036/0.jpg",
        "mtId": "5f982b4058195aa2",
        "mtName": "Wendy\u667a\u79c0",
        "jgId": "leyuan",
        "jgName": "\u661f\u4e50\u56ed",
        "href": "http://d.duotuwang.com/2017/01/20/2036/",
        "count": 52,
        "start": 1,
        "hasMtTag": 1,
        "hasJgTag": 1,
        "mtCount": 2,
        "jgCount": 8
    },
    {
        "name": "[LeYuan]\u661f\u4e50\u56ed VOL.024 \u9178\u9171\u5154",
        "src": "http://d.duotuwang.com/2017/01/10/2028/0.jpg",
        "mtId": "ef383f9817a5ccc6",
        "mtName": "\u9178\u9171\u5154",
        "jgId": "leyuan",
        "jgName": "\u661f\u4e50\u56ed",
        "href": "http://d.duotuwang.com/2017/01/10/2028/",
        "count": 50,
        "start": 1,
        "hasMtTag": 1,
        "hasJgTag": 1,
        "mtCount": 2,
        "jgCount": 8
    },
    {
        "name": "[LeYuan]\u661f\u4e50\u56ed VOL.023 \u51ef\u7af9BuiBui",
        "src": "http://d.duotuwang.com/2017/01/04/2005/0.jpg",
        "mtId": "1aaa50d9fb5e31ce",
        "mtName": "\u51ef\u7af9BuiBui",
        "jgId": "leyuan",
        "jgName": "\u661f\u4e50\u56ed",
        "href": "http://d.duotuwang.com/2017/01/04/2005/",
        "count": 41,
        "start": 1,
        "hasMtTag": 1,
        "hasJgTag": 1,
        "mtCount": 9,
        "jgCount": 8
    }
]