[
    {
        "name": "[XIUREN]\u79c0\u4eba\u7f51 No.1909 \u827e\u5c0f\u9752",
        "src": "http://d.duotuwang.com/2020/01/08/19197/0.jpg",
        "mtId": "956ac07ef794d061",
        "mtName": "\u827e\u5c0f\u9752",
        "jgId": "xiuren",
        "jgName": "\u79c0\u4eba\u7f51",
        "href": "http://d.duotuwang.com/2020/01/08/19197/",
        "count": 66,
        "start": 1,
        "hasMtTag": 1,
        "hasJgTag": 1,
        "mtCount": 16,
        "jgCount": 750
    },
    {
        "name": "[XIUREN]\u79c0\u4eba\u7f51 No.1879 \u827e\u5c0f\u9752",
        "src": "http://d.duotuwang.com/2019/12/25/19039/0.jpg",
        "mtId": "956ac07ef794d061",
        "mtName": "\u827e\u5c0f\u9752",
        "jgId": "xiuren",
        "jgName": "\u79c0\u4eba\u7f51",
        "href": "http://d.duotuwang.com/2019/12/25/19039/",
        "count": 49,
        "start": 1,
        "hasMtTag": 1,
        "hasJgTag": 1,
        "mtCount": 16,
        "jgCount": 750
    },
    {
        "name": "[YouMei]\u5c24\u7f8e \u827e\u5c0f\u9752 \u6d74\u5ba4\u8c03\u60c5",
        "src": "http://d.duotuwang.com/2019/12/22/19072/0.jpg",
        "mtId": "956ac07ef794d061",
        "mtName": "\u827e\u5c0f\u9752",
        "jgId": "youmei",
        "jgName": "\u5c24\u7f8e\u7f51",
        "href": "http://d.duotuwang.com/2019/12/22/19072/",
        "count": 32,
        "start": 1,
        "hasMtTag": 1,
        "hasJgTag": 1,
        "mtCount": 16,
        "jgCount": 47
    },
    {
        "name": "[DKGirl]DK\u5fa1\u5973\u90ce VOL.120 \u827e\u5c0f\u9752",
        "src": "http://d.duotuwang.com/2019/11/15/18620/0.jpg",
        "mtId": "956ac07ef794d061",
        "mtName": "\u827e\u5c0f\u9752",
        "jgId": "dkgirl",
        "jgName": "DK\u5fa1\u5973\u90ce",
        "href": "http://d.duotuwang.com/2019/11/15/18620/",
        "count": 49,
        "start": 1,
        "hasMtTag": 1,
        "hasJgTag": 1,
        "mtCount": 16,
        "jgCount": 20
    },
    {
        "name": "[XIUREN]\u79c0\u4eba\u7f51 No.1728 \u827e\u5c0f\u9752",
        "src": "http://d.duotuwang.com/2019/10/15/18250/0.jpg",
        "mtId": "956ac07ef794d061",
        "mtName": "\u827e\u5c0f\u9752",
        "jgId": "xiuren",
        "jgName": "\u79c0\u4eba\u7f51",
        "href": "http://d.duotuwang.com/2019/10/15/18250/",
        "count": 38,
        "start": 1,
        "hasMtTag": 1,
        "hasJgTag": 1,
        "mtCount": 16,
        "jgCount": 750
    },
    {
        "name": "[YouWu]\u5c24\u7269\u9986 VOL.160 \u827e\u5c0f\u9752",
        "src": "http://d.duotuwang.com/2019/08/29/17803/0.jpg",
        "mtId": "956ac07ef794d061",
        "mtName": "\u827e\u5c0f\u9752",
        "jgId": "youwu",
        "jgName": "\u5c24\u7269\u9986",
        "href": "http://d.duotuwang.com/2019/08/29/17803/",
        "count": 41,
        "start": 1,
        "hasMtTag": 1,
        "hasJgTag": 1,
        "mtCount": 16,
        "jgCount": 29
    }
]