[
    {
        "name": "SexyAngel No.009",
        "src": "http://d.duotuwang.com/2022/01/08/31371/0.jpg",
        "mtId": "ec131f4ce7a8c340",
        "mtName": "SexyAngel",
        "href": "http://d.duotuwang.com/2022/01/08/31371/",
        "count": 76,
        "start": 1,
        "hasMtTag": 1,
        "hasJgTag": 0,
        "mtCount": 1
    }
]