[
    {
        "name": "[UGirls]\u5c24\u679c\u7f51 T038 \u5b50\u591c\u5f25\u6492 \u590f\u73b2\u8513&M\u68a6baby",
        "src": "http://d.duotuwang.com/2018/12/21/10168/0.jpg",
        "mtId": "3c2ce021a80f2525",
        "mtName": "\u590f\u73b2\u8513",
        "jgId": "ugirls",
        "jgName": "\u5c24\u679c\u7f51",
        "href": "http://d.duotuwang.com/2018/12/21/10168/",
        "count": 65,
        "start": 1,
        "hasMtTag": 1,
        "hasJgTag": 1,
        "mtCount": 2,
        "jgCount": 79
    },
    {
        "name": "[YouMei]\u5c24\u7f8e No.90 M\u68a6baby \u60c5\u6b32\u6d74\u5ba4",
        "src": "http://d.duotuwang.com/2018/12/04/11042/0.jpg",
        "mtId": "986ddab6ac5c880b",
        "mtName": "M\u68a6baby",
        "jgId": "youmei",
        "jgName": "\u5c24\u7f8e\u7f51",
        "href": "http://d.duotuwang.com/2018/12/04/11042/",
        "count": 5,
        "start": 1,
        "hasMtTag": 1,
        "hasJgTag": 1,
        "mtCount": 5,
        "jgCount": 47
    },
    {
        "name": "[YouMei]\u5c24\u7f8e No.075 \u4e00\u65e5\u5973\u53cbM\u68a6baby \u7c89\u8272\u7761\u8863\u5c11\u5973\u6d3b\u529b",
        "src": "http://d.duotuwang.com/2018/11/20/10531/0.jpg",
        "mtId": "986ddab6ac5c880b",
        "mtName": "M\u68a6baby",
        "jgId": "youmei",
        "jgName": "\u5c24\u7f8e\u7f51",
        "href": "http://d.duotuwang.com/2018/11/20/10531/",
        "count": 18,
        "start": 1,
        "hasMtTag": 1,
        "hasJgTag": 1,
        "mtCount": 5,
        "jgCount": 47
    },
    {
        "name": "[UGirlsAPP]\u7231\u5c24\u7269 No.1216 M\u68a6baby \u65f6\u9ae6\u8857\u5934",
        "src": "http://d.duotuwang.com/2018/09/17/9693/0.jpg",
        "mtId": "986ddab6ac5c880b",
        "mtName": "M\u68a6baby",
        "jgId": "ugirlsapp",
        "jgName": "\u7231\u5c24\u7269",
        "href": "http://d.duotuwang.com/2018/09/17/9693/",
        "count": 35,
        "start": 1,
        "hasMtTag": 1,
        "hasJgTag": 1,
        "mtCount": 5,
        "jgCount": 397
    },
    {
        "name": "[YouMei]\u5c24\u7f8e No.041 M\u68a6baby \u857e\u4e1d\u5973\u795e \u5973\u53cb\u306e\u89d2\u8272\u626e\u6f14",
        "src": "http://d.duotuwang.com/2018/08/01/10498/0.jpg",
        "mtId": "986ddab6ac5c880b",
        "mtName": "M\u68a6baby",
        "jgId": "youmei",
        "jgName": "\u5c24\u7f8e\u7f51",
        "href": "http://d.duotuwang.com/2018/08/01/10498/",
        "count": 17,
        "start": 1,
        "hasMtTag": 1,
        "hasJgTag": 1,
        "mtCount": 5,
        "jgCount": 47
    },
    {
        "name": "[FEILIN]\u55f2\u56e1\u56e1 VOL.154 M\u68a6baby",
        "src": "http://d.duotuwang.com/2018/07/25/9393/0.jpg",
        "mtId": "986ddab6ac5c880b",
        "mtName": "M\u68a6baby",
        "jgId": "feilin",
        "jgName": "\u55f2\u56e1\u56e1",
        "href": "http://d.duotuwang.com/2018/07/25/9393/",
        "count": 40,
        "start": 1,
        "hasMtTag": 1,
        "hasJgTag": 1,
        "mtCount": 5,
        "jgCount": 61
    }
]