[
    {
        "name": "[YouMei]\u5c24\u7f8e No.022 \u7b71\u6167 \u6f14\u7ece\u4f73\u4eba\u5982\u68d5\u82cd\u7eff\u5916\u8868\u8bf1\u4eba\u8eab\u6bb5",
        "src": "http://d.duotuwang.com/2018/06/19/10480/0.jpg",
        "mtId": "c739b89a0b9c02a0",
        "mtName": "\u7b71\u6167",
        "jgId": "youmei",
        "jgName": "\u5c24\u7f8e\u7f51",
        "href": "http://d.duotuwang.com/2018/06/19/10480/",
        "count": 19,
        "start": 1,
        "hasMtTag": 1,
        "hasJgTag": 1,
        "mtCount": 17,
        "jgCount": 47
    },
    {
        "name": "[YOUMI]\u5c24\u871c\u835f VOL.176 \u7b71\u6167icon",
        "src": "http://d.duotuwang.com/2018/06/15/9162/0.jpg",
        "mtId": "c739b89a0b9c02a0",
        "mtName": "\u7b71\u6167icon",
        "jgId": "youmi",
        "jgName": "\u5c24\u871c\u835f",
        "href": "http://d.duotuwang.com/2018/06/15/9162/",
        "count": 47,
        "start": 1,
        "hasMtTag": 1,
        "hasJgTag": 1,
        "mtCount": 17,
        "jgCount": 143
    },
    {
        "name": "[YouMei]\u5c24\u7f8e No.019 \u7b71\u6167 \u6e05\u9187\u5c24\u7269\u7ea2\u9ed1\u5fb7\u56fd\u6218\u8f66",
        "src": "http://d.duotuwang.com/2018/06/14/10477/0.jpg",
        "mtId": "c739b89a0b9c02a0",
        "mtName": "\u7b71\u6167",
        "jgId": "youmei",
        "jgName": "\u5c24\u7f8e\u7f51",
        "href": "http://d.duotuwang.com/2018/06/14/10477/",
        "count": 12,
        "start": 1,
        "hasMtTag": 1,
        "hasJgTag": 1,
        "mtCount": 17,
        "jgCount": 47
    },
    {
        "name": "[DKGirl]DK\u5fa1\u5973\u90ce VOL.073 \u7b71\u6167icon",
        "src": "http://d.duotuwang.com/2018/06/08/9114/0.jpg",
        "mtId": "c739b89a0b9c02a0",
        "mtName": "\u7b71\u6167icon",
        "jgId": "dkgirl",
        "jgName": "DK\u5fa1\u5973\u90ce",
        "href": "http://d.duotuwang.com/2018/06/08/9114/",
        "count": 47,
        "start": 1,
        "hasMtTag": 1,
        "hasJgTag": 1,
        "mtCount": 17,
        "jgCount": 20
    },
    {
        "name": "[YOUMI]\u5c24\u871c\u835f VOL.170 \u7b71\u6167icon",
        "src": "http://d.duotuwang.com/2018/06/05/9101/0.jpg",
        "mtId": "c739b89a0b9c02a0",
        "mtName": "\u7b71\u6167icon",
        "jgId": "youmi",
        "jgName": "\u5c24\u871c\u835f",
        "href": "http://d.duotuwang.com/2018/06/05/9101/",
        "count": 39,
        "start": 1,
        "hasMtTag": 1,
        "hasJgTag": 1,
        "mtCount": 17,
        "jgCount": 143
    },
    {
        "name": "[YOUMI]\u5c24\u871c\u835f VOL.159 \u7b71\u6167icon",
        "src": "http://d.duotuwang.com/2018/05/10/8806/0.jpg",
        "mtId": "c739b89a0b9c02a0",
        "mtName": "\u7b71\u6167icon",
        "jgId": "youmi",
        "jgName": "\u5c24\u871c\u835f",
        "href": "http://d.duotuwang.com/2018/05/10/8806/",
        "count": 50,
        "start": 1,
        "hasMtTag": 1,
        "hasJgTag": 1,
        "mtCount": 17,
        "jgCount": 143
    }
]