[
    {
        "name": "[toutiaogirls]\u5934\u6761\u5973\u795e 2017-04-29 \u7b71\u6167",
        "src": "http://d.duotuwang.com/2017/04/29/3790/0.jpg",
        "mtId": "c739b89a0b9c02a0",
        "mtName": "\u7b71\u6167",
        "jgId": "toutiaogirls",
        "jgName": "\u5934\u6761\u5973\u795e",
        "href": "http://d.duotuwang.com/2017/04/29/3790/",
        "count": 18,
        "start": 1,
        "hasMtTag": 1,
        "hasJgTag": 1,
        "mtCount": 17,
        "jgCount": 133
    }
]