[
    {
        "name": "[MiStar]\u9b45\u598d\u793e VOL.061 \u65af\u6234\u5a9bAmy",
        "src": "http://d.duotuwang.com/2016/02/07/1238/0.jpg",
        "mtId": "418aad63b6ed8a7e",
        "mtName": "\u65af\u6234\u5a9bAmy",
        "jgId": "mistar",
        "jgName": "\u9b45\u598d\u793e",
        "href": "http://d.duotuwang.com/2016/02/07/1238/",
        "count": 60,
        "start": 1,
        "hasMtTag": 1,
        "hasJgTag": 1,
        "mtCount": 1,
        "jgCount": 55
    },
    {
        "name": "[MiStar]\u9b45\u598d\u793e Vol.013 \u65af\u6234\u5a9bAmy",
        "src": "http://d.duotuwang.com/2015/05/21/768/0.jpg",
        "mtId": "418aad63b6ed8a7e",
        "mtName": "\u65af\u6234\u5a9bAmy",
        "jgId": "mistar",
        "jgName": "\u9b45\u598d\u793e",
        "href": "http://d.duotuwang.com/2015/05/21/768/",
        "count": 60,
        "start": 1,
        "hasMtTag": 1,
        "hasJgTag": 1,
        "mtCount": 1,
        "jgCount": 55
    },
    {
        "name": "[MiStar]\u9b45\u598d\u793e Vol.005 \u65af\u6234\u5a9bAmy",
        "src": "http://d.duotuwang.com/2015/03/20/699/0.jpg",
        "mtId": "418aad63b6ed8a7e",
        "mtName": "\u65af\u6234\u5a9bAmy",
        "jgId": "mistar",
        "jgName": "\u9b45\u598d\u793e",
        "href": "http://d.duotuwang.com/2015/03/20/699/",
        "count": 61,
        "start": 1,
        "hasMtTag": 1,
        "hasJgTag": 1,
        "mtCount": 1,
        "jgCount": 55
    }
]