[
    {
        "name": "[YouMei]\u5c24\u7f8e No.016 \u8c22\u82b7\u99a8 \u5de8\u81c0\u5996\u7cbe \u591a\u5f69\u7684\u897f\u73ed\u7259\u7403\u670d",
        "src": "http://d.duotuwang.com/2018/06/13/10474/0.jpg",
        "mtId": "c380654937426211",
        "mtName": "\u8c22\u82b7\u99a8",
        "jgId": "youmei",
        "jgName": "\u5c24\u7f8e\u7f51",
        "href": "http://d.duotuwang.com/2018/06/13/10474/",
        "count": 24,
        "start": 1,
        "hasMtTag": 1,
        "hasJgTag": 1,
        "mtCount": 5,
        "jgCount": 47
    },
    {
        "name": "[IMISS]\u7231\u871c\u793e VOL.230 \u8c22\u82b7\u99a8Sindy",
        "src": "http://d.duotuwang.com/2018/04/23/8695/0.jpg",
        "mtId": "c380654937426211",
        "mtName": "\u8c22\u82b7\u99a8Sindy",
        "jgId": "imiss",
        "jgName": "\u7231\u871c\u793e",
        "href": "http://d.duotuwang.com/2018/04/23/8695/",
        "count": 50,
        "start": 1,
        "hasMtTag": 1,
        "hasJgTag": 1,
        "mtCount": 5,
        "jgCount": 116
    },
    {
        "name": "[MiStar]\u9b45\u598d\u793e VOL.217 \u8c22\u82b7\u99a8Sindy",
        "src": "http://d.duotuwang.com/2018/03/22/8497/0.jpg",
        "mtId": "c380654937426211",
        "mtName": "\u8c22\u82b7\u99a8Sindy",
        "jgId": "mistar",
        "jgName": "\u9b45\u598d\u793e",
        "href": "http://d.duotuwang.com/2018/03/22/8497/",
        "count": 40,
        "start": 1,
        "hasMtTag": 1,
        "hasJgTag": 1,
        "mtCount": 5,
        "jgCount": 55
    },
    {
        "name": "[HuaYan]\u82b1\u306e\u989c VOL.055 \u8c22\u82b7\u99a8Sindy",
        "src": "http://d.duotuwang.com/2018/02/11/8269/0.jpg",
        "mtId": "c380654937426211",
        "mtName": "\u8c22\u82b7\u99a8Sindy",
        "jgId": "huayan",
        "jgName": "\u82b1\u306e\u989c",
        "href": "http://d.duotuwang.com/2018/02/11/8269/",
        "count": 40,
        "start": 1,
        "hasMtTag": 1,
        "hasJgTag": 1,
        "mtCount": 5,
        "jgCount": 13
    },
    {
        "name": "[MiStar]\u9b45\u598d\u793e VOL.210 \u8c22\u82b7\u99a8Sindy",
        "src": "http://d.duotuwang.com/2018/02/05/8215/0.jpg",
        "mtId": "c380654937426211",
        "mtName": "\u8c22\u82b7\u99a8Sindy",
        "jgId": "mistar",
        "jgName": "\u9b45\u598d\u793e",
        "href": "http://d.duotuwang.com/2018/02/05/8215/",
        "count": 43,
        "start": 1,
        "hasMtTag": 1,
        "hasJgTag": 1,
        "mtCount": 5,
        "jgCount": 55
    },
    {
        "name": "[IMISS]\u7231\u871c\u793e VOL.214 \u8c22\u82b7\u99a8Sindy",
        "src": "http://d.duotuwang.com/2018/02/02/8220/0.jpg",
        "mtId": "c380654937426211",
        "mtName": "\u8c22\u82b7\u99a8Sindy",
        "jgId": "imiss",
        "jgName": "\u7231\u871c\u793e",
        "href": "http://d.duotuwang.com/2018/02/02/8220/",
        "count": 38,
        "start": 1,
        "hasMtTag": 1,
        "hasJgTag": 1,
        "mtCount": 5,
        "jgCount": 116
    }
]