[
    {
        "name": "[IMISS]\u7231\u871c\u793e VOL.341 \u8bb8\u8bfaSabrina",
        "src": "http://d.duotuwang.com/2019/05/15/16501/0.jpg",
        "mtId": "e0dff1632aae7d02",
        "mtName": "\u8bb8\u8bfaSabrina",
        "jgId": "imiss",
        "jgName": "\u7231\u871c\u793e",
        "href": "http://d.duotuwang.com/2019/05/15/16501/",
        "count": 39,
        "start": 1,
        "hasMtTag": 1,
        "hasJgTag": 1,
        "mtCount": 11,
        "jgCount": 116
    },
    {
        "name": "[XIUREN]\u79c0\u4eba\u7f51 No.1267 \u8bb8\u8bfaSabrina",
        "src": "http://d.duotuwang.com/2018/12/14/10155/0.jpg",
        "mtId": "e0dff1632aae7d02",
        "mtName": "\u8bb8\u8bfaSabrina",
        "jgId": "xiuren",
        "jgName": "\u79c0\u4eba\u7f51",
        "href": "http://d.duotuwang.com/2018/12/14/10155/",
        "count": 44,
        "start": 1,
        "hasMtTag": 1,
        "hasJgTag": 1,
        "mtCount": 11,
        "jgCount": 750
    },
    {
        "name": "[HuaYan]\u82b1\u306e\u989c VOL.056 \u8bb8\u8bfaSabrina",
        "src": "http://d.duotuwang.com/2018/11/15/9966/0.jpg",
        "mtId": "e0dff1632aae7d02",
        "mtName": "\u8bb8\u8bfaSabrina",
        "jgId": "huayan",
        "jgName": "\u82b1\u306e\u989c",
        "href": "http://d.duotuwang.com/2018/11/15/9966/",
        "count": 34,
        "start": 1,
        "hasMtTag": 1,
        "hasJgTag": 1,
        "mtCount": 11,
        "jgCount": 13
    },
    {
        "name": "[IMISS]\u7231\u871c\u793e VOL.294 \u8bb8\u8bfaSabrina",
        "src": "http://d.duotuwang.com/2018/09/28/9755/0.jpg",
        "mtId": "e0dff1632aae7d02",
        "mtName": "\u8bb8\u8bfaSabrina",
        "jgId": "imiss",
        "jgName": "\u7231\u871c\u793e",
        "href": "http://d.duotuwang.com/2018/09/28/9755/",
        "count": 43,
        "start": 1,
        "hasMtTag": 1,
        "hasJgTag": 1,
        "mtCount": 11,
        "jgCount": 116
    },
    {
        "name": "[IMISS]\u7231\u871c\u793e VOL.277 \u8bb8\u8bfaSabrina",
        "src": "http://d.duotuwang.com/2018/08/15/9511/0.jpg",
        "mtId": "e0dff1632aae7d02",
        "mtName": "\u8bb8\u8bfaSabrina",
        "jgId": "imiss",
        "jgName": "\u7231\u871c\u793e",
        "href": "http://d.duotuwang.com/2018/08/15/9511/",
        "count": 42,
        "start": 1,
        "hasMtTag": 1,
        "hasJgTag": 1,
        "mtCount": 11,
        "jgCount": 116
    },
    {
        "name": "[IMISS]\u7231\u871c\u793e VOL.272 \u8bb8\u8bfaSabrina",
        "src": "http://d.duotuwang.com/2018/07/31/9424/0.jpg",
        "mtId": "e0dff1632aae7d02",
        "mtName": "\u8bb8\u8bfaSabrina",
        "jgId": "imiss",
        "jgName": "\u7231\u871c\u793e",
        "href": "http://d.duotuwang.com/2018/07/31/9424/",
        "count": 42,
        "start": 1,
        "hasMtTag": 1,
        "hasJgTag": 1,
        "mtCount": 11,
        "jgCount": 116
    }
]