[
    {
        "name": "[MyGirl]\u7f8e\u5a9b\u9986 Vol.077 \u8bb8\u8bfaSabrina",
        "src": "http://d.duotuwang.com/2014/11/16/606/0.jpg",
        "mtId": "e0dff1632aae7d02",
        "mtName": "\u8bb8\u8bfaSabrina",
        "jgId": "mygirl",
        "jgName": "\u7f8e\u5a9b\u9986",
        "href": "http://d.duotuwang.com/2014/11/16/606/",
        "count": 61,
        "start": 1,
        "hasMtTag": 1,
        "hasJgTag": 1,
        "mtCount": 11,
        "jgCount": 110
    },
    {
        "name": "[MyGirl]\u7f8e\u5a9b\u9986 Vol.072 \u8bb8\u8bfaSabrina",
        "src": "http://d.duotuwang.com/2014/11/05/596/0.jpg",
        "mtId": "e0dff1632aae7d02",
        "mtName": "\u8bb8\u8bfaSabrina",
        "jgId": "mygirl",
        "jgName": "\u7f8e\u5a9b\u9986",
        "href": "http://d.duotuwang.com/2014/11/05/596/",
        "count": 74,
        "start": 1,
        "hasMtTag": 1,
        "hasJgTag": 1,
        "mtCount": 11,
        "jgCount": 110
    },
    {
        "name": "[MyGirl]\u7f8e\u5a9b\u9986 Vol.058 \u8bb8\u8bfaSabrina",
        "src": "http://d.duotuwang.com/2014/09/30/569/0.jpg",
        "mtId": "e0dff1632aae7d02",
        "mtName": "\u8bb8\u8bfaSabrina",
        "jgId": "mygirl",
        "jgName": "\u7f8e\u5a9b\u9986",
        "href": "http://d.duotuwang.com/2014/09/30/569/",
        "count": 47,
        "start": 1,
        "hasMtTag": 1,
        "hasJgTag": 1,
        "mtCount": 11,
        "jgCount": 110
    },
    {
        "name": "[MyGirl]\u7f8e\u5a9b\u9986 Vol.053 \u8bb8\u8bfaSabrina",
        "src": "http://d.duotuwang.com/2014/09/18/562/0.jpg",
        "mtId": "e0dff1632aae7d02",
        "mtName": "\u8bb8\u8bfaSabrina",
        "jgId": "mygirl",
        "jgName": "\u7f8e\u5a9b\u9986",
        "href": "http://d.duotuwang.com/2014/09/18/562/",
        "count": 60,
        "start": 1,
        "hasMtTag": 1,
        "hasJgTag": 1,
        "mtCount": 11,
        "jgCount": 110
    },
    {
        "name": "[XIUREN]\u79c0\u4eba\u7f51 No.212 \u8bb8\u8bfaSabrina",
        "src": "http://d.duotuwang.com/2014/09/10/554/0.jpg",
        "mtId": "e0dff1632aae7d02",
        "mtName": "\u8bb8\u8bfaSabrina",
        "jgId": "xiuren",
        "jgName": "\u79c0\u4eba\u7f51",
        "href": "http://d.duotuwang.com/2014/09/10/554/",
        "count": 42,
        "start": 1,
        "hasMtTag": 1,
        "hasJgTag": 1,
        "mtCount": 11,
        "jgCount": 750
    },
    {
        "name": "[MyGirl]\u7f8e\u5a9b\u9986 Vol.039 \u8bb8\u8bfaSabrina",
        "src": "http://d.duotuwang.com/2014/09/03/546/0.jpg",
        "mtId": "e0dff1632aae7d02",
        "mtName": "\u8bb8\u8bfaSabrina",
        "jgId": "mygirl",
        "jgName": "\u7f8e\u5a9b\u9986",
        "href": "http://d.duotuwang.com/2014/09/03/546/",
        "count": 47,
        "start": 1,
        "hasMtTag": 1,
        "hasJgTag": 1,
        "mtCount": 11,
        "jgCount": 110
    }
]