[
    {
        "id": "639298871",
        "title": "\u70ed\u821e\u4e2d\u3010\u53f8\u97f3\u3011",
        "src": "http://v-huya-img2.msstatic.com/screenshot/2202/639298871/99.jpg?x-oss-process=style/460x268&amp;amp;v=53e75a88734bdcf38e4ef43fb2473f1b1641977439",
        "url": "http://videotx-platform.cdn.huya.com/1048585/66971750/34696663/4aa077711526092e1d76d527a12c02de.m3u8?bitrate=2105&client=106&definition=1300&pid=66971750&scene=vod&vid=639298871"
    },
    {
        "id": "638739981",
        "title": "\u70ed\u821e\u4e2d\u3010\u53f8\u97f3\u3011",
        "src": "http://v-huya-img2.msstatic.com/screenshot/2202/638739981/99.jpg?x-oss-process=style/460x268&amp;amp;v=44eceb3f4aa73f994ae0578c240fedca1641907553",
        "url": "http://videobd-platform.cdn.huya.com/1048585/66971750/34670801/951ded0bbedf363db94ea0918e2a4637.m3u8?bitrate=2122&client=106&definition=1300&pid=66971750&scene=vod&vid=638739981"
    },
    {
        "id": "638427599",
        "title": "\u53e4\u98ce\u821e\u8e48\u3010\u53f8\u97f3\u3011",
        "src": "http://v-huya-img2.msstatic.com/screenshot/2202/638427599/99.jpg?x-oss-process=style/460x268&amp;amp;v=48f78b1a0455694e6451f049cb2904791641876501",
        "url": "http://videohw-platform.cdn.huya.com/1048585/66971750/34643169/40c9a0f6f18655001306fb4c26c94ec0.m3u8?bitrate=2105&client=106&definition=1300&pid=66971750&scene=vod&vid=638427599"
    },
    {
        "id": "637248925",
        "title": "\u70ed\u821e\u4e2d\u3010\u53f8\u97f3\u3011",
        "src": "http://v-huya-img2.msstatic.com/screenshot/2201/637248925/99.jpg?x-oss-process=style/460x268&amp;amp;v=6929de47d4604d5cdd7587c40328eae51641733136",
        "url": "http://videohw-platform.cdn.huya.com/1048585/66971750/34587777/ef1cab925d85552255bb6bfe78729537.m3u8?bitrate=2126&client=106&definition=1300&pid=66971750&scene=vod&vid=637248925"
    },
    {
        "id": "637229001",
        "title": "\u70ed\u821e\u4e2d\u3010\u53f8\u97f3\u3011",
        "src": "http://v-huya-img2.msstatic.com/screenshot/2201/637229001/99.jpg?x-oss-process=style/460x268&amp;amp;v=2fd0f23cf5317d3ea390b88c742feb331641731272",
        "url": "http://videohw-platform.cdn.huya.com/1048585/66971750/34586577/78a2683b79037bdf7683256aa6fe8303.m3u8?bitrate=2103&client=106&definition=1300&pid=66971750&scene=vod&vid=637229001"
    },
    {
        "id": "636369371",
        "title": "\u70ed\u821e\u4e2d\u3010\u53f8\u97f3\u3011",
        "src": "http://v-huya-img2.msstatic.com/screenshot/2201/636369371/99.jpg?x-oss-process=style/460x268&amp;amp;v=41db6d38dd6b72c4e22051204d87f41d1641630535",
        "url": "http://videobd-platform.cdn.huya.com/1048585/66971750/34545015/3915e9e115835f43146cac0a8b827755.m3u8?bitrate=2137&client=106&definition=1300&pid=66971750&scene=vod&vid=636369371"
    },
    {
        "id": "636368689",
        "title": "\u70ed\u821e\u4e2d\u3010\u53f8\u97f3\u3011",
        "src": "http://v-huya-img2.msstatic.com/screenshot/2201/636368689/99.jpg?x-oss-process=style/460x268&amp;amp;v=452a1b1dcd8bed87120a4a8fc4088ab31641630452",
        "url": "http://videobd-platform.cdn.huya.com/1048585/66971750/34544989/e622eeafef616cf88a7e9575b83d1f02.m3u8?bitrate=2152&client=106&definition=1300&pid=66971750&scene=vod&vid=636368689"
    },
    {
        "id": "570064839",
        "title": "\u6211\u53ef\u4ee5\u505a\u4f60\u7684\u5c0f\u732b\u54aa\u5417\uff1f\u55b5~~",
        "src": "https://v-huya-img2.msstatic.com/screenshot/2135/570064839/4.jpg?x-oss-process=style/460x268",
        "url": "http://huya-w10.huya.com/2135/570064839/1300/0f21846a199e6d34faafb5cb8bba604a.m3u8?bitrate=1310&client=93&definition=1300&pid=66971750&scene=vod&vid=570064839"
    },
    {
        "id": "551380703",
        "title": "\u300a\u8bd7\u753b\u300b\u4eba\u751f\u82e5\u53ea\u5982\u521d\u89c1\uff0c\u4f55\u4e8b\u79cb\u98ce\u60b2\u753b\u6247",
        "src": "https://v-huya-img2.msstatic.com/screenshot/2131/551380703/100.jpg?x-oss-process=style/460x268",
        "url": "http://videotx-platform.cdn.huya.com/1048585/66971750/26040233/abcb5a17045651d7a2b957f63b5b247b.m3u8?bitrate=2016&client=106&definition=1300&pid=66971750&scene=vod&vid=551380703"
    },
    {
        "id": "538543983",
        "title": "\u4e00\u66f2\u300a\u534e\u4f57\u5728\u300b\u5e0c\u671b\u60a8\u80fd\u559c\u6b22",
        "src": "https://v-huya-img2.msstatic.com/screenshot/2128/538543983/4.jpg?x-oss-process=style/460x268",
        "url": "http://videohw-platform.cdn.huya.com/1048585/66971750/25081877/fcda4396d7175c501fe74d35d57b828a.m3u8?bitrate=1313&client=106&definition=1300&pid=66971750&scene=vod&vid=538543983"
    },
    {
        "id": "537462697",
        "title": "\u3010\u53f8\u97f3\u3011\u5c0f\u4ed9\u5973\uff0c\u300a\u98ce\u7b5d\u8bef\u300b\u5531\u8df3\u5408\u4e00",
        "src": "http://v-huya-img2.msstatic.com/screenshot/2127/537462697/1.jpg?x-oss-process=style/460x268",
        "url": "http://videohw-platform.cdn.huya.com/1048585/66971750/24997355/9fdfdc253d1403395d6cfcdbc90dbac8.m3u8?bitrate=1311&client=106&definition=1300&pid=66971750&scene=vod&vid=537462697"
    },
    {
        "id": "493957169",
        "title": "\u8fd9\u662f\u4f60\u8981\u7684\u5f02\u57df\u98ce\u60c5\u5417\uff1f",
        "src": "http://v-huya-img.huya.com/2116/493957169/99-460x268.jpg",
        "url": "http://huya-w10.huya.com/2116/493957169/1300/cea31ba1c2eca694a5f6b0a420809328.m3u8?bitrate=1047&client=22&definition=1300&pid=66971750&scene=vod&vid=493957169"
    },
    {
        "id": "454724701",
        "title": "\u4f60\u80fd\u7406\u89e3\u5973\u751f\u7684\u8ff7\u60d1\u884c\u4e3a\u5417\uff1f",
        "src": "http://v-huya-img.huya.com/2105/454724701/99-460x268.jpg",
        "url": "http://huya-w20.huya.com/2105/454724701/1300/5a94c783af648ec089507d1d26709bb6.m3u8?bitrate=1246&client=22&definition=1300&pid=66971750&scene=vod&vid=454724701"
    }
]