[
    {
        "name": "[XIUREN]\u79c0\u4eba\u7f51 No.1094 \u827e\u6817\u6817\u6817\u6817\u6817\u6817\u5416",
        "src": "http://d.duotuwang.com/2018/07/24/9399/0.jpg",
        "mtId": "b4581a982e96eae7",
        "mtName": "\u827e\u6817\u6817\u6817\u6817\u6817\u6817\u5416",
        "jgId": "xiuren",
        "jgName": "\u79c0\u4eba\u7f51",
        "href": "http://d.duotuwang.com/2018/07/24/9399/",
        "count": 50,
        "start": 1,
        "hasMtTag": 1,
        "hasJgTag": 1,
        "mtCount": 3,
        "jgCount": 750
    },
    {
        "name": "[HuaYang]\u82b1\u6f3eshow VOL.056 \u827e\u6817\u6817\u6817\u6817\u6817\u6817\u5416",
        "src": "http://d.duotuwang.com/2018/07/05/9269/0.jpg",
        "mtId": "b4581a982e96eae7",
        "mtName": "\u827e\u6817\u6817\u6817\u6817\u6817\u6817\u5416",
        "jgId": "huayang",
        "jgName": "\u82b1\u6f3eshow",
        "href": "http://d.duotuwang.com/2018/07/05/9269/",
        "count": 40,
        "start": 1,
        "hasMtTag": 1,
        "hasJgTag": 1,
        "mtCount": 3,
        "jgCount": 86
    },
    {
        "name": "[XIUREN]\u79c0\u4eba\u7f51 No.1057 \u827e\u6817\u6817\u6817\u6817\u6817\u6817\u5416",
        "src": "http://d.duotuwang.com/2018/06/28/9247/0.jpg",
        "mtId": "b4581a982e96eae7",
        "mtName": "\u827e\u6817\u6817\u6817\u6817\u6817\u6817\u5416",
        "jgId": "xiuren",
        "jgName": "\u79c0\u4eba\u7f51",
        "href": "http://d.duotuwang.com/2018/06/28/9247/",
        "count": 48,
        "start": 1,
        "hasMtTag": 1,
        "hasJgTag": 1,
        "mtCount": 3,
        "jgCount": 750
    },
    {
        "name": "[XIUREN]\u79c0\u4eba\u7f51 No.1026 \u827e\u6817\u6817\u6817\u6817\u6817\u6817\u5416",
        "src": "http://d.duotuwang.com/2018/05/24/8851/0.jpg",
        "mtId": "b4581a982e96eae7",
        "mtName": "\u827e\u6817\u6817\u6817\u6817\u6817\u6817\u5416",
        "jgId": "xiuren",
        "jgName": "\u79c0\u4eba\u7f51",
        "href": "http://d.duotuwang.com/2018/05/24/8851/",
        "count": 42,
        "start": 1,
        "hasMtTag": 1,
        "hasJgTag": 1,
        "mtCount": 3,
        "jgCount": 750
    },
    {
        "name": "[XIUREN]\u79c0\u4eba\u7f51 No.1014 \u827e\u6817\u6817\u6817\u6817\u6817\u6817\u5416",
        "src": "http://d.duotuwang.com/2018/05/14/8799/0.jpg",
        "mtId": "b4581a982e96eae7",
        "mtName": "\u827e\u6817\u6817\u6817\u6817\u6817\u6817\u5416",
        "jgId": "xiuren",
        "jgName": "\u79c0\u4eba\u7f51",
        "href": "http://d.duotuwang.com/2018/05/14/8799/",
        "count": 46,
        "start": 1,
        "hasMtTag": 1,
        "hasJgTag": 1,
        "mtCount": 3,
        "jgCount": 750
    },
    {
        "name": "[XIUREN]\u79c0\u4eba\u7f51 No.996 \u827e\u6817\u6817\u6817\u6817\u6817\u6817\u5416",
        "src": "http://d.duotuwang.com/2018/04/27/8715/0.jpg",
        "mtId": "b4581a982e96eae7",
        "mtName": "\u827e\u6817\u6817\u6817\u6817\u6817\u6817\u5416",
        "jgId": "xiuren",
        "jgName": "\u79c0\u4eba\u7f51",
        "href": "http://d.duotuwang.com/2018/04/27/8715/",
        "count": 43,
        "start": 1,
        "hasMtTag": 1,
        "hasJgTag": 1,
        "mtCount": 3,
        "jgCount": 750
    }
]