[
    {
        "name": "[XIUREN]\u79c0\u4eba\u7f51 No.5572 \u5976\u74f6\u571f\u80a5\u5706\u77ee\u632b\u4e11\u9ed1\u7a77",
        "src": "http://d.duotuwang.com/2022/09/09/31320/0.jpg",
        "mtId": "2fd18d00d5f9689f",
        "mtName": "\u571f\u80a5\u5706\u77ee\u632b\u7a77",
        "jgId": "xiuren",
        "jgName": "\u79c0\u4eba\u7f51",
        "href": "http://d.duotuwang.com/2022/09/09/31320/",
        "count": 66,
        "start": 1,
        "hasMtTag": 1,
        "hasJgTag": 1,
        "mtCount": 23,
        "jgCount": 750
    },
    {
        "name": "[YOUMI]\u5c24\u871c\u835f VOL.838 \u5976\u74f6\u571f\u80a5\u5706\u77ee\u632b\u4e11\u9ed1\u7a77",
        "src": "http://d.duotuwang.com/2022/09/02/31196/0.jpg",
        "mtId": "2fd18d00d5f9689f",
        "mtName": "\u571f\u80a5\u5706\u77ee\u632b\u7a77",
        "jgId": "youmi",
        "jgName": "\u5c24\u871c\u835f",
        "href": "http://d.duotuwang.com/2022/09/02/31196/",
        "count": 89,
        "start": 1,
        "hasMtTag": 1,
        "hasJgTag": 1,
        "mtCount": 23,
        "jgCount": 143
    },
    {
        "name": "[XIUREN]\u79c0\u4eba\u7f51 No.5502 \u5976\u74f6\u571f\u80a5\u5706\u77ee\u632b\u4e11\u9ed1\u7a77",
        "src": "http://d.duotuwang.com/2022/08/26/31138/0.jpg",
        "mtId": "2fd18d00d5f9689f",
        "mtName": "\u571f\u80a5\u5706\u77ee\u632b\u7a77",
        "jgId": "xiuren",
        "jgName": "\u79c0\u4eba\u7f51",
        "href": "http://d.duotuwang.com/2022/08/26/31138/",
        "count": 70,
        "start": 1,
        "hasMtTag": 1,
        "hasJgTag": 1,
        "mtCount": 23,
        "jgCount": 750
    },
    {
        "name": "[YOUMI]\u5c24\u871c\u835f VOL.832 \u5976\u74f6\u571f\u80a5\u5706\u77ee\u632b\u4e11\u9ed1\u7a77",
        "src": "http://d.duotuwang.com/2022/08/19/31057/0.jpg",
        "mtId": "2fd18d00d5f9689f",
        "mtName": "\u571f\u80a5\u5706\u77ee\u632b\u7a77",
        "jgId": "youmi",
        "jgName": "\u5c24\u871c\u835f",
        "href": "http://d.duotuwang.com/2022/08/19/31057/",
        "count": 99,
        "start": 1,
        "hasMtTag": 1,
        "hasJgTag": 1,
        "mtCount": 23,
        "jgCount": 143
    },
    {
        "name": "[YOUMI]\u5c24\u871c\u835f VOL.828 Carol\u5c0f\u80a5\u83b9",
        "src": "http://d.duotuwang.com/2022/08/12/31053/0.jpg",
        "mtId": "2fd18d00d5f9689f",
        "mtName": "Carol\u5c0f\u80a5\u83b9",
        "jgId": "youmi",
        "jgName": "\u5c24\u871c\u835f",
        "href": "http://d.duotuwang.com/2022/08/12/31053/",
        "count": 73,
        "start": 1,
        "hasMtTag": 1,
        "hasJgTag": 1,
        "mtCount": 23,
        "jgCount": 143
    },
    {
        "name": "[XIUREN]\u79c0\u4eba\u7f51 No.5411 Carol\u5c0f\u80a5\u83b9",
        "src": "http://d.duotuwang.com/2022/08/09/30904/0.jpg",
        "mtId": "2fd18d00d5f9689f",
        "mtName": "Carol\u5c0f\u80a5\u83b9",
        "jgId": "xiuren",
        "jgName": "\u79c0\u4eba\u7f51",
        "href": "http://d.duotuwang.com/2022/08/09/30904/",
        "count": 64,
        "start": 1,
        "hasMtTag": 1,
        "hasJgTag": 1,
        "mtCount": 23,
        "jgCount": 750
    }
]