[
    {
        "name": "[YOUMI]\u5c24\u871c\u835f VOL.230 \u5976\u74f6\u571f\u80a5\u5706",
        "src": "http://d.duotuwang.com/2018/10/31/9907/0.jpg",
        "mtId": "2fd18d00d5f9689f",
        "mtName": "\u5468\u598d\u5e0c",
        "jgId": "youmi",
        "jgName": "\u5c24\u871c\u835f",
        "href": "http://d.duotuwang.com/2018/10/31/9907/",
        "count": 43,
        "start": 1,
        "hasMtTag": 1,
        "hasJgTag": 1,
        "mtCount": 23,
        "jgCount": 143
    },
    {
        "name": "[YOUMI]\u5c24\u871c\u835f VOL.223 \u5976\u74f6\u571f\u80a5\u5706",
        "src": "http://d.duotuwang.com/2018/10/12/9780/0.jpg",
        "mtId": "2fd18d00d5f9689f",
        "mtName": "\u5468\u598d\u5e0c",
        "jgId": "youmi",
        "jgName": "\u5c24\u871c\u835f",
        "href": "http://d.duotuwang.com/2018/10/12/9780/",
        "count": 48,
        "start": 1,
        "hasMtTag": 1,
        "hasJgTag": 1,
        "mtCount": 23,
        "jgCount": 143
    },
    {
        "name": "[YOUMI]\u5c24\u871c\u835f VOL.217 \u5976\u74f6\u571f\u80a5\u5706",
        "src": "http://d.duotuwang.com/2018/09/25/9711/0.jpg",
        "mtId": "2fd18d00d5f9689f",
        "mtName": "\u5468\u598d\u5e0c",
        "jgId": "youmi",
        "jgName": "\u5c24\u871c\u835f",
        "href": "http://d.duotuwang.com/2018/09/25/9711/",
        "count": 46,
        "start": 1,
        "hasMtTag": 1,
        "hasJgTag": 1,
        "mtCount": 23,
        "jgCount": 143
    },
    {
        "name": "[YOUMI]\u5c24\u871c\u835f VOL.213 \u5976\u74f6\u571f\u80a5\u5706",
        "src": "http://d.duotuwang.com/2018/09/14/9664/0.jpg",
        "mtId": "2fd18d00d5f9689f",
        "mtName": "\u5468\u598d\u5e0c",
        "jgId": "youmi",
        "jgName": "\u5c24\u871c\u835f",
        "href": "http://d.duotuwang.com/2018/09/14/9664/",
        "count": 49,
        "start": 1,
        "hasMtTag": 1,
        "hasJgTag": 1,
        "mtCount": 23,
        "jgCount": 143
    },
    {
        "name": "[YOUMI]\u5c24\u871c\u835f VOL.208 \u5976\u74f6\u571f\u80a5\u5706",
        "src": "http://d.duotuwang.com/2018/09/06/9644/0.jpg",
        "mtId": "2fd18d00d5f9689f",
        "mtName": "\u5468\u598d\u5e0c",
        "jgId": "youmi",
        "jgName": "\u5c24\u871c\u835f",
        "href": "http://d.duotuwang.com/2018/09/06/9644/",
        "count": 44,
        "start": 1,
        "hasMtTag": 1,
        "hasJgTag": 1,
        "mtCount": 23,
        "jgCount": 143
    },
    {
        "name": "[YOUMI]\u5c24\u871c\u835f VOL.204 \u5976\u74f6\u571f\u80a5\u5706",
        "src": "http://d.duotuwang.com/2018/08/29/9595/0.jpg",
        "mtId": "2fd18d00d5f9689f",
        "mtName": "\u5468\u598d\u5e0c",
        "jgId": "youmi",
        "jgName": "\u5c24\u871c\u835f",
        "href": "http://d.duotuwang.com/2018/08/29/9595/",
        "count": 49,
        "start": 1,
        "hasMtTag": 1,
        "hasJgTag": 1,
        "mtCount": 23,
        "jgCount": 143
    }
]