[
    {
        "name": "[QingDouKe]\u9752\u8c46\u5ba2 2017-07-26 \u571f\u80a5\u5706\u77ee\u632b\u7a77",
        "src": "http://d.duotuwang.com/2017/07/26/5361/0.jpg",
        "mtId": "2fd18d00d5f9689f",
        "mtName": "\u571f\u80a5\u5706\u77ee\u632b\u7a77",
        "jgId": "qingdouke",
        "jgName": "\u9752\u8c46\u5ba2",
        "href": "http://d.duotuwang.com/2017/07/26/5361/",
        "count": 48,
        "start": 1,
        "hasMtTag": 1,
        "hasJgTag": 1,
        "mtCount": 23,
        "jgCount": 23
    },
    {
        "name": "[YOUMI]\u5c24\u871c\u835f VOL.058 \u571f\u80a5\u5706\u77ee\u632b\u7a77",
        "src": "http://d.duotuwang.com/2017/07/24/5240/0.jpg",
        "mtId": "2fd18d00d5f9689f",
        "mtName": "\u571f\u80a5\u5706\u77ee\u632b\u7a77",
        "jgId": "youmi",
        "jgName": "\u5c24\u871c\u835f",
        "href": "http://d.duotuwang.com/2017/07/24/5240/",
        "count": 45,
        "start": 1,
        "hasMtTag": 1,
        "hasJgTag": 1,
        "mtCount": 23,
        "jgCount": 143
    },
    {
        "name": "[YOUMI]\u5c24\u871c\u835f VOL.055 \u571f\u80a5\u5706\u77ee\u632b\u7a77",
        "src": "http://d.duotuwang.com/2017/07/11/5236/0.jpg",
        "mtId": "2fd18d00d5f9689f",
        "mtName": "\u571f\u80a5\u5706\u77ee\u632b\u7a77",
        "jgId": "youmi",
        "jgName": "\u5c24\u871c\u835f",
        "href": "http://d.duotuwang.com/2017/07/11/5236/",
        "count": 43,
        "start": 1,
        "hasMtTag": 1,
        "hasJgTag": 1,
        "mtCount": 23,
        "jgCount": 143
    },
    {
        "name": "[YOUMI]\u5c24\u871c\u835f VOL.052 \u571f\u80a5\u5706\u77ee\u632b\u7a77",
        "src": "http://d.duotuwang.com/2017/06/29/4221/0.jpg",
        "mtId": "2fd18d00d5f9689f",
        "mtName": "\u571f\u80a5\u5706\u77ee\u632b\u7a77",
        "jgId": "youmi",
        "jgName": "\u5c24\u871c\u835f",
        "href": "http://d.duotuwang.com/2017/06/29/4221/",
        "count": 40,
        "start": 1,
        "hasMtTag": 1,
        "hasJgTag": 1,
        "mtCount": 23,
        "jgCount": 143
    },
    {
        "name": "[MICAT]\u732b\u840c\u699c VOL.015 \u571f\u80a5\u5706\u77ee\u632b\u7a77",
        "src": "http://d.duotuwang.com/2017/06/26/4227/0.jpg",
        "mtId": "2fd18d00d5f9689f",
        "mtName": "\u571f\u80a5\u5706\u77ee\u632b\u7a77",
        "jgId": "micat",
        "jgName": "\u732b\u840c\u699c",
        "href": "http://d.duotuwang.com/2017/06/26/4227/",
        "count": 50,
        "start": 1,
        "hasMtTag": 1,
        "hasJgTag": 1,
        "mtCount": 23,
        "jgCount": 6
    },
    {
        "name": "[MICAT]\u732b\u840c\u699c VOL.008 \u571f\u80a5\u5706\u77ee\u632b\u7a77",
        "src": "http://d.duotuwang.com/2017/06/09/3948/0.jpg",
        "mtId": "2fd18d00d5f9689f",
        "mtName": "\u571f\u80a5\u5706\u77ee\u632b\u7a77",
        "jgId": "micat",
        "jgName": "\u732b\u840c\u699c",
        "href": "http://d.duotuwang.com/2017/06/09/3948/",
        "count": 45,
        "start": 1,
        "hasMtTag": 1,
        "hasJgTag": 1,
        "mtCount": 23,
        "jgCount": 6
    }
]