[
    {
        "name": "[XIUREN]\u79c0\u4eba\u7f51 No.1922 \u5976\u74f6\u571f\u80a5\u5706\u77ee\u632b\u4e11\u9ed1\u7a77",
        "src": "http://d.duotuwang.com/2020/01/10/19276/0.jpg",
        "mtId": "2fd18d00d5f9689f",
        "mtName": "\u571f\u80a5\u5706\u77ee\u632b\u7a77",
        "jgId": "xiuren",
        "jgName": "\u79c0\u4eba\u7f51",
        "href": "http://d.duotuwang.com/2020/01/10/19276/",
        "count": 70,
        "start": 1,
        "hasMtTag": 1,
        "hasJgTag": 1,
        "mtCount": 23,
        "jgCount": 750
    },
    {
        "name": "[XIUREN]\u79c0\u4eba\u7f51 No.1906 \u5976\u74f6\u571f\u80a5\u5706\u77ee\u632b\u4e11\u9ed1\u7a77",
        "src": "http://d.duotuwang.com/2020/01/07/19205/0.jpg",
        "mtId": "2fd18d00d5f9689f",
        "mtName": "\u571f\u80a5\u5706\u77ee\u632b\u7a77",
        "jgId": "xiuren",
        "jgName": "\u79c0\u4eba\u7f51",
        "href": "http://d.duotuwang.com/2020/01/07/19205/",
        "count": 40,
        "start": 1,
        "hasMtTag": 1,
        "hasJgTag": 1,
        "mtCount": 23,
        "jgCount": 750
    },
    {
        "name": "[PDLONE]\u6f58\u591a\u62c9 No.261 \u5976\u74f6\u571f\u80a5\u5706\u77ee\u632b\u4e11\u9ed1\u7a77",
        "src": "http://d.duotuwang.com/2020/01/03/19082/0.jpg",
        "mtId": "2fd18d00d5f9689f",
        "mtName": "\u571f\u80a5\u5706\u77ee\u632b\u7a77",
        "jgId": "pdlone",
        "jgName": "\u6f58\u591a\u62c9",
        "href": "http://d.duotuwang.com/2020/01/03/19082/",
        "count": 50,
        "start": 1,
        "hasMtTag": 1,
        "hasJgTag": 1,
        "mtCount": 23,
        "jgCount": 30
    },
    {
        "name": "[XIUREN]\u79c0\u4eba\u7f51 No.1897 \u5976\u74f6\u571f\u80a5\u5706\u77ee\u632b\u4e11\u9ed1\u7a77",
        "src": "http://d.duotuwang.com/2019/12/31/19123/0.jpg",
        "mtId": "2fd18d00d5f9689f",
        "mtName": "\u571f\u80a5\u5706\u77ee\u632b\u7a77",
        "jgId": "xiuren",
        "jgName": "\u79c0\u4eba\u7f51",
        "href": "http://d.duotuwang.com/2019/12/31/19123/",
        "count": 55,
        "start": 1,
        "hasMtTag": 1,
        "hasJgTag": 1,
        "mtCount": 23,
        "jgCount": 750
    },
    {
        "name": "[YOUMI]\u5c24\u871c\u835f VOL.383 \u5976\u74f6\u571f\u80a5\u5706\u77ee\u632b\u4e11\u9ed1\u7a77",
        "src": "http://d.duotuwang.com/2019/12/06/18791/0.jpg",
        "mtId": "2fd18d00d5f9689f",
        "mtName": "\u571f\u80a5\u5706\u77ee\u632b\u7a77",
        "jgId": "youmi",
        "jgName": "\u5c24\u871c\u835f",
        "href": "http://d.duotuwang.com/2019/12/06/18791/",
        "count": 62,
        "start": 1,
        "hasMtTag": 1,
        "hasJgTag": 1,
        "mtCount": 23,
        "jgCount": 143
    },
    {
        "name": "[XIUREN]\u79c0\u4eba\u7f51 No.1816 \u5976\u74f6\u571f\u80a5\u5706\u77ee\u632b\u4e11\u9ed1\u7a77",
        "src": "http://d.duotuwang.com/2019/11/29/18784/0.jpg",
        "mtId": "2fd18d00d5f9689f",
        "mtName": "\u571f\u80a5\u5706\u77ee\u632b\u7a77",
        "jgId": "xiuren",
        "jgName": "\u79c0\u4eba\u7f51",
        "href": "http://d.duotuwang.com/2019/11/29/18784/",
        "count": 66,
        "start": 1,
        "hasMtTag": 1,
        "hasJgTag": 1,
        "mtCount": 23,
        "jgCount": 750
    }
]