[
    {
        "name": "[XIUREN]\u79c0\u4eba\u7f51 No.1889 \u5468\u4e95\u7a7a",
        "src": "http://d.duotuwang.com/2019/12/29/19102/0.jpg",
        "mtId": "8edba3a7774b8b52",
        "mtName": "\u5468\u4e95\u7a7a",
        "jgId": "xiuren",
        "jgName": "\u79c0\u4eba\u7f51",
        "href": "http://d.duotuwang.com/2019/12/29/19102/",
        "count": 40,
        "start": 1,
        "hasMtTag": 1,
        "hasJgTag": 1,
        "mtCount": 2,
        "jgCount": 750
    },
    {
        "name": "[XIUREN]\u79c0\u4eba\u7f51 No.1835 \u5468\u4e95\u7a7a",
        "src": "http://d.duotuwang.com/2019/12/10/18871/0.jpg",
        "mtId": "8edba3a7774b8b52",
        "mtName": "\u5468\u4e95\u7a7a",
        "jgId": "xiuren",
        "jgName": "\u79c0\u4eba\u7f51",
        "href": "http://d.duotuwang.com/2019/12/10/18871/",
        "count": 40,
        "start": 1,
        "hasMtTag": 1,
        "hasJgTag": 1,
        "mtCount": 2,
        "jgCount": 750
    },
    {
        "name": "[XIUREN]\u79c0\u4eba\u7f51 No.1802 \u5468\u4e95\u7a7a",
        "src": "http://d.duotuwang.com/2019/11/25/18707/0.jpg",
        "mtId": "8edba3a7774b8b52",
        "mtName": "\u5468\u4e95\u7a7a",
        "jgId": "xiuren",
        "jgName": "\u79c0\u4eba\u7f51",
        "href": "http://d.duotuwang.com/2019/11/25/18707/",
        "count": 42,
        "start": 1,
        "hasMtTag": 1,
        "hasJgTag": 1,
        "mtCount": 2,
        "jgCount": 750
    }
]