[
    {
        "name": "[XIUREN]\u79c0\u4eba\u7f51 No.3341 \u5141\u723e",
        "src": "http://d.duotuwang.com/2021/04/25/24970/0.jpg",
        "mtId": "abc6f05a1bc00c01",
        "mtName": "\u5141\u723e",
        "jgId": "xiuren",
        "jgName": "\u79c0\u4eba\u7f51",
        "href": "http://d.duotuwang.com/2021/04/25/24970/",
        "count": 60,
        "start": 1,
        "hasMtTag": 1,
        "hasJgTag": 1,
        "mtCount": 18,
        "jgCount": 750
    },
    {
        "name": "[HuaYang]\u82b1\u6f3eshow VOL.392 \u5141\u723e",
        "src": "http://d.duotuwang.com/2021/04/21/24824/0.jpg",
        "mtId": "abc6f05a1bc00c01",
        "mtName": "\u5141\u723e",
        "jgId": "huayang",
        "jgName": "\u82b1\u6f3eshow",
        "href": "http://d.duotuwang.com/2021/04/21/24824/",
        "count": 45,
        "start": 1,
        "hasMtTag": 1,
        "hasJgTag": 1,
        "mtCount": 18,
        "jgCount": 86
    },
    {
        "name": "[YOUMI]\u5c24\u871c\u835f VOL.631 \u5141\u723e",
        "src": "http://d.duotuwang.com/2021/04/19/24880/0.jpg",
        "mtId": "abc6f05a1bc00c01",
        "mtName": "\u5141\u723e",
        "jgId": "youmi",
        "jgName": "\u5c24\u871c\u835f",
        "href": "http://d.duotuwang.com/2021/04/19/24880/",
        "count": 76,
        "start": 1,
        "hasMtTag": 1,
        "hasJgTag": 1,
        "mtCount": 18,
        "jgCount": 143
    },
    {
        "name": "[HuaYang]\u82b1\u6f3eshow VOL.388 \u5141\u723e",
        "src": "http://d.duotuwang.com/2021/04/13/24708/0.jpg",
        "mtId": "abc6f05a1bc00c01",
        "mtName": "\u5141\u723e",
        "jgId": "huayang",
        "jgName": "\u82b1\u6f3eshow",
        "href": "http://d.duotuwang.com/2021/04/13/24708/",
        "count": 40,
        "start": 1,
        "hasMtTag": 1,
        "hasJgTag": 1,
        "mtCount": 18,
        "jgCount": 86
    },
    {
        "name": "[XIUREN]\u79c0\u4eba\u7f51 No.3282 \u5141\u723e",
        "src": "http://d.duotuwang.com/2021/04/08/24743/0.jpg",
        "mtId": "abc6f05a1bc00c01",
        "mtName": "\u5141\u723e",
        "jgId": "xiuren",
        "jgName": "\u79c0\u4eba\u7f51",
        "href": "http://d.duotuwang.com/2021/04/08/24743/",
        "count": 59,
        "start": 1,
        "hasMtTag": 1,
        "hasJgTag": 1,
        "mtCount": 18,
        "jgCount": 750
    },
    {
        "name": "[HuaYang]\u82b1\u6f3eshow VOL.381 \u5141\u723e",
        "src": "http://d.duotuwang.com/2021/03/30/24554/0.jpg",
        "mtId": "abc6f05a1bc00c01",
        "mtName": "\u5141\u723e",
        "jgId": "huayang",
        "jgName": "\u82b1\u6f3eshow",
        "href": "http://d.duotuwang.com/2021/03/30/24554/",
        "count": 45,
        "start": 1,
        "hasMtTag": 1,
        "hasJgTag": 1,
        "mtCount": 18,
        "jgCount": 86
    }
]