[
    {
        "name": "[YOUMI]\u5c24\u871c\u835f VOL.723 \u5141\u723e",
        "src": "http://d.duotuwang.com/2021/11/26/27577/0.jpg",
        "mtId": "abc6f05a1bc00c01",
        "mtName": "\u5141\u723e",
        "jgId": "youmi",
        "jgName": "\u5c24\u871c\u835f",
        "href": "http://d.duotuwang.com/2021/11/26/27577/",
        "count": 88,
        "start": 1,
        "hasMtTag": 1,
        "hasJgTag": 1,
        "mtCount": 18,
        "jgCount": 143
    },
    {
        "name": "[HuaYang]\u82b1\u6f3eshow VOL.468 \u5141\u723e",
        "src": "http://d.duotuwang.com/2021/11/23/27404/0.jpg",
        "mtId": "abc6f05a1bc00c01",
        "mtName": "\u5141\u723e",
        "jgId": "huayang",
        "jgName": "\u82b1\u6f3eshow",
        "href": "http://d.duotuwang.com/2021/11/23/27404/",
        "count": 56,
        "start": 1,
        "hasMtTag": 1,
        "hasJgTag": 1,
        "mtCount": 18,
        "jgCount": 86
    },
    {
        "name": "[XIUREN]\u79c0\u4eba\u7f51 No.4243 \u5141\u723e",
        "src": "http://d.duotuwang.com/2021/11/19/27452/0.jpg",
        "mtId": "abc6f05a1bc00c01",
        "mtName": "\u5141\u723e",
        "jgId": "xiuren",
        "jgName": "\u79c0\u4eba\u7f51",
        "href": "http://d.duotuwang.com/2021/11/19/27452/",
        "count": 63,
        "start": 1,
        "hasMtTag": 1,
        "hasJgTag": 1,
        "mtCount": 18,
        "jgCount": 750
    },
    {
        "name": "[HuaYang]\u82b1\u6f3eshow VOL.464 \u5141\u723e",
        "src": "http://d.duotuwang.com/2021/11/16/27266/0.jpg",
        "mtId": "abc6f05a1bc00c01",
        "mtName": "\u5141\u723e",
        "jgId": "huayang",
        "jgName": "\u82b1\u6f3eshow",
        "href": "http://d.duotuwang.com/2021/11/16/27266/",
        "count": 51,
        "start": 1,
        "hasMtTag": 1,
        "hasJgTag": 1,
        "mtCount": 18,
        "jgCount": 86
    },
    {
        "name": "[XIUREN]\u79c0\u4eba\u7f51 No.4209 \u738b\u96e8\u7eaf&\u5141\u723e",
        "src": "http://d.duotuwang.com/2021/11/12/27418/0.jpg",
        "mtId": "6a5d00e535915ee5",
        "mtName": "\u738b\u96e8\u7eaf",
        "jgId": "xiuren",
        "jgName": "\u79c0\u4eba\u7f51",
        "href": "http://d.duotuwang.com/2021/11/12/27418/",
        "count": 90,
        "start": 1,
        "hasMtTag": 1,
        "hasJgTag": 1,
        "mtCount": 60,
        "jgCount": 750
    },
    {
        "name": "[YOUMI]\u5c24\u871c\u835f VOL.716 \u5141\u723e",
        "src": "http://d.duotuwang.com/2021/11/10/27289/0.jpg",
        "mtId": "abc6f05a1bc00c01",
        "mtName": "\u5141\u723e",
        "jgId": "youmi",
        "jgName": "\u5c24\u871c\u835f",
        "href": "http://d.duotuwang.com/2021/11/10/27289/",
        "count": 69,
        "start": 1,
        "hasMtTag": 1,
        "hasJgTag": 1,
        "mtCount": 18,
        "jgCount": 143
    }
]