[
    {
        "name": "[UGirls]\u5c24\u679c\u7f51 U277 \u4e8e\u6893\u99a8",
        "src": "http://d.duotuwang.com/2017/06/02/3915/0.jpg",
        "mtId": "f5cd3dc62d215312",
        "mtName": "\u4e8e\u6893\u99a8",
        "jgId": "ugirls",
        "jgName": "\u5c24\u679c\u7f51",
        "href": "http://d.duotuwang.com/2017/06/02/3915/",
        "count": 65,
        "start": 1,
        "hasMtTag": 1,
        "hasJgTag": 1,
        "mtCount": 1,
        "jgCount": 79
    },
    {
        "name": "[UGirlsAPP]\u7231\u5c24\u7269 No.716 \u4e8e\u6893\u99a8",
        "src": "http://d.duotuwang.com/2017/05/05/5071/0.jpg",
        "mtId": "f5cd3dc62d215312",
        "mtName": "\u4e8e\u6893\u99a8",
        "jgId": "ugirlsapp",
        "jgName": "\u7231\u5c24\u7269",
        "href": "http://d.duotuwang.com/2017/05/05/5071/",
        "count": 40,
        "start": 1,
        "hasMtTag": 1,
        "hasJgTag": 1,
        "mtCount": 1,
        "jgCount": 397
    }
]