[
    {
        "name": "[YouMei\u5c24\u7f8e] \u7eef\u6708\u6a31-Cherry \u73ab\u7470\u60c5\u4eba",
        "src": "http://d.duotuwang.com/2019/10/01/18168/0.jpg",
        "mtId": "85e55daf35c53f9e",
        "mtName": "\u7eef\u6708\u6a31-Cherry",
        "jgId": "youmei",
        "jgName": "\u5c24\u7f8e\u7f51",
        "href": "http://d.duotuwang.com/2019/10/01/18168/",
        "count": 46,
        "start": 1,
        "hasMtTag": 1,
        "hasJgTag": 1,
        "mtCount": 26,
        "jgCount": 47
    },
    {
        "name": "[XIUREN]\u79c0\u4eba\u7f51 No.1697 \u7eef\u6708\u6a31-Cherry",
        "src": "http://d.duotuwang.com/2019/09/25/18085/0.jpg",
        "mtId": "85e55daf35c53f9e",
        "mtName": "\u7eef\u6708\u6a31-Cherry",
        "jgId": "xiuren",
        "jgName": "\u79c0\u4eba\u7f51",
        "href": "http://d.duotuwang.com/2019/09/25/18085/",
        "count": 100,
        "start": 1,
        "hasMtTag": 1,
        "hasJgTag": 1,
        "mtCount": 26,
        "jgCount": 750
    },
    {
        "name": "[XIAOYU]\u8bed\u753b\u754c VOL.155 \u7eef\u6708\u6a31-Cherry",
        "src": "http://d.duotuwang.com/2019/09/18/17980/0.jpg",
        "mtId": "85e55daf35c53f9e",
        "mtName": "\u7eef\u6708\u6a31-Cherry",
        "jgId": "xiaoyu",
        "jgName": "\u8bed\u753b\u754c",
        "href": "http://d.duotuwang.com/2019/09/18/17980/",
        "count": 66,
        "start": 1,
        "hasMtTag": 1,
        "hasJgTag": 1,
        "mtCount": 26,
        "jgCount": 155
    },
    {
        "name": "[UGirlsAPP]\u7231\u5c24\u7269 No.1579 \u7eef\u6708\u6a31Cherry \u8c08\u6a31\u8bf4\u7231",
        "src": "http://d.duotuwang.com/2019/09/15/17994/0.jpg",
        "mtId": "85e55daf35c53f9e",
        "mtName": "\u7eef\u6708\u6a31-Cherry",
        "jgId": "ugirlsapp",
        "jgName": "\u7231\u5c24\u7269",
        "href": "http://d.duotuwang.com/2019/09/15/17994/",
        "count": 35,
        "start": 1,
        "hasMtTag": 1,
        "hasJgTag": 1,
        "mtCount": 26,
        "jgCount": 397
    },
    {
        "name": "[XIAOYU]\u8bed\u753b\u754c VOL.147 \u7eef\u6708\u6a31-Cherry",
        "src": "http://d.duotuwang.com/2019/09/05/17863/0.jpg",
        "mtId": "85e55daf35c53f9e",
        "mtName": "\u7eef\u6708\u6a31-Cherry",
        "jgId": "xiaoyu",
        "jgName": "\u8bed\u753b\u754c",
        "href": "http://d.duotuwang.com/2019/09/05/17863/",
        "count": 65,
        "start": 1,
        "hasMtTag": 1,
        "hasJgTag": 1,
        "mtCount": 26,
        "jgCount": 155
    },
    {
        "name": "[XIAOYU]\u8bed\u753b\u754c VOL.133 \u7eef\u6708\u6a31-Cherry",
        "src": "http://d.duotuwang.com/2019/08/15/17683/0.jpg",
        "mtId": "85e55daf35c53f9e",
        "mtName": "\u7eef\u6708\u6a31-Cherry",
        "jgId": "xiaoyu",
        "jgName": "\u8bed\u753b\u754c",
        "href": "http://d.duotuwang.com/2019/08/15/17683/",
        "count": 65,
        "start": 1,
        "hasMtTag": 1,
        "hasJgTag": 1,
        "mtCount": 26,
        "jgCount": 155
    }
]