[
    {
        "name": "[XIUREN]\u79c0\u4eba\u7f51 No.535 Moa\u5c0f\u59d0",
        "src": "http://d.duotuwang.com/2016/06/06/1438/0.jpg",
        "mtId": "ff4c1b7dfb3c2eff",
        "mtName": "Moa\u5c0f\u59d0",
        "jgId": "xiuren",
        "jgName": "\u79c0\u4eba\u7f51",
        "href": "http://d.duotuwang.com/2016/06/06/1438/",
        "count": 55,
        "start": 1,
        "hasMtTag": 1,
        "hasJgTag": 1,
        "mtCount": 1,
        "jgCount": 750
    },
    {
        "name": "[XIUREN]\u79c0\u4eba\u7f51 No.521 Moa\u5c0f\u59d0",
        "src": "http://d.duotuwang.com/2016/05/09/1410/0.jpg",
        "mtId": "ff4c1b7dfb3c2eff",
        "mtName": "Moa\u5c0f\u59d0",
        "jgId": "xiuren",
        "jgName": "\u79c0\u4eba\u7f51",
        "href": "http://d.duotuwang.com/2016/05/09/1410/",
        "count": 63,
        "start": 1,
        "hasMtTag": 1,
        "hasJgTag": 1,
        "mtCount": 1,
        "jgCount": 750
    },
    {
        "name": "[MFStar]\u6a21\u8303\u5b66\u9662 VOL.037 Moa\u5c0f\u59d0",
        "src": "http://d.duotuwang.com/2015/12/09/1149/0.jpg",
        "mtId": "ff4c1b7dfb3c2eff",
        "mtName": "Moa\u5c0f\u59d0",
        "jgId": "mfstar",
        "jgName": "\u6a21\u8303\u5b66\u9662",
        "href": "http://d.duotuwang.com/2015/12/09/1149/",
        "count": 41,
        "start": 1,
        "hasMtTag": 1,
        "hasJgTag": 1,
        "mtCount": 1,
        "jgCount": 94
    },
    {
        "name": "[MFStar]\u6a21\u8303\u5b66\u9662 VOL.022 Moa\u5c0f\u59d0",
        "src": "http://d.duotuwang.com/2015/09/17/964/0.jpg",
        "mtId": "ff4c1b7dfb3c2eff",
        "mtName": "Moa\u5c0f\u59d0",
        "jgId": "mfstar",
        "jgName": "\u6a21\u8303\u5b66\u9662",
        "href": "http://d.duotuwang.com/2015/09/17/964/",
        "count": 53,
        "start": 1,
        "hasMtTag": 1,
        "hasJgTag": 1,
        "mtCount": 1,
        "jgCount": 94
    },
    {
        "name": "[MyGirl]\u7f8e\u5a9b\u9986 VOL.136 moa\u5c0f\u59d0",
        "src": "http://d.duotuwang.com/2015/08/03/888/0.jpg",
        "mtId": "ff4c1b7dfb3c2eff",
        "mtName": "Moa\u5c0f\u59d0",
        "jgId": "mygirl",
        "jgName": "\u7f8e\u5a9b\u9986",
        "href": "http://d.duotuwang.com/2015/08/03/888/",
        "count": 61,
        "start": 1,
        "hasMtTag": 1,
        "hasJgTag": 1,
        "mtCount": 1,
        "jgCount": 110
    },
    {
        "name": "[MyGirl]\u7f8e\u5a9b\u9986 VOL.132 Moa\u5c0f\u59d0",
        "src": "http://d.duotuwang.com/2015/07/10/849/0.jpg",
        "mtId": "ff4c1b7dfb3c2eff",
        "mtName": "Moa\u5c0f\u59d0",
        "jgId": "mygirl",
        "jgName": "\u7f8e\u5a9b\u9986",
        "href": "http://d.duotuwang.com/2015/07/10/849/",
        "count": 30,
        "start": 1,
        "hasMtTag": 1,
        "hasJgTag": 1,
        "mtCount": 1,
        "jgCount": 110
    }
]