[
    {
        "name": "[XIUREN]\u79c0\u4eba\u7f51 No.4828 \u5c0f\u679c\u51bb\u513f",
        "src": "http://d.duotuwang.com/2022/04/06/29305/0.jpg",
        "mtId": "86aa746387f17777",
        "mtName": "\u5c0f\u679c\u51bb\u513f",
        "jgId": "xiuren",
        "jgName": "\u79c0\u4eba\u7f51",
        "href": "http://d.duotuwang.com/2022/04/06/29305/",
        "count": 69,
        "start": 1,
        "hasMtTag": 1,
        "hasJgTag": 1,
        "mtCount": 7,
        "jgCount": 750
    },
    {
        "name": "[XIUREN]\u79c0\u4eba\u7f51 No.4789 \u5c0f\u679c\u51bb\u513f",
        "src": "http://d.duotuwang.com/2022/03/29/29266/0.jpg",
        "mtId": "86aa746387f17777",
        "mtName": "\u5c0f\u679c\u51bb\u513f",
        "jgId": "xiuren",
        "jgName": "\u79c0\u4eba\u7f51",
        "href": "http://d.duotuwang.com/2022/03/29/29266/",
        "count": 71,
        "start": 1,
        "hasMtTag": 1,
        "hasJgTag": 1,
        "mtCount": 7,
        "jgCount": 750
    },
    {
        "name": "[XIUREN]\u79c0\u4eba\u7f51 No.4726 \u5c0f\u679c\u51bb\u513f",
        "src": "http://d.duotuwang.com/2022/03/16/28952/0.jpg",
        "mtId": "86aa746387f17777",
        "mtName": "\u5c0f\u679c\u51bb\u513f",
        "jgId": "xiuren",
        "jgName": "\u79c0\u4eba\u7f51",
        "href": "http://d.duotuwang.com/2022/03/16/28952/",
        "count": 83,
        "start": 1,
        "hasMtTag": 1,
        "hasJgTag": 1,
        "mtCount": 7,
        "jgCount": 750
    },
    {
        "name": "[MFStar]\u6a21\u8303\u5b66\u9662 VOL.553 \u5c0f\u679c\u51bb\u513f",
        "src": "http://d.duotuwang.com/2022/02/28/28701/0.jpg",
        "mtId": "86aa746387f17777",
        "mtName": "\u5c0f\u679c\u51bb\u513f",
        "jgId": "mfstar",
        "jgName": "\u6a21\u8303\u5b66\u9662",
        "href": "http://d.duotuwang.com/2022/02/28/28701/",
        "count": 47,
        "start": 1,
        "hasMtTag": 1,
        "hasJgTag": 1,
        "mtCount": 7,
        "jgCount": 94
    },
    {
        "name": "[XIUREN]\u79c0\u4eba\u7f51 No.4625 \u5c0f\u679c\u51bb\u513f",
        "src": "http://d.duotuwang.com/2022/02/23/28602/0.jpg",
        "mtId": "86aa746387f17777",
        "mtName": "\u5c0f\u679c\u51bb\u513f",
        "jgId": "xiuren",
        "jgName": "\u79c0\u4eba\u7f51",
        "href": "http://d.duotuwang.com/2022/02/23/28602/",
        "count": 83,
        "start": 1,
        "hasMtTag": 1,
        "hasJgTag": 1,
        "mtCount": 7,
        "jgCount": 750
    },
    {
        "name": "[XIUREN]\u79c0\u4eba\u7f51 No.4546 \u5c0f\u679c\u51bb\u513f",
        "src": "http://d.duotuwang.com/2022/02/07/28474/0.jpg",
        "mtId": "86aa746387f17777",
        "mtName": "\u5c0f\u679c\u51bb\u513f",
        "jgId": "xiuren",
        "jgName": "\u79c0\u4eba\u7f51",
        "href": "http://d.duotuwang.com/2022/02/07/28474/",
        "count": 86,
        "start": 1,
        "hasMtTag": 1,
        "hasJgTag": 1,
        "mtCount": 7,
        "jgCount": 750
    }
]