[
    {
        "name": "[UGirlsAPP]\u7231\u5c24\u7269 No.289 \u5c0f\u5409",
        "src": "http://d.duotuwang.com/2016/03/03/4640/0.jpg",
        "mtId": "5887c721b5df06a5",
        "mtName": "\u5c0f\u5409",
        "jgId": "ugirlsapp",
        "jgName": "\u7231\u5c24\u7269",
        "href": "http://d.duotuwang.com/2016/03/03/4640/",
        "count": 40,
        "start": 1,
        "hasMtTag": 1,
        "hasJgTag": 1,
        "mtCount": 1,
        "jgCount": 397
    },
    {
        "name": "[UGirls]\u5c24\u679c\u7f51 U156 \u5c0f\u5409",
        "src": "http://d.duotuwang.com/2016/02/24/3174/0.jpg",
        "mtId": "5887c721b5df06a5",
        "mtName": "\u5c0f\u5409",
        "jgId": "ugirls",
        "jgName": "\u5c24\u679c\u7f51",
        "href": "http://d.duotuwang.com/2016/02/24/3174/",
        "count": 65,
        "start": 1,
        "hasMtTag": 1,
        "hasJgTag": 1,
        "mtCount": 1,
        "jgCount": 79
    }
]