[
    {
        "name": "[BoLoli]\u6ce2\u841d\u793e BOL081 \u6253\u55dd\u5154",
        "src": "http://d.duotuwang.com/2017/07/11/5369/0.jpg",
        "mtId": "534ad2e79d5ea8ca",
        "mtName": "\u6253\u55dd\u5154",
        "jgId": "bololi",
        "jgName": "\u6ce2\u841d\u793e",
        "href": "http://d.duotuwang.com/2017/07/11/5369/",
        "count": 47,
        "start": 1,
        "hasMtTag": 1,
        "hasJgTag": 1,
        "mtCount": 1,
        "jgCount": 40
    },
    {
        "name": "[BoLoli]\u6ce2\u841d\u793e BOL080 \u738b\u96e8\u7eaf",
        "src": "http://d.duotuwang.com/2017/07/09/4251/0.jpg",
        "mtId": "6a5d00e535915ee5",
        "mtName": "\u738b\u96e8\u7eaf",
        "jgId": "bololi",
        "jgName": "\u6ce2\u841d\u793e",
        "href": "http://d.duotuwang.com/2017/07/09/4251/",
        "count": 46,
        "start": 1,
        "hasMtTag": 1,
        "hasJgTag": 1,
        "mtCount": 60,
        "jgCount": 40
    },
    {
        "name": "[BoLoli]\u6ce2\u841d\u793e BOL079 \u590f\u7f8e\u9171_",
        "src": "http://d.duotuwang.com/2017/07/05/4250/0.jpg",
        "mtId": "a770ab3955dfecd5",
        "mtName": "\u590f\u7f8e\u9171_",
        "jgId": "bololi",
        "jgName": "\u6ce2\u841d\u793e",
        "href": "http://d.duotuwang.com/2017/07/05/4250/",
        "count": 30,
        "start": 1,
        "hasMtTag": 1,
        "hasJgTag": 1,
        "mtCount": 9,
        "jgCount": 40
    },
    {
        "name": "[BoLoli]\u6ce2\u841d\u793e BOL078 \u67f3\u4f91\u7eee",
        "src": "http://d.duotuwang.com/2017/07/03/4249/0.jpg",
        "mtId": "6f8fbb7c34c9bf4f",
        "mtName": "\u67f3\u4f91\u7eee",
        "jgId": "bololi",
        "jgName": "\u6ce2\u841d\u793e",
        "href": "http://d.duotuwang.com/2017/07/03/4249/",
        "count": 35,
        "start": 1,
        "hasMtTag": 1,
        "hasJgTag": 1,
        "mtCount": 9,
        "jgCount": 40
    },
    {
        "name": "[BoLoli]\u6ce2\u841d\u793e BOL077 \u67f3\u4f91\u7eee \u590f\u7f8e\u9171 \u4e03\u5b9d\u590f\u7f8e\u59ca\u59b9\u82b1",
        "src": "http://d.duotuwang.com/2017/07/02/4167/0.jpg",
        "mtId": "6f8fbb7c34c9bf4f",
        "mtName": "\u67f3\u4f91\u7eee",
        "jgId": "bololi",
        "jgName": "\u6ce2\u841d\u793e",
        "href": "http://d.duotuwang.com/2017/07/02/4167/",
        "count": 45,
        "start": 1,
        "hasMtTag": 1,
        "hasJgTag": 1,
        "mtCount": 9,
        "jgCount": 40
    },
    {
        "name": "[BoLoli]\u6ce2\u841d\u793e BOL076 \u5c0f\u9b54\u5973\u5948\u5948",
        "src": "http://d.duotuwang.com/2017/06/30/4166/0.jpg",
        "mtId": "d833843d48e81a51",
        "mtName": "\u5c0f\u9b54\u5973\u5948\u5948",
        "jgId": "bololi",
        "jgName": "\u6ce2\u841d\u793e",
        "href": "http://d.duotuwang.com/2017/06/30/4166/",
        "count": 47,
        "start": 1,
        "hasMtTag": 1,
        "hasJgTag": 1,
        "mtCount": 2,
        "jgCount": 40
    }
]