[
    {
        "name": "[BoLoli]\u6ce2\u841d\u793e VOL.077 \u590f\u7f8e\u9171_",
        "src": "http://d.duotuwang.com/2015/11/28/1131/0.jpg",
        "mtId": "a770ab3955dfecd5",
        "mtName": "\u590f\u7f8e\u9171_",
        "jgId": "bololi",
        "jgName": "\u6ce2\u841d\u793e",
        "href": "http://d.duotuwang.com/2015/11/28/1131/",
        "count": 46,
        "start": 1,
        "hasMtTag": 1,
        "hasJgTag": 1,
        "mtCount": 9,
        "jgCount": 40
    },
    {
        "name": "[BoLoli]\u6ce2\u841d\u793e VOL.076 \u5218\u5a05\u5e0c",
        "src": "http://d.duotuwang.com/2015/11/26/1097/0.jpg",
        "mtId": "23dd723114851316",
        "mtName": "\u5218\u5a05\u5e0c",
        "jgId": "bololi",
        "jgName": "\u6ce2\u841d\u793e",
        "href": "http://d.duotuwang.com/2015/11/26/1097/",
        "count": 49,
        "start": 1,
        "hasMtTag": 1,
        "hasJgTag": 1,
        "mtCount": 4,
        "jgCount": 40
    },
    {
        "name": "[BoLoli]\u6ce2\u841d\u793e VOL.075  \u590f\u7f8e\u9171_&\u5218\u5a05\u5e0c",
        "src": "http://d.duotuwang.com/2015/11/23/1105/0.jpg",
        "mtId": "a770ab3955dfecd5",
        "mtName": "\u590f\u7f8e\u9171_",
        "jgId": "bololi",
        "jgName": "\u6ce2\u841d\u793e",
        "href": "http://d.duotuwang.com/2015/11/23/1105/",
        "count": 43,
        "start": 1,
        "hasMtTag": 1,
        "hasJgTag": 1,
        "mtCount": 9,
        "jgCount": 40
    },
    {
        "name": "[BoLoli]\u6ce2\u841d\u793e VOL.074 \u590f\u7f8e\u9171_",
        "src": "http://d.duotuwang.com/2015/11/17/1110/0.jpg",
        "mtId": "a770ab3955dfecd5",
        "mtName": "\u590f\u7f8e\u9171_",
        "jgId": "bololi",
        "jgName": "\u6ce2\u841d\u793e",
        "href": "http://d.duotuwang.com/2015/11/17/1110/",
        "count": 50,
        "start": 1,
        "hasMtTag": 1,
        "hasJgTag": 1,
        "mtCount": 9,
        "jgCount": 40
    },
    {
        "name": "[BoLoli]\u6ce2\u841d\u793e VOL.073 \u590f\u5c0f\u79cb\u79cb\u79cb",
        "src": "http://d.duotuwang.com/2015/11/10/1080/0.jpg",
        "mtId": "2db3bbd39f3dcb2c",
        "mtName": "\u590f\u5c0f\u79cb\u79cb\u79cb",
        "jgId": "bololi",
        "jgName": "\u6ce2\u841d\u793e",
        "href": "http://d.duotuwang.com/2015/11/10/1080/",
        "count": 48,
        "start": 1,
        "hasMtTag": 1,
        "hasJgTag": 1,
        "mtCount": 5,
        "jgCount": 40
    },
    {
        "name": "[BoLoli]\u6ce2\u841d\u793e VOL.072 \u738b\u96e8\u7eaf",
        "src": "http://d.duotuwang.com/2015/11/07/1083/0.jpg",
        "mtId": "6a5d00e535915ee5",
        "mtName": "\u738b\u96e8\u7eaf",
        "jgId": "bololi",
        "jgName": "\u6ce2\u841d\u793e",
        "href": "http://d.duotuwang.com/2015/11/07/1083/",
        "count": 54,
        "start": 1,
        "hasMtTag": 1,
        "hasJgTag": 1,
        "mtCount": 60,
        "jgCount": 40
    }
]