[
    {
        "name": "[BoLoli]\u6ce2\u841d\u793e VOL.110 \u9c7c\u4e38",
        "src": "http://d.duotuwang.com/2018/03/05/8436/0.jpg",
        "mtId": "77d35e373e02befc",
        "mtName": "\u9c7c\u4e38",
        "jgId": "bololi",
        "jgName": "\u6ce2\u841d\u793e",
        "href": "http://d.duotuwang.com/2018/03/05/8436/",
        "count": 30,
        "start": 1,
        "hasMtTag": 1,
        "hasJgTag": 1,
        "mtCount": 1,
        "jgCount": 40
    },
    {
        "name": "[BoLoli]\u6ce2\u841d\u793e BOL134 \u590f\u7f8e\u9171_",
        "src": "http://d.duotuwang.com/2018/02/13/8668/0.jpg",
        "mtId": "a770ab3955dfecd5",
        "mtName": "\u590f\u7f8e\u9171_",
        "jgId": "bololi",
        "jgName": "\u6ce2\u841d\u793e",
        "href": "http://d.duotuwang.com/2018/02/13/8668/",
        "count": 24,
        "start": 1,
        "hasMtTag": 1,
        "hasJgTag": 1,
        "mtCount": 9,
        "jgCount": 40
    },
    {
        "name": "[BoLoli]\u6ce2\u841d\u793e VOL.108 \u7ef5\u7ef5",
        "src": "http://d.duotuwang.com/2018/02/09/8237/0.jpg",
        "mtId": "3fe48ee605f7452c",
        "mtName": "\u7ef5\u7ef5",
        "jgId": "bololi",
        "jgName": "\u6ce2\u841d\u793e",
        "href": "http://d.duotuwang.com/2018/02/09/8237/",
        "count": 40,
        "start": 1,
        "hasMtTag": 1,
        "hasJgTag": 1,
        "mtCount": 1,
        "jgCount": 40
    },
    {
        "name": "[BoLoli]\u6ce2\u841d\u793e VOL.107 \u8463\u6210\u4e3d",
        "src": "http://d.duotuwang.com/2018/02/07/8246/0.jpg",
        "mtId": "0d95ff65a3ac5ae8",
        "mtName": "\u8463\u6210\u4e3d",
        "jgId": "bololi",
        "jgName": "\u6ce2\u841d\u793e",
        "href": "http://d.duotuwang.com/2018/02/07/8246/",
        "count": 42,
        "start": 1,
        "hasMtTag": 1,
        "hasJgTag": 1,
        "mtCount": 1,
        "jgCount": 40
    },
    {
        "name": "[BoLoli]\u6ce2\u841d\u793e BOL135 \u67f3\u4f91\u7eee",
        "src": "http://d.duotuwang.com/2018/02/03/8669/0.jpg",
        "mtId": "6f8fbb7c34c9bf4f",
        "mtName": "\u67f3\u4f91\u7eee",
        "jgId": "bololi",
        "jgName": "\u6ce2\u841d\u793e",
        "href": "http://d.duotuwang.com/2018/02/03/8669/",
        "count": 25,
        "start": 1,
        "hasMtTag": 1,
        "hasJgTag": 1,
        "mtCount": 9,
        "jgCount": 40
    },
    {
        "name": "[BoLoli]\u6ce2\u841d\u793e VOL.106 \u7403\u7403",
        "src": "http://d.duotuwang.com/2018/02/01/8225/0.jpg",
        "mtId": "2c039d14016a9d7f",
        "mtName": "\u7403\u7403",
        "jgId": "bololi",
        "jgName": "\u6ce2\u841d\u793e",
        "href": "http://d.duotuwang.com/2018/02/01/8225/",
        "count": 38,
        "start": 1,
        "hasMtTag": 1,
        "hasJgTag": 1,
        "mtCount": 3,
        "jgCount": 40
    }
]