[
    {
        "name": "[BoLoli]\u6ce2\u841d\u793e Vol.011 \u67f3\u4f91\u7eeeSevenbaby",
        "src": "http://d.duotuwang.com/2015/04/14/730/0.jpg",
        "mtId": "6f8fbb7c34c9bf4f",
        "mtName": "\u67f3\u4f91\u7eeeSevenbaby",
        "jgId": "bololi",
        "jgName": "\u6ce2\u841d\u793e",
        "href": "http://d.duotuwang.com/2015/04/14/730/",
        "count": 76,
        "start": 1,
        "hasMtTag": 1,
        "hasJgTag": 1,
        "mtCount": 9,
        "jgCount": 40
    },
    {
        "name": "[BoLoli]\u6ce2\u841d\u793e Vol.010 \u5f20\u4f18ayoyo",
        "src": "http://d.duotuwang.com/2015/04/06/720/0.jpg",
        "mtId": "0cec3b503a107af2",
        "mtName": "\u5f20\u4f18ayoyo",
        "jgId": "bololi",
        "jgName": "\u6ce2\u841d\u793e",
        "href": "http://d.duotuwang.com/2015/04/06/720/",
        "count": 40,
        "start": 1,
        "hasMtTag": 1,
        "hasJgTag": 1,
        "mtCount": 1,
        "jgCount": 40
    },
    {
        "name": "[BoLoli]\u6ce2\u841d\u793e Vol.009 Suki\u6731\u5fc6\u97f3",
        "src": "http://d.duotuwang.com/2015/04/04/718/0.jpg",
        "mtId": "9accb248db86eb5c",
        "mtName": "Suki\u6731\u5fc6\u97f3",
        "jgId": "bololi",
        "jgName": "\u6ce2\u841d\u793e",
        "href": "http://d.duotuwang.com/2015/04/04/718/",
        "count": 49,
        "start": 1,
        "hasMtTag": 1,
        "hasJgTag": 1,
        "mtCount": 1,
        "jgCount": 40
    },
    {
        "name": "[BoLoli]\u6ce2\u841d\u793e Vol.008 \u67f3\u4f91\u7eeeSevenbaby",
        "src": "http://d.duotuwang.com/2015/04/01/715/0.jpg",
        "mtId": "6f8fbb7c34c9bf4f",
        "mtName": "\u67f3\u4f91\u7eeeSevenbaby",
        "jgId": "bololi",
        "jgName": "\u6ce2\u841d\u793e",
        "href": "http://d.duotuwang.com/2015/04/01/715/",
        "count": 52,
        "start": 1,
        "hasMtTag": 1,
        "hasJgTag": 1,
        "mtCount": 9,
        "jgCount": 40
    },
    {
        "name": "[BoLoli]\u6ce2\u841d\u793e Vol.007 \u5f20\u4f18ayoyo",
        "src": "http://d.duotuwang.com/2015/03/31/712/0.jpg",
        "mtId": "0cec3b503a107af2",
        "mtName": "\u5f20\u4f18ayoyo",
        "jgId": "bololi",
        "jgName": "\u6ce2\u841d\u793e",
        "href": "http://d.duotuwang.com/2015/03/31/712/",
        "count": 68,
        "start": 1,
        "hasMtTag": 1,
        "hasJgTag": 1,
        "mtCount": 1,
        "jgCount": 40
    },
    {
        "name": "[BoLoli]\u6ce2\u841d\u793e Vol.006 Suki\u6731\u5fc6\u97f3",
        "src": "http://d.duotuwang.com/2015/03/26/705/0.jpg",
        "mtId": "9accb248db86eb5c",
        "mtName": "Suki\u6731\u5fc6\u97f3",
        "jgId": "bololi",
        "jgName": "\u6ce2\u841d\u793e",
        "href": "http://d.duotuwang.com/2015/03/26/705/",
        "count": 50,
        "start": 1,
        "hasMtTag": 1,
        "hasJgTag": 1,
        "mtCount": 1,
        "jgCount": 40
    }
]