[
    {
        "name": "[ROSI\u5199\u771f]\u53e3\u7f69\u7cfb\u5217 KZ.1653",
        "src": "http://d.duotuwang.com/2020/12/21/23584/0.jpg",
        "jgId": "rosikz",
        "jgName": "ROSI\u53e3\u7f69",
        "href": "http://d.duotuwang.com/2020/12/21/23584/",
        "count": 62,
        "start": 1,
        "hasMtTag": 0,
        "hasJgTag": 1,
        "jgCount": 221
    },
    {
        "name": "[ROSI\u5199\u771f]\u53e3\u7f69\u7cfb\u5217 KZ.1652",
        "src": "http://d.duotuwang.com/2020/12/20/23505/0.jpg",
        "jgId": "rosikz",
        "jgName": "ROSI\u53e3\u7f69",
        "href": "http://d.duotuwang.com/2020/12/20/23505/",
        "count": 92,
        "start": 1,
        "hasMtTag": 0,
        "hasJgTag": 1,
        "jgCount": 221
    },
    {
        "name": "[ROSI\u5199\u771f]\u53e3\u7f69\u7cfb\u5217 KZ.1651",
        "src": "http://d.duotuwang.com/2020/12/19/23504/0.jpg",
        "jgId": "rosikz",
        "jgName": "ROSI\u53e3\u7f69",
        "href": "http://d.duotuwang.com/2020/12/19/23504/",
        "count": 57,
        "start": 1,
        "hasMtTag": 0,
        "hasJgTag": 1,
        "jgCount": 221
    },
    {
        "name": "[ROSI\u5199\u771f]\u53e3\u7f69\u7cfb\u5217 KZ.1650",
        "src": "http://d.duotuwang.com/2020/12/18/23503/0.jpg",
        "jgId": "rosikz",
        "jgName": "ROSI\u53e3\u7f69",
        "href": "http://d.duotuwang.com/2020/12/18/23503/",
        "count": 76,
        "start": 1,
        "hasMtTag": 0,
        "hasJgTag": 1,
        "jgCount": 221
    },
    {
        "name": "[ROSI\u5199\u771f]\u53e3\u7f69\u7cfb\u5217 KZ.1649",
        "src": "http://d.duotuwang.com/2020/12/17/23502/0.jpg",
        "jgId": "rosikz",
        "jgName": "ROSI\u53e3\u7f69",
        "href": "http://d.duotuwang.com/2020/12/17/23502/",
        "count": 52,
        "start": 1,
        "hasMtTag": 0,
        "hasJgTag": 1,
        "jgCount": 221
    },
    {
        "name": "[ROSI\u5199\u771f]\u53e3\u7f69\u7cfb\u5217 KZ.1648",
        "src": "http://d.duotuwang.com/2020/12/16/23501/0.jpg",
        "jgId": "rosikz",
        "jgName": "ROSI\u53e3\u7f69",
        "href": "http://d.duotuwang.com/2020/12/16/23501/",
        "count": 87,
        "start": 1,
        "hasMtTag": 0,
        "hasJgTag": 1,
        "jgCount": 221
    }
]