[
    {
        "name": "[ROSI\u5199\u771f]\u53e3\u7f69\u7cfb\u5217 KZ.1468",
        "src": "http://d.duotuwang.com/2020/06/19/20872/0.jpg",
        "jgId": "rosikz",
        "jgName": "ROSI\u53e3\u7f69",
        "href": "http://d.duotuwang.com/2020/06/19/20872/",
        "count": 60,
        "start": 1,
        "hasMtTag": 0,
        "hasJgTag": 1,
        "jgCount": 221
    },
    {
        "name": "[ROSI\u5199\u771f]\u53e3\u7f69\u7cfb\u5217 KZ.1467",
        "src": "http://d.duotuwang.com/2020/06/18/20871/0.jpg",
        "jgId": "rosikz",
        "jgName": "ROSI\u53e3\u7f69",
        "href": "http://d.duotuwang.com/2020/06/18/20871/",
        "count": 25,
        "start": 1,
        "hasMtTag": 0,
        "hasJgTag": 1,
        "jgCount": 221
    },
    {
        "name": "[ROSI\u5199\u771f]\u53e3\u7f69\u7cfb\u5217 KZ.1466",
        "src": "http://d.duotuwang.com/2020/06/17/20870/0.jpg",
        "jgId": "rosikz",
        "jgName": "ROSI\u53e3\u7f69",
        "href": "http://d.duotuwang.com/2020/06/17/20870/",
        "count": 21,
        "start": 1,
        "hasMtTag": 0,
        "hasJgTag": 1,
        "jgCount": 221
    },
    {
        "name": "[ROSI\u5199\u771f]\u53e3\u7f69\u7cfb\u5217 KZ.1465",
        "src": "http://d.duotuwang.com/2020/06/16/20869/0.jpg",
        "jgId": "rosikz",
        "jgName": "ROSI\u53e3\u7f69",
        "href": "http://d.duotuwang.com/2020/06/16/20869/",
        "count": 68,
        "start": 1,
        "hasMtTag": 0,
        "hasJgTag": 1,
        "jgCount": 221
    },
    {
        "name": "[ROSI\u5199\u771f]\u53e3\u7f69\u7cfb\u5217 KZ.1464",
        "src": "http://d.duotuwang.com/2020/06/15/20868/0.jpg",
        "jgId": "rosikz",
        "jgName": "ROSI\u53e3\u7f69",
        "href": "http://d.duotuwang.com/2020/06/15/20868/",
        "count": 37,
        "start": 1,
        "hasMtTag": 0,
        "hasJgTag": 1,
        "jgCount": 221
    },
    {
        "name": "[ROSI\u5199\u771f]\u53e3\u7f69\u7cfb\u5217 KZ.1463",
        "src": "http://d.duotuwang.com/2020/06/14/20867/0.jpg",
        "jgId": "rosikz",
        "jgName": "ROSI\u53e3\u7f69",
        "href": "http://d.duotuwang.com/2020/06/14/20867/",
        "count": 44,
        "start": 1,
        "hasMtTag": 0,
        "hasJgTag": 1,
        "jgCount": 221
    }
]