[
    {
        "name": "[ROSI\u5199\u771f]\u53e3\u7f69\u7cfb\u5217 KZ.1305",
        "src": "http://d.duotuwang.com/2020/01/08/19319/0.jpg",
        "jgId": "rosikz",
        "jgName": "ROSI\u53e3\u7f69",
        "href": "http://d.duotuwang.com/2020/01/08/19319/",
        "count": 36,
        "start": 1,
        "hasMtTag": 0,
        "hasJgTag": 1,
        "jgCount": 221
    },
    {
        "name": "[ROSI\u5199\u771f]\u53e3\u7f69\u7cfb\u5217 KZ.1304",
        "src": "http://d.duotuwang.com/2020/01/07/19318/0.jpg",
        "jgId": "rosikz",
        "jgName": "ROSI\u53e3\u7f69",
        "href": "http://d.duotuwang.com/2020/01/07/19318/",
        "count": 68,
        "start": 1,
        "hasMtTag": 0,
        "hasJgTag": 1,
        "jgCount": 221
    },
    {
        "name": "[ROSI\u5199\u771f]\u53e3\u7f69\u7cfb\u5217 KZ.1302",
        "src": "http://d.duotuwang.com/2020/01/05/19233/0.jpg",
        "jgId": "rosikz",
        "jgName": "ROSI\u53e3\u7f69",
        "href": "http://d.duotuwang.com/2020/01/05/19233/",
        "count": 86,
        "start": 1,
        "hasMtTag": 0,
        "hasJgTag": 1,
        "jgCount": 221
    },
    {
        "name": "[ROSI\u5199\u771f]\u53e3\u7f69\u7cfb\u5217 KZ.1301",
        "src": "http://d.duotuwang.com/2020/01/04/19232/0.jpg",
        "jgId": "rosikz",
        "jgName": "ROSI\u53e3\u7f69",
        "href": "http://d.duotuwang.com/2020/01/04/19232/",
        "count": 22,
        "start": 1,
        "hasMtTag": 0,
        "hasJgTag": 1,
        "jgCount": 221
    },
    {
        "name": "[ROSI\u5199\u771f]\u53e3\u7f69\u7cfb\u5217 KZ.1300",
        "src": "http://d.duotuwang.com/2020/01/03/19231/0.jpg",
        "jgId": "rosikz",
        "jgName": "ROSI\u53e3\u7f69",
        "href": "http://d.duotuwang.com/2020/01/03/19231/",
        "count": 76,
        "start": 1,
        "hasMtTag": 0,
        "hasJgTag": 1,
        "jgCount": 221
    },
    {
        "name": "[ROSI\u5199\u771f]\u53e3\u7f69\u7cfb\u5217 KZ.1299",
        "src": "http://d.duotuwang.com/2020/01/02/19230/0.jpg",
        "jgId": "rosikz",
        "jgName": "ROSI\u53e3\u7f69",
        "href": "http://d.duotuwang.com/2020/01/02/19230/",
        "count": 10,
        "start": 1,
        "hasMtTag": 0,
        "hasJgTag": 1,
        "jgCount": 221
    }
]