[
    {
        "name": "[ROSI\u5199\u771f]\u53e3\u7f69\u7cfb\u5217 KZ.1081",
        "src": "http://d.duotuwang.com/2019/05/29/16660/0.jpg",
        "jgId": "rosikz",
        "jgName": "ROSI\u53e3\u7f69",
        "href": "http://d.duotuwang.com/2019/05/29/16660/",
        "count": 58,
        "start": 1,
        "hasMtTag": 0,
        "hasJgTag": 1,
        "jgCount": 221
    },
    {
        "name": "[ROSI\u5199\u771f]\u53e3\u7f69\u7cfb\u5217 KZ.1080",
        "src": "http://d.duotuwang.com/2019/05/28/16661/0.jpg",
        "jgId": "rosikz",
        "jgName": "ROSI\u53e3\u7f69",
        "href": "http://d.duotuwang.com/2019/05/28/16661/",
        "count": 30,
        "start": 1,
        "hasMtTag": 0,
        "hasJgTag": 1,
        "jgCount": 221
    },
    {
        "name": "[ROSI\u5199\u771f]\u53e3\u7f69\u7cfb\u5217 KZ.1079",
        "src": "http://d.duotuwang.com/2019/05/27/16617/0.jpg",
        "jgId": "rosikz",
        "jgName": "ROSI\u53e3\u7f69",
        "href": "http://d.duotuwang.com/2019/05/27/16617/",
        "count": 62,
        "start": 1,
        "hasMtTag": 0,
        "hasJgTag": 1,
        "jgCount": 221
    },
    {
        "name": "[ROSI\u5199\u771f]\u53e3\u7f69\u7cfb\u5217 KZ.1078",
        "src": "http://d.duotuwang.com/2019/05/26/16618/0.jpg",
        "jgId": "rosikz",
        "jgName": "ROSI\u53e3\u7f69",
        "href": "http://d.duotuwang.com/2019/05/26/16618/",
        "count": 39,
        "start": 1,
        "hasMtTag": 0,
        "hasJgTag": 1,
        "jgCount": 221
    },
    {
        "name": "[ROSI\u5199\u771f]\u53e3\u7f69\u7cfb\u5217 KZ.1077",
        "src": "http://d.duotuwang.com/2019/05/25/16619/0.jpg",
        "jgId": "rosikz",
        "jgName": "ROSI\u53e3\u7f69",
        "href": "http://d.duotuwang.com/2019/05/25/16619/",
        "count": 58,
        "start": 1,
        "hasMtTag": 0,
        "hasJgTag": 1,
        "jgCount": 221
    },
    {
        "name": "[ROSI\u5199\u771f]\u53e3\u7f69\u7cfb\u5217 KZ.1076",
        "src": "http://d.duotuwang.com/2019/05/24/16620/0.jpg",
        "jgId": "rosikz",
        "jgName": "ROSI\u53e3\u7f69",
        "href": "http://d.duotuwang.com/2019/05/24/16620/",
        "count": 24,
        "start": 1,
        "hasMtTag": 0,
        "hasJgTag": 1,
        "jgCount": 221
    }
]