[
    {
        "name": "[ROSI\u5199\u771f]\u53e3\u7f69\u7cfb\u5217 KZ.2125",
        "src": "http://d.duotuwang.com/2022/04/07/29436/0.jpg",
        "jgId": "rosikz",
        "jgName": "ROSI\u53e3\u7f69",
        "href": "http://d.duotuwang.com/2022/04/07/29436/",
        "count": 83,
        "start": 1,
        "hasMtTag": 0,
        "hasJgTag": 1,
        "jgCount": 221
    },
    {
        "name": "[ROSI\u5199\u771f]\u53e3\u7f69\u7cfb\u5217 KZ.2124",
        "src": "http://d.duotuwang.com/2022/04/06/29435/0.jpg",
        "jgId": "rosikz",
        "jgName": "ROSI\u53e3\u7f69",
        "href": "http://d.duotuwang.com/2022/04/06/29435/",
        "count": 44,
        "start": 1,
        "hasMtTag": 0,
        "hasJgTag": 1,
        "jgCount": 221
    },
    {
        "name": "[ROSI\u5199\u771f]\u53e3\u7f69\u7cfb\u5217 KZ.2123",
        "src": "http://d.duotuwang.com/2022/04/05/29434/0.jpg",
        "jgId": "rosikz",
        "jgName": "ROSI\u53e3\u7f69",
        "href": "http://d.duotuwang.com/2022/04/05/29434/",
        "count": 57,
        "start": 1,
        "hasMtTag": 0,
        "hasJgTag": 1,
        "jgCount": 221
    },
    {
        "name": "[ROSI\u5199\u771f]\u53e3\u7f69\u7cfb\u5217 KZ.2122",
        "src": "http://d.duotuwang.com/2022/04/04/29433/0.jpg",
        "jgId": "rosikz",
        "jgName": "ROSI\u53e3\u7f69",
        "href": "http://d.duotuwang.com/2022/04/04/29433/",
        "count": 92,
        "start": 1,
        "hasMtTag": 0,
        "hasJgTag": 1,
        "jgCount": 221
    },
    {
        "name": "[ROSI\u5199\u771f]\u53e3\u7f69\u7cfb\u5217 KZ.2121",
        "src": "http://d.duotuwang.com/2022/04/03/29432/0.jpg",
        "jgId": "rosikz",
        "jgName": "ROSI\u53e3\u7f69",
        "href": "http://d.duotuwang.com/2022/04/03/29432/",
        "count": 61,
        "start": 1,
        "hasMtTag": 0,
        "hasJgTag": 1,
        "jgCount": 221
    },
    {
        "name": "[ROSI\u5199\u771f]\u53e3\u7f69\u7cfb\u5217 KZ.2120",
        "src": "http://d.duotuwang.com/2022/04/02/29431/0.jpg",
        "jgId": "rosikz",
        "jgName": "ROSI\u53e3\u7f69",
        "href": "http://d.duotuwang.com/2022/04/02/29431/",
        "count": 72,
        "start": 1,
        "hasMtTag": 0,
        "hasJgTag": 1,
        "jgCount": 221
    }
]