[
    {
        "name": "[UGirlsAPP]\u7231\u5c24\u7269 No.2088 \u59ae\u5c0f\u5996 \u56fd\u98ce\u7f8e\u4eba",
        "src": "http://d.duotuwang.com/2021/05/16/25110/0.jpg",
        "mtId": "a54d8f09b1be067f",
        "mtName": "\u59ae\u5c0f\u5996",
        "jgId": "ugirlsapp",
        "jgName": "\u7231\u5c24\u7269",
        "href": "http://d.duotuwang.com/2021/05/16/25110/",
        "count": 35,
        "start": 1,
        "hasMtTag": 1,
        "hasJgTag": 1,
        "mtCount": 3,
        "jgCount": 397
    },
    {
        "name": "[UGirlsAPP]\u7231\u5c24\u7269 No.2031 \u59ae\u5c0f\u5996 \u9152\u917f\u5143\u5bb5",
        "src": "http://d.duotuwang.com/2021/02/26/24200/0.jpg",
        "mtId": "a54d8f09b1be067f",
        "mtName": "\u59ae\u5c0f\u5996",
        "jgId": "ugirlsapp",
        "jgName": "\u7231\u5c24\u7269",
        "href": "http://d.duotuwang.com/2021/02/26/24200/",
        "count": 35,
        "start": 1,
        "hasMtTag": 1,
        "hasJgTag": 1,
        "mtCount": 3,
        "jgCount": 397
    },
    {
        "name": "[UGirlsAPP]\u7231\u5c24\u7269 No.1987 \u59ae\u5c0f\u5996 \u53cc\u8272\u5723\u8bde",
        "src": "http://d.duotuwang.com/2020/12/26/23593/0.jpg",
        "mtId": "a54d8f09b1be067f",
        "mtName": "\u59ae\u5c0f\u5996",
        "jgId": "ugirlsapp",
        "jgName": "\u7231\u5c24\u7269",
        "href": "http://d.duotuwang.com/2020/12/26/23593/",
        "count": 35,
        "start": 1,
        "hasMtTag": 1,
        "hasJgTag": 1,
        "mtCount": 3,
        "jgCount": 397
    },
    {
        "name": "[UGirlsAPP]\u7231\u5c24\u7269 No.1923 \u59ae\u5c0f\u5996 \u82b1\u6ee1\u6708\u591c",
        "src": "http://d.duotuwang.com/2020/10/01/22378/0.jpg",
        "mtId": "a54d8f09b1be067f",
        "mtName": "\u59ae\u5c0f\u5996",
        "jgId": "ugirlsapp",
        "jgName": "\u7231\u5c24\u7269",
        "href": "http://d.duotuwang.com/2020/10/01/22378/",
        "count": 35,
        "start": 1,
        "hasMtTag": 1,
        "hasJgTag": 1,
        "mtCount": 3,
        "jgCount": 397
    },
    {
        "name": "[UGirlsAPP]\u7231\u5c24\u7269 No.1819 \u59ae\u5c0f\u5996 \u56f0\u4f4f\u7684\u7231",
        "src": "http://d.duotuwang.com/2020/05/12/20594/0.jpg",
        "mtId": "a54d8f09b1be067f",
        "mtName": "\u59ae\u5c0f\u5996",
        "jgId": "ugirlsapp",
        "jgName": "\u7231\u5c24\u7269",
        "href": "http://d.duotuwang.com/2020/05/12/20594/",
        "count": 35,
        "start": 1,
        "hasMtTag": 1,
        "hasJgTag": 1,
        "mtCount": 3,
        "jgCount": 397
    },
    {
        "name": "[SLADY]\u730e\u5973\u795e No.10 \u59ae\u5c0f\u5996",
        "src": "http://d.duotuwang.com/2017/05/25/8542/0.jpg",
        "mtId": "a54d8f09b1be067f",
        "mtName": "\u59ae\u5c0f\u5996",
        "jgId": "slady",
        "jgName": "\u730e\u5973\u795e",
        "href": "http://d.duotuwang.com/2017/05/25/8542/",
        "count": 45,
        "start": 1,
        "hasMtTag": 1,
        "hasJgTag": 1,
        "mtCount": 3,
        "jgCount": 4
    }
]