[
    {
        "name": "[SLADY]\u730e\u5973\u795e No.1 \u59ae\u5c0f\u5996",
        "src": "http://d.duotuwang.com/2017/05/25/8530/0.jpg",
        "mtId": "a54d8f09b1be067f",
        "mtName": "\u59ae\u5c0f\u5996",
        "jgId": "slady",
        "jgName": "\u730e\u5973\u795e",
        "href": "http://d.duotuwang.com/2017/05/25/8530/",
        "count": 60,
        "start": 1,
        "hasMtTag": 1,
        "hasJgTag": 1,
        "mtCount": 3,
        "jgCount": 4
    },
    {
        "name": "[QingDouKe]\u9752\u8c46\u5ba2 2017-02-09 \u59ae\u5c0f\u5996",
        "src": "http://d.duotuwang.com/2017/02/09/4070/0.jpg",
        "mtId": "a54d8f09b1be067f",
        "mtName": "\u59ae\u5c0f\u5996",
        "jgId": "qingdouke",
        "jgName": "\u9752\u8c46\u5ba2",
        "href": "http://d.duotuwang.com/2017/02/09/4070/",
        "count": 40,
        "start": 1,
        "hasMtTag": 1,
        "hasJgTag": 1,
        "mtCount": 3,
        "jgCount": 23
    },
    {
        "name": "[QingDouKe]\u9752\u8c46\u5ba2 2016-12-07 \u59ae\u5c0f\u5996",
        "src": "http://d.duotuwang.com/2016/12/07/2709/0.jpg",
        "mtId": "a54d8f09b1be067f",
        "mtName": "\u59ae\u5c0f\u5996",
        "jgId": "qingdouke",
        "jgName": "\u9752\u8c46\u5ba2",
        "href": "http://d.duotuwang.com/2016/12/07/2709/",
        "count": 51,
        "start": 1,
        "hasMtTag": 1,
        "hasJgTag": 1,
        "mtCount": 3,
        "jgCount": 23
    },
    {
        "name": "[UGirls]\u5c24\u679c\u7f51 U231 \u59ae\u5c0f\u5996",
        "src": "http://d.duotuwang.com/2016/12/02/3254/0.jpg",
        "mtId": "a54d8f09b1be067f",
        "mtName": "\u59ae\u5c0f\u5996",
        "jgId": "ugirls",
        "jgName": "\u5c24\u679c\u7f51",
        "href": "http://d.duotuwang.com/2016/12/02/3254/",
        "count": 65,
        "start": 1,
        "hasMtTag": 1,
        "hasJgTag": 1,
        "mtCount": 3,
        "jgCount": 79
    },
    {
        "name": "[UGirlsAPP]\u7231\u5c24\u7269 No.561 \u59ae\u5c0f\u5996",
        "src": "http://d.duotuwang.com/2016/11/30/4892/0.jpg",
        "mtId": "a54d8f09b1be067f",
        "mtName": "\u59ae\u5c0f\u5996",
        "jgId": "ugirlsapp",
        "jgName": "\u7231\u5c24\u7269",
        "href": "http://d.duotuwang.com/2016/11/30/4892/",
        "count": 40,
        "start": 1,
        "hasMtTag": 1,
        "hasJgTag": 1,
        "mtCount": 3,
        "jgCount": 397
    },
    {
        "name": "[UGirlsAPP]\u7231\u5c24\u7269 No.458 \u59ae\u5c0f\u5996",
        "src": "http://d.duotuwang.com/2016/08/18/4802/0.jpg",
        "mtId": "a54d8f09b1be067f",
        "mtName": "\u59ae\u5c0f\u5996",
        "jgId": "ugirlsapp",
        "jgName": "\u7231\u5c24\u7269",
        "href": "http://d.duotuwang.com/2016/08/18/4802/",
        "count": 40,
        "start": 1,
        "hasMtTag": 1,
        "hasJgTag": 1,
        "mtCount": 3,
        "jgCount": 397
    }
]