[
    {
        "name": "[XIUREN]\u79c0\u4eba\u7f51 No.297 HONEYAL",
        "src": "http://d.duotuwang.com/2015/02/12/2145/0.jpg",
        "mtId": "d7ae5d64289ffc1e",
        "mtName": "HONEYAL",
        "jgId": "xiuren",
        "jgName": "\u79c0\u4eba\u7f51",
        "href": "http://d.duotuwang.com/2015/02/12/2145/",
        "count": 50,
        "start": 1,
        "hasMtTag": 1,
        "hasJgTag": 1,
        "mtCount": 1,
        "jgCount": 750
    }
]