[
    {
        "name": "[TASTE]\u987d\u5473\u751f\u6d3b VOL.016 Anglica",
        "src": "http://d.duotuwang.com/2016/03/31/1325/0.jpg",
        "mtId": "763349dfe838cdd4",
        "mtName": "Anglica",
        "jgId": "taste",
        "jgName": "\u987d\u5473\u751f\u6d3b",
        "href": "http://d.duotuwang.com/2016/03/31/1325/",
        "count": 45,
        "start": 1,
        "hasMtTag": 1,
        "hasJgTag": 1,
        "mtCount": 1,
        "jgCount": 5
    },
    {
        "name": "[TASTE]\u987d\u5473\u751f\u6d3b VOL.011 Anglica",
        "src": "http://d.duotuwang.com/2016/03/10/1278/0.jpg",
        "mtId": "763349dfe838cdd4",
        "mtName": "Anglica",
        "jgId": "taste",
        "jgName": "\u987d\u5473\u751f\u6d3b",
        "href": "http://d.duotuwang.com/2016/03/10/1278/",
        "count": 55,
        "start": 1,
        "hasMtTag": 1,
        "hasJgTag": 1,
        "mtCount": 1,
        "jgCount": 5
    }
]