[
    {
        "name": "[MyGirl]\u7f8e\u5a9b\u9986 VOL.442 \u4e45\u4e45Aimee",
        "src": "http://d.duotuwang.com/2020/05/12/20560/0.jpg",
        "mtId": "e9e2057cd6e2887d",
        "mtName": "\u4e45\u4e45Aimee",
        "jgId": "mygirl",
        "jgName": "\u7f8e\u5a9b\u9986",
        "href": "http://d.duotuwang.com/2020/05/12/20560/",
        "count": 66,
        "start": 1,
        "hasMtTag": 1,
        "hasJgTag": 1,
        "mtCount": 7,
        "jgCount": 110
    },
    {
        "name": "[MyGirl]\u7f8e\u5a9b\u9986 VOL.437 \u4e45\u4e45Aimee",
        "src": "http://d.duotuwang.com/2020/05/04/20481/0.jpg",
        "mtId": "e9e2057cd6e2887d",
        "mtName": "\u4e45\u4e45Aimee",
        "jgId": "mygirl",
        "jgName": "\u7f8e\u5a9b\u9986",
        "href": "http://d.duotuwang.com/2020/05/04/20481/",
        "count": 47,
        "start": 1,
        "hasMtTag": 1,
        "hasJgTag": 1,
        "mtCount": 7,
        "jgCount": 110
    },
    {
        "name": "[XIUREN]\u79c0\u4eba\u7f51 No.2205 \u4e45\u4e45Aimee 2/2",
        "src": "http://d.duotuwang.com/2020/04/30/20599/0.jpg",
        "mtId": "e9e2057cd6e2887d",
        "mtName": "\u4e45\u4e45Aimee",
        "jgId": "xiuren",
        "jgName": "\u79c0\u4eba\u7f51",
        "href": "http://d.duotuwang.com/2020/04/30/20599/",
        "count": 30,
        "start": 53,
        "hasMtTag": 1,
        "hasJgTag": 1,
        "mtCount": 7,
        "jgCount": 750
    },
    {
        "name": "[XIUREN]\u79c0\u4eba\u7f51 No.2205 \u4e45\u4e45Aimee 1/2",
        "src": "http://d.duotuwang.com/2020/04/30/20407/0.jpg",
        "mtId": "e9e2057cd6e2887d",
        "mtName": "\u4e45\u4e45Aimee",
        "jgId": "xiuren",
        "jgName": "\u79c0\u4eba\u7f51",
        "href": "http://d.duotuwang.com/2020/04/30/20407/",
        "count": 52,
        "start": 1,
        "hasMtTag": 1,
        "hasJgTag": 1,
        "mtCount": 7,
        "jgCount": 750
    },
    {
        "name": "[MFStar]\u6a21\u8303\u5b66\u9662 VOL.318 \u4e45\u4e45Aimee",
        "src": "http://d.duotuwang.com/2020/04/28/20421/0.jpg",
        "mtId": "e9e2057cd6e2887d",
        "mtName": "\u4e45\u4e45Aimee",
        "jgId": "mfstar",
        "jgName": "\u6a21\u8303\u5b66\u9662",
        "href": "http://d.duotuwang.com/2020/04/28/20421/",
        "count": 53,
        "start": 1,
        "hasMtTag": 1,
        "hasJgTag": 1,
        "mtCount": 7,
        "jgCount": 94
    },
    {
        "name": "[XIUREN]\u79c0\u4eba\u7f51 No.2138 \u4e45\u4e45Aimee",
        "src": "http://d.duotuwang.com/2020/04/09/20220/0.jpg",
        "mtId": "e9e2057cd6e2887d",
        "mtName": "\u4e45\u4e45Aimee",
        "jgId": "xiuren",
        "jgName": "\u79c0\u4eba\u7f51",
        "href": "http://d.duotuwang.com/2020/04/09/20220/",
        "count": 77,
        "start": 1,
        "hasMtTag": 1,
        "hasJgTag": 1,
        "mtCount": 7,
        "jgCount": 750
    }
]