[
    {
        "name": "[YOUMI]\u5c24\u871c\u835f VOL.021 \u6a31\u5c0f\u767dbaby",
        "src": "http://d.duotuwang.com/2017/03/01/3626/0.jpg",
        "mtId": "3fb26c7e4ae1519b",
        "mtName": "\u6a31\u5c0f\u767dbaby",
        "jgId": "youmi",
        "jgName": "\u5c24\u871c\u835f",
        "href": "http://d.duotuwang.com/2017/03/01/3626/",
        "count": 50,
        "start": 1,
        "hasMtTag": 1,
        "hasJgTag": 1,
        "mtCount": 1,
        "jgCount": 143
    }
]