[
    {
        "name": "[IMISS]\u7231\u871c\u793e VOL.643 Lynn\u5218\u5955\u5b81&Rossi",
        "src": "http://d.duotuwang.com/2021/11/17/27271/0.jpg",
        "mtId": "ec60803ccef20d32",
        "mtName": "\u5218\u5955\u5b81Lynn",
        "jgId": "imiss",
        "jgName": "\u7231\u871c\u793e",
        "href": "http://d.duotuwang.com/2021/11/17/27271/",
        "count": 44,
        "start": 1,
        "hasMtTag": 1,
        "hasJgTag": 1,
        "mtCount": 4,
        "jgCount": 116
    }
]