[
    {
        "name": "[Tukmo]\u5154\u51e0\u76df VOL.094 \u8d75\u4e43\u83b9",
        "src": "http://d.duotuwang.com/2017/07/05/4254/0.jpg",
        "mtId": "bb5e763a50bc57eb",
        "mtName": "\u8d75\u4e43\u83b9",
        "jgId": "tukmo",
        "jgName": "\u5154\u51e0\u76df",
        "href": "http://d.duotuwang.com/2017/07/05/4254/",
        "count": 33,
        "start": 1,
        "hasMtTag": 1,
        "hasJgTag": 1,
        "mtCount": 1,
        "jgCount": 3
    },
    {
        "name": "[Kimoe]\u6fc0\u840c\u6587\u5316 KIM015 \u8d75\u5976\u83b9 \u5976\u83b9\u5c0f\u82b1\u56ed",
        "src": "http://d.duotuwang.com/2017/01/06/4160/0.jpg",
        "mtId": "bb5e763a50bc57eb",
        "mtName": "\u8d75\u5976\u83b9",
        "jgId": "kimoe",
        "jgName": "\u6fc0\u840c\u6587\u5316",
        "href": "http://d.duotuwang.com/2017/01/06/4160/",
        "count": 40,
        "start": 1,
        "hasMtTag": 1,
        "hasJgTag": 1,
        "mtCount": 1,
        "jgCount": 5
    }
]