[
    {
        "name": "[XIUREN]\u79c0\u4eba\u7f51 No.4372 \u738b\u5fc3\u6021",
        "src": "http://d.duotuwang.com/2021/12/22/27849/0.jpg",
        "mtId": "0c94021581c07e86",
        "mtName": "\u738b\u5fc3\u6021",
        "jgId": "xiuren",
        "jgName": "\u79c0\u4eba\u7f51",
        "href": "http://d.duotuwang.com/2021/12/22/27849/",
        "count": 80,
        "start": 1,
        "hasMtTag": 1,
        "hasJgTag": 1,
        "mtCount": 6,
        "jgCount": 750
    },
    {
        "name": "[XIUREN]\u79c0\u4eba\u7f51 No.4315 \u738b\u5fc3\u6021",
        "src": "http://d.duotuwang.com/2021/12/08/27718/0.jpg",
        "mtId": "0c94021581c07e86",
        "mtName": "\u738b\u5fc3\u6021",
        "jgId": "xiuren",
        "jgName": "\u79c0\u4eba\u7f51",
        "href": "http://d.duotuwang.com/2021/12/08/27718/",
        "count": 90,
        "start": 1,
        "hasMtTag": 1,
        "hasJgTag": 1,
        "mtCount": 6,
        "jgCount": 750
    },
    {
        "name": "[XIUREN]\u79c0\u4eba\u7f51 No.4264 \u738b\u5fc3\u6021",
        "src": "http://d.duotuwang.com/2021/11/24/27549/0.jpg",
        "mtId": "0c94021581c07e86",
        "mtName": "\u738b\u5fc3\u6021",
        "jgId": "xiuren",
        "jgName": "\u79c0\u4eba\u7f51",
        "href": "http://d.duotuwang.com/2021/11/24/27549/",
        "count": 78,
        "start": 1,
        "hasMtTag": 1,
        "hasJgTag": 1,
        "mtCount": 6,
        "jgCount": 750
    },
    {
        "name": "[XIUREN]\u79c0\u4eba\u7f51 No.4203 \u738b\u5fc3\u6021",
        "src": "http://d.duotuwang.com/2021/11/11/27412/0.jpg",
        "mtId": "0c94021581c07e86",
        "mtName": "\u738b\u5fc3\u6021",
        "jgId": "xiuren",
        "jgName": "\u79c0\u4eba\u7f51",
        "href": "http://d.duotuwang.com/2021/11/11/27412/",
        "count": 75,
        "start": 1,
        "hasMtTag": 1,
        "hasJgTag": 1,
        "mtCount": 6,
        "jgCount": 750
    },
    {
        "name": "[XIUREN]\u79c0\u4eba\u7f51 No.4167 \u738b\u5fc3\u6021",
        "src": "http://d.duotuwang.com/2021/11/04/27302/0.jpg",
        "mtId": "0c94021581c07e86",
        "mtName": "\u738b\u5fc3\u6021",
        "jgId": "xiuren",
        "jgName": "\u79c0\u4eba\u7f51",
        "href": "http://d.duotuwang.com/2021/11/04/27302/",
        "count": 73,
        "start": 1,
        "hasMtTag": 1,
        "hasJgTag": 1,
        "mtCount": 6,
        "jgCount": 750
    },
    {
        "name": "[XIUREN]\u79c0\u4eba\u7f51 No.4134 \u738b\u5fc3\u6021",
        "src": "http://d.duotuwang.com/2021/10/28/27165/0.jpg",
        "mtId": "0c94021581c07e86",
        "mtName": "\u738b\u5fc3\u6021",
        "jgId": "xiuren",
        "jgName": "\u79c0\u4eba\u7f51",
        "href": "http://d.duotuwang.com/2021/10/28/27165/",
        "count": 75,
        "start": 1,
        "hasMtTag": 1,
        "hasJgTag": 1,
        "mtCount": 6,
        "jgCount": 750
    }
]