[
    {
        "name": "[XIUREN]\u79c0\u4eba\u7f51 No.3884 \u738b\u5fc3\u6021",
        "src": "http://d.duotuwang.com/2021/09/01/26424/0.jpg",
        "mtId": "0c94021581c07e86",
        "mtName": "\u738b\u5fc3\u6021",
        "jgId": "xiuren",
        "jgName": "\u79c0\u4eba\u7f51",
        "href": "http://d.duotuwang.com/2021/09/01/26424/",
        "count": 78,
        "start": 1,
        "hasMtTag": 1,
        "hasJgTag": 1,
        "mtCount": 6,
        "jgCount": 750
    },
    {
        "name": "[XIUREN]\u79c0\u4eba\u7f51 No.3852 \u738b\u5fc3\u6021",
        "src": "http://d.duotuwang.com/2021/08/25/26392/0.jpg",
        "mtId": "0c94021581c07e86",
        "mtName": "\u738b\u5fc3\u6021",
        "jgId": "xiuren",
        "jgName": "\u79c0\u4eba\u7f51",
        "href": "http://d.duotuwang.com/2021/08/25/26392/",
        "count": 82,
        "start": 1,
        "hasMtTag": 1,
        "hasJgTag": 1,
        "mtCount": 6,
        "jgCount": 750
    },
    {
        "name": "[XIUREN]\u79c0\u4eba\u7f51 No.3824 \u738b\u5fc3\u6021",
        "src": "http://d.duotuwang.com/2021/08/19/26364/0.jpg",
        "mtId": "0c94021581c07e86",
        "mtName": "\u738b\u5fc3\u6021",
        "jgId": "xiuren",
        "jgName": "\u79c0\u4eba\u7f51",
        "href": "http://d.duotuwang.com/2021/08/19/26364/",
        "count": 88,
        "start": 1,
        "hasMtTag": 1,
        "hasJgTag": 1,
        "mtCount": 6,
        "jgCount": 750
    },
    {
        "name": "[MyGirl]\u7f8e\u5a9b\u9986 VOL.560 \u5c0f\u5915juju",
        "src": "http://d.duotuwang.com/2021/07/21/25814/0.jpg",
        "mtId": "0c94021581c07e86",
        "mtName": "\u5c0f\u5915juju",
        "jgId": "mygirl",
        "jgName": "\u7f8e\u5a9b\u9986",
        "href": "http://d.duotuwang.com/2021/07/21/25814/",
        "count": 61,
        "start": 1,
        "hasMtTag": 1,
        "hasJgTag": 1,
        "mtCount": 6,
        "jgCount": 110
    },
    {
        "name": "[MyGirl]\u7f8e\u5a9b\u9986 VOL.554 \u5c0f\u5915juju",
        "src": "http://d.duotuwang.com/2021/07/13/25808/0.jpg",
        "mtId": "0c94021581c07e86",
        "mtName": "\u5c0f\u5915juju",
        "jgId": "mygirl",
        "jgName": "\u7f8e\u5a9b\u9986",
        "href": "http://d.duotuwang.com/2021/07/13/25808/",
        "count": 55,
        "start": 1,
        "hasMtTag": 1,
        "hasJgTag": 1,
        "mtCount": 6,
        "jgCount": 110
    },
    {
        "name": "[MyGirl]\u7f8e\u5a9b\u9986 VOL.552 \u5c0f\u5915juju",
        "src": "http://d.duotuwang.com/2021/07/09/25806/0.jpg",
        "mtId": "0c94021581c07e86",
        "mtName": "\u5c0f\u5915juju",
        "jgId": "mygirl",
        "jgName": "\u7f8e\u5a9b\u9986",
        "href": "http://d.duotuwang.com/2021/07/09/25806/",
        "count": 86,
        "start": 1,
        "hasMtTag": 1,
        "hasJgTag": 1,
        "mtCount": 6,
        "jgCount": 110
    }
]