[
    {
        "name": "[IMISS]\u7231\u871c\u793e VOL.278 \u838e\u838eSasa",
        "src": "http://d.duotuwang.com/2018/08/20/9535/0.jpg",
        "mtId": "b489f167220d9f73",
        "mtName": "\u838e\u838eSasa",
        "jgId": "imiss",
        "jgName": "\u7231\u871c\u793e",
        "href": "http://d.duotuwang.com/2018/08/20/9535/",
        "count": 45,
        "start": 1,
        "hasMtTag": 1,
        "hasJgTag": 1,
        "mtCount": 1,
        "jgCount": 116
    },
    {
        "name": "[LeYuan]\u661f\u4e50\u56ed VOL.002 \u838e\u838eSasa",
        "src": "http://d.duotuwang.com/2016/07/21/1886/0.jpg",
        "mtId": "b489f167220d9f73",
        "mtName": "\u838e\u838eSasa",
        "jgId": "leyuan",
        "jgName": "\u661f\u4e50\u56ed",
        "href": "http://d.duotuwang.com/2016/07/21/1886/",
        "count": 56,
        "start": 1,
        "hasMtTag": 1,
        "hasJgTag": 1,
        "mtCount": 1,
        "jgCount": 8
    }
]