[
    {
        "name": "[YouWu]\u5c24\u7269\u9986 VOL.072 LULU\u5c0f\u7490\u7490",
        "src": "http://d.duotuwang.com/2017/12/18/6686/0.jpg",
        "mtId": "210382b3dce227b2",
        "mtName": "LULU\u5c0f\u7490\u7490",
        "jgId": "youwu",
        "jgName": "\u5c24\u7269\u9986",
        "href": "http://d.duotuwang.com/2017/12/18/6686/",
        "count": 45,
        "start": 1,
        "hasMtTag": 1,
        "hasJgTag": 1,
        "mtCount": 1,
        "jgCount": 29
    },
    {
        "name": "[YouWu]\u5c24\u7269\u9986 VOL.071 baby\u8d1d\u8d1d",
        "src": "http://d.duotuwang.com/2017/12/05/6648/0.jpg",
        "mtId": "a1cec1434ad933b2",
        "mtName": "baby\u8d1d\u8d1d",
        "jgId": "youwu",
        "jgName": "\u5c24\u7269\u9986",
        "href": "http://d.duotuwang.com/2017/12/05/6648/",
        "count": 43,
        "start": 1,
        "hasMtTag": 1,
        "hasJgTag": 1,
        "mtCount": 2,
        "jgCount": 29
    },
    {
        "name": "[YouWu]\u5c24\u7269\u9986 VOL.070 \u6a21\u7279\u5408\u96c6",
        "src": "http://d.duotuwang.com/2017/11/29/6661/0.jpg",
        "jgId": "youwu",
        "jgName": "\u5c24\u7269\u9986",
        "href": "http://d.duotuwang.com/2017/11/29/6661/",
        "count": 40,
        "start": 1,
        "hasMtTag": 0,
        "hasJgTag": 1,
        "jgCount": 29
    },
    {
        "name": "[YouWu]\u5c24\u7269\u9986 VOL.069 \u6728\u6728hanna",
        "src": "http://d.duotuwang.com/2017/11/24/6427/0.jpg",
        "mtId": "f91c2d5e372754a2",
        "mtName": "\u6728\u6728hanna",
        "jgId": "youwu",
        "jgName": "\u5c24\u7269\u9986",
        "href": "http://d.duotuwang.com/2017/11/24/6427/",
        "count": 36,
        "start": 1,
        "hasMtTag": 1,
        "hasJgTag": 1,
        "mtCount": 2,
        "jgCount": 29
    },
    {
        "name": "[YouWu]\u5c24\u7269\u9986 VOL.068 seven\u4e03\u4e03",
        "src": "http://d.duotuwang.com/2017/11/13/6374/0.jpg",
        "jgId": "youwu",
        "jgName": "\u5c24\u7269\u9986",
        "href": "http://d.duotuwang.com/2017/11/13/6374/",
        "count": 45,
        "start": 1,
        "hasMtTag": 0,
        "hasJgTag": 1,
        "jgCount": 29
    },
    {
        "name": "[YouWu]\u5c24\u7269\u9986 VOL.067 \u6a21\u7279\u5408\u96c6",
        "src": "http://d.duotuwang.com/2017/11/10/6381/0.jpg",
        "jgId": "youwu",
        "jgName": "\u5c24\u7269\u9986",
        "href": "http://d.duotuwang.com/2017/11/10/6381/",
        "count": 40,
        "start": 1,
        "hasMtTag": 0,
        "hasJgTag": 1,
        "jgCount": 29
    }
]