[
    {
        "name": "[YouWu]\u5c24\u7269\u9986 VOL.168 \u6e29\u5fc3\u6021",
        "src": "http://d.duotuwang.com/2019/12/30/19096/0.jpg",
        "mtId": "735e57c1277ecc66",
        "mtName": "\u6e29\u5fc3\u6021",
        "jgId": "youwu",
        "jgName": "\u5c24\u7269\u9986",
        "href": "http://d.duotuwang.com/2019/12/30/19096/",
        "count": 40,
        "start": 1,
        "hasMtTag": 1,
        "hasJgTag": 1,
        "mtCount": 9,
        "jgCount": 29
    },
    {
        "name": "[YouWu]\u5c24\u7269\u9986 VOL.167 \u7b71\u6167",
        "src": "http://d.duotuwang.com/2019/12/18/18966/0.jpg",
        "mtId": "c739b89a0b9c02a0",
        "mtName": "\u7b71\u6167",
        "jgId": "youwu",
        "jgName": "\u5c24\u7269\u9986",
        "href": "http://d.duotuwang.com/2019/12/18/18966/",
        "count": 58,
        "start": 1,
        "hasMtTag": 1,
        "hasJgTag": 1,
        "mtCount": 17,
        "jgCount": 29
    },
    {
        "name": "[YouWu]\u5c24\u7269\u9986 VOL.166 nova\u674e\u96c5",
        "src": "http://d.duotuwang.com/2019/12/05/18802/0.jpg",
        "mtId": "7e50da9de4397e65",
        "mtName": "nova\u674e\u96c5",
        "jgId": "youwu",
        "jgName": "\u5c24\u7269\u9986",
        "href": "http://d.duotuwang.com/2019/12/05/18802/",
        "count": 52,
        "start": 1,
        "hasMtTag": 1,
        "hasJgTag": 1,
        "mtCount": 4,
        "jgCount": 29
    },
    {
        "name": "[YouWu]\u5c24\u7269\u9986 VOL.165 \u590f\u5c0f\u79cb\u79cb\u79cb",
        "src": "http://d.duotuwang.com/2019/11/18/18634/0.jpg",
        "mtId": "2db3bbd39f3dcb2c",
        "mtName": "\u590f\u5c0f\u79cb\u79cb\u79cb",
        "jgId": "youwu",
        "jgName": "\u5c24\u7269\u9986",
        "href": "http://d.duotuwang.com/2019/11/18/18634/",
        "count": 54,
        "start": 1,
        "hasMtTag": 1,
        "hasJgTag": 1,
        "mtCount": 5,
        "jgCount": 29
    },
    {
        "name": "[YouWu]\u5c24\u7269\u9986 VOL.164 \u7b71\u6167",
        "src": "http://d.duotuwang.com/2019/11/12/18556/0.jpg",
        "mtId": "c739b89a0b9c02a0",
        "mtName": "\u7b71\u6167",
        "jgId": "youwu",
        "jgName": "\u5c24\u7269\u9986",
        "href": "http://d.duotuwang.com/2019/11/12/18556/",
        "count": 51,
        "start": 1,
        "hasMtTag": 1,
        "hasJgTag": 1,
        "mtCount": 17,
        "jgCount": 29
    },
    {
        "name": "[YouWu]\u5c24\u7269\u9986 VOL.163 nova\u674e\u96c5",
        "src": "http://d.duotuwang.com/2019/11/05/18480/0.jpg",
        "mtId": "7e50da9de4397e65",
        "mtName": "nova\u674e\u96c5",
        "jgId": "youwu",
        "jgName": "\u5c24\u7269\u9986",
        "href": "http://d.duotuwang.com/2019/11/05/18480/",
        "count": 53,
        "start": 1,
        "hasMtTag": 1,
        "hasJgTag": 1,
        "mtCount": 4,
        "jgCount": 29
    }
]