[
    {
        "name": "[YouWu]\u5c24\u7269\u9986 VOL.030 \u8d75\u601d\u513f",
        "src": "http://d.duotuwang.com/2016/09/09/1664/0.jpg",
        "mtId": "260bc63f9a014d53",
        "mtName": "\u8d75\u601d\u513f",
        "jgId": "youwu",
        "jgName": "\u5c24\u7269\u9986",
        "href": "http://d.duotuwang.com/2016/09/09/1664/",
        "count": 54,
        "start": 1,
        "hasMtTag": 1,
        "hasJgTag": 1,
        "mtCount": 1,
        "jgCount": 29
    },
    {
        "name": "[YouWu]\u5c24\u7269\u9986 VOL.029 \u7d2b\u68cb",
        "src": "http://d.duotuwang.com/2016/09/06/1672/0.jpg",
        "mtId": "46f19806b00d7973",
        "mtName": "\u7d2b\u68cb",
        "jgId": "youwu",
        "jgName": "\u5c24\u7269\u9986",
        "href": "http://d.duotuwang.com/2016/09/06/1672/",
        "count": 63,
        "start": 1,
        "hasMtTag": 1,
        "hasJgTag": 1,
        "mtCount": 1,
        "jgCount": 29
    },
    {
        "name": "[YouWu]\u5c24\u7269\u9986 VOL.028 \u590f\u5c0f\u79cb\u79cb\u79cb",
        "src": "http://d.duotuwang.com/2016/09/01/1645/0.jpg",
        "mtId": "2db3bbd39f3dcb2c",
        "mtName": "\u590f\u5c0f\u79cb\u79cb\u79cb",
        "jgId": "youwu",
        "jgName": "\u5c24\u7269\u9986",
        "href": "http://d.duotuwang.com/2016/09/01/1645/",
        "count": 52,
        "start": 1,
        "hasMtTag": 1,
        "hasJgTag": 1,
        "mtCount": 5,
        "jgCount": 29
    },
    {
        "name": "[YouWu]\u5c24\u7269\u9986 VOL.027 \u84b2\u5170baby",
        "src": "http://d.duotuwang.com/2016/08/25/1620/0.jpg",
        "mtId": "6da310efa4e3ee95",
        "mtName": "\u5ca2\u5c9ababy",
        "jgId": "youwu",
        "jgName": "\u5c24\u7269\u9986",
        "href": "http://d.duotuwang.com/2016/08/25/1620/",
        "count": 73,
        "start": 1,
        "hasMtTag": 1,
        "hasJgTag": 1,
        "mtCount": 1,
        "jgCount": 29
    },
    {
        "name": "[YouWu]\u5c24\u7269\u9986 VOL.026 \u674e\u5b93\u513f",
        "src": "http://d.duotuwang.com/2016/08/22/1629/0.jpg",
        "mtId": "bd5953142f24cb0a",
        "mtName": "\u674e\u5b93\u513f",
        "jgId": "youwu",
        "jgName": "\u5c24\u7269\u9986",
        "href": "http://d.duotuwang.com/2016/08/22/1629/",
        "count": 70,
        "start": 1,
        "hasMtTag": 1,
        "hasJgTag": 1,
        "mtCount": 5,
        "jgCount": 29
    },
    {
        "name": "[YouWu]\u5c24\u7269\u9986 VOL.025 \u84b2\u5170baby",
        "src": "http://d.duotuwang.com/2016/08/17/1601/0.jpg",
        "mtId": "6da310efa4e3ee95",
        "mtName": "\u5ca2\u5c9ababy",
        "jgId": "youwu",
        "jgName": "\u5c24\u7269\u9986",
        "href": "http://d.duotuwang.com/2016/08/17/1601/",
        "count": 62,
        "start": 1,
        "hasMtTag": 1,
        "hasJgTag": 1,
        "mtCount": 1,
        "jgCount": 29
    }
]