[
    {
        "name": "[DKGirl]DK\u5fa1\u5973\u90ce VOL.096 Annie\u5b89\u59ae",
        "src": "http://d.duotuwang.com/2019/03/01/10772/0.jpg",
        "mtId": "fbcb5ba69b9e6015",
        "mtName": "Annie\u5b89\u59ae",
        "jgId": "dkgirl",
        "jgName": "DK\u5fa1\u5973\u90ce",
        "href": "http://d.duotuwang.com/2019/03/01/10772/",
        "count": 48,
        "start": 1,
        "hasMtTag": 1,
        "hasJgTag": 1,
        "mtCount": 1,
        "jgCount": 20
    },
    {
        "name": "[DKGirl]DK\u5fa1\u5973\u90ce VOL.091 Annie\u5b89\u59ae",
        "src": "http://d.duotuwang.com/2018/12/07/10113/0.jpg",
        "mtId": "fbcb5ba69b9e6015",
        "mtName": "Annie\u5b89\u59ae",
        "jgId": "dkgirl",
        "jgName": "DK\u5fa1\u5973\u90ce",
        "href": "http://d.duotuwang.com/2018/12/07/10113/",
        "count": 53,
        "start": 1,
        "hasMtTag": 1,
        "hasJgTag": 1,
        "mtCount": 1,
        "jgCount": 20
    },
    {
        "name": "[DKGirl]DK\u5fa1\u5973\u90ce VOL.084 Annie\u5b89\u59ae",
        "src": "http://d.duotuwang.com/2018/09/14/9668/0.jpg",
        "mtId": "fbcb5ba69b9e6015",
        "mtName": "Annie\u5b89\u59ae",
        "jgId": "dkgirl",
        "jgName": "DK\u5fa1\u5973\u90ce",
        "href": "http://d.duotuwang.com/2018/09/14/9668/",
        "count": 49,
        "start": 1,
        "hasMtTag": 1,
        "hasJgTag": 1,
        "mtCount": 1,
        "jgCount": 20
    }
]