[
    {
        "name": "[TGod]\u63a8\u5973\u795e 2016-05-26 \u738b\u4e54\u6069Abby",
        "src": "http://d.duotuwang.com/2016/05/26/2575/0.jpg",
        "mtId": "1b64d7753375a366",
        "mtName": "\u738b\u4e54\u6069Abby",
        "jgId": "tgod",
        "jgName": "\u63a8\u5973\u795e",
        "href": "http://d.duotuwang.com/2016/05/26/2575/",
        "count": 46,
        "start": 1,
        "hasMtTag": 1,
        "hasJgTag": 1,
        "mtCount": 2,
        "jgCount": 78
    },
    {
        "name": "[TGod]\u63a8\u5973\u795e 2016-05-19 \u738b\u4e54\u6069Abby",
        "src": "http://d.duotuwang.com/2016/05/19/2585/0.jpg",
        "mtId": "1b64d7753375a366",
        "mtName": "\u738b\u4e54\u6069Abby",
        "jgId": "tgod",
        "jgName": "\u63a8\u5973\u795e",
        "href": "http://d.duotuwang.com/2016/05/19/2585/",
        "count": 33,
        "start": 1,
        "hasMtTag": 1,
        "hasJgTag": 1,
        "mtCount": 2,
        "jgCount": 78
    },
    {
        "name": "[MFStar]\u6a21\u8303\u5b66\u9662 VOL.053 Abby\u738b\u4e54\u6069",
        "src": "http://d.duotuwang.com/2016/05/05/1377/0.jpg",
        "mtId": "1b64d7753375a366",
        "mtName": "Abby\u738b\u4e54\u6069",
        "jgId": "mfstar",
        "jgName": "\u6a21\u8303\u5b66\u9662",
        "href": "http://d.duotuwang.com/2016/05/05/1377/",
        "count": 52,
        "start": 1,
        "hasMtTag": 1,
        "hasJgTag": 1,
        "mtCount": 2,
        "jgCount": 94
    },
    {
        "name": "[MyGirl]\u7f8e\u5a9b\u9986 VOL.202 Abby\u738b\u4e54\u6069",
        "src": "http://d.duotuwang.com/2016/04/14/1340/0.jpg",
        "mtId": "1b64d7753375a366",
        "mtName": "Abby\u738b\u4e54\u6069",
        "jgId": "mygirl",
        "jgName": "\u7f8e\u5a9b\u9986",
        "href": "http://d.duotuwang.com/2016/04/14/1340/",
        "count": 41,
        "start": 1,
        "hasMtTag": 1,
        "hasJgTag": 1,
        "mtCount": 2,
        "jgCount": 110
    },
    {
        "name": "[TGod]\u63a8\u5973\u795e 2016-04-03 Abby\u738b\u4e54\u6069",
        "src": "http://d.duotuwang.com/2016/04/03/2524/0.jpg",
        "mtId": "1b64d7753375a366",
        "mtName": "Abby\u738b\u4e54\u6069",
        "jgId": "tgod",
        "jgName": "\u63a8\u5973\u795e",
        "href": "http://d.duotuwang.com/2016/04/03/2524/",
        "count": 37,
        "start": 1,
        "hasMtTag": 1,
        "hasJgTag": 1,
        "mtCount": 2,
        "jgCount": 78
    },
    {
        "name": "[TGod]\u63a8\u5973\u795e 2016-04-01 Abby\u738b\u4e54\u6069",
        "src": "http://d.duotuwang.com/2016/04/01/2529/0.jpg",
        "mtId": "1b64d7753375a366",
        "mtName": "Abby\u738b\u4e54\u6069",
        "jgId": "tgod",
        "jgName": "\u63a8\u5973\u795e",
        "href": "http://d.duotuwang.com/2016/04/01/2529/",
        "count": 46,
        "start": 1,
        "hasMtTag": 1,
        "hasJgTag": 1,
        "mtCount": 2,
        "jgCount": 78
    }
]