[
    {
        "name": "[FEILIN]\u55f2\u56e1\u56e1 VOL.103 \u6657\u5927\u5927Via",
        "src": "http://d.duotuwang.com/2017/07/31/5435/0.jpg",
        "mtId": "a91f562611903efd",
        "mtName": "\u6657\u5927\u5927Via",
        "jgId": "feilin",
        "jgName": "\u55f2\u56e1\u56e1",
        "href": "http://d.duotuwang.com/2017/07/31/5435/",
        "count": 56,
        "start": 1,
        "hasMtTag": 1,
        "hasJgTag": 1,
        "mtCount": 3,
        "jgCount": 61
    },
    {
        "name": "[FEILIN]\u55f2\u56e1\u56e1 VOL.099 \u6657\u5927\u5927Via",
        "src": "http://d.duotuwang.com/2017/07/05/4241/0.jpg",
        "mtId": "a91f562611903efd",
        "mtName": "\u6657\u5927\u5927Via",
        "jgId": "feilin",
        "jgName": "\u55f2\u56e1\u56e1",
        "href": "http://d.duotuwang.com/2017/07/05/4241/",
        "count": 40,
        "start": 1,
        "hasMtTag": 1,
        "hasJgTag": 1,
        "mtCount": 3,
        "jgCount": 61
    },
    {
        "name": "[Girlt]\u679c\u56e2\u7f51 GT020 \u6657\u6657",
        "src": "http://d.duotuwang.com/2017/06/22/4040/0.jpg",
        "mtId": "a91f562611903efd",
        "mtName": "\u6657\u5927\u5927Via",
        "jgId": "girlt",
        "jgName": "\u679c\u56e2\u7f51",
        "href": "http://d.duotuwang.com/2017/06/22/4040/",
        "count": 42,
        "start": 1,
        "hasMtTag": 1,
        "hasJgTag": 1,
        "mtCount": 3,
        "jgCount": 37
    },
    {
        "name": "[FEILIN]\u55f2\u56e1\u56e1 VOL.096 \u6657\u5927\u5927Via",
        "src": "http://d.duotuwang.com/2017/06/06/3923/0.jpg",
        "mtId": "a91f562611903efd",
        "mtName": "\u6657\u5927\u5927Via",
        "jgId": "feilin",
        "jgName": "\u55f2\u56e1\u56e1",
        "href": "http://d.duotuwang.com/2017/06/06/3923/",
        "count": 52,
        "start": 1,
        "hasMtTag": 1,
        "hasJgTag": 1,
        "mtCount": 3,
        "jgCount": 61
    },
    {
        "name": "[FEILIN]\u55f2\u56e1\u56e1 VOL.089 \u6657\u5927\u5927Via",
        "src": "http://d.duotuwang.com/2017/04/28/3815/0.jpg",
        "mtId": "a91f562611903efd",
        "mtName": "\u6657\u5927\u5927Via",
        "jgId": "feilin",
        "jgName": "\u55f2\u56e1\u56e1",
        "href": "http://d.duotuwang.com/2017/04/28/3815/",
        "count": 40,
        "start": 1,
        "hasMtTag": 1,
        "hasJgTag": 1,
        "mtCount": 3,
        "jgCount": 61
    },
    {
        "name": "[FEILIN]\u55f2\u56e1\u56e1 VOL.013 \u6657\u5927\u5927Via",
        "src": "http://d.duotuwang.com/2015/11/05/1087/0.jpg",
        "mtId": "a91f562611903efd",
        "mtName": "\u6657\u5927\u5927Via",
        "jgId": "feilin",
        "jgName": "\u55f2\u56e1\u56e1",
        "href": "http://d.duotuwang.com/2015/11/05/1087/",
        "count": 50,
        "start": 1,
        "hasMtTag": 1,
        "hasJgTag": 1,
        "mtCount": 3,
        "jgCount": 61
    }
]