[
    {
        "name": "[XIUREN]\u79c0\u4eba\u7f51 No.679 \u865e\u59ec\u513f",
        "src": "http://d.duotuwang.com/2017/01/12/2020/0.jpg",
        "mtId": "60353c93e9c10c2a",
        "mtName": "\u865e\u59ec\u513f",
        "jgId": "xiuren",
        "jgName": "\u79c0\u4eba\u7f51",
        "href": "http://d.duotuwang.com/2017/01/12/2020/",
        "count": 60,
        "start": 1,
        "hasMtTag": 1,
        "hasJgTag": 1,
        "mtCount": 1,
        "jgCount": 750
    },
    {
        "name": "[XIUREN]\u79c0\u4eba\u7f51 No.668 \u865e\u59ec\u513f",
        "src": "http://d.duotuwang.com/2016/12/28/1984/0.jpg",
        "mtId": "60353c93e9c10c2a",
        "mtName": "\u865e\u59ec\u513f",
        "jgId": "xiuren",
        "jgName": "\u79c0\u4eba\u7f51",
        "href": "http://d.duotuwang.com/2016/12/28/1984/",
        "count": 84,
        "start": 1,
        "hasMtTag": 1,
        "hasJgTag": 1,
        "mtCount": 1,
        "jgCount": 750
    },
    {
        "name": "[XIUREN]\u79c0\u4eba\u7f51 No.658 \u865e\u59ec\u513f",
        "src": "http://d.duotuwang.com/2016/12/13/1933/0.jpg",
        "mtId": "60353c93e9c10c2a",
        "mtName": "\u865e\u59ec\u513f",
        "jgId": "xiuren",
        "jgName": "\u79c0\u4eba\u7f51",
        "href": "http://d.duotuwang.com/2016/12/13/1933/",
        "count": 99,
        "start": 1,
        "hasMtTag": 1,
        "hasJgTag": 1,
        "mtCount": 1,
        "jgCount": 750
    },
    {
        "name": "[XIUREN]\u79c0\u4eba\u7f51 No.643 \u865e\u59ec\u513f",
        "src": "http://d.duotuwang.com/2016/11/23/1816/0.jpg",
        "mtId": "60353c93e9c10c2a",
        "mtName": "\u865e\u59ec\u513f",
        "jgId": "xiuren",
        "jgName": "\u79c0\u4eba\u7f51",
        "href": "http://d.duotuwang.com/2016/11/23/1816/",
        "count": 70,
        "start": 1,
        "hasMtTag": 1,
        "hasJgTag": 1,
        "mtCount": 1,
        "jgCount": 750
    }
]