[
    {
        "name": "[XIUREN]\u79c0\u4eba\u7f51 No.044 \u4e8e\u5927\u5c0f\u59d0AYU",
        "src": "http://d.duotuwang.com/2013/11/13/384/0.jpg",
        "mtId": "d3ce92301780802d",
        "mtName": "\u4e8e\u5927\u5c0f\u59d0AYU",
        "jgId": "xiuren",
        "jgName": "\u79c0\u4eba\u7f51",
        "href": "http://d.duotuwang.com/2013/11/13/384/",
        "count": 50,
        "start": 1,
        "hasMtTag": 1,
        "hasJgTag": 1,
        "mtCount": 3,
        "jgCount": 750
    },
    {
        "name": "[XIUREN]\u79c0\u4eba\u7f51 No.035 \u4e8e\u5927\u5c0f\u59d0AYU",
        "src": "http://d.duotuwang.com/2013/10/23/377/0.jpg",
        "mtId": "d3ce92301780802d",
        "mtName": "\u4e8e\u5927\u5c0f\u59d0AYU",
        "jgId": "xiuren",
        "jgName": "\u79c0\u4eba\u7f51",
        "href": "http://d.duotuwang.com/2013/10/23/377/",
        "count": 51,
        "start": 1,
        "hasMtTag": 1,
        "hasJgTag": 1,
        "mtCount": 3,
        "jgCount": 750
    },
    {
        "name": "[XIUREN]\u79c0\u4eba\u7f51 No.031 \u4e8e\u5927\u5c0f\u59d0AYU",
        "src": "http://d.duotuwang.com/2013/10/16/375/0.jpg",
        "mtId": "d3ce92301780802d",
        "mtName": "\u4e8e\u5927\u5c0f\u59d0AYU",
        "jgId": "xiuren",
        "jgName": "\u79c0\u4eba\u7f51",
        "href": "http://d.duotuwang.com/2013/10/16/375/",
        "count": 50,
        "start": 1,
        "hasMtTag": 1,
        "hasJgTag": 1,
        "mtCount": 3,
        "jgCount": 750
    },
    {
        "name": "[XIUREN]\u79c0\u4eba\u7f51 No.022 \u4e8e\u5927\u5c0f\u59d0AYU",
        "src": "http://d.duotuwang.com/2013/10/05/367/0.jpg",
        "mtId": "d3ce92301780802d",
        "mtName": "\u4e8e\u5927\u5c0f\u59d0AYU",
        "jgId": "xiuren",
        "jgName": "\u79c0\u4eba\u7f51",
        "href": "http://d.duotuwang.com/2013/10/05/367/",
        "count": 50,
        "start": 1,
        "hasMtTag": 1,
        "hasJgTag": 1,
        "mtCount": 3,
        "jgCount": 750
    }
]