[
    {
        "name": "[UGirlsAPP]\u7231\u5c24\u7269 No.2174 \u590f\u5e0c\u5b50 \u6d45\u7eb1\u6d6a\u6f2b",
        "src": "http://d.duotuwang.com/2021/09/15/26502/0.jpg",
        "mtId": "07efa52e6fc3b6a5",
        "mtName": "\u590f\u5e0c\u5b50",
        "jgId": "ugirlsapp",
        "jgName": "\u7231\u5c24\u7269",
        "href": "http://d.duotuwang.com/2021/09/15/26502/",
        "count": 35,
        "start": 1,
        "hasMtTag": 1,
        "hasJgTag": 1,
        "mtCount": 1,
        "jgCount": 397
    },
    {
        "name": "[UGirlsAPP]\u7231\u5c24\u7269 No.2137 \u590f\u5e0c\u5b50 \u7c89\u591c",
        "src": "http://d.duotuwang.com/2021/07/24/25935/0.jpg",
        "mtId": "07efa52e6fc3b6a5",
        "mtName": "\u590f\u5e0c\u5b50",
        "jgId": "ugirlsapp",
        "jgName": "\u7231\u5c24\u7269",
        "href": "http://d.duotuwang.com/2021/07/24/25935/",
        "count": 33,
        "start": 1,
        "hasMtTag": 1,
        "hasJgTag": 1,
        "mtCount": 1,
        "jgCount": 397
    },
    {
        "name": "[MiStar]\u9b45\u598d\u793e VOL.320 \u590f\u5e0c\u5b50",
        "src": "http://d.duotuwang.com/2020/02/20/19613/0.jpg",
        "mtId": "07efa52e6fc3b6a5",
        "mtName": "\u590f\u5e0c\u5b50",
        "jgId": "mistar",
        "jgName": "\u9b45\u598d\u793e",
        "href": "http://d.duotuwang.com/2020/02/20/19613/",
        "count": 40,
        "start": 1,
        "hasMtTag": 1,
        "hasJgTag": 1,
        "mtCount": 1,
        "jgCount": 55
    },
    {
        "name": "[UGirlsAPP]\u7231\u5c24\u7269 No.1699 \u590f\u5e0c\u5b50 \u9047\u89c1\u5fc3\u52a8",
        "src": "http://d.duotuwang.com/2020/01/13/19338/0.jpg",
        "mtId": "07efa52e6fc3b6a5",
        "mtName": "\u590f\u5e0c\u5b50",
        "jgId": "ugirlsapp",
        "jgName": "\u7231\u5c24\u7269",
        "href": "http://d.duotuwang.com/2020/01/13/19338/",
        "count": 35,
        "start": 1,
        "hasMtTag": 1,
        "hasJgTag": 1,
        "mtCount": 1,
        "jgCount": 397
    },
    {
        "name": "[MiStar]\u9b45\u598d\u793e VOL.317 \u590f\u5e0c\u5b50",
        "src": "http://d.duotuwang.com/2019/12/26/19092/0.jpg",
        "mtId": "07efa52e6fc3b6a5",
        "mtName": "\u590f\u5e0c\u5b50",
        "jgId": "mistar",
        "jgName": "\u9b45\u598d\u793e",
        "href": "http://d.duotuwang.com/2019/12/26/19092/",
        "count": 42,
        "start": 1,
        "hasMtTag": 1,
        "hasJgTag": 1,
        "mtCount": 1,
        "jgCount": 55
    }
]