[
    {
        "name": "[toutiaogirls]\u5934\u6761\u5973\u795e 2016-11-09 \u6881\u82ae\u6eaa",
        "src": "http://d.duotuwang.com/2016/11/09/3592/0.jpg",
        "jgId": "toutiaogirls",
        "jgName": "\u5934\u6761\u5973\u795e",
        "href": "http://d.duotuwang.com/2016/11/09/3592/",
        "count": 30,
        "start": 1,
        "hasMtTag": 0,
        "hasJgTag": 1,
        "jgCount": 133
    },
    {
        "name": "[toutiaogirls]\u5934\u6761\u5973\u795e 2016-11-07 K8\u50b2\u5a07\u840c\u840cVivian",
        "src": "http://d.duotuwang.com/2016/11/07/3456/0.jpg",
        "mtId": "211e912dfdb41ee3",
        "mtName": "K8\u50b2\u5a07\u840c\u840cVivian",
        "jgId": "toutiaogirls",
        "jgName": "\u5934\u6761\u5973\u795e",
        "href": "http://d.duotuwang.com/2016/11/07/3456/",
        "count": 18,
        "start": 1,
        "hasMtTag": 1,
        "hasJgTag": 1,
        "mtCount": 10,
        "jgCount": 133
    },
    {
        "name": "[toutiaogirls]\u5934\u6761\u5973\u795e 2016-11-06 \u840c\u742a\u742a",
        "src": "http://d.duotuwang.com/2016/11/06/3591/0.jpg",
        "mtId": "66729276e15617cd",
        "mtName": "\u840c\u742a\u742a",
        "jgId": "toutiaogirls",
        "jgName": "\u5934\u6761\u5973\u795e",
        "href": "http://d.duotuwang.com/2016/11/06/3591/",
        "count": 42,
        "start": 1,
        "hasMtTag": 1,
        "hasJgTag": 1,
        "mtCount": 7,
        "jgCount": 133
    },
    {
        "name": "[toutiaogirls]\u5934\u6761\u5973\u795e 2016-11-06 K8\u50b2\u5a07\u840c\u840cVivian",
        "src": "http://d.duotuwang.com/2016/11/06/3457/0.jpg",
        "mtId": "211e912dfdb41ee3",
        "mtName": "K8\u50b2\u5a07\u840c\u840cVivian",
        "jgId": "toutiaogirls",
        "jgName": "\u5934\u6761\u5973\u795e",
        "href": "http://d.duotuwang.com/2016/11/06/3457/",
        "count": 18,
        "start": 1,
        "hasMtTag": 1,
        "hasJgTag": 1,
        "mtCount": 10,
        "jgCount": 133
    },
    {
        "name": "[toutiaogirls]\u5934\u6761\u5973\u795e 2016-11-05 \u9648\u5b87\u66e6",
        "src": "http://d.duotuwang.com/2016/11/05/3458/0.jpg",
        "mtId": "e6191308df24ea26",
        "mtName": "\u9648\u5b87\u66e6",
        "jgId": "toutiaogirls",
        "jgName": "\u5934\u6761\u5973\u795e",
        "href": "http://d.duotuwang.com/2016/11/05/3458/",
        "count": 25,
        "start": 1,
        "hasMtTag": 1,
        "hasJgTag": 1,
        "mtCount": 10,
        "jgCount": 133
    },
    {
        "name": "[toutiaogirls]\u5934\u6761\u5973\u795e 2016-11-03 \u738b\u51cc\u5b87",
        "src": "http://d.duotuwang.com/2016/11/03/3460/0.jpg",
        "mtId": "0b255aa2c25b15aa",
        "mtName": "\u738b\u51cc\u5b87",
        "jgId": "toutiaogirls",
        "jgName": "\u5934\u6761\u5973\u795e",
        "href": "http://d.duotuwang.com/2016/11/03/3460/",
        "count": 25,
        "start": 1,
        "hasMtTag": 1,
        "hasJgTag": 1,
        "mtCount": 1,
        "jgCount": 133
    }
]