[
    {
        "name": "[toutiaogirls]\u5934\u6761\u5973\u795e 2016-11-02 K8\u50b2\u5a07\u840c\u840cVivian",
        "src": "http://d.duotuwang.com/2016/11/02/3431/0.jpg",
        "mtId": "211e912dfdb41ee3",
        "mtName": "K8\u50b2\u5a07\u840c\u840cVivian",
        "jgId": "toutiaogirls",
        "jgName": "\u5934\u6761\u5973\u795e",
        "href": "http://d.duotuwang.com/2016/11/02/3431/",
        "count": 22,
        "start": 1,
        "hasMtTag": 1,
        "hasJgTag": 1,
        "mtCount": 10,
        "jgCount": 133
    },
    {
        "name": "[toutiaogirls]\u5934\u6761\u5973\u795e 2016-11-01 \u9648\u5b87\u66e6",
        "src": "http://d.duotuwang.com/2016/11/01/3432/0.jpg",
        "mtId": "e6191308df24ea26",
        "mtName": "\u9648\u5b87\u66e6",
        "jgId": "toutiaogirls",
        "jgName": "\u5934\u6761\u5973\u795e",
        "href": "http://d.duotuwang.com/2016/11/01/3432/",
        "count": 21,
        "start": 1,
        "hasMtTag": 1,
        "hasJgTag": 1,
        "mtCount": 10,
        "jgCount": 133
    },
    {
        "name": "[toutiaogirls]\u5934\u6761\u5973\u795e 2016-10-31 \u6881\u82ae\u7199",
        "src": "http://d.duotuwang.com/2016/10/31/3590/0.jpg",
        "jgId": "toutiaogirls",
        "jgName": "\u5934\u6761\u5973\u795e",
        "href": "http://d.duotuwang.com/2016/10/31/3590/",
        "count": 26,
        "start": 1,
        "hasMtTag": 0,
        "hasJgTag": 1,
        "jgCount": 133
    },
    {
        "name": "[toutiaogirls]\u5934\u6761\u5973\u795e 2016-10-31 \u5c0f\u9752",
        "src": "http://d.duotuwang.com/2016/10/31/3433/0.jpg",
        "jgId": "toutiaogirls",
        "jgName": "\u5934\u6761\u5973\u795e",
        "href": "http://d.duotuwang.com/2016/10/31/3433/",
        "count": 20,
        "start": 1,
        "hasMtTag": 0,
        "hasJgTag": 1,
        "jgCount": 133
    },
    {
        "name": "[toutiaogirls]\u5934\u6761\u5973\u795e 2016-10-29 \u7b71\u59ae",
        "src": "http://d.duotuwang.com/2016/10/29/3434/0.jpg",
        "jgId": "toutiaogirls",
        "jgName": "\u5934\u6761\u5973\u795e",
        "href": "http://d.duotuwang.com/2016/10/29/3434/",
        "count": 20,
        "start": 1,
        "hasMtTag": 0,
        "hasJgTag": 1,
        "jgCount": 133
    },
    {
        "name": "[toutiaogirls]\u5934\u6761\u5973\u795e 2016-10-28 \u674e\u6893\u7199",
        "src": "http://d.duotuwang.com/2016/10/28/3435/0.jpg",
        "mtId": "c20a8d8edc6f01e7",
        "mtName": "\u674e\u6893\u7199",
        "jgId": "toutiaogirls",
        "jgName": "\u5934\u6761\u5973\u795e",
        "href": "http://d.duotuwang.com/2016/10/28/3435/",
        "count": 26,
        "start": 1,
        "hasMtTag": 1,
        "hasJgTag": 1,
        "mtCount": 7,
        "jgCount": 133
    }
]