[
    {
        "name": "[toutiaogirls]\u5934\u6761\u5973\u795e 2019-08-10 \u832f\u82d3 \u6211\u7684\u6691\u5047",
        "src": "http://d.duotuwang.com/2019/08/10/17741/0.jpg",
        "mtId": "7732b3a4fafa2a5d",
        "mtName": "\u832f\u82d3",
        "jgId": "toutiaogirls",
        "jgName": "\u5934\u6761\u5973\u795e",
        "href": "http://d.duotuwang.com/2019/08/10/17741/",
        "count": 19,
        "start": 1,
        "hasMtTag": 1,
        "hasJgTag": 1,
        "mtCount": 3,
        "jgCount": 133
    },
    {
        "name": "[toutiaogirls]\u5934\u6761\u5973\u795e 2019-08-07 \u7384\u5b50 \u4e03\u5915\u4e4b\u767d\u7d20\u8d1e\u548c\u9752\u5c0f\u5a49",
        "src": "http://d.duotuwang.com/2019/08/07/17740/0.jpg",
        "mtId": "96b4696740fbbe72",
        "mtName": "\u7384\u5b50",
        "jgId": "toutiaogirls",
        "jgName": "\u5934\u6761\u5973\u795e",
        "href": "http://d.duotuwang.com/2019/08/07/17740/",
        "count": 21,
        "start": 1,
        "hasMtTag": 1,
        "hasJgTag": 1,
        "mtCount": 5,
        "jgCount": 133
    },
    {
        "name": "[toutiaogirls]\u5934\u6761\u5973\u795e 2019-08-03 \u56e2\u56e2 \u7f8e\u5f0f\u5927\u599e",
        "src": "http://d.duotuwang.com/2019/08/03/17626/0.jpg",
        "mtId": "86d0ab4ed68ebfcb",
        "mtName": "\u56e2\u56e2",
        "jgId": "toutiaogirls",
        "jgName": "\u5934\u6761\u5973\u795e",
        "href": "http://d.duotuwang.com/2019/08/03/17626/",
        "count": 6,
        "start": 1,
        "hasMtTag": 1,
        "hasJgTag": 1,
        "mtCount": 2,
        "jgCount": 133
    },
    {
        "name": "[toutiaogirls]\u5934\u6761\u5973\u795e 2019-08-03 \u9ece\u5b89\u96c5 \u98de\u5929\u5c0f\u5973\u8b66",
        "src": "http://d.duotuwang.com/2019/08/03/17625/0.jpg",
        "jgId": "toutiaogirls",
        "jgName": "\u5934\u6761\u5973\u795e",
        "href": "http://d.duotuwang.com/2019/08/03/17625/",
        "count": 10,
        "start": 1,
        "hasMtTag": 0,
        "hasJgTag": 1,
        "jgCount": 133
    },
    {
        "name": "[toutiaogirls]\u5934\u6761\u5973\u795e 2019-08-02 \u5c0f\u4e54 \u5c0f\u4e54\u6d41\u6c34\u4eba\u5bb6",
        "src": "http://d.duotuwang.com/2019/08/02/17521/0.jpg",
        "mtId": "d3fbbf5d38368b84",
        "mtName": "\u5c0f\u4e54",
        "jgId": "toutiaogirls",
        "jgName": "\u5934\u6761\u5973\u795e",
        "href": "http://d.duotuwang.com/2019/08/02/17521/",
        "count": 7,
        "start": 1,
        "hasMtTag": 1,
        "hasJgTag": 1,
        "mtCount": 6,
        "jgCount": 133
    },
    {
        "name": "[toutiaogirls]\u5934\u6761\u5973\u795e 2019-07-25 \u7d22\u83f2 \u8db3\u7403\u5b9d\u8d1d\u7d22\u83f2\u5a05",
        "src": "http://d.duotuwang.com/2019/07/25/17462/0.jpg",
        "mtId": "c81c82aafbbc65f4",
        "mtName": "\u7d22\u83f2",
        "jgId": "toutiaogirls",
        "jgName": "\u5934\u6761\u5973\u795e",
        "href": "http://d.duotuwang.com/2019/07/25/17462/",
        "count": 12,
        "start": 1,
        "hasMtTag": 1,
        "hasJgTag": 1,
        "mtCount": 1,
        "jgCount": 133
    }
]