[
    {
        "name": "[toutiaogirls]\u5934\u6761\u5973\u795e 2016-05-06 \u7477\u59ae",
        "src": "http://d.duotuwang.com/2016/05/06/3292/0.jpg",
        "jgId": "toutiaogirls",
        "jgName": "\u5934\u6761\u5973\u795e",
        "href": "http://d.duotuwang.com/2016/05/06/3292/",
        "count": 48,
        "start": 1,
        "hasMtTag": 0,
        "hasJgTag": 1,
        "jgCount": 133
    },
    {
        "name": "[toutiaogirls]\u5934\u6761\u5973\u795e 2016-05-05 \u829d\u829d",
        "src": "http://d.duotuwang.com/2016/05/05/3293/0.jpg",
        "jgId": "toutiaogirls",
        "jgName": "\u5934\u6761\u5973\u795e",
        "href": "http://d.duotuwang.com/2016/05/05/3293/",
        "count": 43,
        "start": 1,
        "hasMtTag": 0,
        "hasJgTag": 1,
        "jgCount": 133
    },
    {
        "name": "[toutiaogirls]\u5934\u6761\u5973\u795e 2016-04-22 \u6587\u96ea",
        "src": "http://d.duotuwang.com/2016/04/22/3294/0.jpg",
        "mtId": "05fdd9880e9d8dd5",
        "mtName": "\u6587\u96ea",
        "jgId": "toutiaogirls",
        "jgName": "\u5934\u6761\u5973\u795e",
        "href": "http://d.duotuwang.com/2016/04/22/3294/",
        "count": 14,
        "start": 1,
        "hasMtTag": 1,
        "hasJgTag": 1,
        "mtCount": 2,
        "jgCount": 133
    },
    {
        "name": "[toutiaogirls]\u5934\u6761\u5973\u795e 2016-04-22 \u5f20\u8bd1\u4e39",
        "src": "http://d.duotuwang.com/2016/04/22/3295/0.jpg",
        "jgId": "toutiaogirls",
        "jgName": "\u5934\u6761\u5973\u795e",
        "href": "http://d.duotuwang.com/2016/04/22/3295/",
        "count": 49,
        "start": 1,
        "hasMtTag": 0,
        "hasJgTag": 1,
        "jgCount": 133
    },
    {
        "name": "[toutiaogirls]\u5934\u6761\u5973\u795e 2016-04-22 \u5218\u96e8\u9732",
        "src": "http://d.duotuwang.com/2016/04/22/3296/0.jpg",
        "jgId": "toutiaogirls",
        "jgName": "\u5934\u6761\u5973\u795e",
        "href": "http://d.duotuwang.com/2016/04/22/3296/",
        "count": 42,
        "start": 1,
        "hasMtTag": 0,
        "hasJgTag": 1,
        "jgCount": 133
    },
    {
        "name": "[toutiaogirls]\u5934\u6761\u5973\u795e 2016-04-22 \u86cb\u86cb",
        "src": "http://d.duotuwang.com/2016/04/22/3575/0.jpg",
        "jgId": "toutiaogirls",
        "jgName": "\u5934\u6761\u5973\u795e",
        "href": "http://d.duotuwang.com/2016/04/22/3575/",
        "count": 39,
        "start": 1,
        "hasMtTag": 0,
        "hasJgTag": 1,
        "jgCount": 133
    }
]