[
    {
        "name": "[toutiaogirls]\u5934\u6761\u5973\u795e 2019-06-09 \u897f\u897f",
        "src": "http://d.duotuwang.com/2019/06/09/16823/0.jpg",
        "jgId": "toutiaogirls",
        "jgName": "\u5934\u6761\u5973\u795e",
        "href": "http://d.duotuwang.com/2019/06/09/16823/",
        "count": 14,
        "start": 1,
        "hasMtTag": 0,
        "hasJgTag": 1,
        "jgCount": 133
    },
    {
        "name": "[toutiaogirls]\u5934\u6761\u5973\u795e 2019-06-08 \u6e29\u920a\u6021",
        "src": "http://d.duotuwang.com/2019/06/08/16822/0.jpg",
        "mtId": "66734acb57d94af0",
        "mtName": "\u6e29\u920a\u6021",
        "jgId": "toutiaogirls",
        "jgName": "\u5934\u6761\u5973\u795e",
        "href": "http://d.duotuwang.com/2019/06/08/16822/",
        "count": 16,
        "start": 1,
        "hasMtTag": 1,
        "hasJgTag": 1,
        "mtCount": 2,
        "jgCount": 133
    },
    {
        "name": "[toutiaogirls]\u5934\u6761\u5973\u795e 2019-06-02 \u5a07\u5a07\u5c0f\u670b\u53cb \u53ef\u7231\u7684\u6211\u4eec\u516d\u4e00\u5feb\u4e50",
        "src": "http://d.duotuwang.com/2019/06/02/16821/0.jpg",
        "mtId": "41ab5678cb11b1db",
        "mtName": "\u51af\u96ea\u5a07",
        "jgId": "toutiaogirls",
        "jgName": "\u5934\u6761\u5973\u795e",
        "href": "http://d.duotuwang.com/2019/06/02/16821/",
        "count": 10,
        "start": 1,
        "hasMtTag": 1,
        "hasJgTag": 1,
        "mtCount": 3,
        "jgCount": 133
    },
    {
        "name": "[toutiaogirls]\u5934\u6761\u5973\u795e 2019-05-30 \u5a1c\u4f9d\u7075\u513f \u79c1\u623f\u6b27\u7f8e\u98ce",
        "src": "http://d.duotuwang.com/2019/05/30/16820/0.jpg",
        "mtId": "91d9c781fb3a24db",
        "mtName": "\u5a1c\u4f9d\u7075\u513f",
        "jgId": "toutiaogirls",
        "jgName": "\u5934\u6761\u5973\u795e",
        "href": "http://d.duotuwang.com/2019/05/30/16820/",
        "count": 17,
        "start": 1,
        "hasMtTag": 1,
        "hasJgTag": 1,
        "mtCount": 5,
        "jgCount": 133
    },
    {
        "name": "[toutiaogirls]\u5934\u6761\u5973\u795e 2019-05-28 \u6f20\u6f7c \u6211\u662f\u7235\u58eb\u821e\u8005",
        "src": "http://d.duotuwang.com/2019/05/28/16696/0.jpg",
        "jgId": "toutiaogirls",
        "jgName": "\u5934\u6761\u5973\u795e",
        "href": "http://d.duotuwang.com/2019/05/28/16696/",
        "count": 18,
        "start": 1,
        "hasMtTag": 0,
        "hasJgTag": 1,
        "jgCount": 133
    },
    {
        "name": "[toutiaogirls]\u5934\u6761\u5973\u795e 2019-05-26 \u949f\u6674 \u6211\u662f\u4f60\u7684\u5c0f\u6674\u5b50",
        "src": "http://d.duotuwang.com/2019/05/26/16635/0.jpg",
        "mtId": "bbc57afa18e8743b",
        "mtName": "\u949f\u6674",
        "jgId": "toutiaogirls",
        "jgName": "\u5934\u6761\u5973\u795e",
        "href": "http://d.duotuwang.com/2019/05/26/16635/",
        "count": 9,
        "start": 1,
        "hasMtTag": 1,
        "hasJgTag": 1,
        "mtCount": 4,
        "jgCount": 133
    }
]