[
    {
        "name": "[toutiaogirls]\u5934\u6761\u5973\u795e 2020-08-10 \u827e\u9759\u9999&\u5218\u747e\u5e0c \u5929\u6d74\u5973\u795e",
        "src": "http://d.duotuwang.com/2020/08/10/22386/0.jpg",
        "mtId": "10d2870a1d7cd583",
        "mtName": "\u827e\u9759\u9999",
        "jgId": "toutiaogirls",
        "jgName": "\u5934\u6761\u5973\u795e",
        "href": "http://d.duotuwang.com/2020/08/10/22386/",
        "count": 20,
        "start": 1,
        "hasMtTag": 1,
        "hasJgTag": 1,
        "mtCount": 9,
        "jgCount": 133
    },
    {
        "name": "[toutiaogirls]\u5934\u6761\u5973\u795e 2020-08-09 \u97f5\u7af9 \u7a7a\u59d0\u8bf1\u60d1",
        "src": "http://d.duotuwang.com/2020/08/09/21373/0.jpg",
        "mtId": "14b59b0675eb1b64",
        "mtName": "\u97f5\u7af9",
        "jgId": "toutiaogirls",
        "jgName": "\u5934\u6761\u5973\u795e",
        "href": "http://d.duotuwang.com/2020/08/09/21373/",
        "count": 61,
        "start": 1,
        "hasMtTag": 1,
        "hasJgTag": 1,
        "mtCount": 1,
        "jgCount": 133
    },
    {
        "name": "[toutiaogirls]\u5934\u6761\u5973\u795e 2020-07-28 \u7384\u5b50 \u51e4\u821e\u767d\u6c99",
        "src": "http://d.duotuwang.com/2020/07/28/21372/0.jpg",
        "mtId": "96b4696740fbbe72",
        "mtName": "\u7384\u5b50",
        "jgId": "toutiaogirls",
        "jgName": "\u5934\u6761\u5973\u795e",
        "href": "http://d.duotuwang.com/2020/07/28/21372/",
        "count": 9,
        "start": 1,
        "hasMtTag": 1,
        "hasJgTag": 1,
        "mtCount": 5,
        "jgCount": 133
    },
    {
        "name": "[toutiaogirls]\u5934\u6761\u5973\u795e 2020-07-27 \u827e\u9759\u9999 \u53e4\u97f5\u8336\u9999",
        "src": "http://d.duotuwang.com/2020/07/27/21371/0.jpg",
        "mtId": "10d2870a1d7cd583",
        "mtName": "\u827e\u9759\u9999",
        "jgId": "toutiaogirls",
        "jgName": "\u5934\u6761\u5973\u795e",
        "href": "http://d.duotuwang.com/2020/07/27/21371/",
        "count": 32,
        "start": 1,
        "hasMtTag": 1,
        "hasJgTag": 1,
        "mtCount": 9,
        "jgCount": 133
    },
    {
        "name": "[toutiaogirls]\u5934\u6761\u5973\u795e 2020-07-21 \u949f\u6674 \u5fae\u5149",
        "src": "http://d.duotuwang.com/2020/07/21/21217/0.jpg",
        "mtId": "bbc57afa18e8743b",
        "mtName": "\u949f\u6674",
        "jgId": "toutiaogirls",
        "jgName": "\u5934\u6761\u5973\u795e",
        "href": "http://d.duotuwang.com/2020/07/21/21217/",
        "count": 12,
        "start": 1,
        "hasMtTag": 1,
        "hasJgTag": 1,
        "mtCount": 4,
        "jgCount": 133
    },
    {
        "name": "[toutiaogirls]\u5934\u6761\u5973\u795e 2020-07-21 \u949f\u6674 \u5c0f\u6674\u5b50",
        "src": "http://d.duotuwang.com/2020/07/21/21216/0.jpg",
        "mtId": "bbc57afa18e8743b",
        "mtName": "\u949f\u6674",
        "jgId": "toutiaogirls",
        "jgName": "\u5934\u6761\u5973\u795e",
        "href": "http://d.duotuwang.com/2020/07/21/21216/",
        "count": 9,
        "start": 1,
        "hasMtTag": 1,
        "hasJgTag": 1,
        "mtCount": 4,
        "jgCount": 133
    }
]