[
    {
        "name": "[toutiaogirls]\u5934\u6761\u5973\u795e 2018-05-05 \u5c0f\u4e94\u4e00",
        "src": "http://d.duotuwang.com/2018/05/05/8768/0.jpg",
        "jgId": "toutiaogirls",
        "jgName": "\u5934\u6761\u5973\u795e",
        "href": "http://d.duotuwang.com/2018/05/05/8768/",
        "count": 28,
        "start": 1,
        "hasMtTag": 0,
        "hasJgTag": 1,
        "jgCount": 133
    },
    {
        "name": "[toutiaogirls]\u5934\u6761\u5973\u795e 2018-05-04 \u8521\u6960",
        "src": "http://d.duotuwang.com/2018/05/04/8766/0.jpg",
        "jgId": "toutiaogirls",
        "jgName": "\u5934\u6761\u5973\u795e",
        "href": "http://d.duotuwang.com/2018/05/04/8766/",
        "count": 10,
        "start": 1,
        "hasMtTag": 0,
        "hasJgTag": 1,
        "jgCount": 133
    },
    {
        "name": "[toutiaogirls]\u5934\u6761\u5973\u795e 2018-05-03 \u7b2c\u4e94\u4eba\u683c",
        "src": "http://d.duotuwang.com/2018/05/03/8743/0.jpg",
        "jgId": "toutiaogirls",
        "jgName": "\u5934\u6761\u5973\u795e",
        "href": "http://d.duotuwang.com/2018/05/03/8743/",
        "count": 46,
        "start": 1,
        "hasMtTag": 0,
        "hasJgTag": 1,
        "jgCount": 133
    },
    {
        "name": "[toutiaogirls]\u5934\u6761\u5973\u795e 2018-05-03 \u9648\u5b87\u66e6",
        "src": "http://d.duotuwang.com/2018/05/03/8742/0.jpg",
        "mtId": "e6191308df24ea26",
        "mtName": "\u9648\u5b87\u66e6",
        "jgId": "toutiaogirls",
        "jgName": "\u5934\u6761\u5973\u795e",
        "href": "http://d.duotuwang.com/2018/05/03/8742/",
        "count": 24,
        "start": 1,
        "hasMtTag": 1,
        "hasJgTag": 1,
        "mtCount": 10,
        "jgCount": 133
    },
    {
        "name": "[toutiaogirls]\u5934\u6761\u5973\u795e 2018-05-02 \u7ae5\u5b89\u742a",
        "src": "http://d.duotuwang.com/2018/05/02/8741/0.jpg",
        "mtId": "b2a48b6ac234dc31",
        "mtName": "\u7ae5\u5b89\u742a",
        "jgId": "toutiaogirls",
        "jgName": "\u5934\u6761\u5973\u795e",
        "href": "http://d.duotuwang.com/2018/05/02/8741/",
        "count": 20,
        "start": 1,
        "hasMtTag": 1,
        "hasJgTag": 1,
        "mtCount": 2,
        "jgCount": 133
    },
    {
        "name": "[toutiaogirls]\u5934\u6761\u5973\u795e 2018-05-01 \u7f18\u5206\u539f\u6765\u662f\u4f60",
        "src": "http://d.duotuwang.com/2018/05/01/8740/0.jpg",
        "jgId": "toutiaogirls",
        "jgName": "\u5934\u6761\u5973\u795e",
        "href": "http://d.duotuwang.com/2018/05/01/8740/",
        "count": 25,
        "start": 1,
        "hasMtTag": 0,
        "hasJgTag": 1,
        "jgCount": 133
    }
]