[
    {
        "name": "[toutiaogirls]\u5934\u6761\u5973\u795e 2018-04-01 \u675c\u82b1\u82b1",
        "src": "http://d.duotuwang.com/2018/04/01/8672/0.jpg",
        "mtId": "f9c4a855daaf23c4",
        "mtName": "\u675c\u82b1\u82b1",
        "jgId": "toutiaogirls",
        "jgName": "\u5934\u6761\u5973\u795e",
        "href": "http://d.duotuwang.com/2018/04/01/8672/",
        "count": 40,
        "start": 1,
        "hasMtTag": 1,
        "hasJgTag": 1,
        "mtCount": 2,
        "jgCount": 133
    },
    {
        "name": "[toutiaogirls]\u5934\u6761\u5973\u795e 2018-03-30 \u7f8e\u60e0\u5b50",
        "src": "http://d.duotuwang.com/2018/03/30/8548/0.jpg",
        "jgId": "toutiaogirls",
        "jgName": "\u5934\u6761\u5973\u795e",
        "href": "http://d.duotuwang.com/2018/03/30/8548/",
        "count": 23,
        "start": 1,
        "hasMtTag": 0,
        "hasJgTag": 1,
        "jgCount": 133
    },
    {
        "name": "[toutiaogirls]\u5934\u6761\u5973\u795e 2018-03-29 \u51af\u96ea\u5a07",
        "src": "http://d.duotuwang.com/2018/03/29/8547/0.jpg",
        "mtId": "41ab5678cb11b1db",
        "mtName": "\u51af\u96ea\u5a07",
        "jgId": "toutiaogirls",
        "jgName": "\u5934\u6761\u5973\u795e",
        "href": "http://d.duotuwang.com/2018/03/29/8547/",
        "count": 20,
        "start": 1,
        "hasMtTag": 1,
        "hasJgTag": 1,
        "mtCount": 3,
        "jgCount": 133
    },
    {
        "name": "[toutiaogirls]\u5934\u6761\u5973\u795e 2018-03-28 \u83ab\u5c0f\u5e0c&\u6797\u4f9d\u4f9d",
        "src": "http://d.duotuwang.com/2018/03/28/8546/0.jpg",
        "jgId": "toutiaogirls",
        "jgName": "\u5934\u6761\u5973\u795e",
        "href": "http://d.duotuwang.com/2018/03/28/8546/",
        "count": 40,
        "start": 1,
        "hasMtTag": 0,
        "hasJgTag": 1,
        "jgCount": 133
    },
    {
        "name": "[toutiaogirls]\u5934\u6761\u5973\u795e 2018-03-28 \u6797\u4f9d\u4f9d",
        "src": "http://d.duotuwang.com/2018/03/28/8545/0.jpg",
        "jgId": "toutiaogirls",
        "jgName": "\u5934\u6761\u5973\u795e",
        "href": "http://d.duotuwang.com/2018/03/28/8545/",
        "count": 15,
        "start": 1,
        "hasMtTag": 0,
        "hasJgTag": 1,
        "jgCount": 133
    },
    {
        "name": "[toutiaogirls]\u5934\u6761\u5973\u795e 2018-03-27 \u83ab\u5c0f\u5e0c",
        "src": "http://d.duotuwang.com/2018/03/27/8544/0.jpg",
        "jgId": "toutiaogirls",
        "jgName": "\u5934\u6761\u5973\u795e",
        "href": "http://d.duotuwang.com/2018/03/27/8544/",
        "count": 27,
        "start": 1,
        "hasMtTag": 0,
        "hasJgTag": 1,
        "jgCount": 133
    }
]