[
    {
        "name": "[toutiaogirls]\u5934\u6761\u5973\u795e 2020-05-11 \u5218\u747e\u5e0c \u7f57\u66fc\u53f2",
        "src": "http://d.duotuwang.com/2020/05/11/20754/0.jpg",
        "mtId": "8cc7589cd5efe029",
        "mtName": "\u5218\u747e\u5e0c",
        "jgId": "toutiaogirls",
        "jgName": "\u5934\u6761\u5973\u795e",
        "href": "http://d.duotuwang.com/2020/05/11/20754/",
        "count": 20,
        "start": 1,
        "hasMtTag": 1,
        "hasJgTag": 1,
        "mtCount": 2,
        "jgCount": 133
    },
    {
        "name": "[toutiaogirls]\u5934\u6761\u5973\u795e 2020-04-20 \u949f\u6674 \u6cb9\u83dc\u82b1\u7684\u6674\u5929",
        "src": "http://d.duotuwang.com/2020/04/20/20753/0.jpg",
        "mtId": "bbc57afa18e8743b",
        "mtName": "\u949f\u6674",
        "jgId": "toutiaogirls",
        "jgName": "\u5934\u6761\u5973\u795e",
        "href": "http://d.duotuwang.com/2020/04/20/20753/",
        "count": 9,
        "start": 1,
        "hasMtTag": 1,
        "hasJgTag": 1,
        "mtCount": 4,
        "jgCount": 133
    },
    {
        "name": "[toutiaogirls]\u5934\u6761\u5973\u795e 2020-04-19 \u7384\u5b50 \u70c8\u7130\u7ea2\u5507",
        "src": "http://d.duotuwang.com/2020/04/19/20752/0.jpg",
        "mtId": "96b4696740fbbe72",
        "mtName": "\u7384\u5b50",
        "jgId": "toutiaogirls",
        "jgName": "\u5934\u6761\u5973\u795e",
        "href": "http://d.duotuwang.com/2020/04/19/20752/",
        "count": 30,
        "start": 1,
        "hasMtTag": 1,
        "hasJgTag": 1,
        "mtCount": 5,
        "jgCount": 133
    },
    {
        "name": "[toutiaogirls]\u5934\u6761\u5973\u795e 2020-04-12 \u7384\u5b50&\u97e9\u7199\u5c0f\u72d0\u72f8 \u5408\u4f53\u745c\u4f3d",
        "src": "http://d.duotuwang.com/2020/04/12/20437/0.jpg",
        "mtId": "96b4696740fbbe72",
        "mtName": "\u7384\u5b50",
        "jgId": "toutiaogirls",
        "jgName": "\u5934\u6761\u5973\u795e",
        "href": "http://d.duotuwang.com/2020/04/12/20437/",
        "count": 27,
        "start": 1,
        "hasMtTag": 1,
        "hasJgTag": 1,
        "mtCount": 5,
        "jgCount": 133
    },
    {
        "name": "[toutiaogirls]\u5934\u6761\u5973\u795e 2020-04-07 \u6708\u97f3\u77b3 \u60a6\u82b3\u81ea\u8d4f",
        "src": "http://d.duotuwang.com/2020/04/07/20436/0.jpg",
        "mtId": "ad1cc72dcd927205",
        "mtName": "\u6708\u97f3\u77b3",
        "jgId": "toutiaogirls",
        "jgName": "\u5934\u6761\u5973\u795e",
        "href": "http://d.duotuwang.com/2020/04/07/20436/",
        "count": 28,
        "start": 1,
        "hasMtTag": 1,
        "hasJgTag": 1,
        "mtCount": 11,
        "jgCount": 133
    },
    {
        "name": "[toutiaogirls]\u5934\u6761\u5973\u795e 2020-04-05 \u7384\u5b50 \u957f\u817f\u5973\u751f",
        "src": "http://d.duotuwang.com/2020/04/05/20435/0.jpg",
        "mtId": "96b4696740fbbe72",
        "mtName": "\u7384\u5b50",
        "jgId": "toutiaogirls",
        "jgName": "\u5934\u6761\u5973\u795e",
        "href": "http://d.duotuwang.com/2020/04/05/20435/",
        "count": 30,
        "start": 1,
        "hasMtTag": 1,
        "hasJgTag": 1,
        "mtCount": 5,
        "jgCount": 133
    }
]