[
    {
        "name": "[toutiaogirls]\u5934\u6761\u5973\u795e 2017-08-04 \u5c0f\u9038",
        "src": "http://d.duotuwang.com/2017/08/04/5365/0.jpg",
        "jgId": "toutiaogirls",
        "jgName": "\u5934\u6761\u5973\u795e",
        "href": "http://d.duotuwang.com/2017/08/04/5365/",
        "count": 25,
        "start": 1,
        "hasMtTag": 0,
        "hasJgTag": 1,
        "jgCount": 133
    },
    {
        "name": "[toutiaogirls]\u5934\u6761\u5973\u795e 2017-08-03 \u827e\u5c0f\u9752",
        "src": "http://d.duotuwang.com/2017/08/03/5366/0.jpg",
        "mtId": "956ac07ef794d061",
        "mtName": "\u827e\u5c0f\u9752",
        "jgId": "toutiaogirls",
        "jgName": "\u5934\u6761\u5973\u795e",
        "href": "http://d.duotuwang.com/2017/08/03/5366/",
        "count": 24,
        "start": 1,
        "hasMtTag": 1,
        "hasJgTag": 1,
        "mtCount": 16,
        "jgCount": 133
    },
    {
        "name": "[toutiaogirls]\u5934\u6761\u5973\u795e 2017-08-02 \u4f55\u5a07\u5a07 \u836f\u836f",
        "src": "http://d.duotuwang.com/2017/08/02/5367/0.jpg",
        "jgId": "toutiaogirls",
        "jgName": "\u5934\u6761\u5973\u795e",
        "href": "http://d.duotuwang.com/2017/08/02/5367/",
        "count": 31,
        "start": 1,
        "hasMtTag": 0,
        "hasJgTag": 1,
        "jgCount": 133
    },
    {
        "name": "[toutiaogirls]\u5934\u6761\u5973\u795e 2017-08-01 \u7533\u7f8e\u5ae3",
        "src": "http://d.duotuwang.com/2017/08/01/5368/0.jpg",
        "jgId": "toutiaogirls",
        "jgName": "\u5934\u6761\u5973\u795e",
        "href": "http://d.duotuwang.com/2017/08/01/5368/",
        "count": 36,
        "start": 1,
        "hasMtTag": 0,
        "hasJgTag": 1,
        "jgCount": 133
    },
    {
        "name": "[toutiaogirls]\u5934\u6761\u5973\u795e 2017-07-31 \u4f51\u7199",
        "src": "http://d.duotuwang.com/2017/07/31/5293/0.jpg",
        "mtId": "3626b0e86798217d",
        "mtName": "\u4f51\u7199",
        "jgId": "toutiaogirls",
        "jgName": "\u5934\u6761\u5973\u795e",
        "href": "http://d.duotuwang.com/2017/07/31/5293/",
        "count": 25,
        "start": 1,
        "hasMtTag": 1,
        "hasJgTag": 1,
        "mtCount": 2,
        "jgCount": 133
    },
    {
        "name": "[toutiaogirls]\u5934\u6761\u5973\u795e 2017-07-30 \u5468\u7199\u598d bany",
        "src": "http://d.duotuwang.com/2017/07/30/5294/0.jpg",
        "mtId": "f2cce32104fde8f6",
        "mtName": "\u5468\u7199\u598d",
        "jgId": "toutiaogirls",
        "jgName": "\u5934\u6761\u5973\u795e",
        "href": "http://d.duotuwang.com/2017/07/30/5294/",
        "count": 61,
        "start": 1,
        "hasMtTag": 1,
        "hasJgTag": 1,
        "mtCount": 2,
        "jgCount": 133
    }
]