[
    {
        "name": "[toutiaogirls]\u5934\u6761\u5973\u795e 2017-07-29 \u60a6\u60a6 \u5965\u5229",
        "src": "http://d.duotuwang.com/2017/07/29/5295/0.jpg",
        "jgId": "toutiaogirls",
        "jgName": "\u5934\u6761\u5973\u795e",
        "href": "http://d.duotuwang.com/2017/07/29/5295/",
        "count": 31,
        "start": 1,
        "hasMtTag": 0,
        "hasJgTag": 1,
        "jgCount": 133
    },
    {
        "name": "[toutiaogirls]\u5934\u6761\u5973\u795e 2017-07-28 \u4f0a\u4e00",
        "src": "http://d.duotuwang.com/2017/07/28/5296/0.jpg",
        "jgId": "toutiaogirls",
        "jgName": "\u5934\u6761\u5973\u795e",
        "href": "http://d.duotuwang.com/2017/07/28/5296/",
        "count": 21,
        "start": 1,
        "hasMtTag": 0,
        "hasJgTag": 1,
        "jgCount": 133
    },
    {
        "name": "[toutiaogirls]\u5934\u6761\u5973\u795e 2017-07-27 \u96ea\u5a07",
        "src": "http://d.duotuwang.com/2017/07/27/5297/0.jpg",
        "mtId": "41ab5678cb11b1db",
        "mtName": "\u96ea\u5a07",
        "jgId": "toutiaogirls",
        "jgName": "\u5934\u6761\u5973\u795e",
        "href": "http://d.duotuwang.com/2017/07/27/5297/",
        "count": 45,
        "start": 1,
        "hasMtTag": 1,
        "hasJgTag": 1,
        "mtCount": 3,
        "jgCount": 133
    },
    {
        "name": "[toutiaogirls]\u5934\u6761\u5973\u795e 2017-07-26 \u871c\u871c",
        "src": "http://d.duotuwang.com/2017/07/26/5298/0.jpg",
        "jgId": "toutiaogirls",
        "jgName": "\u5934\u6761\u5973\u795e",
        "href": "http://d.duotuwang.com/2017/07/26/5298/",
        "count": 27,
        "start": 1,
        "hasMtTag": 0,
        "hasJgTag": 1,
        "jgCount": 133
    },
    {
        "name": "[toutiaogirls]\u5934\u6761\u5973\u795e 2017-07-25 \u674e\u4e3d\u838e",
        "src": "http://d.duotuwang.com/2017/07/25/5299/0.jpg",
        "mtId": "ee91efe3b47ef71d",
        "mtName": "\u674e\u4e3d\u838e",
        "jgId": "toutiaogirls",
        "jgName": "\u5934\u6761\u5973\u795e",
        "href": "http://d.duotuwang.com/2017/07/25/5299/",
        "count": 20,
        "start": 1,
        "hasMtTag": 1,
        "hasJgTag": 1,
        "mtCount": 2,
        "jgCount": 133
    },
    {
        "name": "[toutiaogirls]\u5934\u6761\u5973\u795e 2017-07-24 \u5c0f\u7f8e",
        "src": "http://d.duotuwang.com/2017/07/24/5260/0.jpg",
        "jgId": "toutiaogirls",
        "jgName": "\u5934\u6761\u5973\u795e",
        "href": "http://d.duotuwang.com/2017/07/24/5260/",
        "count": 25,
        "start": 1,
        "hasMtTag": 0,
        "hasJgTag": 1,
        "jgCount": 133
    }
]