[
    {
        "name": "[toutiaogirls]\u5934\u6761\u5973\u795e 2017-04-03 \u4e73\u795e\u7279\u520a \u6797\u857e",
        "src": "http://d.duotuwang.com/2017/04/03/3804/0.jpg",
        "jgId": "toutiaogirls",
        "jgName": "\u5934\u6761\u5973\u795e",
        "href": "http://d.duotuwang.com/2017/04/03/3804/",
        "count": 26,
        "start": 1,
        "hasMtTag": 0,
        "hasJgTag": 1,
        "jgCount": 133
    },
    {
        "name": "[toutiaogirls]\u5934\u6761\u5973\u795e 2017-04-02 \u7ae5\u5b89\u742a",
        "src": "http://d.duotuwang.com/2017/04/02/3785/0.jpg",
        "mtId": "b2a48b6ac234dc31",
        "mtName": "\u7ae5\u5b89\u742a",
        "jgId": "toutiaogirls",
        "jgName": "\u5934\u6761\u5973\u795e",
        "href": "http://d.duotuwang.com/2017/04/02/3785/",
        "count": 24,
        "start": 1,
        "hasMtTag": 1,
        "hasJgTag": 1,
        "mtCount": 2,
        "jgCount": 133
    },
    {
        "name": "[toutiaogirls]\u5934\u6761\u5973\u795e 2017-04-01 \u674e\u6893\u7199",
        "src": "http://d.duotuwang.com/2017/04/01/3768/0.jpg",
        "mtId": "c20a8d8edc6f01e7",
        "mtName": "\u674e\u6893\u7199",
        "jgId": "toutiaogirls",
        "jgName": "\u5934\u6761\u5973\u795e",
        "href": "http://d.duotuwang.com/2017/04/01/3768/",
        "count": 35,
        "start": 1,
        "hasMtTag": 1,
        "hasJgTag": 1,
        "mtCount": 7,
        "jgCount": 133
    },
    {
        "name": "[toutiaogirls]\u5934\u6761\u5973\u795e 2017-03-30 \u51b0\u51b0",
        "src": "http://d.duotuwang.com/2017/03/30/3769/0.jpg",
        "jgId": "toutiaogirls",
        "jgName": "\u5934\u6761\u5973\u795e",
        "href": "http://d.duotuwang.com/2017/03/30/3769/",
        "count": 22,
        "start": 1,
        "hasMtTag": 0,
        "hasJgTag": 1,
        "jgCount": 133
    },
    {
        "name": "[toutiaogirls]\u5934\u6761\u5973\u795e 2017-03-29 \u9edb\u65af\u7fbd",
        "src": "http://d.duotuwang.com/2017/03/29/3557/0.jpg",
        "mtId": "ce9f9569d8855cd2",
        "mtName": "\u9edb\u65af\u7fbd",
        "jgId": "toutiaogirls",
        "jgName": "\u5934\u6761\u5973\u795e",
        "href": "http://d.duotuwang.com/2017/03/29/3557/",
        "count": 34,
        "start": 1,
        "hasMtTag": 1,
        "hasJgTag": 1,
        "mtCount": 1,
        "jgCount": 133
    },
    {
        "name": "[toutiaogirls]\u5934\u6761\u5973\u795e 2017-03-28 \u7231\u4e3d\u838e",
        "src": "http://d.duotuwang.com/2017/03/28/3558/0.jpg",
        "mtId": "64cbd864172732b1",
        "mtName": "\u7231\u4e3d\u838e",
        "jgId": "toutiaogirls",
        "jgName": "\u5934\u6761\u5973\u795e",
        "href": "http://d.duotuwang.com/2017/03/28/3558/",
        "count": 39,
        "start": 1,
        "hasMtTag": 1,
        "hasJgTag": 1,
        "mtCount": 8,
        "jgCount": 133
    }
]