[
    {
        "name": "[UGirlsAPP]\u7231\u5c24\u7269 No.2388 \u67da\u5b50 \u5c24\u5ba0",
        "src": "http://d.duotuwang.com/2022/08/12/30965/0.jpg",
        "mtId": "67ce743187e29ba3",
        "mtName": "\u67da\u5b50",
        "jgId": "ugirlsapp",
        "jgName": "\u7231\u5c24\u7269",
        "href": "http://d.duotuwang.com/2022/08/12/30965/",
        "count": 35,
        "start": 1,
        "hasMtTag": 1,
        "hasJgTag": 1,
        "mtCount": 1,
        "jgCount": 397
    },
    {
        "name": "[UGirlsAPP]\u7231\u5c24\u7269 No.2307 \u67da\u5b50 \u7231\u4f60\u7684\u5fc3\u60c5",
        "src": "http://d.duotuwang.com/2022/03/27/29242/0.jpg",
        "mtId": "67ce743187e29ba3",
        "mtName": "\u67da\u5b50",
        "jgId": "ugirlsapp",
        "jgName": "\u7231\u5c24\u7269",
        "href": "http://d.duotuwang.com/2022/03/27/29242/",
        "count": 35,
        "start": 1,
        "hasMtTag": 1,
        "hasJgTag": 1,
        "mtCount": 1,
        "jgCount": 397
    },
    {
        "name": "[UGirlsAPP]\u7231\u5c24\u7269 No.2202 \u67da\u5b50 \u4eb2\u4eb2\u7cd6\u6d46",
        "src": "http://d.duotuwang.com/2021/10/27/27078/0.jpg",
        "mtId": "67ce743187e29ba3",
        "mtName": "\u67da\u5b50",
        "jgId": "ugirlsapp",
        "jgName": "\u7231\u5c24\u7269",
        "href": "http://d.duotuwang.com/2021/10/27/27078/",
        "count": 35,
        "start": 1,
        "hasMtTag": 1,
        "hasJgTag": 1,
        "mtCount": 1,
        "jgCount": 397
    },
    {
        "name": "[UGirlsAPP]\u7231\u5c24\u7269 No.2180 \u67da\u5b50 \u751c\u67da\u9171",
        "src": "http://d.duotuwang.com/2021/09/24/26696/0.jpg",
        "mtId": "67ce743187e29ba3",
        "mtName": "\u67da\u5b50",
        "jgId": "ugirlsapp",
        "jgName": "\u7231\u5c24\u7269",
        "href": "http://d.duotuwang.com/2021/09/24/26696/",
        "count": 35,
        "start": 1,
        "hasMtTag": 1,
        "hasJgTag": 1,
        "mtCount": 1,
        "jgCount": 397
    },
    {
        "name": "[UGirlsAPP]\u7231\u5c24\u7269 No.2060 \u67da\u5b50 \u604b\u7231\u6559\u5b66\u8ba1\u5212",
        "src": "http://d.duotuwang.com/2021/04/07/24691/0.jpg",
        "mtId": "67ce743187e29ba3",
        "mtName": "\u67da\u5b50",
        "jgId": "ugirlsapp",
        "jgName": "\u7231\u5c24\u7269",
        "href": "http://d.duotuwang.com/2021/04/07/24691/",
        "count": 35,
        "start": 1,
        "hasMtTag": 1,
        "hasJgTag": 1,
        "mtCount": 1,
        "jgCount": 397
    },
    {
        "name": "[UGirlsAPP]\u7231\u5c24\u7269 No.1949 \u67da\u5b50 \u6e29\u6da6\u5982\u4f60",
        "src": "http://d.duotuwang.com/2020/11/02/22880/0.jpg",
        "mtId": "67ce743187e29ba3",
        "mtName": "\u67da\u5b50",
        "jgId": "ugirlsapp",
        "jgName": "\u7231\u5c24\u7269",
        "href": "http://d.duotuwang.com/2020/11/02/22880/",
        "count": 35,
        "start": 1,
        "hasMtTag": 1,
        "hasJgTag": 1,
        "mtCount": 1,
        "jgCount": 397
    }
]