[
    {
        "name": "[ARTGRAVIA] VOL.269 \u9648\u5ff5\u7075",
        "src": "http://d.duotuwang.com/2021/02/27/25478/0.jpg",
        "mtId": "d1ec62ea57e0d07b",
        "mtName": "\u9648\u5ff5\u7075",
        "href": "http://d.duotuwang.com/2021/02/27/25478/",
        "count": 60,
        "start": 1,
        "hasMtTag": 1,
        "hasJgTag": 0,
        "mtCount": 1
    },
    {
        "name": "[XIUREN]\u79c0\u4eba\u7f51 No.1958 \u53ef\u6a02Vicky",
        "src": "http://d.duotuwang.com/2020/01/21/19394/0.jpg",
        "mtId": "e9a893c6944bfd79",
        "mtName": "\u53ef\u6a02Vicky",
        "jgId": "xiuren",
        "jgName": "\u79c0\u4eba\u7f51",
        "href": "http://d.duotuwang.com/2020/01/21/19394/",
        "count": 40,
        "start": 1,
        "hasMtTag": 1,
        "hasJgTag": 1,
        "mtCount": 7,
        "jgCount": 750
    }
]