[
    {
        "name": "[YouMi]\u5c24\u871c 2021.02.01 \u60a8\u7684\u86cb\u86cb \u8349\u8393\u751c\u5fc3",
        "src": "http://d.duotuwang.com/2021/02/01/26660/0.jpg",
        "mtId": "ccc1d6c7a649c1fd",
        "mtName": "\u60a8\u7684\u86cb\u86cb",
        "jgId": "youmiabc",
        "jgName": "\u5c24\u871c",
        "href": "http://d.duotuwang.com/2021/02/01/26660/",
        "count": 37,
        "start": 1,
        "hasMtTag": 1,
        "hasJgTag": 1,
        "mtCount": 1,
        "jgCount": 79
    },
    {
        "name": "[YouMi]\u5c24\u871c 2021.01.13 \u60a8\u7684\u86cb\u86cb \u5e84\u56ed\u5973\u4ec6",
        "src": "http://d.duotuwang.com/2021/01/13/26646/0.jpg",
        "mtId": "ccc1d6c7a649c1fd",
        "mtName": "\u60a8\u7684\u86cb\u86cb",
        "jgId": "youmiabc",
        "jgName": "\u5c24\u871c",
        "href": "http://d.duotuwang.com/2021/01/13/26646/",
        "count": 30,
        "start": 1,
        "hasMtTag": 1,
        "hasJgTag": 1,
        "mtCount": 1,
        "jgCount": 79
    }
]