[
    {
        "name": "[XIUREN]\u79c0\u4eba\u7f51 No.659 \u82cf\u97f5\u9526",
        "src": "http://d.duotuwang.com/2016/12/14/1969/0.jpg",
        "mtId": "1afa431cc2a28118",
        "mtName": "\u82cf\u97f5\u9526",
        "jgId": "xiuren",
        "jgName": "\u79c0\u4eba\u7f51",
        "href": "http://d.duotuwang.com/2016/12/14/1969/",
        "count": 62,
        "start": 1,
        "hasMtTag": 1,
        "hasJgTag": 1,
        "mtCount": 1,
        "jgCount": 750
    },
    {
        "name": "[XIUREN]\u79c0\u4eba\u7f51 No.632 \u82cf\u97f5\u9526",
        "src": "http://d.duotuwang.com/2016/11/08/1808/0.jpg",
        "mtId": "1afa431cc2a28118",
        "mtName": "\u82cf\u97f5\u9526",
        "jgId": "xiuren",
        "jgName": "\u79c0\u4eba\u7f51",
        "href": "http://d.duotuwang.com/2016/11/08/1808/",
        "count": 56,
        "start": 1,
        "hasMtTag": 1,
        "hasJgTag": 1,
        "mtCount": 1,
        "jgCount": 750
    }
]