[
    {
        "name": "[XIUREN]\u79c0\u4eba\u7f51 No.2512 \u767d\u8339\u96eaAbby",
        "src": "http://d.duotuwang.com/2020/09/01/21873/0.jpg",
        "mtId": "136c48b12e6b002b",
        "mtName": "\u767d\u8339\u96eaAbby",
        "jgId": "xiuren",
        "jgName": "\u79c0\u4eba\u7f51",
        "href": "http://d.duotuwang.com/2020/09/01/21873/",
        "count": 40,
        "start": 1,
        "hasMtTag": 1,
        "hasJgTag": 1,
        "mtCount": 4,
        "jgCount": 750
    },
    {
        "name": "[XIUREN]\u79c0\u4eba\u7f51 No.2453 \u767d\u8339\u96eaAbby",
        "src": "http://d.duotuwang.com/2020/08/18/21607/0.jpg",
        "mtId": "136c48b12e6b002b",
        "mtName": "\u767d\u8339\u96eaAbby",
        "jgId": "xiuren",
        "jgName": "\u79c0\u4eba\u7f51",
        "href": "http://d.duotuwang.com/2020/08/18/21607/",
        "count": 40,
        "start": 1,
        "hasMtTag": 1,
        "hasJgTag": 1,
        "mtCount": 4,
        "jgCount": 750
    },
    {
        "name": "[XIUREN]\u79c0\u4eba\u7f51 No.2438 \u767d\u8339\u96eaAbby",
        "src": "http://d.duotuwang.com/2020/08/13/21592/0.jpg",
        "mtId": "136c48b12e6b002b",
        "mtName": "\u767d\u8339\u96eaAbby",
        "jgId": "xiuren",
        "jgName": "\u79c0\u4eba\u7f51",
        "href": "http://d.duotuwang.com/2020/08/13/21592/",
        "count": 36,
        "start": 1,
        "hasMtTag": 1,
        "hasJgTag": 1,
        "mtCount": 4,
        "jgCount": 750
    },
    {
        "name": "[XIUREN]\u79c0\u4eba\u7f51 No.2387 \u767d\u8339\u96eaAbby",
        "src": "http://d.duotuwang.com/2020/07/30/21434/0.jpg",
        "mtId": "136c48b12e6b002b",
        "mtName": "\u767d\u8339\u96eaAbby",
        "jgId": "xiuren",
        "jgName": "\u79c0\u4eba\u7f51",
        "href": "http://d.duotuwang.com/2020/07/30/21434/",
        "count": 46,
        "start": 1,
        "hasMtTag": 1,
        "hasJgTag": 1,
        "mtCount": 4,
        "jgCount": 750
    },
    {
        "name": "[MFStar]\u6a21\u8303\u5b66\u9662 VOL.351 \u767d\u8339\u96eaAbby",
        "src": "http://d.duotuwang.com/2020/07/21/21236/0.jpg",
        "mtId": "136c48b12e6b002b",
        "mtName": "\u767d\u8339\u96eaAbby",
        "jgId": "mfstar",
        "jgName": "\u6a21\u8303\u5b66\u9662",
        "href": "http://d.duotuwang.com/2020/07/21/21236/",
        "count": 44,
        "start": 1,
        "hasMtTag": 1,
        "hasJgTag": 1,
        "mtCount": 4,
        "jgCount": 94
    },
    {
        "name": "[MFStar]\u6a21\u8303\u5b66\u9662 VOL.335 \u767d\u8339\u96eaAbby",
        "src": "http://d.duotuwang.com/2020/06/29/20985/0.jpg",
        "mtId": "136c48b12e6b002b",
        "mtName": "\u767d\u8339\u96eaAbby",
        "jgId": "mfstar",
        "jgName": "\u6a21\u8303\u5b66\u9662",
        "href": "http://d.duotuwang.com/2020/06/29/20985/",
        "count": 75,
        "start": 1,
        "hasMtTag": 1,
        "hasJgTag": 1,
        "mtCount": 4,
        "jgCount": 94
    }
]