[
    {
        "name": "[XIUREN]\u79c0\u4eba\u7f51 \u5510\u5b89\u742a",
        "src": "http://d.duotuwang.com/2021/09/16/29415/0.jpg",
        "mtId": "552de7273733ea34",
        "mtName": "\u5510\u5b89\u742a",
        "jgId": "xiuren",
        "jgName": "\u79c0\u4eba\u7f51",
        "href": "http://d.duotuwang.com/2021/09/16/29415/",
        "count": 100,
        "start": 1,
        "hasMtTag": 1,
        "hasJgTag": 1,
        "mtCount": 19,
        "jgCount": 750
    },
    {
        "name": "[XIUREN]\u79c0\u4eba\u7f51 No.3943 \u5510\u5b89\u742a",
        "src": "http://d.duotuwang.com/2021/09/14/26597/0.jpg",
        "mtId": "552de7273733ea34",
        "mtName": "\u5510\u5b89\u742a",
        "jgId": "xiuren",
        "jgName": "\u79c0\u4eba\u7f51",
        "href": "http://d.duotuwang.com/2021/09/14/26597/",
        "count": 82,
        "start": 1,
        "hasMtTag": 1,
        "hasJgTag": 1,
        "mtCount": 19,
        "jgCount": 750
    },
    {
        "name": "[XIUREN]\u79c0\u4eba\u7f51 No.3917 \u5510\u5b89\u742a",
        "src": "http://d.duotuwang.com/2021/09/08/26571/0.jpg",
        "mtId": "552de7273733ea34",
        "mtName": "\u5510\u5b89\u742a",
        "jgId": "xiuren",
        "jgName": "\u79c0\u4eba\u7f51",
        "href": "http://d.duotuwang.com/2021/09/08/26571/",
        "count": 79,
        "start": 1,
        "hasMtTag": 1,
        "hasJgTag": 1,
        "mtCount": 19,
        "jgCount": 750
    },
    {
        "name": "[XIUREN]\u79c0\u4eba\u7f51 \u5510\u5b89\u742a",
        "src": "http://d.duotuwang.com/2021/09/07/29414/0.jpg",
        "mtId": "552de7273733ea34",
        "mtName": "\u5510\u5b89\u742a",
        "jgId": "xiuren",
        "jgName": "\u79c0\u4eba\u7f51",
        "href": "http://d.duotuwang.com/2021/09/07/29414/",
        "count": 93,
        "start": 1,
        "hasMtTag": 1,
        "hasJgTag": 1,
        "mtCount": 19,
        "jgCount": 750
    },
    {
        "name": "[XIUREN]\u79c0\u4eba\u7f51 No.3895 \u5510\u5b89\u742a",
        "src": "http://d.duotuwang.com/2021/09/03/26549/0.jpg",
        "mtId": "552de7273733ea34",
        "mtName": "\u5510\u5b89\u742a",
        "jgId": "xiuren",
        "jgName": "\u79c0\u4eba\u7f51",
        "href": "http://d.duotuwang.com/2021/09/03/26549/",
        "count": 78,
        "start": 1,
        "hasMtTag": 1,
        "hasJgTag": 1,
        "mtCount": 19,
        "jgCount": 750
    },
    {
        "name": "[XIUREN]\u79c0\u4eba\u7f51 No.3877 \u5510\u5b89\u742a",
        "src": "http://d.duotuwang.com/2021/08/31/26417/0.jpg",
        "mtId": "552de7273733ea34",
        "mtName": "\u5510\u5b89\u742a",
        "jgId": "xiuren",
        "jgName": "\u79c0\u4eba\u7f51",
        "href": "http://d.duotuwang.com/2021/08/31/26417/",
        "count": 81,
        "start": 1,
        "hasMtTag": 1,
        "hasJgTag": 1,
        "mtCount": 19,
        "jgCount": 750
    }
]