[
    {
        "name": "[XIUREN]\u79c0\u4eba\u7f51 No.4485 \u5510\u5b89\u742a",
        "src": "http://d.duotuwang.com/2022/01/19/28298/0.jpg",
        "mtId": "552de7273733ea34",
        "mtName": "\u5510\u5b89\u742a",
        "jgId": "xiuren",
        "jgName": "\u79c0\u4eba\u7f51",
        "href": "http://d.duotuwang.com/2022/01/19/28298/",
        "count": 87,
        "start": 1,
        "hasMtTag": 1,
        "hasJgTag": 1,
        "mtCount": 19,
        "jgCount": 750
    },
    {
        "name": "[XIUREN]\u79c0\u4eba\u7f51 No.4473 \u5510\u5b89\u742a",
        "src": "http://d.duotuwang.com/2022/01/17/28191/0.jpg",
        "mtId": "552de7273733ea34",
        "mtName": "\u5510\u5b89\u742a",
        "jgId": "xiuren",
        "jgName": "\u79c0\u4eba\u7f51",
        "href": "http://d.duotuwang.com/2022/01/17/28191/",
        "count": 79,
        "start": 1,
        "hasMtTag": 1,
        "hasJgTag": 1,
        "mtCount": 19,
        "jgCount": 750
    },
    {
        "name": "[XIUREN]\u79c0\u4eba\u7f51 No.4445 \u5510\u5b89\u742a",
        "src": "http://d.duotuwang.com/2022/01/10/28091/0.jpg",
        "mtId": "552de7273733ea34",
        "mtName": "\u5510\u5b89\u742a",
        "jgId": "xiuren",
        "jgName": "\u79c0\u4eba\u7f51",
        "href": "http://d.duotuwang.com/2022/01/10/28091/",
        "count": 89,
        "start": 1,
        "hasMtTag": 1,
        "hasJgTag": 1,
        "mtCount": 19,
        "jgCount": 750
    },
    {
        "name": "[XIUREN]\u79c0\u4eba\u7f51 \u5510\u5b89\u742a",
        "src": "http://d.duotuwang.com/2022/01/04/31293/0.jpg",
        "mtId": "552de7273733ea34",
        "mtName": "\u5510\u5b89\u742a",
        "jgId": "xiuren",
        "jgName": "\u79c0\u4eba\u7f51",
        "href": "http://d.duotuwang.com/2022/01/04/31293/",
        "count": 90,
        "start": 1,
        "hasMtTag": 1,
        "hasJgTag": 1,
        "mtCount": 19,
        "jgCount": 750
    },
    {
        "name": "[XIUREN]\u79c0\u4eba\u7f51 No.4421 \u5510\u5b89\u742a",
        "src": "http://d.duotuwang.com/2022/01/04/28025/0.jpg",
        "mtId": "552de7273733ea34",
        "mtName": "\u5510\u5b89\u742a",
        "jgId": "xiuren",
        "jgName": "\u79c0\u4eba\u7f51",
        "href": "http://d.duotuwang.com/2022/01/04/28025/",
        "count": 81,
        "start": 1,
        "hasMtTag": 1,
        "hasJgTag": 1,
        "mtCount": 19,
        "jgCount": 750
    },
    {
        "name": "[XIUREN]\u79c0\u4eba\u7f51 No.4390 \u5510\u5b89\u742a",
        "src": "http://d.duotuwang.com/2021/12/27/27945/0.jpg",
        "mtId": "552de7273733ea34",
        "mtName": "\u5510\u5b89\u742a",
        "jgId": "xiuren",
        "jgName": "\u79c0\u4eba\u7f51",
        "href": "http://d.duotuwang.com/2021/12/27/27945/",
        "count": 88,
        "start": 1,
        "hasMtTag": 1,
        "hasJgTag": 1,
        "mtCount": 19,
        "jgCount": 750
    }
]