[
    {
        "name": "[IMISS]\u7231\u871c\u793e VOL.536 Jermy",
        "src": "http://d.duotuwang.com/2020/12/17/23512/0.jpg",
        "mtId": "449277b369584262",
        "mtName": "Jermy",
        "jgId": "imiss",
        "jgName": "\u7231\u871c\u793e",
        "href": "http://d.duotuwang.com/2020/12/17/23512/",
        "count": 34,
        "start": 1,
        "hasMtTag": 1,
        "hasJgTag": 1,
        "mtCount": 1,
        "jgCount": 116
    },
    {
        "name": "[IMISS]\u7231\u871c\u793e VOL.514 Jermy",
        "src": "http://d.duotuwang.com/2020/10/21/22886/0.jpg",
        "mtId": "449277b369584262",
        "mtName": "Jermy",
        "jgId": "imiss",
        "jgName": "\u7231\u871c\u793e",
        "href": "http://d.duotuwang.com/2020/10/21/22886/",
        "count": 47,
        "start": 1,
        "hasMtTag": 1,
        "hasJgTag": 1,
        "mtCount": 1,
        "jgCount": 116
    },
    {
        "name": "[IMISS]\u7231\u871c\u793e VOL.509 Jermy",
        "src": "http://d.duotuwang.com/2020/10/13/22726/0.jpg",
        "mtId": "449277b369584262",
        "mtName": "Jermy",
        "jgId": "imiss",
        "jgName": "\u7231\u871c\u793e",
        "href": "http://d.duotuwang.com/2020/10/13/22726/",
        "count": 37,
        "start": 1,
        "hasMtTag": 1,
        "hasJgTag": 1,
        "mtCount": 1,
        "jgCount": 116
    }
]