[
    {
        "name": "[UGirlsAPP]\u7231\u5c24\u7269 No.1779 \u827a\u5b81 \u67d4\u60c5\u6d3e",
        "src": "http://d.duotuwang.com/2020/04/02/20130/0.jpg",
        "mtId": "681451a3e6093a38",
        "mtName": "\u827a\u5b81",
        "jgId": "ugirlsapp",
        "jgName": "\u7231\u5c24\u7269",
        "href": "http://d.duotuwang.com/2020/04/02/20130/",
        "count": 35,
        "start": 1,
        "hasMtTag": 1,
        "hasJgTag": 1,
        "mtCount": 1,
        "jgCount": 397
    },
    {
        "name": "[UGirlsAPP]\u7231\u5c24\u7269 No.617 \u827a\u5b81",
        "src": "http://d.duotuwang.com/2017/01/22/4932/0.jpg",
        "mtId": "681451a3e6093a38",
        "mtName": "\u827a\u5b81",
        "jgId": "ugirlsapp",
        "jgName": "\u7231\u5c24\u7269",
        "href": "http://d.duotuwang.com/2017/01/22/4932/",
        "count": 40,
        "start": 1,
        "hasMtTag": 1,
        "hasJgTag": 1,
        "mtCount": 1,
        "jgCount": 397
    },
    {
        "name": "[UGirls]\u5c24\u679c\u7f51 U229 \u827a\u5b81",
        "src": "http://d.duotuwang.com/2016/11/25/3256/0.jpg",
        "mtId": "681451a3e6093a38",
        "mtName": "\u827a\u5b81",
        "jgId": "ugirls",
        "jgName": "\u5c24\u679c\u7f51",
        "href": "http://d.duotuwang.com/2016/11/25/3256/",
        "count": 65,
        "start": 1,
        "hasMtTag": 1,
        "hasJgTag": 1,
        "mtCount": 1,
        "jgCount": 79
    },
    {
        "name": "[UGirlsAPP]\u7231\u5c24\u7269 No.548 \u827a\u5b81",
        "src": "http://d.duotuwang.com/2016/11/17/4905/0.jpg",
        "mtId": "681451a3e6093a38",
        "mtName": "\u827a\u5b81",
        "jgId": "ugirlsapp",
        "jgName": "\u7231\u5c24\u7269",
        "href": "http://d.duotuwang.com/2016/11/17/4905/",
        "count": 40,
        "start": 1,
        "hasMtTag": 1,
        "hasJgTag": 1,
        "mtCount": 1,
        "jgCount": 397
    }
]