[
    {
        "name": "\u8fc7\u671f\u7c73\u7ebf\u7ebf\u55b5\u9ed1\u8272\u857e\u4e1d\u81ea\u62cd",
        "src": "http://d.duotuwang.com/2018/07/01/20903/0.jpg",
        "mtId": "4a74f340a78fafb1",
        "mtName": "\u8fc7\u671f\u7c73\u7ebf\u7ebf\u55b5",
        "jgId": "zipai",
        "jgName": "\u81ea\u62cd",
        "href": "http://d.duotuwang.com/2018/07/01/20903/",
        "count": 16,
        "start": 1,
        "hasMtTag": 1,
        "hasJgTag": 1,
        "mtCount": 8,
        "jgCount": 32
    },
    {
        "name": "\u8fc7\u671f\u7c73\u7ebf\u7ebf\u55b5\u7c89\u8272\u5185\u8863\u81ea\u62cd",
        "src": "http://d.duotuwang.com/2018/07/01/20902/0.jpg",
        "mtId": "4a74f340a78fafb1",
        "mtName": "\u8fc7\u671f\u7c73\u7ebf\u7ebf\u55b5",
        "jgId": "zipai",
        "jgName": "\u81ea\u62cd",
        "href": "http://d.duotuwang.com/2018/07/01/20902/",
        "count": 22,
        "start": 1,
        "hasMtTag": 1,
        "hasJgTag": 1,
        "mtCount": 8,
        "jgCount": 32
    },
    {
        "name": "\u8fc7\u671f\u7c73\u7ebf\u7ebf\u55b5\u7c89\u8272\u60c5\u8da3\u7761\u8863\u81ea\u62cd",
        "src": "http://d.duotuwang.com/2018/07/01/20901/0.jpg",
        "mtId": "4a74f340a78fafb1",
        "mtName": "\u8fc7\u671f\u7c73\u7ebf\u7ebf\u55b5",
        "jgId": "zipai",
        "jgName": "\u81ea\u62cd",
        "href": "http://d.duotuwang.com/2018/07/01/20901/",
        "count": 13,
        "start": 1,
        "hasMtTag": 1,
        "hasJgTag": 1,
        "mtCount": 8,
        "jgCount": 32
    },
    {
        "name": "\u8fc7\u671f\u7c73\u7ebf\u7ebf\u55b5\u767d\u8272\u5185\u8863\u81ea\u62cd",
        "src": "http://d.duotuwang.com/2018/07/01/20900/0.jpg",
        "mtId": "4a74f340a78fafb1",
        "mtName": "\u8fc7\u671f\u7c73\u7ebf\u7ebf\u55b5",
        "jgId": "zipai",
        "jgName": "\u81ea\u62cd",
        "href": "http://d.duotuwang.com/2018/07/01/20900/",
        "count": 22,
        "start": 1,
        "hasMtTag": 1,
        "hasJgTag": 1,
        "mtCount": 8,
        "jgCount": 32
    },
    {
        "name": "\u8fc7\u671f\u7c73\u7ebf\u7ebf\u55b5\u7c89\u8272SM\u81ea\u62cd",
        "src": "http://d.duotuwang.com/2018/07/01/20899/0.jpg",
        "mtId": "4a74f340a78fafb1",
        "mtName": "\u8fc7\u671f\u7c73\u7ebf\u7ebf\u55b5",
        "jgId": "zipai",
        "jgName": "\u81ea\u62cd",
        "href": "http://d.duotuwang.com/2018/07/01/20899/",
        "count": 14,
        "start": 1,
        "hasMtTag": 1,
        "hasJgTag": 1,
        "mtCount": 8,
        "jgCount": 32
    },
    {
        "name": "\u8fc7\u671f\u7c73\u7ebf\u7ebf\u55b5\u767d\u7eb1\u5185\u8863\u81ea\u62cd",
        "src": "http://d.duotuwang.com/2018/07/01/20898/0.jpg",
        "mtId": "4a74f340a78fafb1",
        "mtName": "\u8fc7\u671f\u7c73\u7ebf\u7ebf\u55b5",
        "jgId": "zipai",
        "jgName": "\u81ea\u62cd",
        "href": "http://d.duotuwang.com/2018/07/01/20898/",
        "count": 19,
        "start": 1,
        "hasMtTag": 1,
        "hasJgTag": 1,
        "mtCount": 8,
        "jgCount": 32
    }
]