[
    {
        "name": "[UGirlsAPP]\u7231\u5c24\u7269 No.219 \u6893\u5b89&\u674e\u601d\u5b81&\u6768\u6f2b\u59ae&\u66fc\u4f9d",
        "src": "http://d.duotuwang.com/2015/12/24/4567/0.jpg",
        "mtId": "18a1efce2a2f62d1",
        "mtName": "\u6893\u5b89",
        "jgId": "ugirlsapp",
        "jgName": "\u7231\u5c24\u7269",
        "href": "http://d.duotuwang.com/2015/12/24/4567/",
        "count": 40,
        "start": 1,
        "hasMtTag": 1,
        "hasJgTag": 1,
        "mtCount": 2,
        "jgCount": 397
    },
    {
        "name": "[UGirlsAPP]\u7231\u5c24\u7269 No.217 \u6768\u6f2b\u59ae",
        "src": "http://d.duotuwang.com/2015/12/22/4569/0.jpg",
        "mtId": "a9cb55a9fd5a17d9",
        "mtName": "\u6768\u6f2b\u59ae",
        "jgId": "ugirlsapp",
        "jgName": "\u7231\u5c24\u7269",
        "href": "http://d.duotuwang.com/2015/12/22/4569/",
        "count": 40,
        "start": 1,
        "hasMtTag": 1,
        "hasJgTag": 1,
        "mtCount": 4,
        "jgCount": 397
    },
    {
        "name": "[UGirls]\u5c24\u679c\u7f51 U137 \u6768\u6f2b\u59ae",
        "src": "http://d.duotuwang.com/2015/12/02/3156/0.jpg",
        "mtId": "a9cb55a9fd5a17d9",
        "mtName": "\u6768\u6f2b\u59ae",
        "jgId": "ugirls",
        "jgName": "\u5c24\u679c\u7f51",
        "href": "http://d.duotuwang.com/2015/12/02/3156/",
        "count": 65,
        "start": 1,
        "hasMtTag": 1,
        "hasJgTag": 1,
        "mtCount": 4,
        "jgCount": 79
    },
    {
        "name": "[UGirlsAPP]\u7231\u5c24\u7269 No.196 \u6768\u6f2b\u59ae",
        "src": "http://d.duotuwang.com/2015/12/01/4543/0.jpg",
        "mtId": "a9cb55a9fd5a17d9",
        "mtName": "\u6768\u6f2b\u59ae",
        "jgId": "ugirlsapp",
        "jgName": "\u7231\u5c24\u7269",
        "href": "http://d.duotuwang.com/2015/12/01/4543/",
        "count": 40,
        "start": 1,
        "hasMtTag": 1,
        "hasJgTag": 1,
        "mtCount": 4,
        "jgCount": 397
    }
]