[
    {
        "name": "[MFStar]\u6a21\u8303\u5b66\u9662 VOL.063 \u7535\u7ade\u5510\u5ae3",
        "src": "http://d.duotuwang.com/2016/07/11/1517/0.jpg",
        "mtId": "6d831b007a3e34f4",
        "mtName": "\u7535\u7ade\u5510\u5ae3",
        "jgId": "mfstar",
        "jgName": "\u6a21\u8303\u5b66\u9662",
        "href": "http://d.duotuwang.com/2016/07/11/1517/",
        "count": 60,
        "start": 1,
        "hasMtTag": 1,
        "hasJgTag": 1,
        "mtCount": 1,
        "jgCount": 94
    }
]