[
    {
        "name": "[YouMi]\u5c24\u871c YoYO\u4f18\u4f18",
        "src": "http://d.duotuwang.com/2021/01/05/23691/0.jpg",
        "mtId": "eb786dcb99b97985",
        "mtName": "Yoo\u4f18\u4f18",
        "jgId": "youmiabc",
        "jgName": "\u5c24\u871c",
        "href": "http://d.duotuwang.com/2021/01/05/23691/",
        "count": 26,
        "start": 1,
        "hasMtTag": 1,
        "hasJgTag": 1,
        "mtCount": 6,
        "jgCount": 79
    },
    {
        "name": "[MFStar]\u6a21\u8303\u5b66\u9662 VOL.429 yoo\u4f18\u4f18",
        "src": "http://d.duotuwang.com/2020/12/28/23607/0.jpg",
        "mtId": "eb786dcb99b97985",
        "mtName": "yoo\u4f18\u4f18",
        "jgId": "mfstar",
        "jgName": "\u6a21\u8303\u5b66\u9662",
        "href": "http://d.duotuwang.com/2020/12/28/23607/",
        "count": 57,
        "start": 1,
        "hasMtTag": 1,
        "hasJgTag": 1,
        "mtCount": 6,
        "jgCount": 94
    },
    {
        "name": "[MFStar]\u6a21\u8303\u5b66\u9662 VOL.427 yoo\u4f18\u4f18",
        "src": "http://d.duotuwang.com/2020/12/23/23605/0.jpg",
        "mtId": "eb786dcb99b97985",
        "mtName": "yoo\u4f18\u4f18",
        "jgId": "mfstar",
        "jgName": "\u6a21\u8303\u5b66\u9662",
        "href": "http://d.duotuwang.com/2020/12/23/23605/",
        "count": 41,
        "start": 1,
        "hasMtTag": 1,
        "hasJgTag": 1,
        "mtCount": 6,
        "jgCount": 94
    },
    {
        "name": "[MFStar]\u6a21\u8303\u5b66\u9662 VOL.424 yoo\u4f18\u4f18",
        "src": "http://d.duotuwang.com/2020/12/14/23515/0.jpg",
        "mtId": "eb786dcb99b97985",
        "mtName": "yoo\u4f18\u4f18",
        "jgId": "mfstar",
        "jgName": "\u6a21\u8303\u5b66\u9662",
        "href": "http://d.duotuwang.com/2020/12/14/23515/",
        "count": 60,
        "start": 1,
        "hasMtTag": 1,
        "hasJgTag": 1,
        "mtCount": 6,
        "jgCount": 94
    },
    {
        "name": "[YouMi]\u5c24\u871c YoYO\u4f18\u4f18 \u5c11\u5973\u306e\u7f8e\u597d",
        "src": "http://d.duotuwang.com/2020/12/02/23322/0.jpg",
        "mtId": "eb786dcb99b97985",
        "mtName": "Yoo\u4f18\u4f18",
        "jgId": "youmiabc",
        "jgName": "\u5c24\u871c",
        "href": "http://d.duotuwang.com/2020/12/02/23322/",
        "count": 24,
        "start": 1,
        "hasMtTag": 1,
        "hasJgTag": 1,
        "mtCount": 6,
        "jgCount": 79
    },
    {
        "name": "[YouMi]\u5c24\u871c YOYO\u4f18\u4f18 \u6f4b\u6edf\u82b3\u534e",
        "src": "http://d.duotuwang.com/2020/11/06/23024/0.jpg",
        "mtId": "eb786dcb99b97985",
        "mtName": "Yoo\u4f18\u4f18",
        "jgId": "youmiabc",
        "jgName": "\u5c24\u871c",
        "href": "http://d.duotuwang.com/2020/11/06/23024/",
        "count": 67,
        "start": 1,
        "hasMtTag": 1,
        "hasJgTag": 1,
        "mtCount": 6,
        "jgCount": 79
    }
]