[
    {
        "name": "[XIUREN]\u79c0\u4eba\u7f51 No.2483 yoo\u4f18\u4f18",
        "src": "http://d.duotuwang.com/2020/08/25/21694/0.jpg",
        "mtId": "eb786dcb99b97985",
        "mtName": "yoo\u4f18\u4f18",
        "jgId": "xiuren",
        "jgName": "\u79c0\u4eba\u7f51",
        "href": "http://d.duotuwang.com/2020/08/25/21694/",
        "count": 45,
        "start": 1,
        "hasMtTag": 1,
        "hasJgTag": 1,
        "mtCount": 6,
        "jgCount": 750
    },
    {
        "name": "[XIUREN]\u79c0\u4eba\u7f51 No.2473 yoo\u4f18\u4f18",
        "src": "http://d.duotuwang.com/2020/08/21/21686/0.jpg",
        "mtId": "eb786dcb99b97985",
        "mtName": "yoo\u4f18\u4f18",
        "jgId": "xiuren",
        "jgName": "\u79c0\u4eba\u7f51",
        "href": "http://d.duotuwang.com/2020/08/21/21686/",
        "count": 53,
        "start": 1,
        "hasMtTag": 1,
        "hasJgTag": 1,
        "mtCount": 6,
        "jgCount": 750
    },
    {
        "name": "[MFStar]\u6a21\u8303\u5b66\u9662 VOL.369 yoo\u4f18\u4f18",
        "src": "http://d.duotuwang.com/2020/08/14/21584/0.jpg",
        "mtId": "eb786dcb99b97985",
        "mtName": "yoo\u4f18\u4f18",
        "jgId": "mfstar",
        "jgName": "\u6a21\u8303\u5b66\u9662",
        "href": "http://d.duotuwang.com/2020/08/14/21584/",
        "count": 64,
        "start": 1,
        "hasMtTag": 1,
        "hasJgTag": 1,
        "mtCount": 6,
        "jgCount": 94
    },
    {
        "name": "[XIUREN]\u79c0\u4eba\u7f51 No.2428 yoo\u4f18\u4f18",
        "src": "http://d.duotuwang.com/2020/08/11/21527/0.jpg",
        "mtId": "eb786dcb99b97985",
        "mtName": "yoo\u4f18\u4f18",
        "jgId": "xiuren",
        "jgName": "\u79c0\u4eba\u7f51",
        "href": "http://d.duotuwang.com/2020/08/11/21527/",
        "count": 57,
        "start": 1,
        "hasMtTag": 1,
        "hasJgTag": 1,
        "mtCount": 6,
        "jgCount": 750
    },
    {
        "name": "[MFStar]\u6a21\u8303\u5b66\u9662 VOL.364 yoo\u4f18\u4f18",
        "src": "http://d.duotuwang.com/2020/08/07/21493/0.jpg",
        "mtId": "eb786dcb99b97985",
        "mtName": "yoo\u4f18\u4f18",
        "jgId": "mfstar",
        "jgName": "\u6a21\u8303\u5b66\u9662",
        "href": "http://d.duotuwang.com/2020/08/07/21493/",
        "count": 56,
        "start": 1,
        "hasMtTag": 1,
        "hasJgTag": 1,
        "mtCount": 6,
        "jgCount": 94
    },
    {
        "name": "[XIUREN]\u79c0\u4eba\u7f51 No.2402 yoo\u4f18\u4f18",
        "src": "http://d.duotuwang.com/2020/08/04/21449/0.jpg",
        "mtId": "eb786dcb99b97985",
        "mtName": "yoo\u4f18\u4f18",
        "jgId": "xiuren",
        "jgName": "\u79c0\u4eba\u7f51",
        "href": "http://d.duotuwang.com/2020/08/04/21449/",
        "count": 50,
        "start": 1,
        "hasMtTag": 1,
        "hasJgTag": 1,
        "mtCount": 6,
        "jgCount": 750
    }
]