[
    {
        "name": "[MiiTao]\u871c\u6843\u793e VOL.134 \u5c0f\u732aBaey",
        "src": "http://d.duotuwang.com/2019/10/29/18401/0.jpg",
        "mtId": "060884a360636413",
        "mtName": "\u5c0f\u732aBaey",
        "jgId": "miitao",
        "jgName": "\u871c\u6843\u793e",
        "href": "http://d.duotuwang.com/2019/10/29/18401/",
        "count": 51,
        "start": 1,
        "hasMtTag": 1,
        "hasJgTag": 1,
        "mtCount": 1,
        "jgCount": 25
    },
    {
        "name": "[MiiTao]\u871c\u6843\u793e VOL.133 \u5c0f\u732aBaey",
        "src": "http://d.duotuwang.com/2019/10/22/18324/0.jpg",
        "mtId": "060884a360636413",
        "mtName": "\u5c0f\u732aBaey",
        "jgId": "miitao",
        "jgName": "\u871c\u6843\u793e",
        "href": "http://d.duotuwang.com/2019/10/22/18324/",
        "count": 49,
        "start": 1,
        "hasMtTag": 1,
        "hasJgTag": 1,
        "mtCount": 1,
        "jgCount": 25
    }
]