[
    {
        "name": "[ARTGRAVIA] VOL.215 Miya",
        "src": "http://d.duotuwang.com/2020/09/20/28850/0.jpg",
        "mtId": "cac8f3fa4bef8859",
        "mtName": "Miya",
        "href": "http://d.duotuwang.com/2020/09/20/28850/",
        "count": 59,
        "start": 1,
        "hasMtTag": 1,
        "hasJgTag": 0,
        "mtCount": 1
    }
]