[
    {
        "name": "[BoLoli]\u6ce2\u841d\u793e BOL120 \u8d85\u51f6\u7684\u8bfa",
        "src": "http://d.duotuwang.com/2017/09/19/6240/0.jpg",
        "mtId": "30be7a548fced37c",
        "mtName": "\u8d85\u51f6\u7684\u8bfa",
        "jgId": "bololi",
        "jgName": "\u6ce2\u841d\u793e",
        "href": "http://d.duotuwang.com/2017/09/19/6240/",
        "count": 42,
        "start": 1,
        "hasMtTag": 1,
        "hasJgTag": 1,
        "mtCount": 1,
        "jgCount": 40
    },
    {
        "name": "[Kimoe]\u6fc0\u840c\u6587\u5316 KIM020 \u8d85\u51f6\u7684\u8bfa",
        "src": "http://d.duotuwang.com/2017/08/09/5594/0.jpg",
        "mtId": "30be7a548fced37c",
        "mtName": "\u8d85\u51f6\u7684\u8bfa",
        "jgId": "kimoe",
        "jgName": "\u6fc0\u840c\u6587\u5316",
        "href": "http://d.duotuwang.com/2017/08/09/5594/",
        "count": 40,
        "start": 1,
        "hasMtTag": 1,
        "hasJgTag": 1,
        "mtCount": 1,
        "jgCount": 5
    }
]