[
    {
        "name": "[XIUREN]\u79c0\u4eba\u7f51 No.2980 \u845b\u5f81\u51c0\u9ad8184cm",
        "src": "http://d.duotuwang.com/2021/01/07/23849/0.jpg",
        "mtId": "bac3f4adea859891",
        "mtName": "\u845b\u5f81Model",
        "jgId": "xiuren",
        "jgName": "\u79c0\u4eba\u7f51",
        "href": "http://d.duotuwang.com/2021/01/07/23849/",
        "count": 39,
        "start": 1,
        "hasMtTag": 1,
        "hasJgTag": 1,
        "mtCount": 10,
        "jgCount": 750
    },
    {
        "name": "[XIUREN]\u79c0\u4eba\u7f51 No.2898 \u845b\u5f81Model",
        "src": "http://d.duotuwang.com/2020/12/15/23541/0.jpg",
        "mtId": "bac3f4adea859891",
        "mtName": "\u845b\u5f81Model",
        "jgId": "xiuren",
        "jgName": "\u79c0\u4eba\u7f51",
        "href": "http://d.duotuwang.com/2020/12/15/23541/",
        "count": 71,
        "start": 1,
        "hasMtTag": 1,
        "hasJgTag": 1,
        "mtCount": 10,
        "jgCount": 750
    },
    {
        "name": "[XIUREN]\u79c0\u4eba\u7f51 No.2790 \u845b\u5f81Model",
        "src": "http://d.duotuwang.com/2020/11/17/23245/0.jpg",
        "mtId": "bac3f4adea859891",
        "mtName": "\u845b\u5f81Model",
        "jgId": "xiuren",
        "jgName": "\u79c0\u4eba\u7f51",
        "href": "http://d.duotuwang.com/2020/11/17/23245/",
        "count": 62,
        "start": 1,
        "hasMtTag": 1,
        "hasJgTag": 1,
        "mtCount": 10,
        "jgCount": 750
    },
    {
        "name": "[UGirlsAPP]\u7231\u5c24\u7269 No.1919 \u845b\u5f81Model \u4ed9\u5973\u7f8e\u817f",
        "src": "http://d.duotuwang.com/2020/09/27/22324/0.jpg",
        "mtId": "bac3f4adea859891",
        "mtName": "\u845b\u5f81Model",
        "jgId": "ugirlsapp",
        "jgName": "\u7231\u5c24\u7269",
        "href": "http://d.duotuwang.com/2020/09/27/22324/",
        "count": 35,
        "start": 1,
        "hasMtTag": 1,
        "hasJgTag": 1,
        "mtCount": 10,
        "jgCount": 397
    },
    {
        "name": "[YOUMI]\u5c24\u871c\u835f VOL.481 \u845b\u5f81Model",
        "src": "http://d.duotuwang.com/2020/07/08/21189/0.jpg",
        "mtId": "bac3f4adea859891",
        "mtName": "\u845b\u5f81Model",
        "jgId": "youmi",
        "jgName": "\u5c24\u871c\u835f",
        "href": "http://d.duotuwang.com/2020/07/08/21189/",
        "count": 42,
        "start": 1,
        "hasMtTag": 1,
        "hasJgTag": 1,
        "mtCount": 10,
        "jgCount": 143
    },
    {
        "name": "[YOUMI]\u5c24\u871c\u835f VOL.461 \u845b\u5f81Model",
        "src": "http://d.duotuwang.com/2020/04/27/20392/0.jpg",
        "mtId": "bac3f4adea859891",
        "mtName": "\u845b\u5f81Model",
        "jgId": "youmi",
        "jgName": "\u5c24\u871c\u835f",
        "href": "http://d.duotuwang.com/2020/04/27/20392/",
        "count": 50,
        "start": 1,
        "hasMtTag": 1,
        "hasJgTag": 1,
        "mtCount": 10,
        "jgCount": 143
    }
]