[
    {
        "name": "[YALAYI]\u96c5\u62c9\u4f0a Y959 \u51c9\u513f \u9999\u871c",
        "src": "http://d.duotuwang.com/2022/08/01/31223/0.jpg",
        "mtId": "e2f825793b85dbd7",
        "mtName": "\u51c9\u513f",
        "jgId": "yalayi",
        "jgName": "\u96c5\u62c9\u4f0a",
        "href": "http://d.duotuwang.com/2022/08/01/31223/",
        "count": 49,
        "start": 1,
        "hasMtTag": 1,
        "hasJgTag": 1,
        "mtCount": 2,
        "jgCount": 156
    },
    {
        "name": "[YALAYI]\u96c5\u62c9\u4f0a Y154 \u51c9\u513f \u5723\u8bde\u5973\u7687",
        "src": "http://d.duotuwang.com/2019/07/22/16213/0.jpg",
        "jgId": "yalayi",
        "jgName": "\u96c5\u62c9\u4f0a",
        "href": "http://d.duotuwang.com/2019/07/22/16213/",
        "count": 45,
        "start": 1,
        "hasMtTag": 0,
        "hasJgTag": 1,
        "jgCount": 156
    },
    {
        "name": "[YALAYI]\u96c5\u62c9\u4f0a Y317 \u51c9\u513f \u9b54\u955c\u9b54\u955c\u544a\u8bc9\u6211",
        "src": "http://d.duotuwang.com/2019/06/23/16888/0.jpg",
        "jgId": "yalayi",
        "jgName": "\u96c5\u62c9\u4f0a",
        "href": "http://d.duotuwang.com/2019/06/23/16888/",
        "count": 39,
        "start": 1,
        "hasMtTag": 0,
        "hasJgTag": 1,
        "jgCount": 156
    },
    {
        "name": "[YALAYI]\u96c5\u62c9\u4f0a Y305 \u51c9\u513f \u6696\u623f",
        "src": "http://d.duotuwang.com/2019/06/11/16769/0.jpg",
        "jgId": "yalayi",
        "jgName": "\u96c5\u62c9\u4f0a",
        "href": "http://d.duotuwang.com/2019/06/11/16769/",
        "count": 53,
        "start": 1,
        "hasMtTag": 0,
        "hasJgTag": 1,
        "jgCount": 156
    },
    {
        "name": "[YALAYI]\u96c5\u62c9\u4f0a Y299 \u51c9\u513f \u9999\u871c",
        "src": "http://d.duotuwang.com/2019/06/05/16722/0.jpg",
        "jgId": "yalayi",
        "jgName": "\u96c5\u62c9\u4f0a",
        "href": "http://d.duotuwang.com/2019/06/05/16722/",
        "count": 49,
        "start": 1,
        "hasMtTag": 0,
        "hasJgTag": 1,
        "jgCount": 156
    },
    {
        "name": "[YALAYI]\u96c5\u62c9\u4f0a Y157 \u51c9\u513f \u7ae5\u8bdd",
        "src": "http://d.duotuwang.com/2019/04/18/16059/0.jpg",
        "jgId": "yalayi",
        "jgName": "\u96c5\u62c9\u4f0a",
        "href": "http://d.duotuwang.com/2019/04/18/16059/",
        "count": 69,
        "start": 1,
        "hasMtTag": 0,
        "hasJgTag": 1,
        "jgCount": 156
    }
]