[
    {
        "name": "[YALAYI]\u96c5\u62c9\u4f0a Y150 \u51c9\u513f \u6a58\u8272\u7684\u6696\u9633\u82b1",
        "src": "http://d.duotuwang.com/2019/04/17/16060/0.jpg",
        "jgId": "yalayi",
        "jgName": "\u96c5\u62c9\u4f0a",
        "href": "http://d.duotuwang.com/2019/04/17/16060/",
        "count": 65,
        "start": 1,
        "hasMtTag": 0,
        "hasJgTag": 1,
        "jgCount": 156
    }
]