[
    {
        "name": "[IMISS]\u7231\u871c\u793e VOL.097 \u6ce1\u6ce1\u5b50",
        "src": "http://d.duotuwang.com/2016/06/12/1465/0.jpg",
        "mtId": "587310d2685da96f",
        "mtName": "\u6ce1\u6ce1\u5b50",
        "jgId": "imiss",
        "jgName": "\u7231\u871c\u793e",
        "href": "http://d.duotuwang.com/2016/06/12/1465/",
        "count": 45,
        "start": 1,
        "hasMtTag": 1,
        "hasJgTag": 1,
        "mtCount": 1,
        "jgCount": 116
    }
]