[
    {
        "name": "[YALAYI]\u96c5\u62c9\u4f0a Y966 \u963f\u79be \u4f73\u4eba",
        "src": "http://d.duotuwang.com/2022/08/22/31426/0.jpg",
        "mtId": "896f31e37393f705",
        "mtName": "\u963f\u79be",
        "jgId": "yalayi",
        "jgName": "\u96c5\u62c9\u4f0a",
        "href": "http://d.duotuwang.com/2022/08/22/31426/",
        "count": 43,
        "start": 1,
        "hasMtTag": 1,
        "hasJgTag": 1,
        "mtCount": 4,
        "jgCount": 156
    },
    {
        "name": "[YALAYI]\u96c5\u62c9\u4f0a Y965 \u5c0f\u4e54 \u4e00\u53bb\u4e0d\u590d\u8fd4",
        "src": "http://d.duotuwang.com/2022/08/19/31425/0.jpg",
        "mtId": "d3fbbf5d38368b84",
        "mtName": "\u5c0f\u4e54",
        "jgId": "yalayi",
        "jgName": "\u96c5\u62c9\u4f0a",
        "href": "http://d.duotuwang.com/2022/08/19/31425/",
        "count": 44,
        "start": 1,
        "hasMtTag": 1,
        "hasJgTag": 1,
        "mtCount": 6,
        "jgCount": 156
    },
    {
        "name": "[YALAYI]\u96c5\u62c9\u4f0a Y964 \u5c0f\u4ead \u82b1\u4e4b\u9999",
        "src": "http://d.duotuwang.com/2022/08/15/31424/0.jpg",
        "mtId": "0aff7cc5b8cdd061",
        "mtName": "\u5c0f\u4ead",
        "jgId": "yalayi",
        "jgName": "\u96c5\u62c9\u4f0a",
        "href": "http://d.duotuwang.com/2022/08/15/31424/",
        "count": 44,
        "start": 1,
        "hasMtTag": 1,
        "hasJgTag": 1,
        "mtCount": 1,
        "jgCount": 156
    },
    {
        "name": "[YALAYI]\u96c5\u62c9\u4f0a Y963 \u4f55\u5609\u9896 \u6e05\u6668\u7684\u666f\u8272",
        "src": "http://d.duotuwang.com/2022/08/12/31226/0.jpg",
        "mtId": "ddcc0f5bf2efada3",
        "mtName": "\u4f55\u5609\u9896",
        "jgId": "yalayi",
        "jgName": "\u96c5\u62c9\u4f0a",
        "href": "http://d.duotuwang.com/2022/08/12/31226/",
        "count": 39,
        "start": 1,
        "hasMtTag": 1,
        "hasJgTag": 1,
        "mtCount": 14,
        "jgCount": 156
    },
    {
        "name": "[YALAYI]\u96c5\u62c9\u4f0a Y962 \u5c0f\u4e54 \u770b\u7740\u6211\u7684\u773c\u775b",
        "src": "http://d.duotuwang.com/2022/08/08/31225/0.jpg",
        "mtId": "d3fbbf5d38368b84",
        "mtName": "\u5c0f\u4e54",
        "jgId": "yalayi",
        "jgName": "\u96c5\u62c9\u4f0a",
        "href": "http://d.duotuwang.com/2022/08/08/31225/",
        "count": 43,
        "start": 1,
        "hasMtTag": 1,
        "hasJgTag": 1,
        "mtCount": 6,
        "jgCount": 156
    },
    {
        "name": "[YALAYI]\u96c5\u62c9\u4f0a Y961 \u963f\u79be \u6211\u5bb6\u5973\u53cb",
        "src": "http://d.duotuwang.com/2022/08/03/31224/0.jpg",
        "mtId": "896f31e37393f705",
        "mtName": "\u963f\u79be",
        "jgId": "yalayi",
        "jgName": "\u96c5\u62c9\u4f0a",
        "href": "http://d.duotuwang.com/2022/08/03/31224/",
        "count": 44,
        "start": 1,
        "hasMtTag": 1,
        "hasJgTag": 1,
        "mtCount": 4,
        "jgCount": 156
    }
]