[
    {
        "name": "[YALAYI]\u96c5\u62c9\u4f0a Y358 \u7c73\u5947 \u534a\u5c9b\u94c1\u76d2",
        "src": "http://d.duotuwang.com/2019/08/03/17470/0.jpg",
        "jgId": "yalayi",
        "jgName": "\u96c5\u62c9\u4f0a",
        "href": "http://d.duotuwang.com/2019/08/03/17470/",
        "count": 43,
        "start": 1,
        "hasMtTag": 0,
        "hasJgTag": 1,
        "jgCount": 156
    },
    {
        "name": "[YALAYI]\u96c5\u62c9\u4f0a Y357 \u963f\u6a59 \u6211\u7684\u9ad8\u8fbe\u5973\u53cb",
        "src": "http://d.duotuwang.com/2019/08/02/17467/0.jpg",
        "jgId": "yalayi",
        "jgName": "\u96c5\u62c9\u4f0a",
        "href": "http://d.duotuwang.com/2019/08/02/17467/",
        "count": 44,
        "start": 1,
        "hasMtTag": 0,
        "hasJgTag": 1,
        "jgCount": 156
    },
    {
        "name": "[YALAYI]\u96c5\u62c9\u4f0a Y168 \u9879\u5174\u548f \u753b\u4e2d\u4f0a\u4eba",
        "src": "http://d.duotuwang.com/2019/08/01/16286/0.jpg",
        "jgId": "yalayi",
        "jgName": "\u96c5\u62c9\u4f0a",
        "href": "http://d.duotuwang.com/2019/08/01/16286/",
        "count": 46,
        "start": 1,
        "hasMtTag": 0,
        "hasJgTag": 1,
        "jgCount": 156
    },
    {
        "name": "[YALAYI]\u96c5\u62c9\u4f0a Y356 \u897f\u5b50 \u84dd\u7cbe\u7075",
        "src": "http://d.duotuwang.com/2019/08/01/17469/0.jpg",
        "mtId": "f9e23a84d0a26b66",
        "mtName": "\u897f\u5b50",
        "jgId": "yalayi",
        "jgName": "\u96c5\u62c9\u4f0a",
        "href": "http://d.duotuwang.com/2019/08/01/17469/",
        "count": 49,
        "start": 1,
        "hasMtTag": 1,
        "hasJgTag": 1,
        "mtCount": 3,
        "jgCount": 156
    },
    {
        "name": "[YALAYI]\u96c5\u62c9\u4f0a Y140 \u5f20\u96e8\u9752 \u65e5\u6e05\u548c\u5ba4",
        "src": "http://d.duotuwang.com/2019/07/31/16206/0.jpg",
        "jgId": "yalayi",
        "jgName": "\u96c5\u62c9\u4f0a",
        "href": "http://d.duotuwang.com/2019/07/31/16206/",
        "count": 40,
        "start": 1,
        "hasMtTag": 0,
        "hasJgTag": 1,
        "jgCount": 156
    },
    {
        "name": "[YALAYI]\u96c5\u62c9\u4f0a Y355 \u9ec4\u4e50\u7136 \u8f7b\u719f\u5973",
        "src": "http://d.duotuwang.com/2019/07/31/17468/0.jpg",
        "mtId": "ed4d676610a0b9e3",
        "mtName": "\u9ec4\u4e50\u7136",
        "jgId": "yalayi",
        "jgName": "\u96c5\u62c9\u4f0a",
        "href": "http://d.duotuwang.com/2019/07/31/17468/",
        "count": 43,
        "start": 1,
        "hasMtTag": 1,
        "hasJgTag": 1,
        "mtCount": 17,
        "jgCount": 156
    }
]