[
    {
        "name": "[YALAYI]\u96c5\u62c9\u4f0a Y219 \u5218\u5f00\u5fc3 \u534a\u7cd6\u6d1b\u4e3d\u5854",
        "src": "http://d.duotuwang.com/2019/07/18/16318/0.jpg",
        "jgId": "yalayi",
        "jgName": "\u96c5\u62c9\u4f0a",
        "href": "http://d.duotuwang.com/2019/07/18/16318/",
        "count": 43,
        "start": 1,
        "hasMtTag": 0,
        "hasJgTag": 1,
        "jgCount": 156
    },
    {
        "name": "[YALAYI]\u96c5\u62c9\u4f0a Y239 \u7c79\u7c79\u6eaa \u5927\u5f13\u5973",
        "src": "http://d.duotuwang.com/2019/07/17/16338/0.jpg",
        "jgId": "yalayi",
        "jgName": "\u96c5\u62c9\u4f0a",
        "href": "http://d.duotuwang.com/2019/07/17/16338/",
        "count": 37,
        "start": 1,
        "hasMtTag": 0,
        "hasJgTag": 1,
        "jgCount": 156
    },
    {
        "name": "[YALAYI]\u96c5\u62c9\u4f0a Y341 \u7c73\u5947 \u6d77\u751f\u82b1",
        "src": "http://d.duotuwang.com/2019/07/17/17177/0.jpg",
        "jgId": "yalayi",
        "jgName": "\u96c5\u62c9\u4f0a",
        "href": "http://d.duotuwang.com/2019/07/17/17177/",
        "count": 45,
        "start": 1,
        "hasMtTag": 0,
        "hasJgTag": 1,
        "jgCount": 156
    },
    {
        "name": "[YALAYI]\u96c5\u62c9\u4f0a Y263 \u6cab\u6cab \u5566\u5566\u961f\u4e4b\u6b4c",
        "src": "http://d.duotuwang.com/2019/07/16/16361/0.jpg",
        "jgId": "yalayi",
        "jgName": "\u96c5\u62c9\u4f0a",
        "href": "http://d.duotuwang.com/2019/07/16/16361/",
        "count": 44,
        "start": 1,
        "hasMtTag": 0,
        "hasJgTag": 1,
        "jgCount": 156
    },
    {
        "name": "[YALAYI]\u96c5\u62c9\u4f0a Y340 \u963f\u6a59 \u6c27\u6c14\u5973\u5b69",
        "src": "http://d.duotuwang.com/2019/07/16/17149/0.jpg",
        "jgId": "yalayi",
        "jgName": "\u96c5\u62c9\u4f0a",
        "href": "http://d.duotuwang.com/2019/07/16/17149/",
        "count": 45,
        "start": 1,
        "hasMtTag": 0,
        "hasJgTag": 1,
        "jgCount": 156
    },
    {
        "name": "[YALAYI]\u96c5\u62c9\u4f0a Y237 \u695a\u8587 \u6dd1\u8d28\u8273\u5149",
        "src": "http://d.duotuwang.com/2019/07/15/16344/0.jpg",
        "mtId": "33241ce8ab367e36",
        "mtName": "\u695a\u8587",
        "jgId": "yalayi",
        "jgName": "\u96c5\u62c9\u4f0a",
        "href": "http://d.duotuwang.com/2019/07/15/16344/",
        "count": 44,
        "start": 1,
        "hasMtTag": 1,
        "hasJgTag": 1,
        "mtCount": 2,
        "jgCount": 156
    }
]