[
    {
        "name": "[YALAYI]\u96c5\u62c9\u4f0a Y324 \u695a\u8587 \u94f6\u72d0",
        "src": "http://d.duotuwang.com/2019/06/30/16978/0.jpg",
        "mtId": "33241ce8ab367e36",
        "mtName": "\u695a\u8587",
        "jgId": "yalayi",
        "jgName": "\u96c5\u62c9\u4f0a",
        "href": "http://d.duotuwang.com/2019/06/30/16978/",
        "count": 44,
        "start": 1,
        "hasMtTag": 1,
        "hasJgTag": 1,
        "mtCount": 2,
        "jgCount": 156
    },
    {
        "name": "[YALAYI]\u96c5\u62c9\u4f0a Y323 \u4f55\u5609\u9896 \u5973\u767d\u9886\u7684\u79c1\u751f\u6d3b2",
        "src": "http://d.duotuwang.com/2019/06/29/16977/0.jpg",
        "mtId": "ddcc0f5bf2efada3",
        "mtName": "\u4f55\u5609\u9896",
        "jgId": "yalayi",
        "jgName": "\u96c5\u62c9\u4f0a",
        "href": "http://d.duotuwang.com/2019/06/29/16977/",
        "count": 39,
        "start": 1,
        "hasMtTag": 1,
        "hasJgTag": 1,
        "mtCount": 14,
        "jgCount": 156
    },
    {
        "name": "[YALAYI]\u96c5\u62c9\u4f0a Y143 \u9896\u83b9 \u9ed1\u5496\u5561",
        "src": "http://d.duotuwang.com/2019/06/28/16207/0.jpg",
        "jgId": "yalayi",
        "jgName": "\u96c5\u62c9\u4f0a",
        "href": "http://d.duotuwang.com/2019/06/28/16207/",
        "count": 52,
        "start": 1,
        "hasMtTag": 0,
        "hasJgTag": 1,
        "jgCount": 156
    },
    {
        "name": "[YALAYI]\u96c5\u62c9\u4f0a Y322 \u4f55\u5609\u9896 \u5973\u767d\u9886\u7684\u79c1\u751f\u6d3b1",
        "src": "http://d.duotuwang.com/2019/06/28/16951/0.jpg",
        "mtId": "ddcc0f5bf2efada3",
        "mtName": "\u4f55\u5609\u9896",
        "jgId": "yalayi",
        "jgName": "\u96c5\u62c9\u4f0a",
        "href": "http://d.duotuwang.com/2019/06/28/16951/",
        "count": 42,
        "start": 1,
        "hasMtTag": 1,
        "hasJgTag": 1,
        "mtCount": 14,
        "jgCount": 156
    },
    {
        "name": "[YALAYI]\u96c5\u62c9\u4f0a Y190 \u5b9d\u513f \u60c5\u8da3\u76ce\u7136",
        "src": "http://d.duotuwang.com/2019/06/27/16281/0.jpg",
        "mtId": "3cb66b8b1e1c4cff",
        "mtName": "\u5b9d\u513f",
        "jgId": "yalayi",
        "jgName": "\u96c5\u62c9\u4f0a",
        "href": "http://d.duotuwang.com/2019/06/27/16281/",
        "count": 41,
        "start": 1,
        "hasMtTag": 1,
        "hasJgTag": 1,
        "mtCount": 1,
        "jgCount": 156
    },
    {
        "name": "[YALAYI]\u96c5\u62c9\u4f0a Y321 \u5ff5\u5ff5 \u9634\u5929\u65e5\u8bb0",
        "src": "http://d.duotuwang.com/2019/06/27/16950/0.jpg",
        "jgId": "yalayi",
        "jgName": "\u96c5\u62c9\u4f0a",
        "href": "http://d.duotuwang.com/2019/06/27/16950/",
        "count": 42,
        "start": 1,
        "hasMtTag": 0,
        "hasJgTag": 1,
        "jgCount": 156
    }
]