[
    {
        "name": "[YALAYI]\u96c5\u62c9\u4f0a Y174 \u5de7\u5de7 \u81ea\u6e21\u4eba",
        "src": "http://d.duotuwang.com/2019/05/02/16291/0.jpg",
        "mtId": "5fa560d9de1bd485",
        "mtName": "\u5de7\u5de7",
        "jgId": "yalayi",
        "jgName": "\u96c5\u62c9\u4f0a",
        "href": "http://d.duotuwang.com/2019/05/02/16291/",
        "count": 40,
        "start": 1,
        "hasMtTag": 1,
        "hasJgTag": 1,
        "mtCount": 1,
        "jgCount": 156
    },
    {
        "name": "[YALAYI]\u96c5\u62c9\u4f0a Y191 \u7c73\u7c92\u7c73\u7c92 \u8f7b\u821e\u98de\u626c",
        "src": "http://d.duotuwang.com/2019/05/02/16219/0.jpg",
        "mtId": "d69f58b8acc698ee",
        "mtName": "\u7c73\u7c92\u7c73\u7c92",
        "jgId": "yalayi",
        "jgName": "\u96c5\u62c9\u4f0a",
        "href": "http://d.duotuwang.com/2019/05/02/16219/",
        "count": 57,
        "start": 1,
        "hasMtTag": 1,
        "hasJgTag": 1,
        "mtCount": 1,
        "jgCount": 156
    },
    {
        "name": "[YALAYI]\u96c5\u62c9\u4f0a Y179 \u963f\u60dc \u7126\u7cd6\u8272\u5c11\u5973",
        "src": "http://d.duotuwang.com/2019/05/01/16220/0.jpg",
        "mtId": "fd0ff684845da227",
        "mtName": "\u963f\u60dc",
        "jgId": "yalayi",
        "jgName": "\u96c5\u62c9\u4f0a",
        "href": "http://d.duotuwang.com/2019/05/01/16220/",
        "count": 40,
        "start": 1,
        "hasMtTag": 1,
        "hasJgTag": 1,
        "mtCount": 1,
        "jgCount": 156
    },
    {
        "name": "[YALAYI]\u96c5\u62c9\u4f0a Y261 \u987e\u76fc\u516e \u81ea\u753b\u50cf",
        "src": "http://d.duotuwang.com/2019/05/01/16359/0.jpg",
        "jgId": "yalayi",
        "jgName": "\u96c5\u62c9\u4f0a",
        "href": "http://d.duotuwang.com/2019/05/01/16359/",
        "count": 49,
        "start": 1,
        "hasMtTag": 0,
        "hasJgTag": 1,
        "jgCount": 156
    },
    {
        "name": "[YALAYI]\u96c5\u62c9\u4f0a Y162 \u9759\u9759 \u8f7b\u5962\u4e3b\u4e49",
        "src": "http://d.duotuwang.com/2019/04/30/16221/0.jpg",
        "mtId": "21d2b6addb1a24a9",
        "mtName": "\u9759\u9759",
        "jgId": "yalayi",
        "jgName": "\u96c5\u62c9\u4f0a",
        "href": "http://d.duotuwang.com/2019/04/30/16221/",
        "count": 57,
        "start": 1,
        "hasMtTag": 1,
        "hasJgTag": 1,
        "mtCount": 1,
        "jgCount": 156
    },
    {
        "name": "[YALAYI]\u96c5\u62c9\u4f0a Y160 \u590f\u590f \u8584\u7d17\u5c11\u5973",
        "src": "http://d.duotuwang.com/2019/04/29/16215/0.jpg",
        "mtId": "9697d0b68d95dede",
        "mtName": "\u590f\u590f",
        "jgId": "yalayi",
        "jgName": "\u96c5\u62c9\u4f0a",
        "href": "http://d.duotuwang.com/2019/04/29/16215/",
        "count": 43,
        "start": 1,
        "hasMtTag": 1,
        "hasJgTag": 1,
        "mtCount": 2,
        "jgCount": 156
    }
]