[
    {
        "name": "[YALAYI]\u96c5\u62c9\u4f0a Y078 \u6ce1\u8299 \u4efb\u671d\u66ae",
        "src": "http://d.duotuwang.com/2019/03/02/15939/0.jpg",
        "jgId": "yalayi",
        "jgName": "\u96c5\u62c9\u4f0a",
        "href": "http://d.duotuwang.com/2019/03/02/15939/",
        "count": 42,
        "start": 1,
        "hasMtTag": 0,
        "hasJgTag": 1,
        "jgCount": 156
    },
    {
        "name": "[YALAYI]\u96c5\u62c9\u4f0a Y201 \u5c0f\u7409 \u9f99\u732b\u7761\u8863",
        "src": "http://d.duotuwang.com/2019/03/02/16300/0.jpg",
        "jgId": "yalayi",
        "jgName": "\u96c5\u62c9\u4f0a",
        "href": "http://d.duotuwang.com/2019/03/02/16300/",
        "count": 41,
        "start": 1,
        "hasMtTag": 0,
        "hasJgTag": 1,
        "jgCount": 156
    },
    {
        "name": "[YALAYI]\u96c5\u62c9\u4f0a Y048 \u53f6\u8096\u8096 \u79cb\u65e5\u4e1d\u8bed",
        "src": "http://d.duotuwang.com/2019/03/01/15940/0.jpg",
        "mtId": "f8b62abcd7f6b73e",
        "mtName": "\u53f6\u8096\u8096",
        "jgId": "yalayi",
        "jgName": "\u96c5\u62c9\u4f0a",
        "href": "http://d.duotuwang.com/2019/03/01/15940/",
        "count": 40,
        "start": 1,
        "hasMtTag": 1,
        "hasJgTag": 1,
        "mtCount": 1,
        "jgCount": 156
    },
    {
        "name": "[YALAYI]\u96c5\u62c9\u4f0a Y082 Doubleyu \u7eff\u559c\u9752\u82b1",
        "src": "http://d.duotuwang.com/2019/02/28/15941/0.jpg",
        "jgId": "yalayi",
        "jgName": "\u96c5\u62c9\u4f0a",
        "href": "http://d.duotuwang.com/2019/02/28/15941/",
        "count": 39,
        "start": 1,
        "hasMtTag": 0,
        "hasJgTag": 1,
        "jgCount": 156
    },
    {
        "name": "[YALAYI]\u96c5\u62c9\u4f0a Y069 \u7275\u7740\u732b\u7684\u59b9\u5b50 \u68a6\u9732",
        "src": "http://d.duotuwang.com/2019/02/27/15942/0.jpg",
        "jgId": "yalayi",
        "jgName": "\u96c5\u62c9\u4f0a",
        "href": "http://d.duotuwang.com/2019/02/27/15942/",
        "count": 42,
        "start": 1,
        "hasMtTag": 0,
        "hasJgTag": 1,
        "jgCount": 156
    },
    {
        "name": "[YALAYI]\u96c5\u62c9\u4f0a Y070 Pigpig\u5973\u5b69 \u6ce1\u6cab\u4e4b\u590f",
        "src": "http://d.duotuwang.com/2019/02/26/15943/0.jpg",
        "mtId": "73d68655aac69781",
        "mtName": "Pigpig\u5973\u5b69",
        "jgId": "yalayi",
        "jgName": "\u96c5\u62c9\u4f0a",
        "href": "http://d.duotuwang.com/2019/02/26/15943/",
        "count": 46,
        "start": 1,
        "hasMtTag": 1,
        "hasJgTag": 1,
        "mtCount": 1,
        "jgCount": 156
    }
]