[
    {
        "name": "[YALAYI]\u96c5\u62c9\u4f0a Y116 \u5029\u5fae\u5fae \u6211\u5728\u7b49\u4f60",
        "src": "http://d.duotuwang.com/2018/11/06/15897/0.jpg",
        "mtId": "2760aa55153262af",
        "mtName": "\u5029\u5fae\u5fae",
        "jgId": "yalayi",
        "jgName": "\u96c5\u62c9\u4f0a",
        "href": "http://d.duotuwang.com/2018/11/06/15897/",
        "count": 60,
        "start": 1,
        "hasMtTag": 1,
        "hasJgTag": 1,
        "mtCount": 1,
        "jgCount": 156
    },
    {
        "name": "[YALAYI]\u96c5\u62c9\u4f0a Y115 \u4e38\u7cef\u7cef \u5ff5\u5ff5\u4e0d\u5fd8",
        "src": "http://d.duotuwang.com/2018/11/05/16199/0.jpg",
        "mtId": "6951dfc4eba6d2db",
        "mtName": "\u4e38\u7cef\u7cef",
        "jgId": "yalayi",
        "jgName": "\u96c5\u62c9\u4f0a",
        "href": "http://d.duotuwang.com/2018/11/05/16199/",
        "count": 44,
        "start": 1,
        "hasMtTag": 1,
        "hasJgTag": 1,
        "mtCount": 1,
        "jgCount": 156
    },
    {
        "name": "[YALAYI]\u96c5\u62c9\u4f0a Y014 \u7c73\u5fc3\u854a \u9633\u5149\u4e0b\u7684\u88f8\u817f\u5355\u8f66",
        "src": "http://d.duotuwang.com/2018/11/03/15898/0.jpg",
        "jgId": "yalayi",
        "jgName": "\u96c5\u62c9\u4f0a",
        "href": "http://d.duotuwang.com/2018/11/03/15898/",
        "count": 40,
        "start": 1,
        "hasMtTag": 0,
        "hasJgTag": 1,
        "jgCount": 156
    },
    {
        "name": "[YALAYI]\u96c5\u62c9\u4f0a Y114 \u7433\u7433\u741b\u741b \u53cc\u9762\u4f0a\u4eba",
        "src": "http://d.duotuwang.com/2018/11/02/16198/0.jpg",
        "jgId": "yalayi",
        "jgName": "\u96c5\u62c9\u4f0a",
        "href": "http://d.duotuwang.com/2018/11/02/16198/",
        "count": 40,
        "start": 1,
        "hasMtTag": 0,
        "hasJgTag": 1,
        "jgCount": 156
    },
    {
        "name": "[YALAYI]\u96c5\u62c9\u4f0a Y112 \u548c\u98ce \u68ee\u7cfb\u79c1\u623f",
        "src": "http://d.duotuwang.com/2018/10/31/15899/0.jpg",
        "mtId": "e27d8acd9a46b1be",
        "mtName": "\u548c\u98ce",
        "jgId": "yalayi",
        "jgName": "\u96c5\u62c9\u4f0a",
        "href": "http://d.duotuwang.com/2018/10/31/15899/",
        "count": 45,
        "start": 1,
        "hasMtTag": 1,
        "hasJgTag": 1,
        "mtCount": 2,
        "jgCount": 156
    },
    {
        "name": "[YALAYI]\u96c5\u62c9\u4f0a Y111 \u718f\u513f \u65e0\u8272",
        "src": "http://d.duotuwang.com/2018/10/30/16197/0.jpg",
        "jgId": "yalayi",
        "jgName": "\u96c5\u62c9\u4f0a",
        "href": "http://d.duotuwang.com/2018/10/30/16197/",
        "count": 41,
        "start": 1,
        "hasMtTag": 0,
        "hasJgTag": 1,
        "jgCount": 156
    }
]