[
    {
        "name": "[YALAYI]\u96c5\u62c9\u4f0a Y838 \u897f\u5b50 \u9ed1\u8774\u8776",
        "src": "http://d.duotuwang.com/2021/09/13/26616/0.jpg",
        "mtId": "f9e23a84d0a26b66",
        "mtName": "\u897f\u5b50",
        "jgId": "yalayi",
        "jgName": "\u96c5\u62c9\u4f0a",
        "href": "http://d.duotuwang.com/2021/09/13/26616/",
        "count": 38,
        "start": 1,
        "hasMtTag": 1,
        "hasJgTag": 1,
        "mtCount": 3,
        "jgCount": 156
    },
    {
        "name": "[YALAYI]\u96c5\u62c9\u4f0a Y837 \u865e\u827a \u8865\u4e60\u65f6\u95f4",
        "src": "http://d.duotuwang.com/2021/09/10/26615/0.jpg",
        "mtId": "31c40f87518994e9",
        "mtName": "\u865e\u827a",
        "jgId": "yalayi",
        "jgName": "\u96c5\u62c9\u4f0a",
        "href": "http://d.duotuwang.com/2021/09/10/26615/",
        "count": 43,
        "start": 1,
        "hasMtTag": 1,
        "hasJgTag": 1,
        "mtCount": 2,
        "jgCount": 156
    },
    {
        "name": "[YALAYI]\u96c5\u62c9\u4f0a Y836 \u826f\u5b50 \u613f\u4f60\u665a\u5b89",
        "src": "http://d.duotuwang.com/2021/09/08/26480/0.jpg",
        "mtId": "562a430cecf069e3",
        "mtName": "\u826f\u5b50",
        "jgId": "yalayi",
        "jgName": "\u96c5\u62c9\u4f0a",
        "href": "http://d.duotuwang.com/2021/09/08/26480/",
        "count": 40,
        "start": 1,
        "hasMtTag": 1,
        "hasJgTag": 1,
        "mtCount": 2,
        "jgCount": 156
    },
    {
        "name": "[YALAYI]\u96c5\u62c9\u4f0a Y835 \u7a0b\u5c0f\u8776 \u4f11\u95f2\u7684\u65e5\u5b50",
        "src": "http://d.duotuwang.com/2021/09/06/26479/0.jpg",
        "mtId": "63263d1c03311bfc",
        "mtName": "\u7a0b\u5c0f\u8776",
        "jgId": "yalayi",
        "jgName": "\u96c5\u62c9\u4f0a",
        "href": "http://d.duotuwang.com/2021/09/06/26479/",
        "count": 33,
        "start": 1,
        "hasMtTag": 1,
        "hasJgTag": 1,
        "mtCount": 2,
        "jgCount": 156
    },
    {
        "name": "[YALAYI]\u96c5\u62c9\u4f0a Y834 \u6eaa\u82e5 \u8fc7\u5bb6\u5bb6",
        "src": "http://d.duotuwang.com/2021/09/03/26478/0.jpg",
        "mtId": "5a1e5099d42458dc",
        "mtName": "\u6eaa\u82e5",
        "jgId": "yalayi",
        "jgName": "\u96c5\u62c9\u4f0a",
        "href": "http://d.duotuwang.com/2021/09/03/26478/",
        "count": 37,
        "start": 1,
        "hasMtTag": 1,
        "hasJgTag": 1,
        "mtCount": 1,
        "jgCount": 156
    },
    {
        "name": "[YALAYI]\u96c5\u62c9\u4f0a Y833 \u591a\u9999\u5b50 \u5c0f\u61a9",
        "src": "http://d.duotuwang.com/2021/09/01/26462/0.jpg",
        "mtId": "79fefdb1081c5f99",
        "mtName": "\u591a\u9999\u5b50",
        "jgId": "yalayi",
        "jgName": "\u96c5\u62c9\u4f0a",
        "href": "http://d.duotuwang.com/2021/09/01/26462/",
        "count": 33,
        "start": 1,
        "hasMtTag": 1,
        "hasJgTag": 1,
        "mtCount": 2,
        "jgCount": 156
    }
]