[
    {
        "name": "[YALAYI]\u96c5\u62c9\u4f0a Y820 \u598d\u598d \u7b49\u4f60\u6765\u6572\u95e8",
        "src": "http://d.duotuwang.com/2021/07/28/26058/0.jpg",
        "mtId": "6dd061b7521cb49f",
        "mtName": "\u598d\u598d",
        "jgId": "yalayi",
        "jgName": "\u96c5\u62c9\u4f0a",
        "href": "http://d.duotuwang.com/2021/07/28/26058/",
        "count": 33,
        "start": 1,
        "hasMtTag": 1,
        "hasJgTag": 1,
        "mtCount": 2,
        "jgCount": 156
    },
    {
        "name": "[YALAYI]\u96c5\u62c9\u4f0a Y819 \u8bd7\u548f \u5979\u7684\u773c\u6cea",
        "src": "http://d.duotuwang.com/2021/07/26/26015/0.jpg",
        "mtId": "37c4ebcf81fb563b",
        "mtName": "\u8bd7\u548f",
        "jgId": "yalayi",
        "jgName": "\u96c5\u62c9\u4f0a",
        "href": "http://d.duotuwang.com/2021/07/26/26015/",
        "count": 40,
        "start": 1,
        "hasMtTag": 1,
        "hasJgTag": 1,
        "mtCount": 2,
        "jgCount": 156
    },
    {
        "name": "[YALAYI]\u96c5\u62c9\u4f0a Y818 \u949f\u6674 \u99a8\u9999",
        "src": "http://d.duotuwang.com/2021/07/23/25931/0.jpg",
        "mtId": "bbc57afa18e8743b",
        "mtName": "\u949f\u6674",
        "jgId": "yalayi",
        "jgName": "\u96c5\u62c9\u4f0a",
        "href": "http://d.duotuwang.com/2021/07/23/25931/",
        "count": 42,
        "start": 1,
        "hasMtTag": 1,
        "hasJgTag": 1,
        "mtCount": 4,
        "jgCount": 156
    },
    {
        "name": "[YALAYI]\u96c5\u62c9\u4f0a Y817 \u7c79\u7c79\u4ed4 \u6df1\u60c5",
        "src": "http://d.duotuwang.com/2021/07/21/25930/0.jpg",
        "mtId": "f6c1d203e5d54982",
        "mtName": "\u7c79\u7c79\u4ed4",
        "jgId": "yalayi",
        "jgName": "\u96c5\u62c9\u4f0a",
        "href": "http://d.duotuwang.com/2021/07/21/25930/",
        "count": 33,
        "start": 1,
        "hasMtTag": 1,
        "hasJgTag": 1,
        "mtCount": 1,
        "jgCount": 156
    },
    {
        "name": "[YALAYI]\u96c5\u62c9\u4f0a Y816 \u7a0b\u5c0f\u8776 \u767d\u8272\u604b\u4eba",
        "src": "http://d.duotuwang.com/2021/07/19/25929/0.jpg",
        "mtId": "63263d1c03311bfc",
        "mtName": "\u7a0b\u5c0f\u8776",
        "jgId": "yalayi",
        "jgName": "\u96c5\u62c9\u4f0a",
        "href": "http://d.duotuwang.com/2021/07/19/25929/",
        "count": 40,
        "start": 1,
        "hasMtTag": 1,
        "hasJgTag": 1,
        "mtCount": 2,
        "jgCount": 156
    },
    {
        "name": "[YALAYI]\u96c5\u62c9\u4f0a Y815 \u598d\u598d \u7a7a\u4e2d\u73a9\u5bb6",
        "src": "http://d.duotuwang.com/2021/07/17/25928/0.jpg",
        "mtId": "6dd061b7521cb49f",
        "mtName": "\u598d\u598d",
        "jgId": "yalayi",
        "jgName": "\u96c5\u62c9\u4f0a",
        "href": "http://d.duotuwang.com/2021/07/17/25928/",
        "count": 36,
        "start": 1,
        "hasMtTag": 1,
        "hasJgTag": 1,
        "mtCount": 2,
        "jgCount": 156
    }
]