[
    {
        "name": "[YALAYI]\u96c5\u62c9\u4f0a Y808 \u96ea\u513f \u6d3b\u5728\u5f53\u4e0b",
        "src": "http://d.duotuwang.com/2021/06/28/25611/0.jpg",
        "mtId": "12de504e4b84a527",
        "mtName": "\u96ea\u513f",
        "jgId": "yalayi",
        "jgName": "\u96c5\u62c9\u4f0a",
        "href": "http://d.duotuwang.com/2021/06/28/25611/",
        "count": 40,
        "start": 1,
        "hasMtTag": 1,
        "hasJgTag": 1,
        "mtCount": 2,
        "jgCount": 156
    },
    {
        "name": "[YALAYI]\u96c5\u62c9\u4f0a Y807 \u598d\u598d \u7d2b\u8272\u7684\u65e9\u6668",
        "src": "http://d.duotuwang.com/2021/06/27/25610/0.jpg",
        "mtId": "6dd061b7521cb49f",
        "mtName": "\u598d\u598d",
        "jgId": "yalayi",
        "jgName": "\u96c5\u62c9\u4f0a",
        "href": "http://d.duotuwang.com/2021/06/27/25610/",
        "count": 38,
        "start": 1,
        "hasMtTag": 1,
        "hasJgTag": 1,
        "mtCount": 2,
        "jgCount": 156
    },
    {
        "name": "[YALAYI]\u96c5\u62c9\u4f0a Y806 \u5fae\u5fae \u7c89\u8272\u5c11\u5973",
        "src": "http://d.duotuwang.com/2021/06/24/25609/0.jpg",
        "jgId": "yalayi",
        "jgName": "\u96c5\u62c9\u4f0a",
        "href": "http://d.duotuwang.com/2021/06/24/25609/",
        "count": 55,
        "start": 1,
        "hasMtTag": 0,
        "hasJgTag": 1,
        "jgCount": 156
    },
    {
        "name": "[YALAYI]\u96c5\u62c9\u4f0a Y805 \u5c0f\u4e54 \u5b85\u5bb6\u65e5\u8bb0",
        "src": "http://d.duotuwang.com/2021/06/21/25557/0.jpg",
        "mtId": "d3fbbf5d38368b84",
        "mtName": "\u5c0f\u4e54",
        "jgId": "yalayi",
        "jgName": "\u96c5\u62c9\u4f0a",
        "href": "http://d.duotuwang.com/2021/06/21/25557/",
        "count": 40,
        "start": 1,
        "hasMtTag": 1,
        "hasJgTag": 1,
        "mtCount": 6,
        "jgCount": 156
    },
    {
        "name": "[YALAYI]\u96c5\u62c9\u4f0a Y804 \u516d\u6708 \u4e91\u6de1\u98ce\u8f7b",
        "src": "http://d.duotuwang.com/2021/06/18/25487/0.jpg",
        "jgId": "yalayi",
        "jgName": "\u96c5\u62c9\u4f0a",
        "href": "http://d.duotuwang.com/2021/06/18/25487/",
        "count": 39,
        "start": 1,
        "hasMtTag": 0,
        "hasJgTag": 1,
        "jgCount": 156
    },
    {
        "name": "[YALAYI]\u96c5\u62c9\u4f0a Y803 \u963f\u79be \u4f3c\u68a6\u521d\u89c9",
        "src": "http://d.duotuwang.com/2021/06/16/25486/0.jpg",
        "mtId": "896f31e37393f705",
        "mtName": "\u963f\u79be",
        "jgId": "yalayi",
        "jgName": "\u96c5\u62c9\u4f0a",
        "href": "http://d.duotuwang.com/2021/06/16/25486/",
        "count": 43,
        "start": 1,
        "hasMtTag": 1,
        "hasJgTag": 1,
        "mtCount": 4,
        "jgCount": 156
    }
]