[
    {
        "name": "[YALAYI]\u96c5\u62c9\u4f0a Y647 \u751c\u9171\u5416 \u8377\u5c14\u8499",
        "src": "http://d.duotuwang.com/2020/05/26/20718/0.jpg",
        "mtId": "977e712550093a68",
        "mtName": "\u751c\u9171\u5416",
        "jgId": "yalayi",
        "jgName": "\u96c5\u62c9\u4f0a",
        "href": "http://d.duotuwang.com/2020/05/26/20718/",
        "count": 41,
        "start": 1,
        "hasMtTag": 1,
        "hasJgTag": 1,
        "mtCount": 1,
        "jgCount": 156
    },
    {
        "name": "[YALAYI]\u96c5\u62c9\u4f0a Y646 Tina \u6211\u7684\u65c5\u62cd\u65e5\u8bb0",
        "src": "http://d.duotuwang.com/2020/05/25/20716/0.jpg",
        "mtId": "6f8cf8778376f12e",
        "mtName": "Tina",
        "jgId": "yalayi",
        "jgName": "\u96c5\u62c9\u4f0a",
        "href": "http://d.duotuwang.com/2020/05/25/20716/",
        "count": 41,
        "start": 1,
        "hasMtTag": 1,
        "hasJgTag": 1,
        "mtCount": 3,
        "jgCount": 156
    },
    {
        "name": "[YALAYI]\u96c5\u62c9\u4f0a Y645 \u5b81\u99a8\u513f \u6625\u5149\u65d6\u65ce",
        "src": "http://d.duotuwang.com/2020/05/24/20714/0.jpg",
        "jgId": "yalayi",
        "jgName": "\u96c5\u62c9\u4f0a",
        "href": "http://d.duotuwang.com/2020/05/24/20714/",
        "count": 41,
        "start": 1,
        "hasMtTag": 0,
        "hasJgTag": 1,
        "jgCount": 156
    },
    {
        "name": "[YALAYI]\u96c5\u62c9\u4f0a Y644 \u987e\u7eaf\u7eaf \u60ca\u8273\u4e86\u65f6\u5149",
        "src": "http://d.duotuwang.com/2020/05/23/20712/0.jpg",
        "mtId": "b1ae84efe1432311",
        "mtName": "\u987e\u7eaf\u7eaf",
        "jgId": "yalayi",
        "jgName": "\u96c5\u62c9\u4f0a",
        "href": "http://d.duotuwang.com/2020/05/23/20712/",
        "count": 37,
        "start": 1,
        "hasMtTag": 1,
        "hasJgTag": 1,
        "mtCount": 1,
        "jgCount": 156
    },
    {
        "name": "[YALAYI]\u96c5\u62c9\u4f0a Y643 \u771f\u771f \u4f60\u7684\u67e0\u6aac\u5973\u5b69",
        "src": "http://d.duotuwang.com/2020/05/22/20713/0.jpg",
        "jgId": "yalayi",
        "jgName": "\u96c5\u62c9\u4f0a",
        "href": "http://d.duotuwang.com/2020/05/22/20713/",
        "count": 43,
        "start": 1,
        "hasMtTag": 0,
        "hasJgTag": 1,
        "jgCount": 156
    },
    {
        "name": "[YALAYI]\u96c5\u62c9\u4f0a Y642 \u660e\u6708 \u9752\u6625\u671f\u5c11\u5973",
        "src": "http://d.duotuwang.com/2020/05/21/20605/0.jpg",
        "jgId": "yalayi",
        "jgName": "\u96c5\u62c9\u4f0a",
        "href": "http://d.duotuwang.com/2020/05/21/20605/",
        "count": 44,
        "start": 1,
        "hasMtTag": 0,
        "hasJgTag": 1,
        "jgCount": 156
    }
]