[
    {
        "name": "[YALAYI]\u96c5\u62c9\u4f0a Y611 \u5b89\u59ae \u542c\u54e5\u54e5\u7684\u8bdd",
        "src": "http://d.duotuwang.com/2020/04/20/20378/0.jpg",
        "mtId": "3a5a8a2c51da56cd",
        "mtName": "\u5b89\u59ae",
        "jgId": "yalayi",
        "jgName": "\u96c5\u62c9\u4f0a",
        "href": "http://d.duotuwang.com/2020/04/20/20378/",
        "count": 44,
        "start": 1,
        "hasMtTag": 1,
        "hasJgTag": 1,
        "mtCount": 2,
        "jgCount": 156
    },
    {
        "name": "[YALAYI]\u96c5\u62c9\u4f0a Y610 \u660e\u6708 \u60f3\u604b\u7231\u4e86",
        "src": "http://d.duotuwang.com/2020/04/19/20287/0.jpg",
        "jgId": "yalayi",
        "jgName": "\u96c5\u62c9\u4f0a",
        "href": "http://d.duotuwang.com/2020/04/19/20287/",
        "count": 42,
        "start": 1,
        "hasMtTag": 0,
        "hasJgTag": 1,
        "jgCount": 156
    },
    {
        "name": "[YALAYI]\u96c5\u62c9\u4f0a Y609 \u65af\u96ef \u602a\u4f60\u8fc7\u4efd\u64a9\u4eba",
        "src": "http://d.duotuwang.com/2020/04/18/20289/0.jpg",
        "mtId": "fa0fc12a00aba938",
        "mtName": "\u65af\u96ef",
        "jgId": "yalayi",
        "jgName": "\u96c5\u62c9\u4f0a",
        "href": "http://d.duotuwang.com/2020/04/18/20289/",
        "count": 43,
        "start": 1,
        "hasMtTag": 1,
        "hasJgTag": 1,
        "mtCount": 1,
        "jgCount": 156
    },
    {
        "name": "[YALAYI]\u96c5\u62c9\u4f0a Y608 \u826f\u5b50 \u5c0f\u53ae\u6311\u60c5",
        "src": "http://d.duotuwang.com/2020/04/17/20288/0.jpg",
        "mtId": "562a430cecf069e3",
        "mtName": "\u826f\u5b50",
        "jgId": "yalayi",
        "jgName": "\u96c5\u62c9\u4f0a",
        "href": "http://d.duotuwang.com/2020/04/17/20288/",
        "count": 47,
        "start": 1,
        "hasMtTag": 1,
        "hasJgTag": 1,
        "mtCount": 2,
        "jgCount": 156
    },
    {
        "name": "[YALAYI]\u96c5\u62c9\u4f0a Y607 \u73ab\u7470 \u8d85\u7ea7\u6a21\u7279",
        "src": "http://d.duotuwang.com/2020/04/16/20212/0.jpg",
        "mtId": "6dce3567c9c40681",
        "mtName": "\u73ab\u7470",
        "jgId": "yalayi",
        "jgName": "\u96c5\u62c9\u4f0a",
        "href": "http://d.duotuwang.com/2020/04/16/20212/",
        "count": 37,
        "start": 1,
        "hasMtTag": 1,
        "hasJgTag": 1,
        "mtCount": 2,
        "jgCount": 156
    },
    {
        "name": "[YALAYI]\u96c5\u62c9\u4f0a Y606 \u6653\u742a \u8309\u8389",
        "src": "http://d.duotuwang.com/2020/04/15/20376/0.jpg",
        "mtId": "feb1d8894a93ac30",
        "mtName": "\u6653\u742a",
        "jgId": "yalayi",
        "jgName": "\u96c5\u62c9\u4f0a",
        "href": "http://d.duotuwang.com/2020/04/15/20376/",
        "count": 42,
        "start": 1,
        "hasMtTag": 1,
        "hasJgTag": 1,
        "mtCount": 1,
        "jgCount": 156
    }
]