[
    {
        "name": "[YALAYI]\u96c5\u62c9\u4f0a Y575 \u5f64\u5f64 \u642c\u8fdb\u65b0\u5bb6\u7684\u7b2c\u4e00\u5929",
        "src": "http://d.duotuwang.com/2020/03/15/19893/0.jpg",
        "jgId": "yalayi",
        "jgName": "\u96c5\u62c9\u4f0a",
        "href": "http://d.duotuwang.com/2020/03/15/19893/",
        "count": 53,
        "start": 1,
        "hasMtTag": 0,
        "hasJgTag": 1,
        "jgCount": 156
    },
    {
        "name": "[YALAYI]\u96c5\u62c9\u4f0a Y574 \u73ab\u7470 \u9633\u5149\u91cc\u6709\u4f60\u7684\u5473\u9053",
        "src": "http://d.duotuwang.com/2020/03/14/19889/0.jpg",
        "mtId": "6dce3567c9c40681",
        "mtName": "\u73ab\u7470",
        "jgId": "yalayi",
        "jgName": "\u96c5\u62c9\u4f0a",
        "href": "http://d.duotuwang.com/2020/03/14/19889/",
        "count": 37,
        "start": 1,
        "hasMtTag": 1,
        "hasJgTag": 1,
        "mtCount": 2,
        "jgCount": 156
    },
    {
        "name": "[YALAYI]\u96c5\u62c9\u4f0a Y573 \u5218\u5b50\u7080 \u65e5\u5149\u503e\u57ce",
        "src": "http://d.duotuwang.com/2020/03/13/19886/0.jpg",
        "mtId": "09541b9e03b070a7",
        "mtName": "\u5218\u5b50\u7080",
        "jgId": "yalayi",
        "jgName": "\u96c5\u62c9\u4f0a",
        "href": "http://d.duotuwang.com/2020/03/13/19886/",
        "count": 49,
        "start": 1,
        "hasMtTag": 1,
        "hasJgTag": 1,
        "mtCount": 4,
        "jgCount": 156
    },
    {
        "name": "[YALAYI]\u96c5\u62c9\u4f0a Y572 \u8389\u5a1c \u505a\u4f60\u7684\u5b89\u742a\u62c9",
        "src": "http://d.duotuwang.com/2020/03/12/19887/0.jpg",
        "jgId": "yalayi",
        "jgName": "\u96c5\u62c9\u4f0a",
        "href": "http://d.duotuwang.com/2020/03/12/19887/",
        "count": 42,
        "start": 1,
        "hasMtTag": 0,
        "hasJgTag": 1,
        "jgCount": 156
    },
    {
        "name": "[YALAYI]\u96c5\u62c9\u4f0a Y571 \u4f18\u4f18 \u767d\u85e4\u8513\u6625\u5e8a",
        "src": "http://d.duotuwang.com/2020/03/11/19818/0.jpg",
        "mtId": "d77b07771ca34229",
        "mtName": "\u4f18\u4f18",
        "jgId": "yalayi",
        "jgName": "\u96c5\u62c9\u4f0a",
        "href": "http://d.duotuwang.com/2020/03/11/19818/",
        "count": 47,
        "start": 1,
        "hasMtTag": 1,
        "hasJgTag": 1,
        "mtCount": 3,
        "jgCount": 156
    },
    {
        "name": "[YALAYI]\u96c5\u62c9\u4f0a Y570 \u5218\u5b50\u7080 \u4e1d\u4e4b\u60d1",
        "src": "http://d.duotuwang.com/2020/03/10/19819/0.jpg",
        "mtId": "09541b9e03b070a7",
        "mtName": "\u5218\u5b50\u7080",
        "jgId": "yalayi",
        "jgName": "\u96c5\u62c9\u4f0a",
        "href": "http://d.duotuwang.com/2020/03/10/19819/",
        "count": 42,
        "start": 1,
        "hasMtTag": 1,
        "hasJgTag": 1,
        "mtCount": 4,
        "jgCount": 156
    }
]