[
    {
        "name": "[YALAYI]\u96c5\u62c9\u4f0a Y508 \u7d20\u7d20 \u4e4d\u6cc4",
        "src": "http://d.duotuwang.com/2020/01/02/19077/0.jpg",
        "mtId": "2a3fd0f547e66fe2",
        "mtName": "\u7d20\u7d20",
        "jgId": "yalayi",
        "jgName": "\u96c5\u62c9\u4f0a",
        "href": "http://d.duotuwang.com/2020/01/02/19077/",
        "count": 40,
        "start": 1,
        "hasMtTag": 1,
        "hasJgTag": 1,
        "mtCount": 2,
        "jgCount": 156
    },
    {
        "name": "[YALAYI]\u96c5\u62c9\u4f0a Y507 \u5c0f\u96ea \u6109\u5feb\u7684\u4e00\u665a",
        "src": "http://d.duotuwang.com/2020/01/01/19079/0.jpg",
        "mtId": "3f8335007a24e5b9",
        "mtName": "\u5c0f\u96ea",
        "jgId": "yalayi",
        "jgName": "\u96c5\u62c9\u4f0a",
        "href": "http://d.duotuwang.com/2020/01/01/19079/",
        "count": 43,
        "start": 1,
        "hasMtTag": 1,
        "hasJgTag": 1,
        "mtCount": 1,
        "jgCount": 156
    },
    {
        "name": "[YALAYI]\u96c5\u62c9\u4f0a Y506 \u6653\u7433 \u9700\u8981\u4eba\u966a",
        "src": "http://d.duotuwang.com/2019/12/31/19168/0.jpg",
        "mtId": "687947b5fc1c6607",
        "mtName": "\u6653\u7433",
        "jgId": "yalayi",
        "jgName": "\u96c5\u62c9\u4f0a",
        "href": "http://d.duotuwang.com/2019/12/31/19168/",
        "count": 51,
        "start": 1,
        "hasMtTag": 1,
        "hasJgTag": 1,
        "mtCount": 3,
        "jgCount": 156
    },
    {
        "name": "[YALAYI]\u96c5\u62c9\u4f0a Y505 \u6b23\u8339 \u6c79\u6d8c\u800c\u51fa",
        "src": "http://d.duotuwang.com/2019/12/30/19081/0.jpg",
        "jgId": "yalayi",
        "jgName": "\u96c5\u62c9\u4f0a",
        "href": "http://d.duotuwang.com/2019/12/30/19081/",
        "count": 48,
        "start": 1,
        "hasMtTag": 0,
        "hasJgTag": 1,
        "jgCount": 156
    },
    {
        "name": "[YALAYI]\u96c5\u62c9\u4f0a Y504 \u5b89\u59ae \u52c7\u6562\u7684\u5fc3",
        "src": "http://d.duotuwang.com/2019/12/29/19078/0.jpg",
        "mtId": "3a5a8a2c51da56cd",
        "mtName": "\u5b89\u59ae",
        "jgId": "yalayi",
        "jgName": "\u96c5\u62c9\u4f0a",
        "href": "http://d.duotuwang.com/2019/12/29/19078/",
        "count": 41,
        "start": 1,
        "hasMtTag": 1,
        "hasJgTag": 1,
        "mtCount": 2,
        "jgCount": 156
    },
    {
        "name": "[YALAYI]\u96c5\u62c9\u4f0a Y503 \u695a\u8587 \u8587\u670d\u79c1\u8bbf",
        "src": "http://d.duotuwang.com/2019/12/27/19080/0.jpg",
        "mtId": "33241ce8ab367e36",
        "mtName": "\u695a\u8587",
        "jgId": "yalayi",
        "jgName": "\u96c5\u62c9\u4f0a",
        "href": "http://d.duotuwang.com/2019/12/27/19080/",
        "count": 48,
        "start": 1,
        "hasMtTag": 1,
        "hasJgTag": 1,
        "mtCount": 2,
        "jgCount": 156
    }
]