[
    {
        "name": "[YALAYI]\u96c5\u62c9\u4f0a Y484 \u6653\u7433 \u966a\u4f60\u901b\u8857",
        "src": "http://d.duotuwang.com/2019/12/08/18860/0.jpg",
        "mtId": "687947b5fc1c6607",
        "mtName": "\u6653\u7433",
        "jgId": "yalayi",
        "jgName": "\u96c5\u62c9\u4f0a",
        "href": "http://d.duotuwang.com/2019/12/08/18860/",
        "count": 45,
        "start": 1,
        "hasMtTag": 1,
        "hasJgTag": 1,
        "mtCount": 3,
        "jgCount": 156
    },
    {
        "name": "[YALAYI]\u96c5\u62c9\u4f0a Y483 \u4e3d\u96c5 \u4e1d\u60c5\u8da3\u5473",
        "src": "http://d.duotuwang.com/2019/12/07/18761/0.jpg",
        "mtId": "74b0257b05e43f68",
        "mtName": "\u4e3d\u96c5",
        "jgId": "yalayi",
        "jgName": "\u96c5\u62c9\u4f0a",
        "href": "http://d.duotuwang.com/2019/12/07/18761/",
        "count": 46,
        "start": 1,
        "hasMtTag": 1,
        "hasJgTag": 1,
        "mtCount": 4,
        "jgCount": 156
    },
    {
        "name": "[YALAYI]\u96c5\u62c9\u4f0a Y482 \u826f\u5b50 \u53ea\u5728\u5e8a\u4e0a\u544a\u767d",
        "src": "http://d.duotuwang.com/2019/12/06/18754/0.jpg",
        "mtId": "562a430cecf069e3",
        "mtName": "\u826f\u5b50",
        "jgId": "yalayi",
        "jgName": "\u96c5\u62c9\u4f0a",
        "href": "http://d.duotuwang.com/2019/12/06/18754/",
        "count": 49,
        "start": 1,
        "hasMtTag": 1,
        "hasJgTag": 1,
        "mtCount": 2,
        "jgCount": 156
    },
    {
        "name": "[YALAYI]\u96c5\u62c9\u4f0a Y481 \u9759\u521d \u5c45\u5bb6\u5973\u53cb",
        "src": "http://d.duotuwang.com/2019/12/05/18762/0.jpg",
        "mtId": "37d0562d1bdeea9d",
        "mtName": "\u9759\u521d",
        "jgId": "yalayi",
        "jgName": "\u96c5\u62c9\u4f0a",
        "href": "http://d.duotuwang.com/2019/12/05/18762/",
        "count": 45,
        "start": 1,
        "hasMtTag": 1,
        "hasJgTag": 1,
        "mtCount": 2,
        "jgCount": 156
    },
    {
        "name": "[YALAYI]\u96c5\u62c9\u4f0a Y480 \u6c99\u7530\u7531\u5b50 \u4e30\u6da6\u80a5\u81c0",
        "src": "http://d.duotuwang.com/2019/12/04/18755/0.jpg",
        "jgId": "yalayi",
        "jgName": "\u96c5\u62c9\u4f0a",
        "href": "http://d.duotuwang.com/2019/12/04/18755/",
        "count": 38,
        "start": 1,
        "hasMtTag": 0,
        "hasJgTag": 1,
        "jgCount": 156
    },
    {
        "name": "[YALAYI]\u96c5\u62c9\u4f0a Y479 \u8f6f\u8f6f \u7ea2\u80a5\u7eff\u7626",
        "src": "http://d.duotuwang.com/2019/12/03/18756/0.jpg",
        "jgId": "yalayi",
        "jgName": "\u96c5\u62c9\u4f0a",
        "href": "http://d.duotuwang.com/2019/12/03/18756/",
        "count": 39,
        "start": 1,
        "hasMtTag": 0,
        "hasJgTag": 1,
        "jgCount": 156
    }
]