[
    {
        "name": "[YALAYI]\u96c5\u62c9\u4f0a Y923 \u5c0f\u4ead \u53ef\u7231\u7684\u5973\u5b69",
        "src": "http://d.duotuwang.com/2022/04/20/29625/0.jpg",
        "jgId": "yalayi",
        "jgName": "\u96c5\u62c9\u4f0a",
        "href": "http://d.duotuwang.com/2022/04/20/29625/",
        "count": 40,
        "start": 1,
        "hasMtTag": 0,
        "hasJgTag": 1,
        "jgCount": 156
    },
    {
        "name": "[YALAYI]\u96c5\u62c9\u4f0a Y922 \u611f\u89c9\u826f\u597d",
        "src": "http://d.duotuwang.com/2022/04/18/29470/0.jpg",
        "jgId": "yalayi",
        "jgName": "\u96c5\u62c9\u4f0a",
        "href": "http://d.duotuwang.com/2022/04/18/29470/",
        "count": 32,
        "start": 1,
        "hasMtTag": 0,
        "hasJgTag": 1,
        "jgCount": 156
    },
    {
        "name": "[YALAYI]\u96c5\u62c9\u4f0a Y921 \u591c\u591c \u73cd\u60dc\u6bcf\u4e00\u5929",
        "src": "http://d.duotuwang.com/2022/04/15/29469/0.jpg",
        "mtId": "a04e21bef36ead83",
        "mtName": "\u591c\u591c",
        "jgId": "yalayi",
        "jgName": "\u96c5\u62c9\u4f0a",
        "href": "http://d.duotuwang.com/2022/04/15/29469/",
        "count": 40,
        "start": 1,
        "hasMtTag": 1,
        "hasJgTag": 1,
        "mtCount": 1,
        "jgCount": 156
    },
    {
        "name": "[YALAYI]\u96c5\u62c9\u4f0a Y920 \u6893\u7476 \u6210\u957f",
        "src": "http://d.duotuwang.com/2022/04/12/29439/0.jpg",
        "mtId": "2b42252b96c99d0b",
        "mtName": "\u6893\u7476",
        "jgId": "yalayi",
        "jgName": "\u96c5\u62c9\u4f0a",
        "href": "http://d.duotuwang.com/2022/04/12/29439/",
        "count": 39,
        "start": 1,
        "hasMtTag": 1,
        "hasJgTag": 1,
        "mtCount": 1,
        "jgCount": 156
    },
    {
        "name": "[YALAYI]\u96c5\u62c9\u4f0a Y919 \u5c0f\u4e54 \u4f18\u96c5\u6c38\u4e0d\u8fc7\u65f6",
        "src": "http://d.duotuwang.com/2022/04/08/29438/0.jpg",
        "mtId": "d3fbbf5d38368b84",
        "mtName": "\u5c0f\u4e54",
        "jgId": "yalayi",
        "jgName": "\u96c5\u62c9\u4f0a",
        "href": "http://d.duotuwang.com/2022/04/08/29438/",
        "count": 40,
        "start": 1,
        "hasMtTag": 1,
        "hasJgTag": 1,
        "mtCount": 6,
        "jgCount": 156
    },
    {
        "name": "[YALAYI]\u96c5\u62c9\u4f0a Y918 \u9648\u82e5\u51b0 \u98ce\u94c3\u516c\u4e3b",
        "src": "http://d.duotuwang.com/2022/04/07/29437/0.jpg",
        "mtId": "c44b66e7aa714fc3",
        "mtName": "\u9648\u82e5\u51b0",
        "jgId": "yalayi",
        "jgName": "\u96c5\u62c9\u4f0a",
        "href": "http://d.duotuwang.com/2022/04/07/29437/",
        "count": 40,
        "start": 1,
        "hasMtTag": 1,
        "hasJgTag": 1,
        "mtCount": 1,
        "jgCount": 156
    }
]