[
    {
        "name": "[YALAYI]\u96c5\u62c9\u4f0a Y460 \u4f73\u4f73 \u7ea2\u5986",
        "src": "http://d.duotuwang.com/2019/11/14/18685/0.jpg",
        "mtId": "c9d218c2627459b8",
        "mtName": "\u4f73\u4f73",
        "jgId": "yalayi",
        "jgName": "\u96c5\u62c9\u4f0a",
        "href": "http://d.duotuwang.com/2019/11/14/18685/",
        "count": 51,
        "start": 1,
        "hasMtTag": 1,
        "hasJgTag": 1,
        "mtCount": 5,
        "jgCount": 156
    },
    {
        "name": "[YALAYI]\u96c5\u62c9\u4f0a Y459 \u5929\u5929 \u7c89\u5ae9\u5c11\u5973\u7684\u65f6\u5149",
        "src": "http://d.duotuwang.com/2019/11/13/18684/0.jpg",
        "mtId": "e2afb74782f5ff9a",
        "mtName": "\u5929\u5929",
        "jgId": "yalayi",
        "jgName": "\u96c5\u62c9\u4f0a",
        "href": "http://d.duotuwang.com/2019/11/13/18684/",
        "count": 41,
        "start": 1,
        "hasMtTag": 1,
        "hasJgTag": 1,
        "mtCount": 1,
        "jgCount": 156
    },
    {
        "name": "[YALAYI]\u96c5\u62c9\u4f0a Y457 \u5218\u5b50\u7080 \u9526\u7ee3\u5947\u7f18",
        "src": "http://d.duotuwang.com/2019/11/12/18552/0.jpg",
        "mtId": "09541b9e03b070a7",
        "mtName": "\u5218\u5b50\u7080",
        "jgId": "yalayi",
        "jgName": "\u96c5\u62c9\u4f0a",
        "href": "http://d.duotuwang.com/2019/11/12/18552/",
        "count": 49,
        "start": 1,
        "hasMtTag": 1,
        "hasJgTag": 1,
        "mtCount": 4,
        "jgCount": 156
    },
    {
        "name": "[YALAYI]\u96c5\u62c9\u4f0a Y456 \u826f\u5b50 \u64d2\u541b\u5171\u6795\u7720",
        "src": "http://d.duotuwang.com/2019/11/11/18550/0.jpg",
        "mtId": "562a430cecf069e3",
        "mtName": "\u826f\u5b50",
        "jgId": "yalayi",
        "jgName": "\u96c5\u62c9\u4f0a",
        "href": "http://d.duotuwang.com/2019/11/11/18550/",
        "count": 45,
        "start": 1,
        "hasMtTag": 1,
        "hasJgTag": 1,
        "mtCount": 2,
        "jgCount": 156
    },
    {
        "name": "[YALAYI]\u96c5\u62c9\u4f0a Y455 \u9879\u5174\u548f \u4ed9\u59ff\u7389\u8d28",
        "src": "http://d.duotuwang.com/2019/11/10/18553/0.jpg",
        "jgId": "yalayi",
        "jgName": "\u96c5\u62c9\u4f0a",
        "href": "http://d.duotuwang.com/2019/11/10/18553/",
        "count": 44,
        "start": 1,
        "hasMtTag": 0,
        "hasJgTag": 1,
        "jgCount": 156
    },
    {
        "name": "[YALAYI]\u96c5\u62c9\u4f0a Y454 \u4e0a\u5b98\u83b9\u83b9 \u8840\u52a8\u00b7\u8109\u52a8",
        "src": "http://d.duotuwang.com/2019/11/09/18551/0.jpg",
        "mtId": "d4a3df54ffacc5ba",
        "mtName": "\u4e0a\u5b98\u83b9\u83b9",
        "jgId": "yalayi",
        "jgName": "\u96c5\u62c9\u4f0a",
        "href": "http://d.duotuwang.com/2019/11/09/18551/",
        "count": 49,
        "start": 1,
        "hasMtTag": 1,
        "hasJgTag": 1,
        "mtCount": 2,
        "jgCount": 156
    }
]