[
    {
        "name": "[YALAYI]\u96c5\u62c9\u4f0a Y453 \u7f8e\u8431 \u7ea2\u7eb1\u5e10\u91cc\u597d\u6625\u5149",
        "src": "http://d.duotuwang.com/2019/11/08/18474/0.jpg",
        "jgId": "yalayi",
        "jgName": "\u96c5\u62c9\u4f0a",
        "href": "http://d.duotuwang.com/2019/11/08/18474/",
        "count": 51,
        "start": 1,
        "hasMtTag": 0,
        "hasJgTag": 1,
        "jgCount": 156
    },
    {
        "name": "[YALAYI]\u96c5\u62c9\u4f0a Y452 \u4ee4\u72d0\u7f8e \u5929\u6d74",
        "src": "http://d.duotuwang.com/2019/11/07/18471/0.jpg",
        "jgId": "yalayi",
        "jgName": "\u96c5\u62c9\u4f0a",
        "href": "http://d.duotuwang.com/2019/11/07/18471/",
        "count": 46,
        "start": 1,
        "hasMtTag": 0,
        "hasJgTag": 1,
        "jgCount": 156
    },
    {
        "name": "[YALAYI]\u96c5\u62c9\u4f0a Y451 \u9e2d\u9e2d \u523a\u9752\u5973\u5b69\u513f",
        "src": "http://d.duotuwang.com/2019/11/06/18470/0.jpg",
        "mtId": "45b864cd9956c6db",
        "mtName": "\u9e2d\u9e2d",
        "jgId": "yalayi",
        "jgName": "\u96c5\u62c9\u4f0a",
        "href": "http://d.duotuwang.com/2019/11/06/18470/",
        "count": 42,
        "start": 1,
        "hasMtTag": 1,
        "hasJgTag": 1,
        "mtCount": 2,
        "jgCount": 156
    },
    {
        "name": "[YALAYI]\u96c5\u62c9\u4f0a Y450 \u502a\u502a \u552f\u4e00\u7684\u4f60",
        "src": "http://d.duotuwang.com/2019/11/05/18473/0.jpg",
        "jgId": "yalayi",
        "jgName": "\u96c5\u62c9\u4f0a",
        "href": "http://d.duotuwang.com/2019/11/05/18473/",
        "count": 43,
        "start": 1,
        "hasMtTag": 0,
        "hasJgTag": 1,
        "jgCount": 156
    },
    {
        "name": "[YALAYI]\u96c5\u62c9\u4f0a Y449 \u79cb\u840d \u5c11\u5973\u7684\u65b0\u6d74\u888d",
        "src": "http://d.duotuwang.com/2019/11/04/18472/0.jpg",
        "jgId": "yalayi",
        "jgName": "\u96c5\u62c9\u4f0a",
        "href": "http://d.duotuwang.com/2019/11/04/18472/",
        "count": 63,
        "start": 1,
        "hasMtTag": 0,
        "hasJgTag": 1,
        "jgCount": 156
    },
    {
        "name": "[YALAYI]\u96c5\u62c9\u4f0a Y448 \u4f73\u4f73 \u4f73\u4f73\u7684\u6c34\u624b\u68a6",
        "src": "http://d.duotuwang.com/2019/11/03/18388/0.jpg",
        "mtId": "c9d218c2627459b8",
        "mtName": "\u4f73\u4f73",
        "jgId": "yalayi",
        "jgName": "\u96c5\u62c9\u4f0a",
        "href": "http://d.duotuwang.com/2019/11/03/18388/",
        "count": 42,
        "start": 1,
        "hasMtTag": 1,
        "hasJgTag": 1,
        "mtCount": 5,
        "jgCount": 156
    }
]