[
    {
        "name": "[YALAYI]\u96c5\u62c9\u4f0a Y404 \u5c0f\u7389 \u6843\u82b1\u52ab",
        "src": "http://d.duotuwang.com/2019/09/18/17965/0.jpg",
        "jgId": "yalayi",
        "jgName": "\u96c5\u62c9\u4f0a",
        "href": "http://d.duotuwang.com/2019/09/18/17965/",
        "count": 41,
        "start": 1,
        "hasMtTag": 0,
        "hasJgTag": 1,
        "jgCount": 156
    },
    {
        "name": "[YALAYI]\u96c5\u62c9\u4f0a Y403 \u6653\u7433 \u6211\u7684\u91ce\u86ee\u5973\u53cb",
        "src": "http://d.duotuwang.com/2019/09/17/17966/0.jpg",
        "mtId": "687947b5fc1c6607",
        "mtName": "\u6653\u7433",
        "jgId": "yalayi",
        "jgName": "\u96c5\u62c9\u4f0a",
        "href": "http://d.duotuwang.com/2019/09/17/17966/",
        "count": 51,
        "start": 1,
        "hasMtTag": 1,
        "hasJgTag": 1,
        "mtCount": 3,
        "jgCount": 156
    },
    {
        "name": "[YALAYI]\u96c5\u62c9\u4f0a Y170 \u6797\u6797\u5b50\u9171 \u82b1\u975e\u82b1",
        "src": "http://d.duotuwang.com/2019/09/16/16288/0.jpg",
        "jgId": "yalayi",
        "jgName": "\u96c5\u62c9\u4f0a",
        "href": "http://d.duotuwang.com/2019/09/16/16288/",
        "count": 44,
        "start": 1,
        "hasMtTag": 0,
        "hasJgTag": 1,
        "jgCount": 156
    },
    {
        "name": "[YALAYI]\u96c5\u62c9\u4f0a Y402 \u5218\u5b50\u7080 \u84ec\u84ec\u88d9\u4e0b",
        "src": "http://d.duotuwang.com/2019/09/16/17964/0.jpg",
        "mtId": "09541b9e03b070a7",
        "mtName": "\u5218\u5b50\u7080",
        "jgId": "yalayi",
        "jgName": "\u96c5\u62c9\u4f0a",
        "href": "http://d.duotuwang.com/2019/09/16/17964/",
        "count": 45,
        "start": 1,
        "hasMtTag": 1,
        "hasJgTag": 1,
        "mtCount": 4,
        "jgCount": 156
    },
    {
        "name": "[YALAYI]\u96c5\u62c9\u4f0a Y401 \u695a\u695a \u505a\u6211\u7684\u5411\u65e5\u8475",
        "src": "http://d.duotuwang.com/2019/09/15/17963/0.jpg",
        "jgId": "yalayi",
        "jgName": "\u96c5\u62c9\u4f0a",
        "href": "http://d.duotuwang.com/2019/09/15/17963/",
        "count": 44,
        "start": 1,
        "hasMtTag": 0,
        "hasJgTag": 1,
        "jgCount": 156
    },
    {
        "name": "[YALAYI]\u96c5\u62c9\u4f0a Y400 \u7476\u7476 \u60f3\u5ff5\u4f60",
        "src": "http://d.duotuwang.com/2019/09/14/17918/0.jpg",
        "mtId": "2ab30ec6f76b5149",
        "mtName": "\u7476\u7476",
        "jgId": "yalayi",
        "jgName": "\u96c5\u62c9\u4f0a",
        "href": "http://d.duotuwang.com/2019/09/14/17918/",
        "count": 43,
        "start": 1,
        "hasMtTag": 1,
        "hasJgTag": 1,
        "mtCount": 1,
        "jgCount": 156
    }
]