[
    {
        "name": "[YouMi]\u5c24\u871c \u674e\u8587\u8587",
        "src": "http://d.duotuwang.com/2021/01/06/23692/0.jpg",
        "mtId": "434a928a4fbcbce3",
        "mtName": "\u674e\u8587\u8587",
        "jgId": "youmiabc",
        "jgName": "\u5c24\u871c",
        "href": "http://d.duotuwang.com/2021/01/06/23692/",
        "count": 22,
        "start": 1,
        "hasMtTag": 1,
        "hasJgTag": 1,
        "mtCount": 1,
        "jgCount": 79
    },
    {
        "name": "[YouMi]\u5c24\u871c \u674e\u8587\u8587 \u98ce\u9a9a\u4eba\u59bb\u72c2\u91ce\u4e4b\u591c",
        "src": "http://d.duotuwang.com/2020/12/23/23569/0.jpg",
        "mtId": "434a928a4fbcbce3",
        "mtName": "\u674e\u8587\u8587",
        "jgId": "youmiabc",
        "jgName": "\u5c24\u871c",
        "href": "http://d.duotuwang.com/2020/12/23/23569/",
        "count": 23,
        "start": 1,
        "hasMtTag": 1,
        "hasJgTag": 1,
        "mtCount": 1,
        "jgCount": 79
    },
    {
        "name": "[YouMi]\u5c24\u871c \u674e\u8587\u8587 \u6b32\u8a00\u53c8\u6b62",
        "src": "http://d.duotuwang.com/2020/12/03/23323/0.jpg",
        "mtId": "434a928a4fbcbce3",
        "mtName": "\u674e\u8587\u8587",
        "jgId": "youmiabc",
        "jgName": "\u5c24\u871c",
        "href": "http://d.duotuwang.com/2020/12/03/23323/",
        "count": 21,
        "start": 1,
        "hasMtTag": 1,
        "hasJgTag": 1,
        "mtCount": 1,
        "jgCount": 79
    },
    {
        "name": "[YouMi]\u5c24\u871c \u674e\u8587\u8587 \u90bb\u5bb6\u96ea\u8299",
        "src": "http://d.duotuwang.com/2020/08/14/21542/0.jpg",
        "mtId": "434a928a4fbcbce3",
        "mtName": "\u674e\u8587\u8587",
        "jgId": "youmiabc",
        "jgName": "\u5c24\u871c",
        "href": "http://d.duotuwang.com/2020/08/14/21542/",
        "count": 34,
        "start": 1,
        "hasMtTag": 1,
        "hasJgTag": 1,
        "mtCount": 1,
        "jgCount": 79
    },
    {
        "name": "[UGirlsAPP]\u7231\u5c24\u7269 No.1612 \u674e\u8587\u8587 \u7231\u8981\u8eab\u4e34\u5176\u5883",
        "src": "http://d.duotuwang.com/2019/10/18/18309/0.jpg",
        "mtId": "434a928a4fbcbce3",
        "mtName": "\u674e\u8587\u8587",
        "jgId": "ugirlsapp",
        "jgName": "\u7231\u5c24\u7269",
        "href": "http://d.duotuwang.com/2019/10/18/18309/",
        "count": 35,
        "start": 1,
        "hasMtTag": 1,
        "hasJgTag": 1,
        "mtCount": 1,
        "jgCount": 397
    },
    {
        "name": "[UGirlsAPP]\u7231\u5c24\u7269 No.1581 \u674e\u8587\u8587 \u8537\u8587",
        "src": "http://d.duotuwang.com/2019/09/17/17996/0.jpg",
        "mtId": "434a928a4fbcbce3",
        "mtName": "\u674e\u8587\u8587",
        "jgId": "ugirlsapp",
        "jgName": "\u7231\u5c24\u7269",
        "href": "http://d.duotuwang.com/2019/09/17/17996/",
        "count": 35,
        "start": 1,
        "hasMtTag": 1,
        "hasJgTag": 1,
        "mtCount": 1,
        "jgCount": 397
    }
]