[
    {
        "name": "[FEILIN]\u55f2\u56e1\u56e1 VOL.024 \u9646\u82b7\u7fcalucia",
        "src": "http://d.duotuwang.com/2016/01/15/1202/0.jpg",
        "mtId": "20ef108495a0fb2e",
        "mtName": "\u9646\u82b7\u7fcalucia",
        "jgId": "feilin",
        "jgName": "\u55f2\u56e1\u56e1",
        "href": "http://d.duotuwang.com/2016/01/15/1202/",
        "count": 57,
        "start": 1,
        "hasMtTag": 1,
        "hasJgTag": 1,
        "mtCount": 1,
        "jgCount": 61
    },
    {
        "name": "[FEILIN]\u55f2\u56e1\u56e1 VOL.015 \u9646\u82b7\u7fcalucia",
        "src": "http://d.duotuwang.com/2015/11/14/1113/0.jpg",
        "mtId": "20ef108495a0fb2e",
        "mtName": "\u9646\u82b7\u7fcalucia",
        "jgId": "feilin",
        "jgName": "\u55f2\u56e1\u56e1",
        "href": "http://d.duotuwang.com/2015/11/14/1113/",
        "count": 43,
        "start": 1,
        "hasMtTag": 1,
        "hasJgTag": 1,
        "mtCount": 1,
        "jgCount": 61
    }
]