[{
        "id": "xQQCCS",
        "name": "\u6606\u4ed1\u795e\u5bab",
        "src": "https://pic.wujinpp.com/upload/vod/20220920-1/32d9cf6c86e04b5b521f9b7e4a94f11d.jpg",
        "status": "\u5b8c\u7ed3"
    },
    {
        "id": "131412",
        "name": "\u6697\u591c\u884c\u8005",
        "src": "http://sd-pic.com/upload/vod/20220522-1/a5c4f9e53854cd78fca244d448afd75b.jpg",
        "status": "\u66f4\u65b0\u81f308\u96c6"
    },
    {
        "id": "125089",
        "name": "\u91cd\u751f\u4e4b\u95e8",
        "src": "http://sd-pic.com/upload/vod/20220427-1/2d09eeb96ae6657e6d6fb45bbf1bdc6c.jpg",
        "status": "\u516826\u96c6"
    },
    {
        "id": "125098",
        "name": "\u98ce\u8d77\u9647\u897f",
        "src": "https://img.smxjysm.com/upload/vod/20220427-1/48827bad5e9fa300d861f84ec5814f86.jpg",
        "status": "\u66f4\u65b0\u81f324\u96c6"
    },
    {
        "id": "123495",
        "name": "\u4e14\u8bd5\u5929\u4e0b",
        "src": "https://img.smxjysm.com/upload/vod/20220418-1/5ee2a5e563193d3bc4fe3747ee7a2473.jpg",
        "status": "\u66f4\u65b0\u81f340\u96c6"
    },
    {
        "id": "113340",
        "name": "\u5c71\u6cb3\u6708\u660e",
        "src": "http://pic.ku-img.com/upload/vod/20220406-1/c2e3161755d13dff422a6bbd92f5aaa9.jpg",
        "status": "\u66f4\u65b0\u81f345\u96c6"
    },
    {
        "id": "113243",
        "name": "\u7279\u6218\u8363\u8000",
        "src": "http://pic.ku-img.com/upload/vod/20220405-1/af23f510a7f6f15f1d265c9ce32752c8.jpg",
        "status": "\u66f4\u65b0\u81f345\u96c6\u5b8c\u7ed3"
    },
    {
        "id": "112961",
        "name": "\u7389\u9762\u6843\u82b1\u603b\u76f8\u9022",
        "src": "http://sd-pic.com/upload/vod/20220401-1/1832386b9d060b7a1125a99229e709c8.jpg",
        "status": "\u516836\u96c6"
    },
    {
        "id": "112290",
        "name": "\u4e0e\u541b\u521d\u76f8\u8bc6",
        "src": "https://img.lywyx.com/upload/vod/20220317-1/22a9bbec67a42c2af10969eea9f063e0.jpg",
        "status": "\u66f4\u65b0\u81f334\u96c6+\u5267\u900f\u7247\u6bb5"
    }
]