[
    {
        "id": "23283",
        "name": "\u9b3c\u5439\u706f5\u4e4b\u9ec4\u76ae\u5b50\u575f",
        "src": "http://sd-pic.com/upload/vod/20220309-1/ce13438f4a0cb08d13a5b88a417c200c.jpg",
        "status": "\u516820\u96c6"
    },
    {
        "id": "24775",
        "name": "\u9b3c\u5439\u706f7\u4e4b\u6012\u6674\u6e58\u897f",
        "src": "https://pic3.iqiyipic.com/image/20220119/b5/3c/a_100493055_m_601_m1_260_360.jpg",
        "status": "\u66f4\u65b0\u81f321\u96c6\u5b8c\u7ed3"
    },
    {
        "id": "38344",
        "name": "\u76d7\u5893\u7b14\u8bb01\u4e4b\u4e03\u661f\u9c81\u738b\u5bae",
        "src": "https://pic4.iqiyipic.com/image/20220110/d6/64/a_100007570_m_601_m28_260_360.jpg",
        "status": "12\u96c6\u5168"
    },
    {
        "id": "82818",
        "name": "\u76d7\u5893\u7b14\u8bb02\u4e4b\u79e6\u5cad\u795e\u6811",
        "src": "http://pic.ku-img.com/upload/vod/20210930-1/d3a55e03805b7c803fe9285f83e33cb5.jpg",
        "status": "\u66f4\u65b0\u81f340\u96c6\u5b8c\u7ed3"
    },
    {
        "id": "37969",
        "name": "\u76d7\u5893\u7b14\u8bb03\u4e4b\u4e91\u9876\u5929\u5bab",
        "src": "https://img.maimn.com/upload/vod/2021-07-11/16260135020.jpg",
        "status": "24\u96c6\u5168"
    },
    {
        "id": "9346",
        "name": "\u76d7\u5893\u7b14\u8bb0\u4e4b\u7ec8\u6781\u7b14\u8bb0",
        "src": "http://pic.ku-img.com/upload/vod/20211222-1/7e3ef8bb81725d2e18347ef599fd2cf4.jpg",
        "status": "\u66f4\u65b036\u96c6\u5b8c\u7ed3"
    },
    {
        "id": "24846",
        "name": "\u76d7\u5893\u7b14\u8bb0\u4e4b\u6c99\u6d77",
        "src": "http://sd-pic.com/upload/vod/20220309-1/6721c59109a7cf3394458b4a0988a1d4.jpg",
        "status": "\u516852\u96c6"
    },
    {
        "id": "48558",
        "name": "\u76d7\u5893\u7b14\u8bb0\u4e4b\u6781\u6d77\u542c\u96f71",
        "src": "http://pic.ku-img.com/upload/vod/20210930-1/cee51bbdac65d94180be23591931dabb.jpg",
        "status": "\u66f4\u65b0\u81f332\u96c6\u5b8c\u7ed3"
    }
]