[
    {
        "name": "[FEILIN]\u55f2\u56e1\u56e1 VOL.168 \u674e\u6893\u7199",
        "src": "http://d.duotuwang.com/2018/09/27/9762/0.jpg",
        "mtId": "c20a8d8edc6f01e7",
        "mtName": "\u674e\u6893\u7199",
        "jgId": "feilin",
        "jgName": "\u55f2\u56e1\u56e1",
        "href": "http://d.duotuwang.com/2018/09/27/9762/",
        "count": 37,
        "start": 1,
        "hasMtTag": 1,
        "hasJgTag": 1,
        "mtCount": 7,
        "jgCount": 61
    },
    {
        "name": "[FEILIN]\u55f2\u56e1\u56e1 VOL.167 \u6817\u5b50Riz",
        "src": "http://d.duotuwang.com/2018/09/22/9719/0.jpg",
        "mtId": "92316d0e0bb84801",
        "mtName": "\u6817\u5b50Riz",
        "jgId": "feilin",
        "jgName": "\u55f2\u56e1\u56e1",
        "href": "http://d.duotuwang.com/2018/09/22/9719/",
        "count": 47,
        "start": 1,
        "hasMtTag": 1,
        "hasJgTag": 1,
        "mtCount": 5,
        "jgCount": 61
    },
    {
        "name": "[FEILIN]\u55f2\u56e1\u56e1 VOL.166 \u55b5\u83ab\u513f",
        "src": "http://d.duotuwang.com/2018/09/20/9696/0.jpg",
        "mtId": "b8e40aab7d21f8cb",
        "mtName": "\u55b5\u83ab\u513f",
        "jgId": "feilin",
        "jgName": "\u55f2\u56e1\u56e1",
        "href": "http://d.duotuwang.com/2018/09/20/9696/",
        "count": 38,
        "start": 1,
        "hasMtTag": 1,
        "hasJgTag": 1,
        "mtCount": 1,
        "jgCount": 61
    },
    {
        "name": "[FEILIN]\u55f2\u56e1\u56e1 VOL.165 luna\u5f20\u9759\u71d5",
        "src": "http://d.duotuwang.com/2018/09/18/9707/0.jpg",
        "mtId": "7e77aaaf307667b5",
        "mtName": "luna\u5f20\u9759\u71d5",
        "jgId": "feilin",
        "jgName": "\u55f2\u56e1\u56e1",
        "href": "http://d.duotuwang.com/2018/09/18/9707/",
        "count": 40,
        "start": 1,
        "hasMtTag": 1,
        "hasJgTag": 1,
        "mtCount": 2,
        "jgCount": 61
    },
    {
        "name": "[FEILIN]\u55f2\u56e1\u56e1 VOL.164 \u51af\u6728\u6728LRIS",
        "src": "http://d.duotuwang.com/2018/09/13/9674/0.jpg",
        "mtId": "8f32655f10938cea",
        "mtName": "\u51af\u6728\u6728LRIS",
        "jgId": "feilin",
        "jgName": "\u55f2\u56e1\u56e1",
        "href": "http://d.duotuwang.com/2018/09/13/9674/",
        "count": 40,
        "start": 1,
        "hasMtTag": 1,
        "hasJgTag": 1,
        "mtCount": 14,
        "jgCount": 61
    },
    {
        "name": "[FEILIN]\u55f2\u56e1\u56e1 VOL.163 \u5468\u4e8e\u5e0c",
        "src": "http://d.duotuwang.com/2018/09/10/9636/0.jpg",
        "mtId": "de6bdb42ece2255f",
        "mtName": "\u5468\u4e8e\u5e0c",
        "jgId": "feilin",
        "jgName": "\u55f2\u56e1\u56e1",
        "href": "http://d.duotuwang.com/2018/09/10/9636/",
        "count": 41,
        "start": 1,
        "hasMtTag": 1,
        "hasJgTag": 1,
        "mtCount": 59,
        "jgCount": 61
    }
]