[
    {
        "name": "[FEILIN]\u55f2\u56e1\u56e1 VOL.084 \u65bd\u5fc6\u4f73KITTY",
        "src": "http://d.duotuwang.com/2017/04/07/3699/0.jpg",
        "mtId": "39df2cf2f35511be",
        "mtName": "\u65bd\u5fc6\u4f73KITTY",
        "jgId": "feilin",
        "jgName": "\u55f2\u56e1\u56e1",
        "href": "http://d.duotuwang.com/2017/04/07/3699/",
        "count": 40,
        "start": 1,
        "hasMtTag": 1,
        "hasJgTag": 1,
        "mtCount": 2,
        "jgCount": 61
    },
    {
        "name": "[FEILIN]\u55f2\u56e1\u56e1 VOL.083 \u51af\u6728\u6728LRIS",
        "src": "http://d.duotuwang.com/2017/04/05/3706/0.jpg",
        "mtId": "8f32655f10938cea",
        "mtName": "\u51af\u6728\u6728LRIS",
        "jgId": "feilin",
        "jgName": "\u55f2\u56e1\u56e1",
        "href": "http://d.duotuwang.com/2017/04/05/3706/",
        "count": 47,
        "start": 1,
        "hasMtTag": 1,
        "hasJgTag": 1,
        "mtCount": 14,
        "jgCount": 61
    },
    {
        "name": "[FEILIN]\u55f2\u56e1\u56e1 VOL.082 \u840c\u742a\u742aIrene",
        "src": "http://d.duotuwang.com/2017/03/30/3677/0.jpg",
        "mtId": "66729276e15617cd",
        "mtName": "\u840c\u742a\u742aIrene",
        "jgId": "feilin",
        "jgName": "\u55f2\u56e1\u56e1",
        "href": "http://d.duotuwang.com/2017/03/30/3677/",
        "count": 40,
        "start": 1,
        "hasMtTag": 1,
        "hasJgTag": 1,
        "mtCount": 7,
        "jgCount": 61
    },
    {
        "name": "[FEILIN]\u55f2\u56e1\u56e1 VOL.081 M\u68a6baby",
        "src": "http://d.duotuwang.com/2017/03/16/3670/0.jpg",
        "mtId": "986ddab6ac5c880b",
        "mtName": "M\u68a6baby",
        "jgId": "feilin",
        "jgName": "\u55f2\u56e1\u56e1",
        "href": "http://d.duotuwang.com/2017/03/16/3670/",
        "count": 47,
        "start": 1,
        "hasMtTag": 1,
        "hasJgTag": 1,
        "mtCount": 5,
        "jgCount": 61
    },
    {
        "name": "[FEILIN]\u55f2\u56e1\u56e1 VOL.080 \u840c\u742a\u742aIrene",
        "src": "http://d.duotuwang.com/2017/03/13/3640/0.jpg",
        "mtId": "66729276e15617cd",
        "mtName": "\u840c\u742a\u742aIrene",
        "jgId": "feilin",
        "jgName": "\u55f2\u56e1\u56e1",
        "href": "http://d.duotuwang.com/2017/03/13/3640/",
        "count": 40,
        "start": 1,
        "hasMtTag": 1,
        "hasJgTag": 1,
        "mtCount": 7,
        "jgCount": 61
    },
    {
        "name": "[FEILIN]\u55f2\u56e1\u56e1 VOL.079 \u9673\u96c5\u6f2bVICKY",
        "src": "http://d.duotuwang.com/2017/03/08/3650/0.jpg",
        "mtId": "6bd2ad886173cf46",
        "mtName": "\u9673\u96c5\u6f2bVICKY",
        "jgId": "feilin",
        "jgName": "\u55f2\u56e1\u56e1",
        "href": "http://d.duotuwang.com/2017/03/08/3650/",
        "count": 34,
        "start": 1,
        "hasMtTag": 1,
        "hasJgTag": 1,
        "mtCount": 3,
        "jgCount": 61
    }
]