[
    {
        "name": "[FEILIN]\u55f2\u56e1\u56e1 VOL.030 \u5976\u8336-Emily",
        "src": "http://d.duotuwang.com/2016/03/14/1314/0.jpg",
        "mtId": "d7a6d7447af9c331",
        "mtName": "\u5976\u8336-Emily",
        "jgId": "feilin",
        "jgName": "\u55f2\u56e1\u56e1",
        "href": "http://d.duotuwang.com/2016/03/14/1314/",
        "count": 46,
        "start": 1,
        "hasMtTag": 1,
        "hasJgTag": 1,
        "mtCount": 1,
        "jgCount": 61
    },
    {
        "name": "[FEILIN]\u55f2\u56e1\u56e1 VOL.029 \u53f2\u96efSwan",
        "src": "http://d.duotuwang.com/2016/03/03/1878/0.jpg",
        "mtId": "458530c84f8613d8",
        "mtName": "\u53f2\u96efSwan",
        "jgId": "feilin",
        "jgName": "\u55f2\u56e1\u56e1",
        "href": "http://d.duotuwang.com/2016/03/03/1878/",
        "count": 47,
        "start": 1,
        "hasMtTag": 1,
        "hasJgTag": 1,
        "mtCount": 1,
        "jgCount": 61
    },
    {
        "name": "[FEILIN]\u55f2\u56e1\u56e1 VOL.028 \u4f0a\u84d3Eva",
        "src": "http://d.duotuwang.com/2016/02/29/1292/0.jpg",
        "mtId": "633727537791b2df",
        "mtName": "\u4f0a\u84d3Eva",
        "jgId": "feilin",
        "jgName": "\u55f2\u56e1\u56e1",
        "href": "http://d.duotuwang.com/2016/02/29/1292/",
        "count": 55,
        "start": 1,
        "hasMtTag": 1,
        "hasJgTag": 1,
        "mtCount": 1,
        "jgCount": 61
    },
    {
        "name": "[FEILIN]\u55f2\u56e1\u56e1 VOL.027 Cheryl\u9752\u6811",
        "src": "http://d.duotuwang.com/2016/02/24/1258/0.jpg",
        "mtId": "e198f565d0da3712",
        "mtName": "Cheryl\u9752\u6811",
        "jgId": "feilin",
        "jgName": "\u55f2\u56e1\u56e1",
        "href": "http://d.duotuwang.com/2016/02/24/1258/",
        "count": 53,
        "start": 1,
        "hasMtTag": 1,
        "hasJgTag": 1,
        "mtCount": 8,
        "jgCount": 61
    },
    {
        "name": "[FEILIN]\u55f2\u56e1\u56e1 VOL.026 \u6155\u7fbd\u831c",
        "src": "http://d.duotuwang.com/2016/02/01/1251/0.jpg",
        "mtId": "c60f2ae4c9c00bc0",
        "mtName": "\u6155\u7fbd\u831c",
        "jgId": "feilin",
        "jgName": "\u55f2\u56e1\u56e1",
        "href": "http://d.duotuwang.com/2016/02/01/1251/",
        "count": 44,
        "start": 1,
        "hasMtTag": 1,
        "hasJgTag": 1,
        "mtCount": 2,
        "jgCount": 61
    },
    {
        "name": "[FEILIN]\u55f2\u56e1\u56e1 VOL.025 \u53f2\u96efSwan",
        "src": "http://d.duotuwang.com/2016/01/28/1877/0.jpg",
        "mtId": "458530c84f8613d8",
        "mtName": "\u53f2\u96efSwan",
        "jgId": "feilin",
        "jgName": "\u55f2\u56e1\u56e1",
        "href": "http://d.duotuwang.com/2016/01/28/1877/",
        "count": 58,
        "start": 1,
        "hasMtTag": 1,
        "hasJgTag": 1,
        "mtCount": 1,
        "jgCount": 61
    }
]