[
    {
        "name": "[FEILIN]\u55f2\u56e1\u56e1 VOL.419 \u6708\u97f3\u77b3",
        "src": "http://d.duotuwang.com/2021/11/10/27262/0.jpg",
        "mtId": "ad1cc72dcd927205",
        "mtName": "\u6708\u97f3\u77b3",
        "jgId": "feilin",
        "jgName": "\u55f2\u56e1\u56e1",
        "href": "http://d.duotuwang.com/2021/11/10/27262/",
        "count": 31,
        "start": 1,
        "hasMtTag": 1,
        "hasJgTag": 1,
        "mtCount": 11,
        "jgCount": 61
    },
    {
        "name": "[FEILIN]\u55f2\u56e1\u56e1 VOL.418 \u59dd\u59dd\u4e0d\u662f\u59b9\u59b9",
        "src": "http://d.duotuwang.com/2021/11/03/27095/0.jpg",
        "mtId": "6897bd5c6c9cb22d",
        "mtName": "\u59dd\u59dd\u4e0d\u662f\u59b9\u59b9",
        "jgId": "feilin",
        "jgName": "\u55f2\u56e1\u56e1",
        "href": "http://d.duotuwang.com/2021/11/03/27095/",
        "count": 48,
        "start": 1,
        "hasMtTag": 1,
        "hasJgTag": 1,
        "mtCount": 2,
        "jgCount": 61
    },
    {
        "name": "[FEILIN]\u55f2\u56e1\u56e1 VOL.417 \u5c0f\u679c\u51bb\u513f",
        "src": "http://d.duotuwang.com/2021/10/28/27094/0.jpg",
        "mtId": "86aa746387f17777",
        "mtName": "\u5c0f\u679c\u51bb\u513f",
        "jgId": "feilin",
        "jgName": "\u55f2\u56e1\u56e1",
        "href": "http://d.duotuwang.com/2021/10/28/27094/",
        "count": 70,
        "start": 1,
        "hasMtTag": 1,
        "hasJgTag": 1,
        "mtCount": 7,
        "jgCount": 61
    },
    {
        "name": "[FEILIN]\u55f2\u56e1\u56e1 VOL.416 \u679c\u513fVictoria 2/2",
        "src": "http://d.duotuwang.com/2021/10/08/27051/0.jpg",
        "mtId": "fc1868c8a652655f",
        "mtName": "\u679c\u513fVictoria",
        "jgId": "feilin",
        "jgName": "\u55f2\u56e1\u56e1",
        "href": "http://d.duotuwang.com/2021/10/08/27051/",
        "count": 61,
        "start": 30,
        "hasMtTag": 1,
        "hasJgTag": 1,
        "mtCount": 29,
        "jgCount": 61
    },
    {
        "name": "[FEILIN]\u55f2\u56e1\u56e1 VOL.416 \u679c\u513fVictoria 1/2",
        "src": "http://d.duotuwang.com/2021/10/08/26867/0.jpg",
        "mtId": "fc1868c8a652655f",
        "mtName": "\u679c\u513fVictoria",
        "jgId": "feilin",
        "jgName": "\u55f2\u56e1\u56e1",
        "href": "http://d.duotuwang.com/2021/10/08/26867/",
        "count": 29,
        "start": 1,
        "hasMtTag": 1,
        "hasJgTag": 1,
        "mtCount": 29,
        "jgCount": 61
    },
    {
        "name": "[FEILIN]\u55f2\u56e1\u56e1 VOL.415 \u51af\u6728\u6728LRIS 2/2",
        "src": "http://d.duotuwang.com/2021/09/28/26701/0.jpg",
        "mtId": "8f32655f10938cea",
        "mtName": "\u51af\u6728\u6728LRIS",
        "jgId": "feilin",
        "jgName": "\u55f2\u56e1\u56e1",
        "href": "http://d.duotuwang.com/2021/09/28/26701/",
        "count": 41,
        "start": 66,
        "hasMtTag": 1,
        "hasJgTag": 1,
        "mtCount": 14,
        "jgCount": 61
    }
]