[
    {
        "name": "[FEILIN]\u55f2\u56e1\u56e1 VOL.407 \u9648\u8212\u7fbd",
        "src": "http://d.duotuwang.com/2021/07/27/25941/0.jpg",
        "mtId": "cc6a7c2b3706b1f7",
        "mtName": "\u9648\u8212\u7fbd",
        "jgId": "feilin",
        "jgName": "\u55f2\u56e1\u56e1",
        "href": "http://d.duotuwang.com/2021/07/27/25941/",
        "count": 45,
        "start": 1,
        "hasMtTag": 1,
        "hasJgTag": 1,
        "mtCount": 2,
        "jgCount": 61
    },
    {
        "name": "[FEILIN]\u55f2\u56e1\u56e1 VOL.406 \u51af\u6728\u6728LRIS",
        "src": "http://d.duotuwang.com/2021/07/26/25940/0.jpg",
        "mtId": "8f32655f10938cea",
        "mtName": "\u51af\u6728\u6728LRIS",
        "jgId": "feilin",
        "jgName": "\u55f2\u56e1\u56e1",
        "href": "http://d.duotuwang.com/2021/07/26/25940/",
        "count": 44,
        "start": 1,
        "hasMtTag": 1,
        "hasJgTag": 1,
        "mtCount": 14,
        "jgCount": 61
    },
    {
        "name": "[FEILIN]\u55f2\u56e1\u56e1 VOL.405 \u9f99\u5973\u5b9d\u5b9d",
        "src": "http://d.duotuwang.com/2021/07/22/25939/0.jpg",
        "mtId": "94200dc7ee2aae47",
        "mtName": "\u9f99\u5973\u5b9d\u5b9d",
        "jgId": "feilin",
        "jgName": "\u55f2\u56e1\u56e1",
        "href": "http://d.duotuwang.com/2021/07/22/25939/",
        "count": 54,
        "start": 1,
        "hasMtTag": 1,
        "hasJgTag": 1,
        "mtCount": 2,
        "jgCount": 61
    },
    {
        "name": "[FEILIN]\u55f2\u56e1\u56e1 VOL.404 \u738b\u5a49\u60a0Queen",
        "src": "http://d.duotuwang.com/2021/07/20/25791/0.jpg",
        "mtId": "fe06cbeaec35f3a0",
        "mtName": "\u738b\u5a49\u60a0Queen",
        "jgId": "feilin",
        "jgName": "\u55f2\u56e1\u56e1",
        "href": "http://d.duotuwang.com/2021/07/20/25791/",
        "count": 61,
        "start": 1,
        "hasMtTag": 1,
        "hasJgTag": 1,
        "mtCount": 4,
        "jgCount": 61
    },
    {
        "name": "[FEILIN]\u55f2\u56e1\u56e1 VOL.403 \u6587\u82aejeninfer",
        "src": "http://d.duotuwang.com/2021/07/14/25790/0.jpg",
        "mtId": "dd1e9e2e1b5b9138",
        "mtName": "\u6587\u82aejeninfer",
        "jgId": "feilin",
        "jgName": "\u55f2\u56e1\u56e1",
        "href": "http://d.duotuwang.com/2021/07/14/25790/",
        "count": 45,
        "start": 1,
        "hasMtTag": 1,
        "hasJgTag": 1,
        "mtCount": 4,
        "jgCount": 61
    },
    {
        "name": "[FEILIN]\u55f2\u56e1\u56e1 VOL.402 \u7530\u51b0\u51b0",
        "src": "http://d.duotuwang.com/2021/07/12/25789/0.jpg",
        "mtId": "eca68a85ce6ec415",
        "mtName": "\u7530\u51b0\u51b0",
        "jgId": "feilin",
        "jgName": "\u55f2\u56e1\u56e1",
        "href": "http://d.duotuwang.com/2021/07/12/25789/",
        "count": 43,
        "start": 1,
        "hasMtTag": 1,
        "hasJgTag": 1,
        "mtCount": 10,
        "jgCount": 61
    }
]