[
    {
        "name": "[TGod]\u63a8\u5973\u795e 2014-11-17 \u5218\u5955\u5b81Lynn",
        "src": "http://d.duotuwang.com/2014/11/17/2256/0.jpg",
        "mtId": "ec60803ccef20d32",
        "mtName": "\u5218\u5955\u5b81Lynn",
        "jgId": "tgod",
        "jgName": "\u63a8\u5973\u795e",
        "href": "http://d.duotuwang.com/2014/11/17/2256/",
        "count": 71,
        "start": 1,
        "hasMtTag": 1,
        "hasJgTag": 1,
        "mtCount": 4,
        "jgCount": 78
    },
    {
        "name": "[TGod]\u63a8\u5973\u795e 2014-09-17 \u5218\u5955\u5b81Lynn",
        "src": "http://d.duotuwang.com/2014/09/17/2221/0.jpg",
        "mtId": "ec60803ccef20d32",
        "mtName": "\u5218\u5955\u5b81Lynn",
        "jgId": "tgod",
        "jgName": "\u63a8\u5973\u795e",
        "href": "http://d.duotuwang.com/2014/09/17/2221/",
        "count": 62,
        "start": 1,
        "hasMtTag": 1,
        "hasJgTag": 1,
        "mtCount": 4,
        "jgCount": 78
    },
    {
        "name": "[TGod]\u63a8\u5973\u795e 2014-08-30 \u5218\u5955\u5b81Lynn",
        "src": "http://d.duotuwang.com/2014/08/30/2228/0.jpg",
        "mtId": "ec60803ccef20d32",
        "mtName": "\u5218\u5955\u5b81Lynn",
        "jgId": "tgod",
        "jgName": "\u63a8\u5973\u795e",
        "href": "http://d.duotuwang.com/2014/08/30/2228/",
        "count": 58,
        "start": 1,
        "hasMtTag": 1,
        "hasJgTag": 1,
        "mtCount": 4,
        "jgCount": 78
    },
    {
        "name": "[XIUREN]\u79c0\u4eba\u7f51 No.139 \u5218\u5955\u5b81Lynn",
        "src": "http://d.duotuwang.com/2014/05/26/458/0.jpg",
        "mtId": "ec60803ccef20d32",
        "mtName": "\u5218\u5955\u5b81Lynn",
        "jgId": "xiuren",
        "jgName": "\u79c0\u4eba\u7f51",
        "href": "http://d.duotuwang.com/2014/05/26/458/",
        "count": 54,
        "start": 1,
        "hasMtTag": 1,
        "hasJgTag": 1,
        "mtCount": 4,
        "jgCount": 750
    }
]