[
    {
        "name": "[YALAYI]\u96c5\u62c9\u4f0a Y566 \u5218\u5b50\u7080 \u5c0f\u7ea2\u5154",
        "src": "http://d.duotuwang.com/2020/03/06/19817/0.jpg",
        "mtId": "09541b9e03b070a7",
        "mtName": "\u5218\u5b50\u7080",
        "jgId": "yalayi",
        "jgName": "\u96c5\u62c9\u4f0a",
        "href": "http://d.duotuwang.com/2020/03/06/19817/",
        "count": 43,
        "start": 1,
        "hasMtTag": 1,
        "hasJgTag": 1,
        "mtCount": 4,
        "jgCount": 156
    },
    {
        "name": "[YALAYI]\u96c5\u62c9\u4f0a Y557 \u5218\u5b50\u7080 \u6700\u7f8e\u5b88\u62a4\u8005",
        "src": "http://d.duotuwang.com/2020/02/26/19670/0.jpg",
        "mtId": "09541b9e03b070a7",
        "mtName": "\u5218\u5b50\u7080",
        "jgId": "yalayi",
        "jgName": "\u96c5\u62c9\u4f0a",
        "href": "http://d.duotuwang.com/2020/02/26/19670/",
        "count": 43,
        "start": 1,
        "hasMtTag": 1,
        "hasJgTag": 1,
        "mtCount": 4,
        "jgCount": 156
    },
    {
        "name": "[YALAYI]\u96c5\u62c9\u4f0a Y545 \u5218\u5b50\u7080 \u60c5\u8da3\u6c34\u624b\u670d",
        "src": "http://d.duotuwang.com/2020/02/15/19578/0.jpg",
        "mtId": "09541b9e03b070a7",
        "mtName": "\u5218\u5b50\u7080",
        "jgId": "yalayi",
        "jgName": "\u96c5\u62c9\u4f0a",
        "href": "http://d.duotuwang.com/2020/02/15/19578/",
        "count": 41,
        "start": 1,
        "hasMtTag": 1,
        "hasJgTag": 1,
        "mtCount": 4,
        "jgCount": 156
    },
    {
        "name": "[YALAYI]\u96c5\u62c9\u4f0a Y538 \u5218\u5b50\u7080 \u56de\u5230\u90a3\u5e74",
        "src": "http://d.duotuwang.com/2020/02/08/19533/0.jpg",
        "mtId": "09541b9e03b070a7",
        "mtName": "\u5218\u5b50\u7080",
        "jgId": "yalayi",
        "jgName": "\u96c5\u62c9\u4f0a",
        "href": "http://d.duotuwang.com/2020/02/08/19533/",
        "count": 40,
        "start": 1,
        "hasMtTag": 1,
        "hasJgTag": 1,
        "mtCount": 4,
        "jgCount": 156
    },
    {
        "name": "[YALAYI]\u96c5\u62c9\u4f0a Y528 \u5218\u5b50\u7080 \u73ab\u7470\u559c\u8fce\u6625",
        "src": "http://d.duotuwang.com/2020/01/23/19359/0.jpg",
        "mtId": "09541b9e03b070a7",
        "mtName": "\u5218\u5b50\u7080",
        "jgId": "yalayi",
        "jgName": "\u96c5\u62c9\u4f0a",
        "href": "http://d.duotuwang.com/2020/01/23/19359/",
        "count": 40,
        "start": 1,
        "hasMtTag": 1,
        "hasJgTag": 1,
        "mtCount": 4,
        "jgCount": 156
    },
    {
        "name": "[YALAYI]\u96c5\u62c9\u4f0a Y518 \u5218\u5b50\u7080 \u7eff\u91cc\u8537\u8587",
        "src": "http://d.duotuwang.com/2020/01/13/19265/0.jpg",
        "mtId": "09541b9e03b070a7",
        "mtName": "\u5218\u5b50\u7080",
        "jgId": "yalayi",
        "jgName": "\u96c5\u62c9\u4f0a",
        "href": "http://d.duotuwang.com/2020/01/13/19265/",
        "count": 46,
        "start": 1,
        "hasMtTag": 1,
        "hasJgTag": 1,
        "mtCount": 4,
        "jgCount": 156
    }
]