[
    {
        "name": "[UGirlsAPP]\u7231\u5c24\u7269 No.2253 \u6797\u9759\u7476 \u60c5\u4eba\u7684\u5fc3",
        "src": "http://d.duotuwang.com/2022/01/09/28163/0.jpg",
        "mtId": "1aa39c2f3768445d",
        "mtName": "\u6797\u9759\u7476",
        "jgId": "ugirlsapp",
        "jgName": "\u7231\u5c24\u7269",
        "href": "http://d.duotuwang.com/2022/01/09/28163/",
        "count": 35,
        "start": 1,
        "hasMtTag": 1,
        "hasJgTag": 1,
        "mtCount": 1,
        "jgCount": 397
    },
    {
        "name": "[UGirlsAPP]\u7231\u5c24\u7269 No.2092 \u6797\u9759\u7476 \u60f3\u7231\u9759\u9759",
        "src": "http://d.duotuwang.com/2021/05/22/25114/0.jpg",
        "mtId": "1aa39c2f3768445d",
        "mtName": "\u6797\u9759\u7476",
        "jgId": "ugirlsapp",
        "jgName": "\u7231\u5c24\u7269",
        "href": "http://d.duotuwang.com/2021/05/22/25114/",
        "count": 35,
        "start": 1,
        "hasMtTag": 1,
        "hasJgTag": 1,
        "mtCount": 1,
        "jgCount": 397
    },
    {
        "name": " [UGirlsAPP]\u7231\u5c24\u7269 No.2079 \u6797\u9759\u7476 \u51fa\u6c34\u6821\u82b1",
        "src": "http://d.duotuwang.com/2021/05/03/25054/0.jpg",
        "mtId": "1aa39c2f3768445d",
        "mtName": "\u6797\u9759\u7476",
        "jgId": "ugirlsapp",
        "jgName": "\u7231\u5c24\u7269",
        "href": "http://d.duotuwang.com/2021/05/03/25054/",
        "count": 35,
        "start": 1,
        "hasMtTag": 1,
        "hasJgTag": 1,
        "mtCount": 1,
        "jgCount": 397
    },
    {
        "name": "[UGirlsAPP]\u7231\u5c24\u7269 No.2018 \u6797\u9759\u7476 \u5976\u6cb9\u516c\u4e3b",
        "src": "http://d.duotuwang.com/2021/02/07/23965/0.jpg",
        "mtId": "1aa39c2f3768445d",
        "mtName": "\u6797\u9759\u7476",
        "jgId": "ugirlsapp",
        "jgName": "\u7231\u5c24\u7269",
        "href": "http://d.duotuwang.com/2021/02/07/23965/",
        "count": 35,
        "start": 1,
        "hasMtTag": 1,
        "hasJgTag": 1,
        "mtCount": 1,
        "jgCount": 397
    },
    {
        "name": "[UGirlsAPP]\u7231\u5c24\u7269 No.1980 \u6797\u9759\u7476 \u6447\u554a\u6447\uff0c\u6447\u7684\u59b9\u59b9\u7b11",
        "src": "http://d.duotuwang.com/2020/12/16/23410/0.jpg",
        "mtId": "1aa39c2f3768445d",
        "mtName": "\u6797\u9759\u7476",
        "jgId": "ugirlsapp",
        "jgName": "\u7231\u5c24\u7269",
        "href": "http://d.duotuwang.com/2020/12/16/23410/",
        "count": 35,
        "start": 1,
        "hasMtTag": 1,
        "hasJgTag": 1,
        "mtCount": 1,
        "jgCount": 397
    }
]