[
    {
        "name": "[XIUREN]\u79c0\u4eba\u7f51 No.488 \u9ebb\u5409\u5c0f\u5154\u5b50",
        "src": "http://d.duotuwang.com/2016/02/26/1294/0.jpg",
        "mtId": "565a6929baab5791",
        "mtName": "\u9ebb\u5409\u5c0f\u5154\u5b50",
        "jgId": "xiuren",
        "jgName": "\u79c0\u4eba\u7f51",
        "href": "http://d.duotuwang.com/2016/02/26/1294/",
        "count": 83,
        "start": 1,
        "hasMtTag": 1,
        "hasJgTag": 1,
        "mtCount": 1,
        "jgCount": 750
    },
    {
        "name": "[XIUREN]\u79c0\u4eba\u7f51 No.374 \u9ebb\u5409\u5c0f\u5154\u5b50",
        "src": "http://d.duotuwang.com/2015/08/10/876/0.jpg",
        "mtId": "565a6929baab5791",
        "mtName": "\u9ebb\u5409\u5c0f\u5154\u5b50",
        "jgId": "xiuren",
        "jgName": "\u79c0\u4eba\u7f51",
        "href": "http://d.duotuwang.com/2015/08/10/876/",
        "count": 50,
        "start": 1,
        "hasMtTag": 1,
        "hasJgTag": 1,
        "mtCount": 1,
        "jgCount": 750
    },
    {
        "name": "[XIUREN]\u79c0\u4eba\u7f51 No.306 \u9ebb\u5409\u5c0f\u5154\u5b50",
        "src": "http://d.duotuwang.com/2015/03/07/686/0.jpg",
        "mtId": "565a6929baab5791",
        "mtName": "\u9ebb\u5409\u5c0f\u5154\u5b50",
        "jgId": "xiuren",
        "jgName": "\u79c0\u4eba\u7f51",
        "href": "http://d.duotuwang.com/2015/03/07/686/",
        "count": 76,
        "start": 1,
        "hasMtTag": 1,
        "hasJgTag": 1,
        "mtCount": 1,
        "jgCount": 750
    }
]