[
    {
        "name": "[YALAYI]\u96c5\u62c9\u4f0a Y396 \u6735\u6735 \u5c11\u5973\u5fc3\u4e8b",
        "src": "http://d.duotuwang.com/2019/09/10/17888/0.jpg",
        "mtId": "320ced05955622a4",
        "mtName": "\u6735\u6735",
        "jgId": "yalayi",
        "jgName": "\u96c5\u62c9\u4f0a",
        "href": "http://d.duotuwang.com/2019/09/10/17888/",
        "count": 43,
        "start": 1,
        "hasMtTag": 1,
        "hasJgTag": 1,
        "mtCount": 1,
        "jgCount": 156
    },
    {
        "name": "[YALAYI]\u96c5\u62c9\u4f0a Y354 \u6735\u6735 \u5411\u5f80\u7684\u751f\u6d3b",
        "src": "http://d.duotuwang.com/2019/07/30/17452/0.jpg",
        "mtId": "320ced05955622a4",
        "mtName": "\u6735\u6735",
        "jgId": "yalayi",
        "jgName": "\u96c5\u62c9\u4f0a",
        "href": "http://d.duotuwang.com/2019/07/30/17452/",
        "count": 41,
        "start": 1,
        "hasMtTag": 1,
        "hasJgTag": 1,
        "mtCount": 1,
        "jgCount": 156
    },
    {
        "name": "[toutiaogirls]\u5934\u6761\u5973\u795e 2016-06-16 \u6735\u6735",
        "src": "http://d.duotuwang.com/2016/06/16/3303/0.jpg",
        "mtId": "320ced05955622a4",
        "mtName": "\u6735\u6735",
        "jgId": "toutiaogirls",
        "jgName": "\u5934\u6761\u5973\u795e",
        "href": "http://d.duotuwang.com/2016/06/16/3303/",
        "count": 41,
        "start": 1,
        "hasMtTag": 1,
        "hasJgTag": 1,
        "mtCount": 1,
        "jgCount": 133
    },
    {
        "name": "[toutiaogirls]\u5934\u6761\u5973\u795e 2016-03-15 \u6735\u6735",
        "src": "http://d.duotuwang.com/2016/03/15/3300/0.jpg",
        "mtId": "320ced05955622a4",
        "mtName": "\u6735\u6735",
        "jgId": "toutiaogirls",
        "jgName": "\u5934\u6761\u5973\u795e",
        "href": "http://d.duotuwang.com/2016/03/15/3300/",
        "count": 34,
        "start": 1,
        "hasMtTag": 1,
        "hasJgTag": 1,
        "mtCount": 1,
        "jgCount": 133
    }
]