[
    {
        "name": "[UGirls]\u5c24\u679c\u7f51 U218 \u7231\u4e3d\u838e",
        "src": "http://d.duotuwang.com/2016/10/19/3227/0.jpg",
        "mtId": "64cbd864172732b1",
        "mtName": "\u7231\u4e3d\u838e",
        "jgId": "ugirls",
        "jgName": "\u5c24\u679c\u7f51",
        "href": "http://d.duotuwang.com/2016/10/19/3227/",
        "count": 66,
        "start": 1,
        "hasMtTag": 1,
        "hasJgTag": 1,
        "mtCount": 8,
        "jgCount": 79
    },
    {
        "name": "[UGirlsAPP]\u7231\u5c24\u7269 No.515 \u7231\u4e3d\u838e",
        "src": "http://d.duotuwang.com/2016/10/14/4841/0.jpg",
        "mtId": "64cbd864172732b1",
        "mtName": "\u7231\u4e3d\u838e",
        "jgId": "ugirlsapp",
        "jgName": "\u7231\u5c24\u7269",
        "href": "http://d.duotuwang.com/2016/10/14/4841/",
        "count": 40,
        "start": 1,
        "hasMtTag": 1,
        "hasJgTag": 1,
        "mtCount": 8,
        "jgCount": 397
    },
    {
        "name": "[toutiaogirls]\u5934\u6761\u5973\u795e 2016-10-02 \u7231\u4e3d\u838e",
        "src": "http://d.duotuwang.com/2016/10/02/3423/0.jpg",
        "mtId": "64cbd864172732b1",
        "mtName": "\u7231\u4e3d\u838e",
        "jgId": "toutiaogirls",
        "jgName": "\u5934\u6761\u5973\u795e",
        "href": "http://d.duotuwang.com/2016/10/02/3423/",
        "count": 23,
        "start": 1,
        "hasMtTag": 1,
        "hasJgTag": 1,
        "mtCount": 8,
        "jgCount": 133
    },
    {
        "name": "[toutiaogirls]\u5934\u6761\u5973\u795e 2016-09-25 \u7231\u4e3d\u838e",
        "src": "http://d.duotuwang.com/2016/09/25/3427/0.jpg",
        "mtId": "64cbd864172732b1",
        "mtName": "\u7231\u4e3d\u838e",
        "jgId": "toutiaogirls",
        "jgName": "\u5934\u6761\u5973\u795e",
        "href": "http://d.duotuwang.com/2016/09/25/3427/",
        "count": 30,
        "start": 1,
        "hasMtTag": 1,
        "hasJgTag": 1,
        "mtCount": 8,
        "jgCount": 133
    },
    {
        "name": "[MiiTao]\u871c\u6843\u793e VOL.001 \u7231\u4e3d\u838eLisa",
        "src": "http://d.duotuwang.com/2016/03/09/1280/0.jpg",
        "mtId": "64cbd864172732b1",
        "mtName": "\u7231\u4e3d\u838eLisa",
        "jgId": "miitao",
        "jgName": "\u871c\u6843\u793e",
        "href": "http://d.duotuwang.com/2016/03/09/1280/",
        "count": 81,
        "start": 1,
        "hasMtTag": 1,
        "hasJgTag": 1,
        "mtCount": 8,
        "jgCount": 25
    }
]