[
    {
        "name": "[XIUREN]\u79c0\u4eba\u7f51 No.557 \u5510\u96e8\u8fb0TYC",
        "src": "http://d.duotuwang.com/2016/07/12/1554/0.jpg",
        "mtId": "0d191a5700b76938",
        "mtName": "\u5510\u96e8\u8fb0TYC",
        "jgId": "xiuren",
        "jgName": "\u79c0\u4eba\u7f51",
        "href": "http://d.duotuwang.com/2016/07/12/1554/",
        "count": 69,
        "start": 1,
        "hasMtTag": 1,
        "hasJgTag": 1,
        "mtCount": 2,
        "jgCount": 750
    },
    {
        "name": "[XIUREN]\u79c0\u4eba\u7f51 No.510 \u5510\u96e8\u8fb0TYC",
        "src": "http://d.duotuwang.com/2016/04/17/1374/0.jpg",
        "mtId": "0d191a5700b76938",
        "mtName": "\u5510\u96e8\u8fb0TYC",
        "jgId": "xiuren",
        "jgName": "\u79c0\u4eba\u7f51",
        "href": "http://d.duotuwang.com/2016/04/17/1374/",
        "count": 58,
        "start": 1,
        "hasMtTag": 1,
        "hasJgTag": 1,
        "mtCount": 2,
        "jgCount": 750
    },
    {
        "name": "[XIUREN]\u79c0\u4eba\u7f51 No.467 \u5510\u96e8\u8fb0TYC",
        "src": "http://d.duotuwang.com/2016/01/23/1224/0.jpg",
        "mtId": "0d191a5700b76938",
        "mtName": "\u5510\u96e8\u8fb0TYC",
        "jgId": "xiuren",
        "jgName": "\u79c0\u4eba\u7f51",
        "href": "http://d.duotuwang.com/2016/01/23/1224/",
        "count": 57,
        "start": 1,
        "hasMtTag": 1,
        "hasJgTag": 1,
        "mtCount": 2,
        "jgCount": 750
    },
    {
        "name": "[XIUREN]\u79c0\u4eba\u7f51 No.412 \u5510\u96e8\u8fb0TYC",
        "src": "http://d.duotuwang.com/2015/10/29/1061/0.jpg",
        "mtId": "0d191a5700b76938",
        "mtName": "\u5510\u96e8\u8fb0TYC",
        "jgId": "xiuren",
        "jgName": "\u79c0\u4eba\u7f51",
        "href": "http://d.duotuwang.com/2015/10/29/1061/",
        "count": 50,
        "start": 1,
        "hasMtTag": 1,
        "hasJgTag": 1,
        "mtCount": 2,
        "jgCount": 750
    },
    {
        "name": "[XIUREN]\u79c0\u4eba\u7f51 No.405 \u5510\u96e8\u8fb0TYC",
        "src": "http://d.duotuwang.com/2015/10/12/1028/0.jpg",
        "mtId": "0d191a5700b76938",
        "mtName": "\u5510\u96e8\u8fb0TYC",
        "jgId": "xiuren",
        "jgName": "\u79c0\u4eba\u7f51",
        "href": "http://d.duotuwang.com/2015/10/12/1028/",
        "count": 66,
        "start": 1,
        "hasMtTag": 1,
        "hasJgTag": 1,
        "mtCount": 2,
        "jgCount": 750
    },
    {
        "name": "[XIUREN]\u79c0\u4eba\u7f51 No.400 \u5510\u96e8\u8fb0TYC",
        "src": "http://d.duotuwang.com/2015/10/06/1007/0.jpg",
        "mtId": "0d191a5700b76938",
        "mtName": "\u5510\u96e8\u8fb0TYC",
        "jgId": "xiuren",
        "jgName": "\u79c0\u4eba\u7f51",
        "href": "http://d.duotuwang.com/2015/10/06/1007/",
        "count": 55,
        "start": 1,
        "hasMtTag": 1,
        "hasJgTag": 1,
        "mtCount": 2,
        "jgCount": 750
    }
]