[
    {
        "name": "[XIUREN]\u79c0\u4eba\u7f51 No.4635 \u4e00\u9897\u751c\u86cb\u9ec4a",
        "src": "http://d.duotuwang.com/2022/02/24/28709/0.jpg",
        "mtId": "1e531aa4c2b8e6f7",
        "mtName": "\u4e00\u9897\u751c\u86cb\u9ec4a",
        "jgId": "xiuren",
        "jgName": "\u79c0\u4eba\u7f51",
        "href": "http://d.duotuwang.com/2022/02/24/28709/",
        "count": 64,
        "start": 1,
        "hasMtTag": 1,
        "hasJgTag": 1,
        "mtCount": 5,
        "jgCount": 750
    },
    {
        "name": "[XIUREN]\u79c0\u4eba\u7f51 No.4600 \u4e00\u9897\u751c\u86cb\u9ec4a",
        "src": "http://d.duotuwang.com/2022/02/17/28577/0.jpg",
        "mtId": "1e531aa4c2b8e6f7",
        "mtName": "\u4e00\u9897\u751c\u86cb\u9ec4a",
        "jgId": "xiuren",
        "jgName": "\u79c0\u4eba\u7f51",
        "href": "http://d.duotuwang.com/2022/02/17/28577/",
        "count": 62,
        "start": 1,
        "hasMtTag": 1,
        "hasJgTag": 1,
        "mtCount": 5,
        "jgCount": 750
    },
    {
        "name": "[XIUREN]\u79c0\u4eba\u7f51 No.4569 \u4e00\u9897\u751c\u86cb\u9ec4a",
        "src": "http://d.duotuwang.com/2022/02/10/28497/0.jpg",
        "mtId": "1e531aa4c2b8e6f7",
        "mtName": "\u4e00\u9897\u751c\u86cb\u9ec4a",
        "jgId": "xiuren",
        "jgName": "\u79c0\u4eba\u7f51",
        "href": "http://d.duotuwang.com/2022/02/10/28497/",
        "count": 67,
        "start": 1,
        "hasMtTag": 1,
        "hasJgTag": 1,
        "mtCount": 5,
        "jgCount": 750
    },
    {
        "name": "[XIUREN]\u79c0\u4eba\u7f51 No.4530 \u4e00\u9897\u751c\u86cb\u9ec4a",
        "src": "http://d.duotuwang.com/2022/01/28/28419/0.jpg",
        "mtId": "1e531aa4c2b8e6f7",
        "mtName": "\u4e00\u9897\u751c\u86cb\u9ec4a",
        "jgId": "xiuren",
        "jgName": "\u79c0\u4eba\u7f51",
        "href": "http://d.duotuwang.com/2022/01/28/28419/",
        "count": 81,
        "start": 1,
        "hasMtTag": 1,
        "hasJgTag": 1,
        "mtCount": 5,
        "jgCount": 750
    },
    {
        "name": "[XIUREN]\u79c0\u4eba\u7f51 No.4423 \u4e00\u9897\u751c\u86cb\u9ec4a",
        "src": "http://d.duotuwang.com/2022/01/05/28069/0.jpg",
        "mtId": "1e531aa4c2b8e6f7",
        "mtName": "\u4e00\u9897\u751c\u86cb\u9ec4a",
        "jgId": "xiuren",
        "jgName": "\u79c0\u4eba\u7f51",
        "href": "http://d.duotuwang.com/2022/01/05/28069/",
        "count": 74,
        "start": 1,
        "hasMtTag": 1,
        "hasJgTag": 1,
        "mtCount": 5,
        "jgCount": 750
    },
    {
        "name": "[XIUREN]\u79c0\u4eba\u7f51 No.4393 \u4e00\u9897\u751c\u86cb\u9ec4a",
        "src": "http://d.duotuwang.com/2021/12/28/27948/0.jpg",
        "mtId": "1e531aa4c2b8e6f7",
        "mtName": "\u4e00\u9897\u751c\u86cb\u9ec4a",
        "jgId": "xiuren",
        "jgName": "\u79c0\u4eba\u7f51",
        "href": "http://d.duotuwang.com/2021/12/28/27948/",
        "count": 81,
        "start": 1,
        "hasMtTag": 1,
        "hasJgTag": 1,
        "mtCount": 5,
        "jgCount": 750
    }
]