[
    {
        "name": "[XIUREN]\u79c0\u4eba\u7f51 No.3981 \u4e00\u9897\u751c\u86cb\u9ec4a",
        "src": "http://d.duotuwang.com/2021/09/23/26782/0.jpg",
        "mtId": "1e531aa4c2b8e6f7",
        "mtName": "\u4e00\u9897\u751c\u86cb\u9ec4a",
        "jgId": "xiuren",
        "jgName": "\u79c0\u4eba\u7f51",
        "href": "http://d.duotuwang.com/2021/09/23/26782/",
        "count": 57,
        "start": 58,
        "hasMtTag": 1,
        "hasJgTag": 1,
        "mtCount": 5,
        "jgCount": 750
    },
    {
        "name": "[MFStar]\u6a21\u8303\u5b66\u9662 VOL.532 \u4e00\u9897\u751c\u86cb\u9ec4a",
        "src": "http://d.duotuwang.com/2021/09/07/26514/0.jpg",
        "mtId": "1e531aa4c2b8e6f7",
        "mtName": "\u4e00\u9897\u751c\u86cb\u9ec4a",
        "jgId": "mfstar",
        "jgName": "\u6a21\u8303\u5b66\u9662",
        "href": "http://d.duotuwang.com/2021/09/07/26514/",
        "count": 56,
        "start": 1,
        "hasMtTag": 1,
        "hasJgTag": 1,
        "mtCount": 5,
        "jgCount": 94
    },
    {
        "name": "[MFStar]\u6a21\u8303\u5b66\u9662 VOL.530 \u4e00\u9897\u751c\u86cb\u9ec4a",
        "src": "http://d.duotuwang.com/2021/08/30/26348/0.jpg",
        "mtId": "1e531aa4c2b8e6f7",
        "mtName": "\u4e00\u9897\u751c\u86cb\u9ec4a",
        "jgId": "mfstar",
        "jgName": "\u6a21\u8303\u5b66\u9662",
        "href": "http://d.duotuwang.com/2021/08/30/26348/",
        "count": 50,
        "start": 1,
        "hasMtTag": 1,
        "hasJgTag": 1,
        "mtCount": 5,
        "jgCount": 94
    },
    {
        "name": "[MFStar]\u6a21\u8303\u5b66\u9662 VOL.528 \u4e00\u9897\u751c\u86cb\u9ec4a",
        "src": "http://d.duotuwang.com/2021/08/23/26246/0.jpg",
        "mtId": "1e531aa4c2b8e6f7",
        "mtName": "\u4e00\u9897\u751c\u86cb\u9ec4a",
        "jgId": "mfstar",
        "jgName": "\u6a21\u8303\u5b66\u9662",
        "href": "http://d.duotuwang.com/2021/08/23/26246/",
        "count": 50,
        "start": 1,
        "hasMtTag": 1,
        "hasJgTag": 1,
        "mtCount": 5,
        "jgCount": 94
    },
    {
        "name": "[MFStar]\u6a21\u8303\u5b66\u9662 VOL.526 \u4e00\u9897\u751c\u86cb\u9ec4a",
        "src": "http://d.duotuwang.com/2021/08/16/26244/0.jpg",
        "mtId": "1e531aa4c2b8e6f7",
        "mtName": "\u4e00\u9897\u751c\u86cb\u9ec4a",
        "jgId": "mfstar",
        "jgName": "\u6a21\u8303\u5b66\u9662",
        "href": "http://d.duotuwang.com/2021/08/16/26244/",
        "count": 50,
        "start": 1,
        "hasMtTag": 1,
        "hasJgTag": 1,
        "mtCount": 5,
        "jgCount": 94
    },
    {
        "name": "[MFStar]\u6a21\u8303\u5b66\u9662 VOL.523 \u4e00\u9897\u751c\u86cb\u9ec4a",
        "src": "http://d.duotuwang.com/2021/08/09/26079/0.jpg",
        "mtId": "1e531aa4c2b8e6f7",
        "mtName": "\u4e00\u9897\u751c\u86cb\u9ec4a",
        "jgId": "mfstar",
        "jgName": "\u6a21\u8303\u5b66\u9662",
        "href": "http://d.duotuwang.com/2021/08/09/26079/",
        "count": 45,
        "start": 1,
        "hasMtTag": 1,
        "hasJgTag": 1,
        "mtCount": 5,
        "jgCount": 94
    }
]