[
    {
        "name": "[IMISS]\u7231\u871c\u793e VOL.437 \u4e5d\u6708\u751f__",
        "src": "http://d.duotuwang.com/2020/01/21/19388/0.jpg",
        "mtId": "edbcdd7f8a1f1507",
        "mtName": "\u4e5d\u6708\u751f__",
        "jgId": "imiss",
        "jgName": "\u7231\u871c\u793e",
        "href": "http://d.duotuwang.com/2020/01/21/19388/",
        "count": 68,
        "start": 1,
        "hasMtTag": 1,
        "hasJgTag": 1,
        "mtCount": 10,
        "jgCount": 116
    },
    {
        "name": "[IMISS]\u7231\u871c\u793e VOL.435 \u4e5d\u6708\u751f__",
        "src": "http://d.duotuwang.com/2020/01/17/19381/0.jpg",
        "mtId": "edbcdd7f8a1f1507",
        "mtName": "\u4e5d\u6708\u751f__",
        "jgId": "imiss",
        "jgName": "\u7231\u871c\u793e",
        "href": "http://d.duotuwang.com/2020/01/17/19381/",
        "count": 60,
        "start": 1,
        "hasMtTag": 1,
        "hasJgTag": 1,
        "mtCount": 10,
        "jgCount": 116
    },
    {
        "name": "[IMISS]\u7231\u871c\u793e VOL.427 \u4e5d\u6708\u751f__",
        "src": "http://d.duotuwang.com/2020/01/02/19114/0.jpg",
        "mtId": "edbcdd7f8a1f1507",
        "mtName": "\u4e5d\u6708\u751f__",
        "jgId": "imiss",
        "jgName": "\u7231\u871c\u793e",
        "href": "http://d.duotuwang.com/2020/01/02/19114/",
        "count": 40,
        "start": 1,
        "hasMtTag": 1,
        "hasJgTag": 1,
        "mtCount": 10,
        "jgCount": 116
    },
    {
        "name": "[XIUREN]\u79c0\u4eba\u7f51 No.1896 \u4e5d\u6708\u751f__",
        "src": "http://d.duotuwang.com/2019/12/31/19125/0.jpg",
        "mtId": "edbcdd7f8a1f1507",
        "mtName": "\u4e5d\u6708\u751f__",
        "jgId": "xiuren",
        "jgName": "\u79c0\u4eba\u7f51",
        "href": "http://d.duotuwang.com/2019/12/31/19125/",
        "count": 35,
        "start": 1,
        "hasMtTag": 1,
        "hasJgTag": 1,
        "mtCount": 10,
        "jgCount": 750
    },
    {
        "name": "[IMISS]\u7231\u871c\u793e VOL.420 \u5c0f\u4e5d\u6708",
        "src": "http://d.duotuwang.com/2019/12/20/19024/0.jpg",
        "mtId": "edbcdd7f8a1f1507",
        "mtName": "\u5c0f\u4e5d\u6708",
        "jgId": "imiss",
        "jgName": "\u7231\u871c\u793e",
        "href": "http://d.duotuwang.com/2019/12/20/19024/",
        "count": 42,
        "start": 1,
        "hasMtTag": 1,
        "hasJgTag": 1,
        "mtCount": 10,
        "jgCount": 116
    },
    {
        "name": "[IMISS]\u7231\u871c\u793e VOL.417 \u5c0f\u4e5d\u6708",
        "src": "http://d.duotuwang.com/2019/12/13/18945/0.jpg",
        "mtId": "edbcdd7f8a1f1507",
        "mtName": "\u5c0f\u4e5d\u6708",
        "jgId": "imiss",
        "jgName": "\u7231\u871c\u793e",
        "href": "http://d.duotuwang.com/2019/12/13/18945/",
        "count": 48,
        "start": 1,
        "hasMtTag": 1,
        "hasJgTag": 1,
        "mtCount": 10,
        "jgCount": 116
    }
]