[
    {
        "name": "[XIUREN]\u79c0\u4eba\u7f51 No.2640 carry",
        "src": "http://d.duotuwang.com/2020/10/12/22754/0.jpg",
        "mtId": "eaba1ecd7edb60f2",
        "mtName": "carry",
        "jgId": "xiuren",
        "jgName": "\u79c0\u4eba\u7f51",
        "href": "http://d.duotuwang.com/2020/10/12/22754/",
        "count": 91,
        "start": 1,
        "hasMtTag": 1,
        "hasJgTag": 1,
        "mtCount": 9,
        "jgCount": 750
    },
    {
        "name": "[XIUREN]\u79c0\u4eba\u7f51 No.2599 carry",
        "src": "http://d.duotuwang.com/2020/09/24/22414/0.jpg",
        "mtId": "eaba1ecd7edb60f2",
        "mtName": "carry",
        "jgId": "xiuren",
        "jgName": "\u79c0\u4eba\u7f51",
        "href": "http://d.duotuwang.com/2020/09/24/22414/",
        "count": 82,
        "start": 1,
        "hasMtTag": 1,
        "hasJgTag": 1,
        "mtCount": 9,
        "jgCount": 750
    },
    {
        "name": "[XIAOYU]\u8bed\u753b\u754c VOL.365 Carry",
        "src": "http://d.duotuwang.com/2020/09/08/22031/0.jpg",
        "mtId": "eaba1ecd7edb60f2",
        "mtName": "Carry",
        "jgId": "xiaoyu",
        "jgName": "\u8bed\u753b\u754c",
        "href": "http://d.duotuwang.com/2020/09/08/22031/",
        "count": 80,
        "start": 1,
        "hasMtTag": 1,
        "hasJgTag": 1,
        "mtCount": 9,
        "jgCount": 155
    },
    {
        "name": "[XIAOYU]\u8bed\u753b\u754c VOL.352 Carry",
        "src": "http://d.duotuwang.com/2020/08/20/21660/0.jpg",
        "mtId": "eaba1ecd7edb60f2",
        "mtName": "Carry",
        "jgId": "xiaoyu",
        "jgName": "\u8bed\u753b\u754c",
        "href": "http://d.duotuwang.com/2020/08/20/21660/",
        "count": 66,
        "start": 1,
        "hasMtTag": 1,
        "hasJgTag": 1,
        "mtCount": 9,
        "jgCount": 155
    },
    {
        "name": "[XIAOYU]\u8bed\u753b\u754c VOL.347 Carry",
        "src": "http://d.duotuwang.com/2020/08/13/22109/0.jpg",
        "mtId": "eaba1ecd7edb60f2",
        "mtName": "Carry",
        "jgId": "xiaoyu",
        "jgName": "\u8bed\u753b\u754c",
        "href": "http://d.duotuwang.com/2020/08/13/22109/",
        "count": 81,
        "start": 1,
        "hasMtTag": 1,
        "hasJgTag": 1,
        "mtCount": 9,
        "jgCount": 155
    },
    {
        "name": "[XIAOYU]\u8bed\u753b\u754c VOL.315 Carry",
        "src": "http://d.duotuwang.com/2020/06/29/20992/0.jpg",
        "mtId": "eaba1ecd7edb60f2",
        "mtName": "Carry",
        "jgId": "xiaoyu",
        "jgName": "\u8bed\u753b\u754c",
        "href": "http://d.duotuwang.com/2020/06/29/20992/",
        "count": 75,
        "start": 1,
        "hasMtTag": 1,
        "hasJgTag": 1,
        "mtCount": 9,
        "jgCount": 155
    }
]