[
    {
        "name": "[XIAOYU]\u8bed\u753b\u754c VOL.202 Carry",
        "src": "http://d.duotuwang.com/2019/11/27/18720/0.jpg",
        "mtId": "eaba1ecd7edb60f2",
        "mtName": "Carry",
        "jgId": "xiaoyu",
        "jgName": "\u8bed\u753b\u754c",
        "href": "http://d.duotuwang.com/2019/11/27/18720/",
        "count": 86,
        "start": 1,
        "hasMtTag": 1,
        "hasJgTag": 1,
        "mtCount": 9,
        "jgCount": 155
    },
    {
        "name": "[XIAOYU]\u8bed\u753b\u754c VOL.196 Carry",
        "src": "http://d.duotuwang.com/2019/11/19/18625/0.jpg",
        "mtId": "eaba1ecd7edb60f2",
        "mtName": "Carry",
        "jgId": "xiaoyu",
        "jgName": "\u8bed\u753b\u754c",
        "href": "http://d.duotuwang.com/2019/11/19/18625/",
        "count": 84,
        "start": 1,
        "hasMtTag": 1,
        "hasJgTag": 1,
        "mtCount": 9,
        "jgCount": 155
    },
    {
        "name": "[XIAOYU]\u8bed\u753b\u754c VOL.190 Carry 2/2",
        "src": "http://d.duotuwang.com/2019/11/11/18683/0.jpg",
        "mtId": "eaba1ecd7edb60f2",
        "mtName": "Carry",
        "jgId": "xiaoyu",
        "jgName": "\u8bed\u753b\u754c",
        "href": "http://d.duotuwang.com/2019/11/11/18683/",
        "count": 52,
        "start": 61,
        "hasMtTag": 1,
        "hasJgTag": 1,
        "mtCount": 9,
        "jgCount": 155
    },
    {
        "name": "[XIAOYU]\u8bed\u753b\u754c VOL.190 Carry 1/2",
        "src": "http://d.duotuwang.com/2019/11/11/18561/0.jpg",
        "mtId": "eaba1ecd7edb60f2",
        "mtName": "Carry",
        "jgId": "xiaoyu",
        "jgName": "\u8bed\u753b\u754c",
        "href": "http://d.duotuwang.com/2019/11/11/18561/",
        "count": 60,
        "start": 1,
        "hasMtTag": 1,
        "hasJgTag": 1,
        "mtCount": 9,
        "jgCount": 155
    },
    {
        "name": "[IMISS]\u7231\u871c\u793e VOL.397 Carry",
        "src": "http://d.duotuwang.com/2019/11/07/18493/0.jpg",
        "mtId": "eaba1ecd7edb60f2",
        "mtName": "Carry",
        "jgId": "imiss",
        "jgName": "\u7231\u871c\u793e",
        "href": "http://d.duotuwang.com/2019/11/07/18493/",
        "count": 54,
        "start": 1,
        "hasMtTag": 1,
        "hasJgTag": 1,
        "mtCount": 9,
        "jgCount": 116
    },
    {
        "name": "[IMISS]\u7231\u871c\u793e VOL.386 pretty\u5973\u795e",
        "src": "http://d.duotuwang.com/2019/10/18/18282/0.jpg",
        "mtId": "eaba1ecd7edb60f2",
        "mtName": "Carry",
        "jgId": "imiss",
        "jgName": "\u7231\u871c\u793e",
        "href": "http://d.duotuwang.com/2019/10/18/18282/",
        "count": 54,
        "start": 1,
        "hasMtTag": 1,
        "hasJgTag": 1,
        "mtCount": 9,
        "jgCount": 116
    }
]