[
    {
        "name": "[IMISS]\u7231\u871c\u793e VOL.296 carry",
        "src": "http://d.duotuwang.com/2018/10/09/9771/0.jpg",
        "mtId": "eaba1ecd7edb60f2",
        "mtName": "carry",
        "jgId": "imiss",
        "jgName": "\u7231\u871c\u793e",
        "href": "http://d.duotuwang.com/2018/10/09/9771/",
        "count": 39,
        "start": 1,
        "hasMtTag": 1,
        "hasJgTag": 1,
        "mtCount": 9,
        "jgCount": 116
    },
    {
        "name": "[IMISS]\u7231\u871c\u793e VOL.223 carry",
        "src": "http://d.duotuwang.com/2018/03/22/8499/0.jpg",
        "mtId": "eaba1ecd7edb60f2",
        "mtName": "carry",
        "jgId": "imiss",
        "jgName": "\u7231\u871c\u793e",
        "href": "http://d.duotuwang.com/2018/03/22/8499/",
        "count": 44,
        "start": 1,
        "hasMtTag": 1,
        "hasJgTag": 1,
        "mtCount": 9,
        "jgCount": 116
    },
    {
        "name": "[IMISS]\u7231\u871c\u793e VOL.204 carry",
        "src": "http://d.duotuwang.com/2017/12/11/6663/0.jpg",
        "mtId": "eaba1ecd7edb60f2",
        "mtName": "carry",
        "jgId": "imiss",
        "jgName": "\u7231\u871c\u793e",
        "href": "http://d.duotuwang.com/2017/12/11/6663/",
        "count": 47,
        "start": 1,
        "hasMtTag": 1,
        "hasJgTag": 1,
        "mtCount": 9,
        "jgCount": 116
    },
    {
        "name": "[IMISS]\u7231\u871c\u793e VOL.198 carry",
        "src": "http://d.duotuwang.com/2017/11/14/6411/0.jpg",
        "mtId": "eaba1ecd7edb60f2",
        "mtName": "carry",
        "jgId": "imiss",
        "jgName": "\u7231\u871c\u793e",
        "href": "http://d.duotuwang.com/2017/11/14/6411/",
        "count": 54,
        "start": 1,
        "hasMtTag": 1,
        "hasJgTag": 1,
        "mtCount": 9,
        "jgCount": 116
    }
]