[
    {
        "name": "[Patreon] Eunji Pyoapple - Private 3/3",
        "src": "http://d.duotuwang.com/2021/06/13/29558/0.jpg",
        "mtId": "8317c1371925bd7b",
        "mtName": "Patreon",
        "href": "http://d.duotuwang.com/2021/06/13/29558/",
        "count": 66,
        "start": 1,
        "hasMtTag": 1,
        "hasJgTag": 0,
        "mtCount": 2
    },
    {
        "name": "[Patreon] Eunji Pyoapple - Private 2/3",
        "src": "http://d.duotuwang.com/2021/06/13/29555/0.jpg",
        "mtId": "8317c1371925bd7b",
        "mtName": "Patreon",
        "href": "http://d.duotuwang.com/2021/06/13/29555/",
        "count": 44,
        "start": 1,
        "hasMtTag": 1,
        "hasJgTag": 0,
        "mtCount": 2
    },
    {
        "name": "[Patreon] Eunji Pyoapple - Private 1/3",
        "src": "http://d.duotuwang.com/2021/06/13/29550/0.jpg",
        "mtId": "8317c1371925bd7b",
        "mtName": "Patreon",
        "href": "http://d.duotuwang.com/2021/06/13/29550/",
        "count": 51,
        "start": 1,
        "hasMtTag": 1,
        "hasJgTag": 0,
        "mtCount": 2
    }
]