[
    {
        "name": "[UGirlsAPP]\u7231\u5c24\u7269 No.2217 \u9a6c\u4e50\u4e50 \u4f60\u4e0e\u5fc3\u7684\u8ddd\u79bb",
        "src": "http://d.duotuwang.com/2021/11/17/27253/0.jpg",
        "mtId": "532449009243e87f",
        "mtName": "\u9a6c\u4e50\u4e50",
        "jgId": "ugirlsapp",
        "jgName": "\u7231\u5c24\u7269",
        "href": "http://d.duotuwang.com/2021/11/17/27253/",
        "count": 35,
        "start": 1,
        "hasMtTag": 1,
        "hasJgTag": 1,
        "mtCount": 1,
        "jgCount": 397
    },
    {
        "name": "[UGirlsAPP]\u7231\u5c24\u7269 No.1443 \u9a6c\u4e50\u4e50 \u53ea\u56e0\u4f60\u662f\u4f60",
        "src": "http://d.duotuwang.com/2019/05/02/16238/0.jpg",
        "mtId": "532449009243e87f",
        "mtName": "\u9a6c\u4e50\u4e50",
        "jgId": "ugirlsapp",
        "jgName": "\u7231\u5c24\u7269",
        "href": "http://d.duotuwang.com/2019/05/02/16238/",
        "count": 34,
        "start": 1,
        "hasMtTag": 1,
        "hasJgTag": 1,
        "mtCount": 1,
        "jgCount": 397
    }
]