[
    {
        "name": "[MFStar]\u6a21\u8303\u5b66\u9662 VOL.245 Betty\u6797\u5b50\u6b23",
        "src": "http://d.duotuwang.com/2019/12/26/19112/0.jpg",
        "mtId": "0b6f991f2ec0e943",
        "mtName": "Betty\u6797\u5b50\u6b23",
        "jgId": "mfstar",
        "jgName": "\u6a21\u8303\u5b66\u9662",
        "href": "http://d.duotuwang.com/2019/12/26/19112/",
        "count": 52,
        "start": 1,
        "hasMtTag": 1,
        "hasJgTag": 1,
        "mtCount": 7,
        "jgCount": 94
    },
    {
        "name": "[XIUREN]\u79c0\u4eba\u7f51 No.1867 Betty\u6797\u5b50\u6b23",
        "src": "http://d.duotuwang.com/2019/12/19/19029/0.jpg",
        "mtId": "0b6f991f2ec0e943",
        "mtName": "Betty\u6797\u5b50\u6b23",
        "jgId": "xiuren",
        "jgName": "\u79c0\u4eba\u7f51",
        "href": "http://d.duotuwang.com/2019/12/19/19029/",
        "count": 41,
        "start": 1,
        "hasMtTag": 1,
        "hasJgTag": 1,
        "mtCount": 7,
        "jgCount": 750
    },
    {
        "name": "[XIUREN]\u79c0\u4eba\u7f51 No.1847 Betty\u6797\u5b50\u6b23",
        "src": "http://d.duotuwang.com/2019/12/12/18952/0.jpg",
        "mtId": "0b6f991f2ec0e943",
        "mtName": "Betty\u6797\u5b50\u6b23",
        "jgId": "xiuren",
        "jgName": "\u79c0\u4eba\u7f51",
        "href": "http://d.duotuwang.com/2019/12/12/18952/",
        "count": 42,
        "start": 1,
        "hasMtTag": 1,
        "hasJgTag": 1,
        "mtCount": 7,
        "jgCount": 750
    },
    {
        "name": "[MFStar]\u6a21\u8303\u5b66\u9662 VOL.238 Betty\u6797\u5b50\u6b23",
        "src": "http://d.duotuwang.com/2019/12/05/18796/0.jpg",
        "mtId": "0b6f991f2ec0e943",
        "mtName": "Betty\u6797\u5b50\u6b23",
        "jgId": "mfstar",
        "jgName": "\u6a21\u8303\u5b66\u9662",
        "href": "http://d.duotuwang.com/2019/12/05/18796/",
        "count": 55,
        "start": 1,
        "hasMtTag": 1,
        "hasJgTag": 1,
        "mtCount": 7,
        "jgCount": 94
    },
    {
        "name": "[XIUREN]\u79c0\u4eba\u7f51 No.1811 Betty\u6797\u5b50\u6b23",
        "src": "http://d.duotuwang.com/2019/11/28/18710/0.jpg",
        "mtId": "0b6f991f2ec0e943",
        "mtName": "Betty\u6797\u5b50\u6b23",
        "jgId": "xiuren",
        "jgName": "\u79c0\u4eba\u7f51",
        "href": "http://d.duotuwang.com/2019/11/28/18710/",
        "count": 60,
        "start": 1,
        "hasMtTag": 1,
        "hasJgTag": 1,
        "mtCount": 7,
        "jgCount": 750
    },
    {
        "name": "[MFStar]\u6a21\u8303\u5b66\u9662 VOL.230 Betty\u6797\u5b50\u6b23",
        "src": "http://d.duotuwang.com/2019/11/19/18623/0.jpg",
        "mtId": "0b6f991f2ec0e943",
        "mtName": "Betty\u6797\u5b50\u6b23",
        "jgId": "mfstar",
        "jgName": "\u6a21\u8303\u5b66\u9662",
        "href": "http://d.duotuwang.com/2019/11/19/18623/",
        "count": 62,
        "start": 1,
        "hasMtTag": 1,
        "hasJgTag": 1,
        "mtCount": 7,
        "jgCount": 94
    }
]