[
    {
        "name": "[MFStar]\u6a21\u8303\u5b66\u9662 VOL.228 Betty\u6797\u5b50\u6b23",
        "src": "http://d.duotuwang.com/2019/11/11/18559/0.jpg",
        "mtId": "0b6f991f2ec0e943",
        "mtName": "Betty\u6797\u5b50\u6b23",
        "jgId": "mfstar",
        "jgName": "\u6a21\u8303\u5b66\u9662",
        "href": "http://d.duotuwang.com/2019/11/11/18559/",
        "count": 57,
        "start": 1,
        "hasMtTag": 1,
        "hasJgTag": 1,
        "mtCount": 7,
        "jgCount": 94
    },
    {
        "name": "[MFStar]\u6a21\u8303\u5b66\u9662 VOL.226 Betty\u6797\u5b50\u6b23",
        "src": "http://d.duotuwang.com/2019/11/04/18483/0.jpg",
        "mtId": "0b6f991f2ec0e943",
        "mtName": "Betty\u6797\u5b50\u6b23",
        "jgId": "mfstar",
        "jgName": "\u6a21\u8303\u5b66\u9662",
        "href": "http://d.duotuwang.com/2019/11/04/18483/",
        "count": 45,
        "start": 1,
        "hasMtTag": 1,
        "hasJgTag": 1,
        "mtCount": 7,
        "jgCount": 94
    },
    {
        "name": "[MFStar]\u6a21\u8303\u5b66\u9662 VOL.222 Betty\u6797\u5b50\u6b23",
        "src": "http://d.duotuwang.com/2019/10/21/18327/0.jpg",
        "mtId": "0b6f991f2ec0e943",
        "mtName": "Betty\u6797\u5b50\u6b23",
        "jgId": "mfstar",
        "jgName": "\u6a21\u8303\u5b66\u9662",
        "href": "http://d.duotuwang.com/2019/10/21/18327/",
        "count": 53,
        "start": 1,
        "hasMtTag": 1,
        "hasJgTag": 1,
        "mtCount": 7,
        "jgCount": 94
    },
    {
        "name": "[XIUREN]\u79c0\u4eba\u7f51 No.1735 Betty\u6797\u5b50\u6b23",
        "src": "http://d.duotuwang.com/2019/10/17/18290/0.jpg",
        "mtId": "0b6f991f2ec0e943",
        "mtName": "Betty\u6797\u5b50\u6b23",
        "jgId": "xiuren",
        "jgName": "\u79c0\u4eba\u7f51",
        "href": "http://d.duotuwang.com/2019/10/17/18290/",
        "count": 40,
        "start": 1,
        "hasMtTag": 1,
        "hasJgTag": 1,
        "mtCount": 7,
        "jgCount": 750
    },
    {
        "name": "[MFStar]\u6a21\u8303\u5b66\u9662 VOL.219 Betty\u6797\u5b50\u6b23",
        "src": "http://d.duotuwang.com/2019/10/11/18197/0.jpg",
        "mtId": "0b6f991f2ec0e943",
        "mtName": "Betty\u6797\u5b50\u6b23",
        "jgId": "mfstar",
        "jgName": "\u6a21\u8303\u5b66\u9662",
        "href": "http://d.duotuwang.com/2019/10/11/18197/",
        "count": 55,
        "start": 1,
        "hasMtTag": 1,
        "hasJgTag": 1,
        "mtCount": 7,
        "jgCount": 94
    },
    {
        "name": "[MFStar]\u6a21\u8303\u5b66\u9662 VOL.215 Betty\u6797\u5b50\u6b23",
        "src": "http://d.duotuwang.com/2019/09/26/18081/0.jpg",
        "mtId": "0b6f991f2ec0e943",
        "mtName": "Betty\u6797\u5b50\u6b23",
        "jgId": "mfstar",
        "jgName": "\u6a21\u8303\u5b66\u9662",
        "href": "http://d.duotuwang.com/2019/09/26/18081/",
        "count": 64,
        "start": 1,
        "hasMtTag": 1,
        "hasJgTag": 1,
        "mtCount": 7,
        "jgCount": 94
    }
]