[
    {
        "name": "[MFStar]\u6a21\u8303\u5b66\u9662 VOL.208 Betty\u6797\u5b50\u6b23",
        "src": "http://d.duotuwang.com/2019/08/15/17685/0.jpg",
        "mtId": "0b6f991f2ec0e943",
        "mtName": "Betty\u6797\u5b50\u6b23",
        "jgId": "mfstar",
        "jgName": "\u6a21\u8303\u5b66\u9662",
        "href": "http://d.duotuwang.com/2019/08/15/17685/",
        "count": 43,
        "start": 1,
        "hasMtTag": 1,
        "hasJgTag": 1,
        "mtCount": 8,
        "jgCount": 94
    }
]