[
    {
        "name": "[YALAYI]\u96c5\u62c9\u4f0a Y728 \u5de6\u6728&\u68a6\u6db5 \u53e6\u4e00\u4e2a\u6211",
        "src": "http://d.duotuwang.com/2020/11/20/23170/0.jpg",
        "mtId": "e0cb9f4e93e76ad8",
        "mtName": "\u68a6\u6db5",
        "jgId": "yalayi",
        "jgName": "\u96c5\u62c9\u4f0a",
        "href": "http://d.duotuwang.com/2020/11/20/23170/",
        "count": 59,
        "start": 1,
        "hasMtTag": 1,
        "hasJgTag": 1,
        "mtCount": 1,
        "jgCount": 156
    },
    {
        "name": "[YALAYI]\u96c5\u62c9\u4f0a Y712 \u68a6\u6db5 \u98ce\u7ee7\u7eed\u5439",
        "src": "http://d.duotuwang.com/2020/10/12/22806/0.jpg",
        "mtId": "e0cb9f4e93e76ad8",
        "mtName": "\u68a6\u6db5",
        "jgId": "yalayi",
        "jgName": "\u96c5\u62c9\u4f0a",
        "href": "http://d.duotuwang.com/2020/10/12/22806/",
        "count": 46,
        "start": 1,
        "hasMtTag": 1,
        "hasJgTag": 1,
        "mtCount": 1,
        "jgCount": 156
    },
    {
        "name": "[YALAYI]\u96c5\u62c9\u4f0a Y703 \u68a6\u6db5 \u90a3\u65f6\u5728\u5348\u540e",
        "src": "http://d.duotuwang.com/2020/09/16/22081/0.jpg",
        "mtId": "e0cb9f4e93e76ad8",
        "mtName": "\u68a6\u6db5",
        "jgId": "yalayi",
        "jgName": "\u96c5\u62c9\u4f0a",
        "href": "http://d.duotuwang.com/2020/09/16/22081/",
        "count": 39,
        "start": 1,
        "hasMtTag": 1,
        "hasJgTag": 1,
        "mtCount": 1,
        "jgCount": 156
    },
    {
        "name": "[toutiaogirls]\u5934\u6761\u5973\u795e 2018-07-25 \u68a6\u6db5\u70df\u96e8\u4eac\u90caVIP\u7248\u672c",
        "src": "http://d.duotuwang.com/2018/07/25/9402/0.jpg",
        "mtId": "e0cb9f4e93e76ad8",
        "mtName": "\u68a6\u6db5",
        "jgId": "toutiaogirls",
        "jgName": "\u5934\u6761\u5973\u795e",
        "href": "http://d.duotuwang.com/2018/07/25/9402/",
        "count": 42,
        "start": 1,
        "hasMtTag": 1,
        "hasJgTag": 1,
        "mtCount": 1,
        "jgCount": 133
    },
    {
        "name": "[toutiaogirls]\u5934\u6761\u5973\u795e 2018-07-25 \u68a6\u6db5\u70df\u96e8\u4eac\u90ca\u666e\u901a\u7248",
        "src": "http://d.duotuwang.com/2018/07/25/9401/0.jpg",
        "mtId": "e0cb9f4e93e76ad8",
        "mtName": "\u68a6\u6db5",
        "jgId": "toutiaogirls",
        "jgName": "\u5934\u6761\u5973\u795e",
        "href": "http://d.duotuwang.com/2018/07/25/9401/",
        "count": 23,
        "start": 1,
        "hasMtTag": 1,
        "hasJgTag": 1,
        "mtCount": 1,
        "jgCount": 133
    }
]