[
    {
        "name": "[XIUREN]\u79c0\u4eba\u7f51 No.5224 \u8bb8\u5609\u6b23",
        "src": "http://d.duotuwang.com/2022/07/04/30447/0.jpg",
        "mtId": "379a11ed57b298f7",
        "mtName": "\u8bb8\u5609\u6b23",
        "jgId": "xiuren",
        "jgName": "\u79c0\u4eba\u7f51",
        "href": "http://d.duotuwang.com/2022/07/04/30447/",
        "count": 66,
        "start": 1,
        "hasMtTag": 1,
        "hasJgTag": 1,
        "mtCount": 1,
        "jgCount": 750
    },
    {
        "name": "[XIUREN]\u79c0\u4eba\u7f51 No.5098 \u8bb8\u5609\u6b23",
        "src": "http://d.duotuwang.com/2022/06/02/30086/0.jpg",
        "mtId": "379a11ed57b298f7",
        "mtName": "\u8bb8\u5609\u6b23",
        "jgId": "xiuren",
        "jgName": "\u79c0\u4eba\u7f51",
        "href": "http://d.duotuwang.com/2022/06/02/30086/",
        "count": 66,
        "start": 1,
        "hasMtTag": 1,
        "hasJgTag": 1,
        "mtCount": 1,
        "jgCount": 750
    },
    {
        "name": "[XIUREN]\u79c0\u4eba\u7f51 No.5049 \u8bb8\u5609\u6b23",
        "src": "http://d.duotuwang.com/2022/05/24/29929/0.jpg",
        "mtId": "379a11ed57b298f7",
        "mtName": "\u8bb8\u5609\u6b23",
        "jgId": "xiuren",
        "jgName": "\u79c0\u4eba\u7f51",
        "href": "http://d.duotuwang.com/2022/05/24/29929/",
        "count": 63,
        "start": 1,
        "hasMtTag": 1,
        "hasJgTag": 1,
        "mtCount": 1,
        "jgCount": 750
    }
]