{
    "name": "\u6697\u591c\u884c\u8005",
    "zy": "\u674e\u6613\u5cf0,\u5b8b\u8f76,\u51af\u5fb7\u4f26,\u5bab\u6d77\u6ee8,\u5b8b\u5955\u661f,\u53e4\u658c,\u90ed\u4e1c\u6587,\u5bbf\u5317\u5bb8,\u674e\u7949\u9ed8,\u738b\u633a,\u5b89\u5b50\u6768,\u536b\u6653\u5149",
    "year": "2022",
    "jiList": [
        {
            "name": "\u7b2c01\u96c6",
            "url": "https://new.iskcd.com/20220522/E3VvxT3C/index.m3u8"
        },
        {
            "name": "\u7b2c02\u96c6",
            "url": "https://new.iskcd.com/20220522/uvWBXPKy/index.m3u8"
        },
        {
            "name": "\u7b2c03\u96c6",
            "url": "https://new.iskcd.com/20220522/MlLFlufY/index.m3u8"
        },
        {
            "name": "\u7b2c04\u96c6",
            "url": "https://new.iskcd.com/20220522/hbf2iAOT/index.m3u8"
        },
        {
            "name": "\u7b2c05\u96c6",
            "url": "https://new.iskcd.com/20220522/nD1gbdUY/index.m3u8"
        },
        {
            "name": "\u7b2c06\u96c6",
            "url": "https://new.iskcd.com/20220522/qcBlkxPz/index.m3u8"
        },
        {
            "name": "\u7b2c07\u96c6",
            "url": "https://new.iskcd.com/20220523/UnDENBqL/index.m3u8"
        },
        {
            "name": "\u7b2c08\u96c6",
            "url": "https://new.iskcd.com/20220523/XZsnx6F1/index.m3u8"
        }
    ]
}