[
    {
        "name": "[SLADY]\u730e\u5973\u795e No.1 \u59ae\u5c0f\u5996",
        "src": "http://d.duotuwang.com/2017/05/25/8530/0.jpg",
        "mtId": "a54d8f09b1be067f",
        "mtName": "\u59ae\u5c0f\u5996",
        "jgId": "slady",
        "jgName": "\u730e\u5973\u795e",
        "href": "http://d.duotuwang.com/2017/05/25/8530/",
        "count": 60,
        "start": 1,
        "hasMtTag": 1,
        "hasJgTag": 1,
        "mtCount": 3,
        "jgCount": 4
    }
]