[
    {
        "name": "[UGirlsAPP]\u7231\u5c24\u7269 NO.090 \u82cf\u7cef\u7c73",
        "src": "http://d.duotuwang.com/2015/08/14/4459/0.jpg",
        "mtId": "8e1946b436b4ee40",
        "mtName": "\u82cf\u7cef\u7c73",
        "jgId": "ugirlsapp",
        "jgName": "\u7231\u5c24\u7269",
        "href": "http://d.duotuwang.com/2015/08/14/4459/",
        "count": 40,
        "start": 1,
        "hasMtTag": 1,
        "hasJgTag": 1,
        "mtCount": 3,
        "jgCount": 397
    },
    {
        "name": "[UGirls]\u5c24\u679c\u7f51 U111 \u7c73\u59ae\uff08\u82cf\u7cef\u7c73\uff09",
        "src": "http://d.duotuwang.com/2015/08/14/3123/0.jpg",
        "mtId": "8e1946b436b4ee40",
        "mtName": "\u82cf\u7cef\u7c73",
        "jgId": "ugirls",
        "jgName": "\u5c24\u679c\u7f51",
        "href": "http://d.duotuwang.com/2015/08/14/3123/",
        "count": 65,
        "start": 1,
        "hasMtTag": 1,
        "hasJgTag": 1,
        "mtCount": 3,
        "jgCount": 79
    },
    {
        "name": "[TGod]\u63a8\u5973\u795e 2015-08-06 \u7c73\u59aemini",
        "src": "http://d.duotuwang.com/2015/08/06/2367/0.jpg",
        "mtId": "8e1946b436b4ee40",
        "mtName": "\u7c73\u59aemini",
        "jgId": "tgod",
        "jgName": "\u63a8\u5973\u795e",
        "href": "http://d.duotuwang.com/2015/08/06/2367/",
        "count": 43,
        "start": 1,
        "hasMtTag": 1,
        "hasJgTag": 1,
        "mtCount": 3,
        "jgCount": 78
    },
    {
        "name": "[TGod]\u63a8\u5973\u795e 2015-07-10 \u7c73\u59aemini",
        "src": "http://d.duotuwang.com/2015/07/10/2337/0.jpg",
        "mtId": "8e1946b436b4ee40",
        "mtName": "\u7c73\u59aemini",
        "jgId": "tgod",
        "jgName": "\u63a8\u5973\u795e",
        "href": "http://d.duotuwang.com/2015/07/10/2337/",
        "count": 41,
        "start": 1,
        "hasMtTag": 1,
        "hasJgTag": 1,
        "mtCount": 3,
        "jgCount": 78
    },
    {
        "name": "[UGirlsAPP]\u7231\u5c24\u7269 NO.025 \u82cf\u7cef\u7c73",
        "src": "http://d.duotuwang.com/2015/06/12/4383/0.jpg",
        "mtId": "8e1946b436b4ee40",
        "mtName": "\u82cf\u7cef\u7c73",
        "jgId": "ugirlsapp",
        "jgName": "\u7231\u5c24\u7269",
        "href": "http://d.duotuwang.com/2015/06/12/4383/",
        "count": 40,
        "start": 1,
        "hasMtTag": 1,
        "hasJgTag": 1,
        "mtCount": 3,
        "jgCount": 397
    },
    {
        "name": "[UGirls]\u5c24\u679c\u7f51 U082 \u7ae5\u989c\u5de8\u4e73\u7c73\u59ae",
        "src": "http://d.duotuwang.com/2015/05/01/3092/0.jpg",
        "mtId": "8e1946b436b4ee40",
        "mtName": "\u82cf\u7cef\u7c73",
        "jgId": "ugirls",
        "jgName": "\u5c24\u679c\u7f51",
        "href": "http://d.duotuwang.com/2015/05/01/3092/",
        "count": 66,
        "start": 1,
        "hasMtTag": 1,
        "hasJgTag": 1,
        "mtCount": 3,
        "jgCount": 79
    }
]