[
    {
        "name": "[XIUREN]\u79c0\u4eba\u7f51 No.4029 \u6069\u4e00",
        "src": "http://d.duotuwang.com/2021/10/08/26920/0.jpg",
        "mtId": "bb2872fbcc8a8245",
        "mtName": "\u6069\u4e00",
        "jgId": "xiuren",
        "jgName": "\u79c0\u4eba\u7f51",
        "href": "http://d.duotuwang.com/2021/10/08/26920/",
        "count": 50,
        "start": 1,
        "hasMtTag": 1,
        "hasJgTag": 1,
        "mtCount": 2,
        "jgCount": 750
    },
    {
        "name": "[MiStar]\u9b45\u598d\u793e VOL.311 \u6069\u4e00",
        "src": "http://d.duotuwang.com/2019/10/25/18355/0.jpg",
        "mtId": "bb2872fbcc8a8245",
        "mtName": "\u6069\u4e00",
        "jgId": "mistar",
        "jgName": "\u9b45\u598d\u793e",
        "href": "http://d.duotuwang.com/2019/10/25/18355/",
        "count": 40,
        "start": 1,
        "hasMtTag": 1,
        "hasJgTag": 1,
        "mtCount": 2,
        "jgCount": 55
    },
    {
        "name": "[IMISS]\u7231\u871c\u793e VOL.335 \u6069\u4e00",
        "src": "http://d.duotuwang.com/2019/03/28/14709/0.jpg",
        "mtId": "bb2872fbcc8a8245",
        "mtName": "\u6069\u4e00",
        "jgId": "imiss",
        "jgName": "\u7231\u871c\u793e",
        "href": "http://d.duotuwang.com/2019/03/28/14709/",
        "count": 32,
        "start": 1,
        "hasMtTag": 1,
        "hasJgTag": 1,
        "mtCount": 2,
        "jgCount": 116
    },
    {
        "name": "[XINGYAN]\u661f\u989c\u793e VOL.108 \u6069\u4e00",
        "src": "http://d.duotuwang.com/2019/01/25/10393/0.jpg",
        "mtId": "bb2872fbcc8a8245",
        "mtName": "\u6069\u4e00",
        "jgId": "xingyan",
        "jgName": "\u661f\u989c\u793e",
        "href": "http://d.duotuwang.com/2019/01/25/10393/",
        "count": 45,
        "start": 1,
        "hasMtTag": 1,
        "hasJgTag": 1,
        "mtCount": 2,
        "jgCount": 25
    },
    {
        "name": "[XINGYAN]\u661f\u989c\u793e VOL.106 \u6069\u4e00",
        "src": "http://d.duotuwang.com/2018/12/28/10237/0.jpg",
        "mtId": "bb2872fbcc8a8245",
        "mtName": "\u6069\u4e00",
        "jgId": "xingyan",
        "jgName": "\u661f\u989c\u793e",
        "href": "http://d.duotuwang.com/2018/12/28/10237/",
        "count": 45,
        "start": 1,
        "hasMtTag": 1,
        "hasJgTag": 1,
        "mtCount": 2,
        "jgCount": 25
    },
    {
        "name": "[IMISS]\u7231\u871c\u793e VOL.298 \u6069\u4e00",
        "src": "http://d.duotuwang.com/2018/10/15/9807/0.jpg",
        "mtId": "bb2872fbcc8a8245",
        "mtName": "\u6069\u4e00",
        "jgId": "imiss",
        "jgName": "\u7231\u871c\u793e",
        "href": "http://d.duotuwang.com/2018/10/15/9807/",
        "count": 35,
        "start": 1,
        "hasMtTag": 1,
        "hasJgTag": 1,
        "mtCount": 2,
        "jgCount": 116
    }
]