[
    {
        "name": "[XIUREN]\u79c0\u4eba\u7f51 No.1615 \u5f90\u5fae\u5faemia",
        "src": "http://d.duotuwang.com/2019/08/13/17671/0.jpg",
        "mtId": "b676514ad570d0d2",
        "mtName": "\u5f90\u5fae\u5faemia",
        "jgId": "xiuren",
        "jgName": "\u79c0\u4eba\u7f51",
        "href": "http://d.duotuwang.com/2019/08/13/17671/",
        "count": 64,
        "start": 1,
        "hasMtTag": 1,
        "hasJgTag": 1,
        "mtCount": 8,
        "jgCount": 750
    },
    {
        "name": "[XIUREN]\u79c0\u4eba\u7f51 No.1586 \u5f90\u5fae\u5faemia",
        "src": "http://d.duotuwang.com/2019/07/31/17518/0.jpg",
        "mtId": "b676514ad570d0d2",
        "mtName": "\u5f90\u5fae\u5faemia",
        "jgId": "xiuren",
        "jgName": "\u79c0\u4eba\u7f51",
        "href": "http://d.duotuwang.com/2019/07/31/17518/",
        "count": 92,
        "start": 1,
        "hasMtTag": 1,
        "hasJgTag": 1,
        "mtCount": 8,
        "jgCount": 750
    },
    {
        "name": "[XIUREN]\u79c0\u4eba\u7f51 No.1545 \u5f90\u5fae\u5faemia",
        "src": "http://d.duotuwang.com/2019/07/11/17129/0.jpg",
        "mtId": "b676514ad570d0d2",
        "mtName": "\u5f90\u5fae\u5faemia",
        "jgId": "xiuren",
        "jgName": "\u79c0\u4eba\u7f51",
        "href": "http://d.duotuwang.com/2019/07/11/17129/",
        "count": 56,
        "start": 1,
        "hasMtTag": 1,
        "hasJgTag": 1,
        "mtCount": 8,
        "jgCount": 750
    },
    {
        "name": "[XIUREN]\u79c0\u4eba\u7f51 No.1518 \u5f90\u5fae\u5faemia",
        "src": "http://d.duotuwang.com/2019/06/26/16942/0.jpg",
        "mtId": "b676514ad570d0d2",
        "mtName": "\u5f90\u5fae\u5faemia",
        "jgId": "xiuren",
        "jgName": "\u79c0\u4eba\u7f51",
        "href": "http://d.duotuwang.com/2019/06/26/16942/",
        "count": 52,
        "start": 1,
        "hasMtTag": 1,
        "hasJgTag": 1,
        "mtCount": 8,
        "jgCount": 750
    },
    {
        "name": "[XIUREN]\u79c0\u4eba\u7f51 No.1504 \u5f90\u5fae\u5faemia",
        "src": "http://d.duotuwang.com/2019/06/19/16875/0.jpg",
        "mtId": "b676514ad570d0d2",
        "mtName": "\u5f90\u5fae\u5faemia",
        "jgId": "xiuren",
        "jgName": "\u79c0\u4eba\u7f51",
        "href": "http://d.duotuwang.com/2019/06/19/16875/",
        "count": 50,
        "start": 1,
        "hasMtTag": 1,
        "hasJgTag": 1,
        "mtCount": 8,
        "jgCount": 750
    },
    {
        "name": "[XIUREN]\u79c0\u4eba\u7f51 No.1495 \u5f90\u5fae\u5faemia",
        "src": "http://d.duotuwang.com/2019/06/13/16808/0.jpg",
        "mtId": "b676514ad570d0d2",
        "mtName": "\u5f90\u5fae\u5faemia",
        "jgId": "xiuren",
        "jgName": "\u79c0\u4eba\u7f51",
        "href": "http://d.duotuwang.com/2019/06/13/16808/",
        "count": 45,
        "start": 1,
        "hasMtTag": 1,
        "hasJgTag": 1,
        "mtCount": 8,
        "jgCount": 750
    }
]