[
    {
        "name": "[XIUREN]\u79c0\u4eba\u7f51 No.2544 \u84dd\u590fAkasha",
        "src": "http://d.duotuwang.com/2020/09/09/22117/0.jpg",
        "mtId": "d904b8d6ef81d6f9",
        "mtName": "\u84dd\u590fAkasha",
        "jgId": "xiuren",
        "jgName": "\u79c0\u4eba\u7f51",
        "href": "http://d.duotuwang.com/2020/09/09/22117/",
        "count": 49,
        "start": 1,
        "hasMtTag": 1,
        "hasJgTag": 1,
        "mtCount": 9,
        "jgCount": 750
    },
    {
        "name": "[XIUREN]\u79c0\u4eba\u7f51 No.2426 \u84dd\u590fAkasha",
        "src": "http://d.duotuwang.com/2020/08/11/21847/0.jpg",
        "mtId": "d904b8d6ef81d6f9",
        "mtName": "\u84dd\u590fAkasha",
        "jgId": "xiuren",
        "jgName": "\u79c0\u4eba\u7f51",
        "href": "http://d.duotuwang.com/2020/08/11/21847/",
        "count": 46,
        "start": 1,
        "hasMtTag": 1,
        "hasJgTag": 1,
        "mtCount": 9,
        "jgCount": 750
    },
    {
        "name": "[XIAOYU]\u8bed\u753b\u754c VOL.302 \u84dd\u590fAkasha 2/2",
        "src": "http://d.duotuwang.com/2020/05/05/20598/0.jpg",
        "mtId": "d904b8d6ef81d6f9",
        "mtName": "\u84dd\u590fAkasha",
        "jgId": "xiaoyu",
        "jgName": "\u8bed\u753b\u754c",
        "href": "http://d.duotuwang.com/2020/05/05/20598/",
        "count": 92,
        "start": 1,
        "hasMtTag": 1,
        "hasJgTag": 1,
        "mtCount": 9,
        "jgCount": 155
    },
    {
        "name": "[XIAOYU]\u8bed\u753b\u754c VOL.302 \u84dd\u590fAkasha 1/2",
        "src": "http://d.duotuwang.com/2020/05/05/20475/0.jpg",
        "mtId": "d904b8d6ef81d6f9",
        "mtName": "\u84dd\u590fAkasha",
        "jgId": "xiaoyu",
        "jgName": "\u8bed\u753b\u754c",
        "href": "http://d.duotuwang.com/2020/05/05/20475/",
        "count": 55,
        "start": 1,
        "hasMtTag": 1,
        "hasJgTag": 1,
        "mtCount": 9,
        "jgCount": 155
    },
    {
        "name": "[XIUREN]\u79c0\u4eba\u7f51 No.2187 \u84dd\u590fAkasha",
        "src": "http://d.duotuwang.com/2020/04/24/20404/0.jpg",
        "mtId": "d904b8d6ef81d6f9",
        "mtName": "\u84dd\u590fAkasha",
        "jgId": "xiuren",
        "jgName": "\u79c0\u4eba\u7f51",
        "href": "http://d.duotuwang.com/2020/04/24/20404/",
        "count": 44,
        "start": 1,
        "hasMtTag": 1,
        "hasJgTag": 1,
        "mtCount": 9,
        "jgCount": 750
    },
    {
        "name": "[XIAOYU]\u8bed\u753b\u754c VOL.292 \u84dd\u590fAkasha",
        "src": "http://d.duotuwang.com/2020/04/20/20316/0.jpg",
        "mtId": "d904b8d6ef81d6f9",
        "mtName": "\u84dd\u590fAkasha",
        "jgId": "xiaoyu",
        "jgName": "\u8bed\u753b\u754c",
        "href": "http://d.duotuwang.com/2020/04/20/20316/",
        "count": 64,
        "start": 1,
        "hasMtTag": 1,
        "hasJgTag": 1,
        "mtCount": 9,
        "jgCount": 155
    }
]