[
    {
        "name": "[XIUREN]\u79c0\u4eba\u7f51 No.1604 \u84dd\u590fAkasha",
        "src": "http://d.duotuwang.com/2019/08/07/17615/0.jpg",
        "mtId": "d904b8d6ef81d6f9",
        "mtName": "\u84dd\u590fAkasha",
        "jgId": "xiuren",
        "jgName": "\u79c0\u4eba\u7f51",
        "href": "http://d.duotuwang.com/2019/08/07/17615/",
        "count": 61,
        "start": 1,
        "hasMtTag": 1,
        "hasJgTag": 1,
        "mtCount": 9,
        "jgCount": 750
    },
    {
        "name": "[XIUREN]\u79c0\u4eba\u7f51 No.1568 \u827a\u857e",
        "src": "http://d.duotuwang.com/2019/07/23/17254/0.jpg",
        "mtId": "d904b8d6ef81d6f9",
        "mtName": "\u827a\u857e",
        "jgId": "xiuren",
        "jgName": "\u79c0\u4eba\u7f51",
        "href": "http://d.duotuwang.com/2019/07/23/17254/",
        "count": 78,
        "start": 1,
        "hasMtTag": 1,
        "hasJgTag": 1,
        "mtCount": 9,
        "jgCount": 750
    },
    {
        "name": "[HuaYan]\u82b1\u306e\u989c VOL.042 \u827a\u857e",
        "src": "http://d.duotuwang.com/2017/07/16/5258/0.jpg",
        "mtId": "d904b8d6ef81d6f9",
        "mtName": "\u827a\u857e",
        "jgId": "huayan",
        "jgName": "\u82b1\u306e\u989c",
        "href": "http://d.duotuwang.com/2017/07/16/5258/",
        "count": 47,
        "start": 1,
        "hasMtTag": 1,
        "hasJgTag": 1,
        "mtCount": 9,
        "jgCount": 13
    },
    {
        "name": "[HuaYan]\u82b1\u306e\u989c VOL.035 \u827a\u857e",
        "src": "http://d.duotuwang.com/2017/04/18/3756/0.jpg",
        "mtId": "d904b8d6ef81d6f9",
        "mtName": "\u827a\u857e",
        "jgId": "huayan",
        "jgName": "\u82b1\u306e\u989c",
        "href": "http://d.duotuwang.com/2017/04/18/3756/",
        "count": 43,
        "start": 1,
        "hasMtTag": 1,
        "hasJgTag": 1,
        "mtCount": 9,
        "jgCount": 13
    }
]