[
    {
        "name": "[YouMi]\u5c24\u871c 2021.04.05 \u4e54\u96c5\u51b0",
        "src": "http://d.duotuwang.com/2021/04/05/24698/0.jpg",
        "mtId": "aecfdb77323b1d2f",
        "mtName": "\u4e54\u96c5\u51b0",
        "jgId": "youmiabc",
        "jgName": "\u5c24\u871c",
        "href": "http://d.duotuwang.com/2021/04/05/24698/",
        "count": 43,
        "start": 1,
        "hasMtTag": 1,
        "hasJgTag": 1,
        "mtCount": 1,
        "jgCount": 79
    },
    {
        "name": "[UGirlsAPP]\u7231\u5c24\u7269 No.1959 \u4e54\u96c5\u51b0 \u661f\u7a7a\u51b0\u84dd",
        "src": "http://d.duotuwang.com/2020/11/16/23057/0.jpg",
        "mtId": "aecfdb77323b1d2f",
        "mtName": "\u4e54\u96c5\u51b0",
        "jgId": "ugirlsapp",
        "jgName": "\u7231\u5c24\u7269",
        "href": "http://d.duotuwang.com/2020/11/16/23057/",
        "count": 35,
        "start": 1,
        "hasMtTag": 1,
        "hasJgTag": 1,
        "mtCount": 1,
        "jgCount": 397
    },
    {
        "name": "[UGirlsAPP]\u7231\u5c24\u7269 No.1528 \u4e54\u96c5\u51b0 \u9762\u5177\u60c5\u4eba",
        "src": "http://d.duotuwang.com/2019/07/26/17283/0.jpg",
        "mtId": "aecfdb77323b1d2f",
        "mtName": "\u4e54\u96c5\u51b0",
        "jgId": "ugirlsapp",
        "jgName": "\u7231\u5c24\u7269",
        "href": "http://d.duotuwang.com/2019/07/26/17283/",
        "count": 35,
        "start": 1,
        "hasMtTag": 1,
        "hasJgTag": 1,
        "mtCount": 1,
        "jgCount": 397
    }
]