[
    {
        "name": "[UGirlsAPP]\u7231\u5c24\u7269 No.2393 Juicyxiaoxiao \u4e0d\u671f\u800c\u9047",
        "src": "http://d.duotuwang.com/2022/08/19/30970/0.jpg",
        "mtId": "abfec5496aded806",
        "mtName": "Juicyxiaoxiao",
        "jgId": "ugirlsapp",
        "jgName": "\u7231\u5c24\u7269",
        "href": "http://d.duotuwang.com/2022/08/19/30970/",
        "count": 35,
        "start": 1,
        "hasMtTag": 1,
        "hasJgTag": 1,
        "mtCount": 1,
        "jgCount": 397
    },
    {
        "name": "[UGirlsAPP]\u7231\u5c24\u7269 No.2392 \u897f\u95e8\u5c0f\u7389 \u82b1\u4e8b\u4e86",
        "src": "http://d.duotuwang.com/2022/08/17/30969/0.jpg",
        "mtId": "489383cc4fc04819",
        "mtName": "\u897f\u95e8\u5c0f\u7389",
        "jgId": "ugirlsapp",
        "jgName": "\u7231\u5c24\u7269",
        "href": "http://d.duotuwang.com/2022/08/17/30969/",
        "count": 35,
        "start": 1,
        "hasMtTag": 1,
        "hasJgTag": 1,
        "mtCount": 4,
        "jgCount": 397
    },
    {
        "name": "[UGirlsAPP]\u7231\u5c24\u7269 No.2390 \u5218\u4e3d\u6b46 \u604b\u80a4",
        "src": "http://d.duotuwang.com/2022/08/14/30967/0.jpg",
        "mtId": "f7244c337cd35038",
        "mtName": "\u5218\u4e3d\u6b46",
        "jgId": "ugirlsapp",
        "jgName": "\u7231\u5c24\u7269",
        "href": "http://d.duotuwang.com/2022/08/14/30967/",
        "count": 35,
        "start": 1,
        "hasMtTag": 1,
        "hasJgTag": 1,
        "mtCount": 1,
        "jgCount": 397
    },
    {
        "name": "[UGirlsAPP]\u7231\u5c24\u7269 No.2389 \u679c\u513fVictoria \u60c5\u8ff7\u5973\u4e0a\u53f8",
        "src": "http://d.duotuwang.com/2022/08/13/30966/0.jpg",
        "mtId": "fc1868c8a652655f",
        "mtName": "\u679c\u513fVictoria",
        "jgId": "ugirlsapp",
        "jgName": "\u7231\u5c24\u7269",
        "href": "http://d.duotuwang.com/2022/08/13/30966/",
        "count": 35,
        "start": 1,
        "hasMtTag": 1,
        "hasJgTag": 1,
        "mtCount": 29,
        "jgCount": 397
    },
    {
        "name": "[UGirlsAPP]\u7231\u5c24\u7269 No.2388 \u67da\u5b50 \u5c24\u5ba0",
        "src": "http://d.duotuwang.com/2022/08/12/30965/0.jpg",
        "mtId": "67ce743187e29ba3",
        "mtName": "\u67da\u5b50",
        "jgId": "ugirlsapp",
        "jgName": "\u7231\u5c24\u7269",
        "href": "http://d.duotuwang.com/2022/08/12/30965/",
        "count": 35,
        "start": 1,
        "hasMtTag": 1,
        "hasJgTag": 1,
        "mtCount": 1,
        "jgCount": 397
    },
    {
        "name": "[UGirlsAPP]\u7231\u5c24\u7269 No.2387 \u9646\u6893\u742a \u79cb\u601d",
        "src": "http://d.duotuwang.com/2022/08/10/30871/0.jpg",
        "mtId": "21a5ee6f34591fc7",
        "mtName": "\u9646\u6893\u742a",
        "jgId": "ugirlsapp",
        "jgName": "\u7231\u5c24\u7269",
        "href": "http://d.duotuwang.com/2022/08/10/30871/",
        "count": 35,
        "start": 1,
        "hasMtTag": 1,
        "hasJgTag": 1,
        "mtCount": 2,
        "jgCount": 397
    }
]