[
    {
        "name": "[UGirlsAPP]\u7231\u5c24\u7269 No.1739 \u840c\u6c49\u836fbaby \u8ff7\u4eba\u7684\u7c89\u808c",
        "src": "http://d.duotuwang.com/2020/02/22/19716/0.jpg",
        "mtId": "830ea5862a484115",
        "mtName": "\u840c\u6c49\u836fbaby",
        "jgId": "ugirlsapp",
        "jgName": "\u7231\u5c24\u7269",
        "href": "http://d.duotuwang.com/2020/02/22/19716/",
        "count": 35,
        "start": 1,
        "hasMtTag": 1,
        "hasJgTag": 1,
        "mtCount": 17,
        "jgCount": 397
    },
    {
        "name": "[UGirlsAPP]\u7231\u5c24\u7269 No.1738 \u8431\u8431cecilia \u7ea2\u8272\u601d\u5ff5",
        "src": "http://d.duotuwang.com/2020/02/21/19715/0.jpg",
        "mtId": "27c1bfacec4d6cf6",
        "mtName": "\u8431\u8431cecilia",
        "jgId": "ugirlsapp",
        "jgName": "\u7231\u5c24\u7269",
        "href": "http://d.duotuwang.com/2020/02/21/19715/",
        "count": 35,
        "start": 1,
        "hasMtTag": 1,
        "hasJgTag": 1,
        "mtCount": 2,
        "jgCount": 397
    },
    {
        "name": "[UGirlsAPP]\u7231\u5c24\u7269 No.1737 \u7530\u6893\u8335 \u611f\u5b98\u89c9\u9192",
        "src": "http://d.duotuwang.com/2020/02/20/19653/0.jpg",
        "mtId": "e220113abec1eb18",
        "mtName": "\u7530\u6893\u8335",
        "jgId": "ugirlsapp",
        "jgName": "\u7231\u5c24\u7269",
        "href": "http://d.duotuwang.com/2020/02/20/19653/",
        "count": 35,
        "start": 1,
        "hasMtTag": 1,
        "hasJgTag": 1,
        "mtCount": 1,
        "jgCount": 397
    },
    {
        "name": "[UGirlsAPP]\u7231\u5c24\u7269 No.1736 Yunie \u5fc3\u4e8b\u5976\u916a",
        "src": "http://d.duotuwang.com/2020/02/19/19652/0.jpg",
        "mtId": "da12a162b8f71fcf",
        "mtName": "Yunie",
        "jgId": "ugirlsapp",
        "jgName": "\u7231\u5c24\u7269",
        "href": "http://d.duotuwang.com/2020/02/19/19652/",
        "count": 35,
        "start": 1,
        "hasMtTag": 1,
        "hasJgTag": 1,
        "mtCount": 1,
        "jgCount": 397
    },
    {
        "name": "[UGirlsAPP]\u7231\u5c24\u7269 No.1735 \u679c\u51bbcily \u7c89\u7ea2\u751c\u8336",
        "src": "http://d.duotuwang.com/2020/02/18/19651/0.jpg",
        "jgId": "ugirlsapp",
        "jgName": "\u7231\u5c24\u7269",
        "href": "http://d.duotuwang.com/2020/02/18/19651/",
        "count": 35,
        "start": 1,
        "hasMtTag": 0,
        "hasJgTag": 1,
        "jgCount": 397
    },
    {
        "name": "[UGirlsAPP]\u7231\u5c24\u7269 No.1734 \u5d14\u707f \u6027\u611f\u8c1c\u9898",
        "src": "http://d.duotuwang.com/2020/02/17/19650/0.jpg",
        "mtId": "36814e0d61726abb",
        "mtName": "\u5d14\u707f",
        "jgId": "ugirlsapp",
        "jgName": "\u7231\u5c24\u7269",
        "href": "http://d.duotuwang.com/2020/02/17/19650/",
        "count": 35,
        "start": 1,
        "hasMtTag": 1,
        "hasJgTag": 1,
        "mtCount": 1,
        "jgCount": 397
    }
]