[
    {
        "name": "[UGirlsAPP]\u7231\u5c24\u7269 No.1654 \u7edd\u5bf9\u4ed9\u513f \u4f4e\u6e29\u70ed\u604b",
        "src": "http://d.duotuwang.com/2019/11/29/18824/0.jpg",
        "jgId": "ugirlsapp",
        "jgName": "\u7231\u5c24\u7269",
        "href": "http://d.duotuwang.com/2019/11/29/18824/",
        "count": 35,
        "start": 1,
        "hasMtTag": 0,
        "hasJgTag": 1,
        "jgCount": 397
    },
    {
        "name": "[UGirlsAPP]\u7231\u5c24\u7269 No.1653 \u6797\u4f73\u6cab \u5c0f\u5fc3\u8bd5\u7231",
        "src": "http://d.duotuwang.com/2019/11/28/18751/0.jpg",
        "mtId": "909b51cdf0022536",
        "mtName": "\u6797\u4f73\u6cab",
        "jgId": "ugirlsapp",
        "jgName": "\u7231\u5c24\u7269",
        "href": "http://d.duotuwang.com/2019/11/28/18751/",
        "count": 35,
        "start": 1,
        "hasMtTag": 1,
        "hasJgTag": 1,
        "mtCount": 1,
        "jgCount": 397
    },
    {
        "name": "[UGirlsAPP]\u7231\u5c24\u7269 No.1652 \u5c0f\u559c \u559c\u51fa\u671b\u7231",
        "src": "http://d.duotuwang.com/2019/11/27/18750/0.jpg",
        "mtId": "401950fecdb56b9b",
        "mtName": "\u5c0f\u559c",
        "jgId": "ugirlsapp",
        "jgName": "\u7231\u5c24\u7269",
        "href": "http://d.duotuwang.com/2019/11/27/18750/",
        "count": 35,
        "start": 1,
        "hasMtTag": 1,
        "hasJgTag": 1,
        "mtCount": 1,
        "jgCount": 397
    },
    {
        "name": "[UGirlsAPP]\u7231\u5c24\u7269 No.1651 \u674e\u5b93\u513f \u9650\u91cf\u6c34\u871c\u6843",
        "src": "http://d.duotuwang.com/2019/11/26/18749/0.jpg",
        "mtId": "bd5953142f24cb0a",
        "mtName": "\u674e\u5b93\u513f",
        "jgId": "ugirlsapp",
        "jgName": "\u7231\u5c24\u7269",
        "href": "http://d.duotuwang.com/2019/11/26/18749/",
        "count": 35,
        "start": 1,
        "hasMtTag": 1,
        "hasJgTag": 1,
        "mtCount": 5,
        "jgCount": 397
    },
    {
        "name": "[UGirlsAPP]\u7231\u5c24\u7269 No.1650 \u5d14\u707f \u65b0\u661f\u7480\u74a8",
        "src": "http://d.duotuwang.com/2019/11/25/18748/0.jpg",
        "mtId": "36814e0d61726abb",
        "mtName": "\u5d14\u707f",
        "jgId": "ugirlsapp",
        "jgName": "\u7231\u5c24\u7269",
        "href": "http://d.duotuwang.com/2019/11/25/18748/",
        "count": 34,
        "start": 1,
        "hasMtTag": 1,
        "hasJgTag": 1,
        "mtCount": 1,
        "jgCount": 397
    },
    {
        "name": "[UGirlsAPP]\u7231\u5c24\u7269 No.1649 \u83f2\u513f \u9ad8\u5206\u6027\u611f",
        "src": "http://d.duotuwang.com/2019/11/24/18747/0.jpg",
        "mtId": "d3cfa2a8f3c7f271",
        "mtName": "\u83f2\u513f",
        "jgId": "ugirlsapp",
        "jgName": "\u7231\u5c24\u7269",
        "href": "http://d.duotuwang.com/2019/11/24/18747/",
        "count": 35,
        "start": 1,
        "hasMtTag": 1,
        "hasJgTag": 1,
        "mtCount": 2,
        "jgCount": 397
    }
]