[
    {
        "name": "[UGirlsAPP]\u7231\u5c24\u7269 No.1612 \u674e\u8587\u8587 \u7231\u8981\u8eab\u4e34\u5176\u5883",
        "src": "http://d.duotuwang.com/2019/10/18/18309/0.jpg",
        "mtId": "434a928a4fbcbce3",
        "mtName": "\u674e\u8587\u8587",
        "jgId": "ugirlsapp",
        "jgName": "\u7231\u5c24\u7269",
        "href": "http://d.duotuwang.com/2019/10/18/18309/",
        "count": 35,
        "start": 1,
        "hasMtTag": 1,
        "hasJgTag": 1,
        "mtCount": 1,
        "jgCount": 397
    },
    {
        "name": "[UGirlsAPP]\u7231\u5c24\u7269 No.1611 \u660e\u5a1c \u5077\u5fc3\u4e13\u5bb6",
        "src": "http://d.duotuwang.com/2019/10/17/18308/0.jpg",
        "mtId": "17ed05f19ceef715",
        "mtName": "\u660e\u5a1c",
        "jgId": "ugirlsapp",
        "jgName": "\u7231\u5c24\u7269",
        "href": "http://d.duotuwang.com/2019/10/17/18308/",
        "count": 35,
        "start": 1,
        "hasMtTag": 1,
        "hasJgTag": 1,
        "mtCount": 2,
        "jgCount": 397
    },
    {
        "name": "[UGirlsAPP]\u7231\u5c24\u7269 No.1610 \u4e4b\u9065 \u8def\u9065\u77e5\u7231\u4f60",
        "src": "http://d.duotuwang.com/2019/10/16/18307/0.jpg",
        "jgId": "ugirlsapp",
        "jgName": "\u7231\u5c24\u7269",
        "href": "http://d.duotuwang.com/2019/10/16/18307/",
        "count": 34,
        "start": 1,
        "hasMtTag": 0,
        "hasJgTag": 1,
        "jgCount": 397
    },
    {
        "name": "[UGirlsAPP]\u7231\u5c24\u7269 No.1609 \u6708\u97f3\u77b3 \u6e05\u79cb\u4e4b\u604b",
        "src": "http://d.duotuwang.com/2019/10/15/18266/0.jpg",
        "mtId": "ad1cc72dcd927205",
        "mtName": "\u6708\u97f3\u77b3",
        "jgId": "ugirlsapp",
        "jgName": "\u7231\u5c24\u7269",
        "href": "http://d.duotuwang.com/2019/10/15/18266/",
        "count": 34,
        "start": 1,
        "hasMtTag": 1,
        "hasJgTag": 1,
        "mtCount": 11,
        "jgCount": 397
    },
    {
        "name": "[UGirlsAPP]\u7231\u5c24\u7269 No.1608 \u91d1\u4ee5\u6657 \u6563\u573a\u544a\u767d",
        "src": "http://d.duotuwang.com/2019/10/14/18265/0.jpg",
        "jgId": "ugirlsapp",
        "jgName": "\u7231\u5c24\u7269",
        "href": "http://d.duotuwang.com/2019/10/14/18265/",
        "count": 35,
        "start": 1,
        "hasMtTag": 0,
        "hasJgTag": 1,
        "jgCount": 397
    },
    {
        "name": "[UGirlsAPP]\u7231\u5c24\u7269 No.1607 \u674e\u4e3d\u838e \u4f4e\u6e29\u6027\u611f",
        "src": "http://d.duotuwang.com/2019/10/13/18264/0.jpg",
        "mtId": "ee91efe3b47ef71d",
        "mtName": "\u674e\u4e3d\u838e",
        "jgId": "ugirlsapp",
        "jgName": "\u7231\u5c24\u7269",
        "href": "http://d.duotuwang.com/2019/10/13/18264/",
        "count": 35,
        "start": 1,
        "hasMtTag": 1,
        "hasJgTag": 1,
        "mtCount": 2,
        "jgCount": 397
    }
]