[
    {
        "name": "[UGirlsAPP]\u7231\u5c24\u7269 No.1594 \u7e41\u82b1 \u963f\u4f9d\u52aa\u5c14\u74e6\u5a05&\u91d1\u6893\u7433&\u6d1b\u5b93&\u8001\u859b&\u5f69\u8679&\u4e54\u7fbd\u7fbd&COCO\u5c0f\u66fc",
        "src": "http://d.duotuwang.com/2019/09/30/18158/0.jpg",
        "mtId": "8041c72d7ceeaaf5",
        "mtName": "\u963f\u4f9d\u52aa\u5c14\u74e6\u5a05",
        "jgId": "ugirlsapp",
        "jgName": "\u7231\u5c24\u7269",
        "href": "http://d.duotuwang.com/2019/09/30/18158/",
        "count": 35,
        "start": 1,
        "hasMtTag": 1,
        "hasJgTag": 1,
        "mtCount": 3,
        "jgCount": 397
    },
    {
        "name": "[UGirlsAPP]\u7231\u5c24\u7269 No.1593 \u5218\u5f6c\u5f6c \u6e29\u6f9c\u6e05\u6ce2",
        "src": "http://d.duotuwang.com/2019/09/29/18157/0.jpg",
        "mtId": "dd91b648b596bfe9",
        "mtName": "\u5218\u5f6c\u5f6c",
        "jgId": "ugirlsapp",
        "jgName": "\u7231\u5c24\u7269",
        "href": "http://d.duotuwang.com/2019/09/29/18157/",
        "count": 35,
        "start": 1,
        "hasMtTag": 1,
        "hasJgTag": 1,
        "mtCount": 1,
        "jgCount": 397
    },
    {
        "name": "[UGirlsAPP]\u7231\u5c24\u7269 No.1592 \u5ddd\u4e0a\u5bcc\u6c5f \u6b32\u989c\u53c8\u6b62",
        "src": "http://d.duotuwang.com/2019/09/28/18156/0.jpg",
        "mtId": "e52160ed27433374",
        "mtName": "\u5ddd\u4e0a\u5bcc\u6c5f",
        "jgId": "ugirlsapp",
        "jgName": "\u7231\u5c24\u7269",
        "href": "http://d.duotuwang.com/2019/09/28/18156/",
        "count": 35,
        "start": 1,
        "hasMtTag": 1,
        "hasJgTag": 1,
        "mtCount": 2,
        "jgCount": 397
    },
    {
        "name": "[UGirlsAPP]\u7231\u5c24\u7269 No.1591 \u6797\u4f73\u6cab \u5348\u8336\u6d3e\u5bf9",
        "src": "http://d.duotuwang.com/2019/09/27/18155/0.jpg",
        "mtId": "909b51cdf0022536",
        "mtName": "\u6797\u4f73\u6cab",
        "jgId": "ugirlsapp",
        "jgName": "\u7231\u5c24\u7269",
        "href": "http://d.duotuwang.com/2019/09/27/18155/",
        "count": 35,
        "start": 1,
        "hasMtTag": 1,
        "hasJgTag": 1,
        "mtCount": 1,
        "jgCount": 397
    },
    {
        "name": "[UGirlsAPP]\u7231\u5c24\u7269 No.1590 \u591a\u60c5\u5584\u611f \u6768\u5b50\u82af&\u871c\u513f&Vichy&\u4fde\u5915\u68a6&\u6d89\u8c37\u7531\u91cc&\u8c4c\u8c46\u516c\u4e3b&\u8bd7\u753b",
        "src": "http://d.duotuwang.com/2019/09/26/18091/0.jpg",
        "mtId": "cf71db2948b1b7f0",
        "mtName": "\u6768\u5b50\u82af",
        "jgId": "ugirlsapp",
        "jgName": "\u7231\u5c24\u7269",
        "href": "http://d.duotuwang.com/2019/09/26/18091/",
        "count": 34,
        "start": 1,
        "hasMtTag": 1,
        "hasJgTag": 1,
        "mtCount": 1,
        "jgCount": 397
    },
    {
        "name": "[UGirlsAPP]\u7231\u5c24\u7269 No.1589 \u674e\u5e0c\u7476 \u7c89\u8272\u7977\u544a",
        "src": "http://d.duotuwang.com/2019/09/25/18090/0.jpg",
        "mtId": "ad0e7bcac11f81db",
        "mtName": "\u674e\u5e0c\u7476",
        "jgId": "ugirlsapp",
        "jgName": "\u7231\u5c24\u7269",
        "href": "http://d.duotuwang.com/2019/09/25/18090/",
        "count": 35,
        "start": 1,
        "hasMtTag": 1,
        "hasJgTag": 1,
        "mtCount": 1,
        "jgCount": 397
    }
]