[
    {
        "name": "[UGirlsAPP]\u7231\u5c24\u7269 No.1521 \u5c0f\u7199 \u5fc3\u7199\u65f6\u4ee3",
        "src": "http://d.duotuwang.com/2019/07/19/17218/0.jpg",
        "mtId": "fb613249484ece86",
        "mtName": "\u5c0f\u7199",
        "jgId": "ugirlsapp",
        "jgName": "\u7231\u5c24\u7269",
        "href": "http://d.duotuwang.com/2019/07/19/17218/",
        "count": 35,
        "start": 1,
        "hasMtTag": 1,
        "hasJgTag": 1,
        "mtCount": 1,
        "jgCount": 397
    },
    {
        "name": "[UGirlsAPP]\u7231\u5c24\u7269 No.1520 \u695a\u606c \u591a\u60c5\u603b\u88ab\u65e0\u60c5\u4f24",
        "src": "http://d.duotuwang.com/2019/07/18/17217/0.jpg",
        "jgId": "ugirlsapp",
        "jgName": "\u7231\u5c24\u7269",
        "href": "http://d.duotuwang.com/2019/07/18/17217/",
        "count": 35,
        "start": 1,
        "hasMtTag": 0,
        "hasJgTag": 1,
        "jgCount": 397
    },
    {
        "name": "[UGirlsAPP]\u7231\u5c24\u7269 No.1519 \u7426\u7f57 \u591a\u91cd\u8eab\u4efd",
        "src": "http://d.duotuwang.com/2019/07/17/17216/0.jpg",
        "mtId": "359713160eed4103",
        "mtName": "\u7426\u7f57",
        "jgId": "ugirlsapp",
        "jgName": "\u7231\u5c24\u7269",
        "href": "http://d.duotuwang.com/2019/07/17/17216/",
        "count": 35,
        "start": 1,
        "hasMtTag": 1,
        "hasJgTag": 1,
        "mtCount": 1,
        "jgCount": 397
    },
    {
        "name": "[UGirlsAPP]\u7231\u5c24\u7269 No.1518 \u5c0f\u6960 \u98ce\u60c5\u4ece\u6765\u4e0d\u6b62\u4e00\u79cd",
        "src": "http://d.duotuwang.com/2019/07/16/17176/0.jpg",
        "jgId": "ugirlsapp",
        "jgName": "\u7231\u5c24\u7269",
        "href": "http://d.duotuwang.com/2019/07/16/17176/",
        "count": 35,
        "start": 1,
        "hasMtTag": 0,
        "hasJgTag": 1,
        "jgCount": 397
    },
    {
        "name": "[UGirlsAPP]\u7231\u5c24\u7269 No.1517 sukki\u53ef\u513f \u5173\u4e8e\u4f60\u6211\u60f3\u8bf4\u7684\u8bdd",
        "src": "http://d.duotuwang.com/2019/07/15/17175/0.jpg",
        "mtId": "d5f9c5b3b7265bd0",
        "mtName": "sukki\u53ef\u513f",
        "jgId": "ugirlsapp",
        "jgName": "\u7231\u5c24\u7269",
        "href": "http://d.duotuwang.com/2019/07/15/17175/",
        "count": 35,
        "start": 1,
        "hasMtTag": 1,
        "hasJgTag": 1,
        "mtCount": 5,
        "jgCount": 397
    },
    {
        "name": "[UGirlsAPP]\u7231\u5c24\u7269 No.1516 \u6797\u5fae\u5fae \u9e8b\u9e7f\u68ee\u6797",
        "src": "http://d.duotuwang.com/2019/07/14/17174/0.jpg",
        "mtId": "8ea4a156bc7531bc",
        "mtName": "\u6797\u5fae\u5fae",
        "jgId": "ugirlsapp",
        "jgName": "\u7231\u5c24\u7269",
        "href": "http://d.duotuwang.com/2019/07/14/17174/",
        "count": 35,
        "start": 1,
        "hasMtTag": 1,
        "hasJgTag": 1,
        "mtCount": 1,
        "jgCount": 397
    }
]