[
    {
        "name": "[UGirlsAPP]\u7231\u5c24\u7269 No.1509 Sarah \u767d\u82f9\u679c",
        "src": "http://d.duotuwang.com/2019/07/07/17075/0.jpg",
        "jgId": "ugirlsapp",
        "jgName": "\u7231\u5c24\u7269",
        "href": "http://d.duotuwang.com/2019/07/07/17075/",
        "count": 35,
        "start": 1,
        "hasMtTag": 0,
        "hasJgTag": 1,
        "jgCount": 397
    },
    {
        "name": "[UGirlsAPP]\u7231\u5c24\u7269 No.1508 Rita \u9ebb\u8fa3\u9c9c\u5e08",
        "src": "http://d.duotuwang.com/2019/07/06/17055/0.jpg",
        "mtId": "80bddcbcf1a698f2",
        "mtName": "Rita",
        "jgId": "ugirlsapp",
        "jgName": "\u7231\u5c24\u7269",
        "href": "http://d.duotuwang.com/2019/07/06/17055/",
        "count": 35,
        "start": 1,
        "hasMtTag": 1,
        "hasJgTag": 1,
        "mtCount": 1,
        "jgCount": 397
    },
    {
        "name": "[UGirlsAPP]\u7231\u5c24\u7269 No.1507 \u6797\u6e03\u6657 \u9ad8\u6e29\u604b\u7231",
        "src": "http://d.duotuwang.com/2019/07/05/17054/0.jpg",
        "mtId": "cb8b6f99ba23fcc2",
        "mtName": "\u6797\u6e03\u6657",
        "jgId": "ugirlsapp",
        "jgName": "\u7231\u5c24\u7269",
        "href": "http://d.duotuwang.com/2019/07/05/17054/",
        "count": 35,
        "start": 1,
        "hasMtTag": 1,
        "hasJgTag": 1,
        "mtCount": 2,
        "jgCount": 397
    },
    {
        "name": "[UGirlsAPP]\u7231\u5c24\u7269 No.1506 \u5b5f\u5341\u6735 \u604b\u7231\u763e",
        "src": "http://d.duotuwang.com/2019/07/04/17053/0.jpg",
        "mtId": "fd1b5485681e3013",
        "mtName": "\u5b5f\u5341\u6735",
        "jgId": "ugirlsapp",
        "jgName": "\u7231\u5c24\u7269",
        "href": "http://d.duotuwang.com/2019/07/04/17053/",
        "count": 35,
        "start": 1,
        "hasMtTag": 1,
        "hasJgTag": 1,
        "mtCount": 1,
        "jgCount": 397
    },
    {
        "name": "[UGirlsAPP]\u7231\u5c24\u7269 No.1505 \u6ce1\u8299\u5c11\u5973 \u6709\u507f\u6e29\u67d4",
        "src": "http://d.duotuwang.com/2019/07/03/17052/0.jpg",
        "mtId": "0be2edb312cfde97",
        "mtName": "\u6ce1\u8299\u5c11\u5973",
        "jgId": "ugirlsapp",
        "jgName": "\u7231\u5c24\u7269",
        "href": "http://d.duotuwang.com/2019/07/03/17052/",
        "count": 35,
        "start": 1,
        "hasMtTag": 1,
        "hasJgTag": 1,
        "mtCount": 1,
        "jgCount": 397
    },
    {
        "name": "[UGirlsAPP]\u7231\u5c24\u7269 No.1504 \u4f18\u7c73 \u6175\u61d2\u7684\u767e\u5229\u751c",
        "src": "http://d.duotuwang.com/2019/07/02/17051/0.jpg",
        "mtId": "4a8b20e7ded9aa37",
        "mtName": "\u4f18\u7c73",
        "jgId": "ugirlsapp",
        "jgName": "\u7231\u5c24\u7269",
        "href": "http://d.duotuwang.com/2019/07/02/17051/",
        "count": 35,
        "start": 1,
        "hasMtTag": 1,
        "hasJgTag": 1,
        "mtCount": 1,
        "jgCount": 397
    }
]