[
    {
        "name": "[UGirlsAPP]\u7231\u5c24\u7269 No.1467 \u82cf\u6cab \u51fa\u6cab",
        "src": "http://d.duotuwang.com/2019/05/26/16626/0.jpg",
        "mtId": "624ceec4433f10c8",
        "mtName": "\u82cf\u6cab",
        "jgId": "ugirlsapp",
        "jgName": "\u7231\u5c24\u7269",
        "href": "http://d.duotuwang.com/2019/05/26/16626/",
        "count": 35,
        "start": 1,
        "hasMtTag": 1,
        "hasJgTag": 1,
        "mtCount": 2,
        "jgCount": 397
    },
    {
        "name": "[UGirlsAPP]\u7231\u5c24\u7269 No.1466 \u679c\u513f \u6f47\u6d12\u8ff7\u4eba\u7cbe",
        "src": "http://d.duotuwang.com/2019/05/25/16627/0.jpg",
        "jgId": "ugirlsapp",
        "jgName": "\u7231\u5c24\u7269",
        "href": "http://d.duotuwang.com/2019/05/25/16627/",
        "count": 35,
        "start": 1,
        "hasMtTag": 0,
        "hasJgTag": 1,
        "jgCount": 397
    },
    {
        "name": "[UGirlsAPP]\u7231\u5c24\u7269 No.1465 \u68a6\u6657 \u4ea4\u6362\u7231",
        "src": "http://d.duotuwang.com/2019/05/24/16542/0.jpg",
        "mtId": "77ec148a3ed9626b",
        "mtName": "\u68a6\u6657",
        "jgId": "ugirlsapp",
        "jgName": "\u7231\u5c24\u7269",
        "href": "http://d.duotuwang.com/2019/05/24/16542/",
        "count": 32,
        "start": 1,
        "hasMtTag": 1,
        "hasJgTag": 1,
        "mtCount": 1,
        "jgCount": 397
    },
    {
        "name": "[UGirlsAPP]\u7231\u5c24\u7269 No.1464 \u9752\u6811 \u9752\u9e1f",
        "src": "http://d.duotuwang.com/2019/05/23/16543/0.jpg",
        "mtId": "e198f565d0da3712",
        "mtName": "\u9752\u6811",
        "jgId": "ugirlsapp",
        "jgName": "\u7231\u5c24\u7269",
        "href": "http://d.duotuwang.com/2019/05/23/16543/",
        "count": 35,
        "start": 1,
        "hasMtTag": 1,
        "hasJgTag": 1,
        "mtCount": 8,
        "jgCount": 397
    },
    {
        "name": "[UGirlsAPP]\u7231\u5c24\u7269 No.1463 \u6797\u4f73\u6cab \u5fd8\u4e0e\u8bb0",
        "src": "http://d.duotuwang.com/2019/05/22/16544/0.jpg",
        "mtId": "909b51cdf0022536",
        "mtName": "\u6797\u4f73\u6cab",
        "jgId": "ugirlsapp",
        "jgName": "\u7231\u5c24\u7269",
        "href": "http://d.duotuwang.com/2019/05/22/16544/",
        "count": 35,
        "start": 1,
        "hasMtTag": 1,
        "hasJgTag": 1,
        "mtCount": 1,
        "jgCount": 397
    },
    {
        "name": "[UGirlsAPP]\u7231\u5c24\u7269 No.1462 \u679c\u513fVictoria \u6212\u7cd6\u8ba1\u5212",
        "src": "http://d.duotuwang.com/2019/05/21/16545/0.jpg",
        "mtId": "fc1868c8a652655f",
        "mtName": "\u679c\u513fVictoria",
        "jgId": "ugirlsapp",
        "jgName": "\u7231\u5c24\u7269",
        "href": "http://d.duotuwang.com/2019/05/21/16545/",
        "count": 35,
        "start": 1,
        "hasMtTag": 1,
        "hasJgTag": 1,
        "mtCount": 29,
        "jgCount": 397
    }
]