[
    {
        "name": "[UGirlsAPP]\u7231\u5c24\u7269 No.1389 Lucy \u5fc3\u52a8\u7684\u6e29\u67d4",
        "src": "http://d.duotuwang.com/2019/03/09/11070/0.jpg",
        "jgId": "ugirlsapp",
        "jgName": "\u7231\u5c24\u7269",
        "href": "http://d.duotuwang.com/2019/03/09/11070/",
        "count": 35,
        "start": 1,
        "hasMtTag": 0,
        "hasJgTag": 1,
        "jgCount": 397
    },
    {
        "name": "[UGirlsAPP]\u7231\u5c24\u7269 No.1388 \u5976\u8336Emily \u7cd6\u971c\u5143\u6c14\u8336",
        "src": "http://d.duotuwang.com/2019/03/08/11071/0.jpg",
        "mtId": "5f63ca470344b92b",
        "mtName": "\u5976\u8336Emily",
        "jgId": "ugirlsapp",
        "jgName": "\u7231\u5c24\u7269",
        "href": "http://d.duotuwang.com/2019/03/08/11071/",
        "count": 35,
        "start": 1,
        "hasMtTag": 1,
        "hasJgTag": 1,
        "mtCount": 2,
        "jgCount": 397
    },
    {
        "name": "[UGirlsAPP]\u7231\u5c24\u7269 No.1387 \u827e\u7c73\u513f \u7070\u8272\u604b\u60c5",
        "src": "http://d.duotuwang.com/2019/03/07/11072/0.jpg",
        "mtId": "62a9ebf4ab4b83ff",
        "mtName": "\u827e\u7c73\u513f",
        "jgId": "ugirlsapp",
        "jgName": "\u7231\u5c24\u7269",
        "href": "http://d.duotuwang.com/2019/03/07/11072/",
        "count": 35,
        "start": 1,
        "hasMtTag": 1,
        "hasJgTag": 1,
        "mtCount": 1,
        "jgCount": 397
    },
    {
        "name": "[UGirlsAPP]\u7231\u5c24\u7269 No.1386 \u6797\u5b50\u8fb0 \u5c06\u521d\u6625\u70b9\u71c3",
        "src": "http://d.duotuwang.com/2019/03/06/11073/0.jpg",
        "mtId": "1234bc8b2bb39faa",
        "mtName": "\u6797\u5b50\u8fb0",
        "jgId": "ugirlsapp",
        "jgName": "\u7231\u5c24\u7269",
        "href": "http://d.duotuwang.com/2019/03/06/11073/",
        "count": 35,
        "start": 1,
        "hasMtTag": 1,
        "hasJgTag": 1,
        "mtCount": 1,
        "jgCount": 397
    },
    {
        "name": "[UGirlsAPP]\u7231\u5c24\u7269 No.1385 \u963f\u4f9d\u52aa\u5c14\u74e6\u5a05 \u98de\u884c\u60c5\u4eba",
        "src": "http://d.duotuwang.com/2019/03/05/11074/0.jpg",
        "mtId": "8041c72d7ceeaaf5",
        "mtName": "\u963f\u4f9d\u52aa\u5c14\u74e6\u5a05",
        "jgId": "ugirlsapp",
        "jgName": "\u7231\u5c24\u7269",
        "href": "http://d.duotuwang.com/2019/03/05/11074/",
        "count": 35,
        "start": 1,
        "hasMtTag": 1,
        "hasJgTag": 1,
        "mtCount": 3,
        "jgCount": 397
    },
    {
        "name": "[UGirlsAPP]\u7231\u5c24\u7269 No.1384 \u83ab\u59ae\u5361 \u4e00\u4e2a\u773c\u795e\u9501\u5b9a\u4f60",
        "src": "http://d.duotuwang.com/2019/03/04/11075/0.jpg",
        "mtId": "db015e12c1c24e44",
        "mtName": "\u83ab\u59ae\u5361",
        "jgId": "ugirlsapp",
        "jgName": "\u7231\u5c24\u7269",
        "href": "http://d.duotuwang.com/2019/03/04/11075/",
        "count": 35,
        "start": 1,
        "hasMtTag": 1,
        "hasJgTag": 1,
        "mtCount": 1,
        "jgCount": 397
    }
]