[
    {
        "name": "[UGirlsAPP]\u7231\u5c24\u7269 No.1317 \u5c0f\u9e7f \u6c79\u6d8c\u7684\u5c0f\u9e7f",
        "src": "http://d.duotuwang.com/2018/12/27/10216/0.jpg",
        "jgId": "ugirlsapp",
        "jgName": "\u7231\u5c24\u7269",
        "href": "http://d.duotuwang.com/2018/12/27/10216/",
        "count": 35,
        "start": 1,
        "hasMtTag": 0,
        "hasJgTag": 1,
        "jgCount": 397
    },
    {
        "name": "[UGirlsAPP]\u7231\u5c24\u7269 No.1316 \u5b59\u4e11\u4e11 \u5c31\u6570\u4f60\u6700\u7279\u522b",
        "src": "http://d.duotuwang.com/2018/12/26/10217/0.jpg",
        "mtId": "2c336d641a7383f4",
        "mtName": "\u5b59\u4e11\u4e11",
        "jgId": "ugirlsapp",
        "jgName": "\u7231\u5c24\u7269",
        "href": "http://d.duotuwang.com/2018/12/26/10217/",
        "count": 35,
        "start": 1,
        "hasMtTag": 1,
        "hasJgTag": 1,
        "mtCount": 1,
        "jgCount": 397
    },
    {
        "name": "[UGirlsAPP]\u7231\u5c24\u7269 No.1315 M\u68a6baby \u6211\u4eec\u7684\u5723\u8bde\u8282",
        "src": "http://d.duotuwang.com/2018/12/25/10218/0.jpg",
        "mtId": "986ddab6ac5c880b",
        "mtName": "M\u68a6baby",
        "jgId": "ugirlsapp",
        "jgName": "\u7231\u5c24\u7269",
        "href": "http://d.duotuwang.com/2018/12/25/10218/",
        "count": 35,
        "start": 1,
        "hasMtTag": 1,
        "hasJgTag": 1,
        "mtCount": 5,
        "jgCount": 397
    },
    {
        "name": "[UGirlsAPP]\u7231\u5c24\u7269 No.1314 \u590f\u73b2\u8513 \u8ff7\u4eba\u7684\u5e73\u5b89\u591c",
        "src": "http://d.duotuwang.com/2018/12/24/10219/0.jpg",
        "mtId": "3c2ce021a80f2525",
        "mtName": "\u590f\u73b2\u8513",
        "jgId": "ugirlsapp",
        "jgName": "\u7231\u5c24\u7269",
        "href": "http://d.duotuwang.com/2018/12/24/10219/",
        "count": 35,
        "start": 1,
        "hasMtTag": 1,
        "hasJgTag": 1,
        "mtCount": 2,
        "jgCount": 397
    },
    {
        "name": "[UGirlsAPP]\u7231\u5c24\u7269 No.1313 \u7ea2\u8272\u7684\u795d\u798f \u7eaf\u5c0f\u5e0c&\u590f\u96e8\u970f&\u5976\u8336Emily",
        "src": "http://d.duotuwang.com/2018/12/23/10169/0.jpg",
        "mtId": "c3ee366e401f89d4",
        "mtName": "\u7eaf\u5c0f\u5e0c",
        "jgId": "ugirlsapp",
        "jgName": "\u7231\u5c24\u7269",
        "href": "http://d.duotuwang.com/2018/12/23/10169/",
        "count": 35,
        "start": 1,
        "hasMtTag": 1,
        "hasJgTag": 1,
        "mtCount": 3,
        "jgCount": 397
    },
    {
        "name": "[UGirlsAPP]\u7231\u5c24\u7269 No.1312 \u8463\u5c0f\u59d0poppy \u8c01\u7684\u8463\u5c0f\u59d0",
        "src": "http://d.duotuwang.com/2018/12/22/10170/0.jpg",
        "jgId": "ugirlsapp",
        "jgName": "\u7231\u5c24\u7269",
        "href": "http://d.duotuwang.com/2018/12/22/10170/",
        "count": 35,
        "start": 1,
        "hasMtTag": 0,
        "hasJgTag": 1,
        "jgCount": 397
    }
]