[
    {
        "name": "[UGirlsAPP]\u7231\u5c24\u7269 No.1311 \u590f\u96e8\u970f \u8bf1\u60d1\u53cc\u62fc",
        "src": "http://d.duotuwang.com/2018/12/21/10171/0.jpg",
        "mtId": "89b2e2e697273b85",
        "mtName": "\u590f\u96e8\u970f",
        "jgId": "ugirlsapp",
        "jgName": "\u7231\u5c24\u7269",
        "href": "http://d.duotuwang.com/2018/12/21/10171/",
        "count": 35,
        "start": 1,
        "hasMtTag": 1,
        "hasJgTag": 1,
        "mtCount": 1,
        "jgCount": 397
    },
    {
        "name": "[UGirlsAPP]\u7231\u5c24\u7269 No.1310 \u6b23\u6021 \u5ff5\u5ff5\u53c8\u4e0d\u5fd8",
        "src": "http://d.duotuwang.com/2018/12/20/10172/0.jpg",
        "jgId": "ugirlsapp",
        "jgName": "\u7231\u5c24\u7269",
        "href": "http://d.duotuwang.com/2018/12/20/10172/",
        "count": 35,
        "start": 1,
        "hasMtTag": 0,
        "hasJgTag": 1,
        "jgCount": 397
    },
    {
        "name": "[UGirlsAPP]\u7231\u5c24\u7269 No.1309 \u7ae0\u5b50\u5e0c \u8d5e\u7f8e\u5305\u56f4",
        "src": "http://d.duotuwang.com/2018/12/19/10173/0.jpg",
        "jgId": "ugirlsapp",
        "jgName": "\u7231\u5c24\u7269",
        "href": "http://d.duotuwang.com/2018/12/19/10173/",
        "count": 35,
        "start": 1,
        "hasMtTag": 0,
        "hasJgTag": 1,
        "jgCount": 397
    },
    {
        "name": "[UGirlsAPP]\u7231\u5c24\u7269 No.1308 \u6bdbCOCO \u7559\u4f4f\u7684\u773c\u775b",
        "src": "http://d.duotuwang.com/2018/12/18/10174/0.jpg",
        "jgId": "ugirlsapp",
        "jgName": "\u7231\u5c24\u7269",
        "href": "http://d.duotuwang.com/2018/12/18/10174/",
        "count": 35,
        "start": 1,
        "hasMtTag": 0,
        "hasJgTag": 1,
        "jgCount": 397
    },
    {
        "name": "[UGirlsAPP]\u7231\u5c24\u7269 No.1307 Jennanni_Jen \u7231\u7684\u91cd\u91cf",
        "src": "http://d.duotuwang.com/2018/12/17/10130/0.jpg",
        "mtId": "0fda849ec12a407f",
        "mtName": "Jennanni_Jen",
        "jgId": "ugirlsapp",
        "jgName": "\u7231\u5c24\u7269",
        "href": "http://d.duotuwang.com/2018/12/17/10130/",
        "count": 35,
        "start": 1,
        "hasMtTag": 1,
        "hasJgTag": 1,
        "mtCount": 3,
        "jgCount": 397
    },
    {
        "name": "[UGirlsAPP]\u7231\u5c24\u7269 No.1306 \u68a6\u742a \u4fdd\u62a4\u8272",
        "src": "http://d.duotuwang.com/2018/12/16/10131/0.jpg",
        "jgId": "ugirlsapp",
        "jgName": "\u7231\u5c24\u7269",
        "href": "http://d.duotuwang.com/2018/12/16/10131/",
        "count": 35,
        "start": 1,
        "hasMtTag": 0,
        "hasJgTag": 1,
        "jgCount": 397
    }
]