[
    {
        "name": "[UGirlsAPP]\u7231\u5c24\u7269 No.1197 \u94b1\u601d\u742a \u751c\u871c\u66b4\u51fb",
        "src": "http://d.duotuwang.com/2018/08/29/9571/0.jpg",
        "jgId": "ugirlsapp",
        "jgName": "\u7231\u5c24\u7269",
        "href": "http://d.duotuwang.com/2018/08/29/9571/",
        "count": 35,
        "start": 1,
        "hasMtTag": 0,
        "hasJgTag": 1,
        "jgCount": 397
    },
    {
        "name": "[UGirlsAPP]\u7231\u5c24\u7269 No.1196 \u675c\u82b1\u82b1 \u82b1\u679d\u62db\u5c55",
        "src": "http://d.duotuwang.com/2018/08/28/9572/0.jpg",
        "mtId": "f9c4a855daaf23c4",
        "mtName": "\u675c\u82b1\u82b1",
        "jgId": "ugirlsapp",
        "jgName": "\u7231\u5c24\u7269",
        "href": "http://d.duotuwang.com/2018/08/28/9572/",
        "count": 34,
        "start": 1,
        "hasMtTag": 1,
        "hasJgTag": 1,
        "mtCount": 2,
        "jgCount": 397
    },
    {
        "name": "[UGirlsAPP]\u7231\u5c24\u7269 No.1195 \u590f\u96e8\u970f \u821e\u52a8\u7684\u6027\u611f",
        "src": "http://d.duotuwang.com/2018/08/27/9573/0.jpg",
        "mtId": "89b2e2e697273b85",
        "mtName": "\u590f\u96e8\u970f",
        "jgId": "ugirlsapp",
        "jgName": "\u7231\u5c24\u7269",
        "href": "http://d.duotuwang.com/2018/08/27/9573/",
        "count": 35,
        "start": 1,
        "hasMtTag": 1,
        "hasJgTag": 1,
        "mtCount": 1,
        "jgCount": 397
    },
    {
        "name": "[UGirlsAPP]\u7231\u5c24\u7269 No.1194 \u79e6\u8bed \u72ec\u5bb6\u8bb0\u5fc6",
        "src": "http://d.duotuwang.com/2018/08/26/9490/0.jpg",
        "mtId": "672a7f80b30b71a8",
        "mtName": "\u79e6\u8bed",
        "jgId": "ugirlsapp",
        "jgName": "\u7231\u5c24\u7269",
        "href": "http://d.duotuwang.com/2018/08/26/9490/",
        "count": 35,
        "start": 1,
        "hasMtTag": 1,
        "hasJgTag": 1,
        "mtCount": 1,
        "jgCount": 397
    },
    {
        "name": "[UGirlsAPP]\u7231\u5c24\u7269 No.1193 \u82cf\u6893\u73b2 \u4e00\u7ebf\u5929",
        "src": "http://d.duotuwang.com/2018/08/25/9491/0.jpg",
        "jgId": "ugirlsapp",
        "jgName": "\u7231\u5c24\u7269",
        "href": "http://d.duotuwang.com/2018/08/25/9491/",
        "count": 35,
        "start": 1,
        "hasMtTag": 0,
        "hasJgTag": 1,
        "jgCount": 397
    },
    {
        "name": "[UGirlsAPP]\u7231\u5c24\u7269 No.1192 \u9648\u610f\u6db5 \u70ed\u6027\u611f",
        "src": "http://d.duotuwang.com/2018/08/24/9492/0.jpg",
        "mtId": "e2eb65284d5485c0",
        "mtName": "\u9648\u610f\u6db5",
        "jgId": "ugirlsapp",
        "jgName": "\u7231\u5c24\u7269",
        "href": "http://d.duotuwang.com/2018/08/24/9492/",
        "count": 35,
        "start": 1,
        "hasMtTag": 1,
        "hasJgTag": 1,
        "mtCount": 1,
        "jgCount": 397
    }
]