[
    {
        "name": "[UGirlsAPP]\u7231\u5c24\u7269 No.1185 \u738b\u7fca\u6db5 \u7f8e\u4eba\u5c71\u6c34\u56fe",
        "src": "http://d.duotuwang.com/2018/08/17/9499/0.jpg",
        "mtId": "829f48f5ca61f176",
        "mtName": "\u738b\u7fca\u6db5",
        "jgId": "ugirlsapp",
        "jgName": "\u7231\u5c24\u7269",
        "href": "http://d.duotuwang.com/2018/08/17/9499/",
        "count": 35,
        "start": 1,
        "hasMtTag": 1,
        "hasJgTag": 1,
        "mtCount": 1,
        "jgCount": 397
    },
    {
        "name": "[UGirlsAPP]\u7231\u5c24\u7269 No.1184 \u9edb\u59ae\u59ae \u591a\u53d8\u7684\u6027\u611f",
        "src": "http://d.duotuwang.com/2018/08/16/9500/0.jpg",
        "jgId": "ugirlsapp",
        "jgName": "\u7231\u5c24\u7269",
        "href": "http://d.duotuwang.com/2018/08/16/9500/",
        "count": 35,
        "start": 1,
        "hasMtTag": 0,
        "hasJgTag": 1,
        "jgCount": 397
    },
    {
        "name": "[UGirlsAPP]\u7231\u5c24\u7269 No.1183 \u96e8\u58a8 \u51b7\u8273\u4fcf\u4f73\u4eba",
        "src": "http://d.duotuwang.com/2018/08/15/9501/0.jpg",
        "jgId": "ugirlsapp",
        "jgName": "\u7231\u5c24\u7269",
        "href": "http://d.duotuwang.com/2018/08/15/9501/",
        "count": 35,
        "start": 1,
        "hasMtTag": 0,
        "hasJgTag": 1,
        "jgCount": 397
    },
    {
        "name": "[UGirlsAPP]\u7231\u5c24\u7269 No.1182 \u7530\u751c \u751c\u751c\u7684\u7a7a\u6c14",
        "src": "http://d.duotuwang.com/2018/08/14/9502/0.jpg",
        "jgId": "ugirlsapp",
        "jgName": "\u7231\u5c24\u7269",
        "href": "http://d.duotuwang.com/2018/08/14/9502/",
        "count": 35,
        "start": 1,
        "hasMtTag": 0,
        "hasJgTag": 1,
        "jgCount": 397
    },
    {
        "name": "[UGirlsAPP]\u7231\u5c24\u7269 No.1181 \u827e\u5c0f\u9752 \u5357\u6d77\u660e\u73e0",
        "src": "http://d.duotuwang.com/2018/08/13/9503/0.jpg",
        "mtId": "956ac07ef794d061",
        "mtName": "\u827e\u5c0f\u9752",
        "jgId": "ugirlsapp",
        "jgName": "\u7231\u5c24\u7269",
        "href": "http://d.duotuwang.com/2018/08/13/9503/",
        "count": 35,
        "start": 1,
        "hasMtTag": 1,
        "hasJgTag": 1,
        "mtCount": 16,
        "jgCount": 397
    },
    {
        "name": "[UGirlsAPP]\u7231\u5c24\u7269 No.1180 \u6bd4\u57fa\u5c3c\u59d0\u59b9\u82b1",
        "src": "http://d.duotuwang.com/2018/08/12/9504/0.jpg",
        "mtId": "887296a82352fa26",
        "mtName": "\u8bb8\u6587\u5a77",
        "jgId": "ugirlsapp",
        "jgName": "\u7231\u5c24\u7269",
        "href": "http://d.duotuwang.com/2018/08/12/9504/",
        "count": 35,
        "start": 1,
        "hasMtTag": 1,
        "hasJgTag": 1,
        "mtCount": 2,
        "jgCount": 397
    }
]