[
    {
        "name": "[UGirlsAPP]\u7231\u5c24\u7269 No.1173 \u5b89\u6c9b\u857e \u6843\u5b50\u5473\u7684\u590f\u5929",
        "src": "http://d.duotuwang.com/2018/08/03/9441/0.jpg",
        "mtId": "7ef68c1e9c42f21c",
        "mtName": "\u5b89\u6c9b\u857e",
        "jgId": "ugirlsapp",
        "jgName": "\u7231\u5c24\u7269",
        "href": "http://d.duotuwang.com/2018/08/03/9441/",
        "count": 35,
        "start": 1,
        "hasMtTag": 1,
        "hasJgTag": 1,
        "mtCount": 2,
        "jgCount": 397
    },
    {
        "name": "[UGirlsAPP]\u7231\u5c24\u7269 No.1172 \u91d1\u9732 \u8bf1\u4eba\u7684\u73ab\u7470",
        "src": "http://d.duotuwang.com/2018/08/03/9442/0.jpg",
        "mtId": "5e85903962fc7e1f",
        "mtName": "\u91d1\u9732",
        "jgId": "ugirlsapp",
        "jgName": "\u7231\u5c24\u7269",
        "href": "http://d.duotuwang.com/2018/08/03/9442/",
        "count": 36,
        "start": 1,
        "hasMtTag": 1,
        "hasJgTag": 1,
        "mtCount": 1,
        "jgCount": 397
    },
    {
        "name": "[UGirlsAPP]\u7231\u5c24\u7269 No.1171 \u660e\u5a1c \u9006\u5149",
        "src": "http://d.duotuwang.com/2018/08/03/9443/0.jpg",
        "mtId": "17ed05f19ceef715",
        "mtName": "\u660e\u5a1c",
        "jgId": "ugirlsapp",
        "jgName": "\u7231\u5c24\u7269",
        "href": "http://d.duotuwang.com/2018/08/03/9443/",
        "count": 35,
        "start": 1,
        "hasMtTag": 1,
        "hasJgTag": 1,
        "mtCount": 2,
        "jgCount": 397
    },
    {
        "name": "[UGirlsAPP]\u7231\u5c24\u7269 No.1170 \u827a\u4f0e\u56de\u5fc6\u5f55",
        "src": "http://d.duotuwang.com/2018/08/02/9444/0.jpg",
        "mtId": "2c039d14016a9d7f",
        "mtName": "\u7403\u7403",
        "jgId": "ugirlsapp",
        "jgName": "\u7231\u5c24\u7269",
        "href": "http://d.duotuwang.com/2018/08/02/9444/",
        "count": 35,
        "start": 1,
        "hasMtTag": 1,
        "hasJgTag": 1,
        "mtCount": 3,
        "jgCount": 397
    },
    {
        "name": "[UGirlsAPP]\u7231\u5c24\u7269 No.1169 Keny \u7c89\u7ea2\u5c11\u5973\u5fc3",
        "src": "http://d.duotuwang.com/2018/08/01/9404/0.jpg",
        "jgId": "ugirlsapp",
        "jgName": "\u7231\u5c24\u7269",
        "href": "http://d.duotuwang.com/2018/08/01/9404/",
        "count": 35,
        "start": 1,
        "hasMtTag": 0,
        "hasJgTag": 1,
        "jgCount": 397
    },
    {
        "name": "[UGirlsAPP]\u7231\u5c24\u7269 No.1168 \u9759\u4e00 \u6027\u611f\u6821\u56ed\u5fd7",
        "src": "http://d.duotuwang.com/2018/07/31/9405/0.jpg",
        "jgId": "ugirlsapp",
        "jgName": "\u7231\u5c24\u7269",
        "href": "http://d.duotuwang.com/2018/07/31/9405/",
        "count": 35,
        "start": 1,
        "hasMtTag": 0,
        "hasJgTag": 1,
        "jgCount": 397
    }
]