[
    {
        "name": "[UGirlsAPP]\u7231\u5c24\u7269 No.1155 \u9a86\u96ea\u6dc7 \u96ea\u808c\u6676\u6676\u4eae",
        "src": "http://d.duotuwang.com/2018/07/18/9334/0.jpg",
        "mtId": "aa69c5d5002e9fc3",
        "mtName": "\u9a86\u96ea\u6dc7",
        "jgId": "ugirlsapp",
        "jgName": "\u7231\u5c24\u7269",
        "href": "http://d.duotuwang.com/2018/07/18/9334/",
        "count": 35,
        "start": 1,
        "hasMtTag": 1,
        "hasJgTag": 1,
        "mtCount": 1,
        "jgCount": 397
    },
    {
        "name": "[UGirlsAPP]\u7231\u5c24\u7269 No.1154 \u91d1\u6893\u99a8 \u4e00\u5e18\u5e7d\u68a6",
        "src": "http://d.duotuwang.com/2018/07/17/9335/0.jpg",
        "jgId": "ugirlsapp",
        "jgName": "\u7231\u5c24\u7269",
        "href": "http://d.duotuwang.com/2018/07/17/9335/",
        "count": 35,
        "start": 1,
        "hasMtTag": 0,
        "hasJgTag": 1,
        "jgCount": 397
    },
    {
        "name": "[UGirlsAPP]\u7231\u5c24\u7269 No.1153 \u5c0f\u77f3\u5934 \u6101\u601d",
        "src": "http://d.duotuwang.com/2018/07/16/9336/0.jpg",
        "jgId": "ugirlsapp",
        "jgName": "\u7231\u5c24\u7269",
        "href": "http://d.duotuwang.com/2018/07/16/9336/",
        "count": 35,
        "start": 1,
        "hasMtTag": 0,
        "hasJgTag": 1,
        "jgCount": 397
    },
    {
        "name": "[UGirlsAPP]\u7231\u5c24\u7269 No.1152 \u68a6\u742a \u8ff7\u4eba\u8170\u7cbe",
        "src": "http://d.duotuwang.com/2018/07/13/9319/0.jpg",
        "jgId": "ugirlsapp",
        "jgName": "\u7231\u5c24\u7269",
        "href": "http://d.duotuwang.com/2018/07/13/9319/",
        "count": 35,
        "start": 1,
        "hasMtTag": 0,
        "hasJgTag": 1,
        "jgCount": 397
    },
    {
        "name": "[UGirlsAPP]\u7231\u5c24\u7269 No.1151 Vichy \u697c\u53f0\u743c\u5f71",
        "src": "http://d.duotuwang.com/2018/07/13/9320/0.jpg",
        "mtId": "f34d898198d54d12",
        "mtName": "Vichy",
        "jgId": "ugirlsapp",
        "jgName": "\u7231\u5c24\u7269",
        "href": "http://d.duotuwang.com/2018/07/13/9320/",
        "count": 37,
        "start": 1,
        "hasMtTag": 1,
        "hasJgTag": 1,
        "mtCount": 1,
        "jgCount": 397
    },
    {
        "name": "[UGirlsAPP]\u7231\u5c24\u7269 No.1150 \u840c\u6c49\u836fbaby \u6355\u5149\u6349\u5f71",
        "src": "http://d.duotuwang.com/2018/07/13/9321/0.jpg",
        "mtId": "830ea5862a484115",
        "mtName": "\u840c\u6c49\u836fbaby",
        "jgId": "ugirlsapp",
        "jgName": "\u7231\u5c24\u7269",
        "href": "http://d.duotuwang.com/2018/07/13/9321/",
        "count": 35,
        "start": 1,
        "hasMtTag": 1,
        "hasJgTag": 1,
        "mtCount": 17,
        "jgCount": 397
    }
]