[
    {
        "name": "[UGirlsAPP]\u7231\u5c24\u7269 No.992 \u4f55\u5609\u9896",
        "src": "http://d.duotuwang.com/2018/02/05/8088/0.jpg",
        "mtId": "ddcc0f5bf2efada3",
        "mtName": "\u4f55\u5609\u9896",
        "jgId": "ugirlsapp",
        "jgName": "\u7231\u5c24\u7269",
        "href": "http://d.duotuwang.com/2018/02/05/8088/",
        "count": 40,
        "start": 1,
        "hasMtTag": 1,
        "hasJgTag": 1,
        "mtCount": 14,
        "jgCount": 397
    },
    {
        "name": "[UGirlsAPP]\u7231\u5c24\u7269 No.991 \u674e\u6613\u7ae5",
        "src": "http://d.duotuwang.com/2018/02/02/8089/0.jpg",
        "jgId": "ugirlsapp",
        "jgName": "\u7231\u5c24\u7269",
        "href": "http://d.duotuwang.com/2018/02/02/8089/",
        "count": 40,
        "start": 1,
        "hasMtTag": 0,
        "hasJgTag": 1,
        "jgCount": 397
    },
    {
        "name": "[UGirlsAPP]\u7231\u5c24\u7269 No.990 \u5f90\u946b",
        "src": "http://d.duotuwang.com/2018/02/02/8090/0.jpg",
        "jgId": "ugirlsapp",
        "jgName": "\u7231\u5c24\u7269",
        "href": "http://d.duotuwang.com/2018/02/02/8090/",
        "count": 40,
        "start": 1,
        "hasMtTag": 0,
        "hasJgTag": 1,
        "jgCount": 397
    },
    {
        "name": "[UGirlsAPP]\u7231\u5c24\u7269 No.989 \u96ea\u8389",
        "src": "http://d.duotuwang.com/2018/02/02/8091/0.jpg",
        "jgId": "ugirlsapp",
        "jgName": "\u7231\u5c24\u7269",
        "href": "http://d.duotuwang.com/2018/02/02/8091/",
        "count": 40,
        "start": 1,
        "hasMtTag": 0,
        "hasJgTag": 1,
        "jgCount": 397
    },
    {
        "name": "[UGirlsAPP]\u7231\u5c24\u7269 No.988 \u5b89\u53ef\u53ef",
        "src": "http://d.duotuwang.com/2018/02/01/8092/0.jpg",
        "jgId": "ugirlsapp",
        "jgName": "\u7231\u5c24\u7269",
        "href": "http://d.duotuwang.com/2018/02/01/8092/",
        "count": 40,
        "start": 1,
        "hasMtTag": 0,
        "hasJgTag": 1,
        "jgCount": 397
    },
    {
        "name": "[UGirlsAPP]\u7231\u5c24\u7269 No.987 \u5927\u5b89\u59ae",
        "src": "http://d.duotuwang.com/2018/01/31/8093/0.jpg",
        "mtId": "4fdc4bf65a8b42b2",
        "mtName": "\u5927\u5b89\u59ae",
        "jgId": "ugirlsapp",
        "jgName": "\u7231\u5c24\u7269",
        "href": "http://d.duotuwang.com/2018/01/31/8093/",
        "count": 40,
        "start": 1,
        "hasMtTag": 1,
        "hasJgTag": 1,
        "mtCount": 1,
        "jgCount": 397
    }
]