[
    {
        "name": "[UGirlsAPP]\u7231\u5c24\u7269 No.986 \u82cf\u5929\u59ff",
        "src": "http://d.duotuwang.com/2018/01/30/8094/0.jpg",
        "jgId": "ugirlsapp",
        "jgName": "\u7231\u5c24\u7269",
        "href": "http://d.duotuwang.com/2018/01/30/8094/",
        "count": 40,
        "start": 1,
        "hasMtTag": 0,
        "hasJgTag": 1,
        "jgCount": 397
    },
    {
        "name": "[UGirlsAPP]\u7231\u5c24\u7269 No.985 \u5955\u6f84",
        "src": "http://d.duotuwang.com/2018/01/29/8069/0.jpg",
        "jgId": "ugirlsapp",
        "jgName": "\u7231\u5c24\u7269",
        "href": "http://d.duotuwang.com/2018/01/29/8069/",
        "count": 40,
        "start": 1,
        "hasMtTag": 0,
        "hasJgTag": 1,
        "jgCount": 397
    },
    {
        "name": "[UGirlsAPP]\u7231\u5c24\u7269 No.984 Elsa",
        "src": "http://d.duotuwang.com/2018/01/26/8070/0.jpg",
        "jgId": "ugirlsapp",
        "jgName": "\u7231\u5c24\u7269",
        "href": "http://d.duotuwang.com/2018/01/26/8070/",
        "count": 40,
        "start": 1,
        "hasMtTag": 0,
        "hasJgTag": 1,
        "jgCount": 397
    },
    {
        "name": "[UGirlsAPP]\u7231\u5c24\u7269 No.983 \u840c\u742a\u742a&\u7a0b\u6893",
        "src": "http://d.duotuwang.com/2018/01/26/8078/0.jpg",
        "mtId": "66729276e15617cd",
        "mtName": "\u840c\u742a\u742a",
        "jgId": "ugirlsapp",
        "jgName": "\u7231\u5c24\u7269",
        "href": "http://d.duotuwang.com/2018/01/26/8078/",
        "count": 40,
        "start": 1,
        "hasMtTag": 1,
        "hasJgTag": 1,
        "mtCount": 7,
        "jgCount": 397
    },
    {
        "name": "[UGirlsAPP]\u7231\u5c24\u7269 No.982 \u67cf\u59a4",
        "src": "http://d.duotuwang.com/2018/01/26/8071/0.jpg",
        "mtId": "3e8b44a4b266ba86",
        "mtName": "\u67cf\u59a4",
        "jgId": "ugirlsapp",
        "jgName": "\u7231\u5c24\u7269",
        "href": "http://d.duotuwang.com/2018/01/26/8071/",
        "count": 40,
        "start": 1,
        "hasMtTag": 1,
        "hasJgTag": 1,
        "mtCount": 1,
        "jgCount": 397
    },
    {
        "name": "[UGirlsAPP]\u7231\u5c24\u7269 No.981 \u738b\u4ea6\u6f84",
        "src": "http://d.duotuwang.com/2018/01/25/8072/0.jpg",
        "jgId": "ugirlsapp",
        "jgName": "\u7231\u5c24\u7269",
        "href": "http://d.duotuwang.com/2018/01/25/8072/",
        "count": 40,
        "start": 1,
        "hasMtTag": 0,
        "hasJgTag": 1,
        "jgCount": 397
    }
]