[
    {
        "name": "[UGirlsAPP]\u7231\u5c24\u7269 No.932 \u82b3\u83f2\u83f2",
        "src": "http://d.duotuwang.com/2017/12/07/6480/0.jpg",
        "jgId": "ugirlsapp",
        "jgName": "\u7231\u5c24\u7269",
        "href": "http://d.duotuwang.com/2017/12/07/6480/",
        "count": 40,
        "start": 1,
        "hasMtTag": 0,
        "hasJgTag": 1,
        "jgCount": 397
    },
    {
        "name": "[UGirlsAPP]\u7231\u5c24\u7269 No.931 \u827e\u8bed\u6843",
        "src": "http://d.duotuwang.com/2017/12/06/6481/0.jpg",
        "jgId": "ugirlsapp",
        "jgName": "\u7231\u5c24\u7269",
        "href": "http://d.duotuwang.com/2017/12/06/6481/",
        "count": 40,
        "start": 1,
        "hasMtTag": 0,
        "hasJgTag": 1,
        "jgCount": 397
    },
    {
        "name": "[UGirlsAPP]\u7231\u5c24\u7269 No.930 \u9648\u7f8e\u7199",
        "src": "http://d.duotuwang.com/2017/12/05/6440/0.jpg",
        "jgId": "ugirlsapp",
        "jgName": "\u7231\u5c24\u7269",
        "href": "http://d.duotuwang.com/2017/12/05/6440/",
        "count": 40,
        "start": 1,
        "hasMtTag": 0,
        "hasJgTag": 1,
        "jgCount": 397
    },
    {
        "name": "[UGirlsAPP]\u7231\u5c24\u7269 No.929 \u5218\u5929\u5929",
        "src": "http://d.duotuwang.com/2017/12/04/6441/0.jpg",
        "mtId": "f4f205efa424ac5a",
        "mtName": "\u5218\u5929\u5929",
        "jgId": "ugirlsapp",
        "jgName": "\u7231\u5c24\u7269",
        "href": "http://d.duotuwang.com/2017/12/04/6441/",
        "count": 40,
        "start": 1,
        "hasMtTag": 1,
        "hasJgTag": 1,
        "mtCount": 1,
        "jgCount": 397
    },
    {
        "name": "[UGirlsAPP]\u7231\u5c24\u7269 No.928 \u590f\u5915",
        "src": "http://d.duotuwang.com/2017/12/01/6442/0.jpg",
        "mtId": "8bc89e1ece54e867",
        "mtName": "\u590f\u5915",
        "jgId": "ugirlsapp",
        "jgName": "\u7231\u5c24\u7269",
        "href": "http://d.duotuwang.com/2017/12/01/6442/",
        "count": 40,
        "start": 1,
        "hasMtTag": 1,
        "hasJgTag": 1,
        "mtCount": 1,
        "jgCount": 397
    },
    {
        "name": "[UGirlsAPP]\u7231\u5c24\u7269 No.927 \u4f9d\u604b",
        "src": "http://d.duotuwang.com/2017/12/01/6443/0.jpg",
        "jgId": "ugirlsapp",
        "jgName": "\u7231\u5c24\u7269",
        "href": "http://d.duotuwang.com/2017/12/01/6443/",
        "count": 40,
        "start": 1,
        "hasMtTag": 0,
        "hasJgTag": 1,
        "jgCount": 397
    }
]