[
    {
        "name": "[UGirlsAPP]\u7231\u5c24\u7269 No.812 \u5976\u6cb9",
        "src": "http://d.duotuwang.com/2017/08/09/5381/0.jpg",
        "mtId": "04d9f11072a212b5",
        "mtName": "\u5976\u6cb9",
        "jgId": "ugirlsapp",
        "jgName": "\u7231\u5c24\u7269",
        "href": "http://d.duotuwang.com/2017/08/09/5381/",
        "count": 40,
        "start": 1,
        "hasMtTag": 1,
        "hasJgTag": 1,
        "mtCount": 2,
        "jgCount": 397
    },
    {
        "name": "[UGirlsAPP]\u7231\u5c24\u7269 No.811 \u827e\u9713\u838e",
        "src": "http://d.duotuwang.com/2017/08/08/5382/0.jpg",
        "mtId": "cf0d9f99f400fd55",
        "mtName": "\u827e\u9713\u838e",
        "jgId": "ugirlsapp",
        "jgName": "\u7231\u5c24\u7269",
        "href": "http://d.duotuwang.com/2017/08/08/5382/",
        "count": 40,
        "start": 1,
        "hasMtTag": 1,
        "hasJgTag": 1,
        "mtCount": 1,
        "jgCount": 397
    },
    {
        "name": "[UGirlsAPP]\u7231\u5c24\u7269 No.810 \u848b\u6b23\u598d",
        "src": "http://d.duotuwang.com/2017/08/07/5350/0.jpg",
        "jgId": "ugirlsapp",
        "jgName": "\u7231\u5c24\u7269",
        "href": "http://d.duotuwang.com/2017/08/07/5350/",
        "count": 40,
        "start": 1,
        "hasMtTag": 0,
        "hasJgTag": 1,
        "jgCount": 397
    },
    {
        "name": "[UGirlsAPP]\u7231\u5c24\u7269 No.809 \u5965\u5229",
        "src": "http://d.duotuwang.com/2017/08/04/5351/0.jpg",
        "jgId": "ugirlsapp",
        "jgName": "\u7231\u5c24\u7269",
        "href": "http://d.duotuwang.com/2017/08/04/5351/",
        "count": 40,
        "start": 1,
        "hasMtTag": 0,
        "hasJgTag": 1,
        "jgCount": 397
    },
    {
        "name": "[UGirlsAPP]\u7231\u5c24\u7269 No.808 \u738b\u7b11",
        "src": "http://d.duotuwang.com/2017/08/04/5352/0.jpg",
        "jgId": "ugirlsapp",
        "jgName": "\u7231\u5c24\u7269",
        "href": "http://d.duotuwang.com/2017/08/04/5352/",
        "count": 40,
        "start": 1,
        "hasMtTag": 0,
        "hasJgTag": 1,
        "jgCount": 397
    },
    {
        "name": "[UGirlsAPP]\u7231\u5c24\u7269 No.807 \u90ed\u8bed\u6674",
        "src": "http://d.duotuwang.com/2017/08/04/5353/0.jpg",
        "mtId": "0cbf1d472e69b630",
        "mtName": "\u90ed\u8bed\u6674",
        "jgId": "ugirlsapp",
        "jgName": "\u7231\u5c24\u7269",
        "href": "http://d.duotuwang.com/2017/08/04/5353/",
        "count": 40,
        "start": 1,
        "hasMtTag": 1,
        "hasJgTag": 1,
        "mtCount": 1,
        "jgCount": 397
    }
]