[
    {
        "name": "[UGirlsAPP]\u7231\u5c24\u7269 No.758 \u767d\u80d6\u5b50",
        "src": "http://d.duotuwang.com/2017/06/16/5078/0.jpg",
        "jgId": "ugirlsapp",
        "jgName": "\u7231\u5c24\u7269",
        "href": "http://d.duotuwang.com/2017/06/16/5078/",
        "count": 40,
        "start": 1,
        "hasMtTag": 0,
        "hasJgTag": 1,
        "jgCount": 397
    },
    {
        "name": "[UGirlsAPP]\u7231\u5c24\u7269 No.757 \u4e54\u4f0a\u96ea",
        "src": "http://d.duotuwang.com/2017/06/15/5079/0.jpg",
        "jgId": "ugirlsapp",
        "jgName": "\u7231\u5c24\u7269",
        "href": "http://d.duotuwang.com/2017/06/15/5079/",
        "count": 40,
        "start": 1,
        "hasMtTag": 0,
        "hasJgTag": 1,
        "jgCount": 397
    },
    {
        "name": "[UGirlsAPP]\u7231\u5c24\u7269 No.756 \u7eee\u7199",
        "src": "http://d.duotuwang.com/2017/06/14/5080/0.jpg",
        "jgId": "ugirlsapp",
        "jgName": "\u7231\u5c24\u7269",
        "href": "http://d.duotuwang.com/2017/06/14/5080/",
        "count": 40,
        "start": 1,
        "hasMtTag": 0,
        "hasJgTag": 1,
        "jgCount": 397
    },
    {
        "name": "[UGirlsAPP]\u7231\u5c24\u7269 No.755 \u5b50\u4e66\u6d1b",
        "src": "http://d.duotuwang.com/2017/06/13/5081/0.jpg",
        "jgId": "ugirlsapp",
        "jgName": "\u7231\u5c24\u7269",
        "href": "http://d.duotuwang.com/2017/06/13/5081/",
        "count": 40,
        "start": 1,
        "hasMtTag": 0,
        "hasJgTag": 1,
        "jgCount": 397
    },
    {
        "name": "[UGirlsAPP]\u7231\u5c24\u7269 No.754 \u5c24\u5a1c\u5a1c",
        "src": "http://d.duotuwang.com/2017/06/12/5082/0.jpg",
        "mtId": "a402abfbe1e891e8",
        "mtName": "\u5c24\u5a1c\u5a1c",
        "jgId": "ugirlsapp",
        "jgName": "\u7231\u5c24\u7269",
        "href": "http://d.duotuwang.com/2017/06/12/5082/",
        "count": 40,
        "start": 1,
        "hasMtTag": 1,
        "hasJgTag": 1,
        "mtCount": 1,
        "jgCount": 397
    },
    {
        "name": "[UGirlsAPP]\u7231\u5c24\u7269 No.753 \u6f2b\u516e",
        "src": "http://d.duotuwang.com/2017/06/09/5083/0.jpg",
        "mtId": "5d76d4d8027962c5",
        "mtName": "\u6f2b\u516e",
        "jgId": "ugirlsapp",
        "jgName": "\u7231\u5c24\u7269",
        "href": "http://d.duotuwang.com/2017/06/09/5083/",
        "count": 40,
        "start": 1,
        "hasMtTag": 1,
        "hasJgTag": 1,
        "mtCount": 1,
        "jgCount": 397
    }
]