[
    {
        "name": "[UGirlsAPP]\u7231\u5c24\u7269 No.698 \u7384\u61ffbaby",
        "src": "http://d.duotuwang.com/2017/04/14/5041/0.jpg",
        "jgId": "ugirlsapp",
        "jgName": "\u7231\u5c24\u7269",
        "href": "http://d.duotuwang.com/2017/04/14/5041/",
        "count": 38,
        "start": 1,
        "hasMtTag": 0,
        "hasJgTag": 1,
        "jgCount": 397
    },
    {
        "name": "[UGirlsAPP]\u7231\u5c24\u7269 No.697 \u5b63\u4f73\u742a",
        "src": "http://d.duotuwang.com/2017/04/14/5042/0.jpg",
        "jgId": "ugirlsapp",
        "jgName": "\u7231\u5c24\u7269",
        "href": "http://d.duotuwang.com/2017/04/14/5042/",
        "count": 40,
        "start": 1,
        "hasMtTag": 0,
        "hasJgTag": 1,
        "jgCount": 397
    },
    {
        "name": "[UGirlsAPP]\u7231\u5c24\u7269 No.696 \u4f55\u695a\u695a",
        "src": "http://d.duotuwang.com/2017/04/14/5043/0.jpg",
        "jgId": "ugirlsapp",
        "jgName": "\u7231\u5c24\u7269",
        "href": "http://d.duotuwang.com/2017/04/14/5043/",
        "count": 40,
        "start": 1,
        "hasMtTag": 0,
        "hasJgTag": 1,
        "jgCount": 397
    },
    {
        "name": "[UGirlsAPP]\u7231\u5c24\u7269 No.695 \u660e\u5a1c",
        "src": "http://d.duotuwang.com/2017/04/14/5044/0.jpg",
        "mtId": "17ed05f19ceef715",
        "mtName": "\u660e\u5a1c",
        "jgId": "ugirlsapp",
        "jgName": "\u7231\u5c24\u7269",
        "href": "http://d.duotuwang.com/2017/04/14/5044/",
        "count": 40,
        "start": 1,
        "hasMtTag": 1,
        "hasJgTag": 1,
        "mtCount": 2,
        "jgCount": 397
    },
    {
        "name": "[UGirlsAPP]\u7231\u5c24\u7269 No.694 \u674e\u51cc\u5b50",
        "src": "http://d.duotuwang.com/2017/04/13/5045/0.jpg",
        "mtId": "e5e449fcad1f8f68",
        "mtName": "\u674e\u51cc\u5b50",
        "jgId": "ugirlsapp",
        "jgName": "\u7231\u5c24\u7269",
        "href": "http://d.duotuwang.com/2017/04/13/5045/",
        "count": 40,
        "start": 1,
        "hasMtTag": 1,
        "hasJgTag": 1,
        "mtCount": 1,
        "jgCount": 397
    },
    {
        "name": "[UGirlsAPP]\u7231\u5c24\u7269 No.693 \u5c0f\u60a6\u60a6",
        "src": "http://d.duotuwang.com/2017/04/12/5046/0.jpg",
        "jgId": "ugirlsapp",
        "jgName": "\u7231\u5c24\u7269",
        "href": "http://d.duotuwang.com/2017/04/12/5046/",
        "count": 40,
        "start": 1,
        "hasMtTag": 0,
        "hasJgTag": 1,
        "jgCount": 397
    }
]