[
    {
        "name": "[UGirlsAPP]\u7231\u5c24\u7269 No.686 Jona",
        "src": "http://d.duotuwang.com/2017/04/05/5005/0.jpg",
        "mtId": "5ae5c7645b37f561",
        "mtName": "Jona",
        "jgId": "ugirlsapp",
        "jgName": "\u7231\u5c24\u7269",
        "href": "http://d.duotuwang.com/2017/04/05/5005/",
        "count": 40,
        "start": 1,
        "hasMtTag": 1,
        "hasJgTag": 1,
        "mtCount": 2,
        "jgCount": 397
    },
    {
        "name": "[UGirlsAPP]\u7231\u5c24\u7269 No.685 Shirley",
        "src": "http://d.duotuwang.com/2017/04/01/5006/0.jpg",
        "mtId": "bbccb9fba57b039b",
        "mtName": "Shirley",
        "jgId": "ugirlsapp",
        "jgName": "\u7231\u5c24\u7269",
        "href": "http://d.duotuwang.com/2017/04/01/5006/",
        "count": 40,
        "start": 1,
        "hasMtTag": 1,
        "hasJgTag": 1,
        "mtCount": 2,
        "jgCount": 397
    },
    {
        "name": "[UGirlsAPP]\u7231\u5c24\u7269 No.684 \u674e\u96c5\u742a",
        "src": "http://d.duotuwang.com/2017/04/01/5007/0.jpg",
        "jgId": "ugirlsapp",
        "jgName": "\u7231\u5c24\u7269",
        "href": "http://d.duotuwang.com/2017/04/01/5007/",
        "count": 41,
        "start": 1,
        "hasMtTag": 0,
        "hasJgTag": 1,
        "jgCount": 397
    },
    {
        "name": "[UGirlsAPP]\u7231\u5c24\u7269 No.683 \u9648\u8fea\u5a05",
        "src": "http://d.duotuwang.com/2017/04/01/5008/0.jpg",
        "mtId": "1f215b924d1e8dcc",
        "mtName": "\u9648\u8fea\u5a05",
        "jgId": "ugirlsapp",
        "jgName": "\u7231\u5c24\u7269",
        "href": "http://d.duotuwang.com/2017/04/01/5008/",
        "count": 40,
        "start": 1,
        "hasMtTag": 1,
        "hasJgTag": 1,
        "mtCount": 1,
        "jgCount": 397
    },
    {
        "name": "[UGirlsAPP]\u7231\u5c24\u7269 No.682 \u6a0a\u5b89\u59ae",
        "src": "http://d.duotuwang.com/2017/04/01/5009/0.jpg",
        "mtId": "63ac2390c0a11b3a",
        "mtName": "\u6a0a\u5b89\u59ae",
        "jgId": "ugirlsapp",
        "jgName": "\u7231\u5c24\u7269",
        "href": "http://d.duotuwang.com/2017/04/01/5009/",
        "count": 40,
        "start": 1,
        "hasMtTag": 1,
        "hasJgTag": 1,
        "mtCount": 2,
        "jgCount": 397
    },
    {
        "name": "[UGirlsAPP]\u7231\u5c24\u7269 No.681 \u9648\u590f\u6538",
        "src": "http://d.duotuwang.com/2017/03/30/5010/0.jpg",
        "jgId": "ugirlsapp",
        "jgName": "\u7231\u5c24\u7269",
        "href": "http://d.duotuwang.com/2017/03/30/5010/",
        "count": 40,
        "start": 1,
        "hasMtTag": 0,
        "hasJgTag": 1,
        "jgCount": 397
    }
]