[
    {
        "name": "[UGirlsAPP]\u7231\u5c24\u7269 No.662 \u59a5\u59a5",
        "src": "http://d.duotuwang.com/2017/03/10/4981/0.jpg",
        "jgId": "ugirlsapp",
        "jgName": "\u7231\u5c24\u7269",
        "href": "http://d.duotuwang.com/2017/03/10/4981/",
        "count": 40,
        "start": 1,
        "hasMtTag": 0,
        "hasJgTag": 1,
        "jgCount": 397
    },
    {
        "name": "[UGirlsAPP]\u7231\u5c24\u7269 No.661 \u97e9\u6069\u7f8e",
        "src": "http://d.duotuwang.com/2017/03/10/4982/0.jpg",
        "mtId": "d46fa2fd70d90219",
        "mtName": "\u97e9\u6069\u7f8e",
        "jgId": "ugirlsapp",
        "jgName": "\u7231\u5c24\u7269",
        "href": "http://d.duotuwang.com/2017/03/10/4982/",
        "count": 41,
        "start": 1,
        "hasMtTag": 1,
        "hasJgTag": 1,
        "mtCount": 1,
        "jgCount": 397
    },
    {
        "name": "[UGirlsAPP]\u7231\u5c24\u7269 No.660 \u5f20\u96ea\u99a8",
        "src": "http://d.duotuwang.com/2017/03/10/4983/0.jpg",
        "mtId": "ab83a9781354d7d4",
        "mtName": "\u5f20\u96ea\u99a8",
        "jgId": "ugirlsapp",
        "jgName": "\u7231\u5c24\u7269",
        "href": "http://d.duotuwang.com/2017/03/10/4983/",
        "count": 40,
        "start": 1,
        "hasMtTag": 1,
        "hasJgTag": 1,
        "mtCount": 1,
        "jgCount": 397
    },
    {
        "name": "[UGirlsAPP]\u7231\u5c24\u7269 No.659 \u51ef\u7af9",
        "src": "http://d.duotuwang.com/2017/03/09/4984/0.jpg",
        "mtId": "1aaa50d9fb5e31ce",
        "mtName": "\u51ef\u7af9",
        "jgId": "ugirlsapp",
        "jgName": "\u7231\u5c24\u7269",
        "href": "http://d.duotuwang.com/2017/03/09/4984/",
        "count": 41,
        "start": 1,
        "hasMtTag": 1,
        "hasJgTag": 1,
        "mtCount": 9,
        "jgCount": 397
    },
    {
        "name": "[UGirlsAPP]\u7231\u5c24\u7269 No.658 \u7231\u4e3d\u838e",
        "src": "http://d.duotuwang.com/2017/03/06/4985/0.jpg",
        "mtId": "64cbd864172732b1",
        "mtName": "\u7231\u4e3d\u838e",
        "jgId": "ugirlsapp",
        "jgName": "\u7231\u5c24\u7269",
        "href": "http://d.duotuwang.com/2017/03/06/4985/",
        "count": 41,
        "start": 1,
        "hasMtTag": 1,
        "hasJgTag": 1,
        "mtCount": 8,
        "jgCount": 397
    },
    {
        "name": "[UGirlsAPP]\u7231\u5c24\u7269 No.657 \u8309\u8389",
        "src": "http://d.duotuwang.com/2017/03/06/4986/0.jpg",
        "mtId": "f6362b0f20eee3e6",
        "mtName": "\u8309\u8389",
        "jgId": "ugirlsapp",
        "jgName": "\u7231\u5c24\u7269",
        "href": "http://d.duotuwang.com/2017/03/06/4986/",
        "count": 40,
        "start": 1,
        "hasMtTag": 1,
        "hasJgTag": 1,
        "mtCount": 1,
        "jgCount": 397
    }
]