[
    {
        "name": "[UGirlsAPP]\u7231\u5c24\u7269 No.615 \u674e\u598d\u66e6",
        "src": "http://d.duotuwang.com/2017/01/22/4934/0.jpg",
        "mtId": "ab1198c5ecbae2a9",
        "mtName": "\u674e\u598d\u66e6",
        "jgId": "ugirlsapp",
        "jgName": "\u7231\u5c24\u7269",
        "href": "http://d.duotuwang.com/2017/01/22/4934/",
        "count": 40,
        "start": 1,
        "hasMtTag": 1,
        "hasJgTag": 1,
        "mtCount": 1,
        "jgCount": 397
    },
    {
        "name": "[UGirlsAPP]\u7231\u5c24\u7269 No.614 \u674e\u7f8e\u4e50",
        "src": "http://d.duotuwang.com/2017/01/22/4935/0.jpg",
        "jgId": "ugirlsapp",
        "jgName": "\u7231\u5c24\u7269",
        "href": "http://d.duotuwang.com/2017/01/22/4935/",
        "count": 40,
        "start": 1,
        "hasMtTag": 0,
        "hasJgTag": 1,
        "jgCount": 397
    },
    {
        "name": "[UGirlsAPP]\u7231\u5c24\u7269 No.613 \u51ef\u7af9",
        "src": "http://d.duotuwang.com/2017/01/21/4936/0.jpg",
        "mtId": "1aaa50d9fb5e31ce",
        "mtName": "\u51ef\u7af9",
        "jgId": "ugirlsapp",
        "jgName": "\u7231\u5c24\u7269",
        "href": "http://d.duotuwang.com/2017/01/21/4936/",
        "count": 40,
        "start": 1,
        "hasMtTag": 1,
        "hasJgTag": 1,
        "mtCount": 9,
        "jgCount": 397
    },
    {
        "name": "[UGirlsAPP]\u7231\u5c24\u7269 No.612 \u674e\u6893\u7136",
        "src": "http://d.duotuwang.com/2017/01/20/4937/0.jpg",
        "mtId": "c20a8d8edc6f01e7",
        "mtName": "\u674e\u6893\u7136",
        "jgId": "ugirlsapp",
        "jgName": "\u7231\u5c24\u7269",
        "href": "http://d.duotuwang.com/2017/01/20/4937/",
        "count": 40,
        "start": 1,
        "hasMtTag": 1,
        "hasJgTag": 1,
        "mtCount": 7,
        "jgCount": 397
    },
    {
        "name": "[UGirlsAPP]\u7231\u5c24\u7269 No.611 \u6797\u7199\u6850",
        "src": "http://d.duotuwang.com/2017/01/18/4938/0.jpg",
        "mtId": "193a1421e4901378",
        "mtName": "\u6797\u7199\u6850",
        "jgId": "ugirlsapp",
        "jgName": "\u7231\u5c24\u7269",
        "href": "http://d.duotuwang.com/2017/01/18/4938/",
        "count": 40,
        "start": 1,
        "hasMtTag": 1,
        "hasJgTag": 1,
        "mtCount": 1,
        "jgCount": 397
    },
    {
        "name": "[UGirlsAPP]\u7231\u5c24\u7269 No.610 \u80e1\u7490\u7490",
        "src": "http://d.duotuwang.com/2017/01/18/4939/0.jpg",
        "jgId": "ugirlsapp",
        "jgName": "\u7231\u5c24\u7269",
        "href": "http://d.duotuwang.com/2017/01/18/4939/",
        "count": 40,
        "start": 1,
        "hasMtTag": 0,
        "hasJgTag": 1,
        "jgCount": 397
    }
]