[
    {
        "name": "[UGirlsAPP]\u7231\u5c24\u7269 No.609 \u51af\u96ea\u5a07",
        "src": "http://d.duotuwang.com/2017/01/17/4940/0.jpg",
        "mtId": "41ab5678cb11b1db",
        "mtName": "\u51af\u96ea\u5a07",
        "jgId": "ugirlsapp",
        "jgName": "\u7231\u5c24\u7269",
        "href": "http://d.duotuwang.com/2017/01/17/4940/",
        "count": 40,
        "start": 1,
        "hasMtTag": 1,
        "hasJgTag": 1,
        "mtCount": 3,
        "jgCount": 397
    },
    {
        "name": "[UGirlsAPP]\u7231\u5c24\u7269 No.608 \u590f\u81f3",
        "src": "http://d.duotuwang.com/2017/01/16/4941/0.jpg",
        "jgId": "ugirlsapp",
        "jgName": "\u7231\u5c24\u7269",
        "href": "http://d.duotuwang.com/2017/01/16/4941/",
        "count": 40,
        "start": 1,
        "hasMtTag": 0,
        "hasJgTag": 1,
        "jgCount": 397
    },
    {
        "name": "[UGirlsAPP]\u7231\u5c24\u7269 No.607 \u5de6\u51fd\u6f2a",
        "src": "http://d.duotuwang.com/2017/01/13/4942/0.jpg",
        "jgId": "ugirlsapp",
        "jgName": "\u7231\u5c24\u7269",
        "href": "http://d.duotuwang.com/2017/01/13/4942/",
        "count": 40,
        "start": 1,
        "hasMtTag": 0,
        "hasJgTag": 1,
        "jgCount": 397
    },
    {
        "name": "[UGirlsAPP]\u7231\u5c24\u7269 No.606 \u7530\u6893\u8335",
        "src": "http://d.duotuwang.com/2017/01/13/4943/0.jpg",
        "mtId": "e220113abec1eb18",
        "mtName": "\u7530\u6893\u8335",
        "jgId": "ugirlsapp",
        "jgName": "\u7231\u5c24\u7269",
        "href": "http://d.duotuwang.com/2017/01/13/4943/",
        "count": 39,
        "start": 1,
        "hasMtTag": 1,
        "hasJgTag": 1,
        "mtCount": 1,
        "jgCount": 397
    },
    {
        "name": "[UGirlsAPP]\u7231\u5c24\u7269 No.605 \u5468\u5fc3\u6021",
        "src": "http://d.duotuwang.com/2017/01/13/4944/0.jpg",
        "mtId": "f765097c1c7c72d2",
        "mtName": "\u5468\u5fc3\u6021",
        "jgId": "ugirlsapp",
        "jgName": "\u7231\u5c24\u7269",
        "href": "http://d.duotuwang.com/2017/01/13/4944/",
        "count": 40,
        "start": 1,
        "hasMtTag": 1,
        "hasJgTag": 1,
        "mtCount": 1,
        "jgCount": 397
    },
    {
        "name": "[UGirlsAPP]\u7231\u5c24\u7269 No.604 \u738b\u661f\u96c5",
        "src": "http://d.duotuwang.com/2017/01/12/4945/0.jpg",
        "jgId": "ugirlsapp",
        "jgName": "\u7231\u5c24\u7269",
        "href": "http://d.duotuwang.com/2017/01/12/4945/",
        "count": 37,
        "start": 1,
        "hasMtTag": 0,
        "hasJgTag": 1,
        "jgCount": 397
    }
]