[
    {
        "name": "[UGirlsAPP]\u7231\u5c24\u7269 No.579 \u8d75\u9896",
        "src": "http://d.duotuwang.com/2016/12/16/4922/0.jpg",
        "mtId": "17db66800f394561",
        "mtName": "\u8d75\u9896",
        "jgId": "ugirlsapp",
        "jgName": "\u7231\u5c24\u7269",
        "href": "http://d.duotuwang.com/2016/12/16/4922/",
        "count": 40,
        "start": 1,
        "hasMtTag": 1,
        "hasJgTag": 1,
        "mtCount": 1,
        "jgCount": 397
    },
    {
        "name": "[UGirlsAPP]\u7231\u5c24\u7269 No.578 \u6797\u5915\u989c",
        "src": "http://d.duotuwang.com/2016/12/16/4923/0.jpg",
        "jgId": "ugirlsapp",
        "jgName": "\u7231\u5c24\u7269",
        "href": "http://d.duotuwang.com/2016/12/16/4923/",
        "count": 40,
        "start": 1,
        "hasMtTag": 0,
        "hasJgTag": 1,
        "jgCount": 397
    },
    {
        "name": "[UGirlsAPP]\u7231\u5c24\u7269 No.577 \u6797\u6e03\u6657",
        "src": "http://d.duotuwang.com/2016/12/16/4924/0.jpg",
        "mtId": "cb8b6f99ba23fcc2",
        "mtName": "\u6797\u6e03\u6657",
        "jgId": "ugirlsapp",
        "jgName": "\u7231\u5c24\u7269",
        "href": "http://d.duotuwang.com/2016/12/16/4924/",
        "count": 40,
        "start": 1,
        "hasMtTag": 1,
        "hasJgTag": 1,
        "mtCount": 2,
        "jgCount": 397
    },
    {
        "name": "[UGirlsAPP]\u7231\u5c24\u7269 No.576 \u5c0f\u742a",
        "src": "http://d.duotuwang.com/2016/12/15/4925/0.jpg",
        "mtId": "e4d09316d8a9d330",
        "mtName": "\u5c0f\u742a",
        "jgId": "ugirlsapp",
        "jgName": "\u7231\u5c24\u7269",
        "href": "http://d.duotuwang.com/2016/12/15/4925/",
        "count": 40,
        "start": 1,
        "hasMtTag": 1,
        "hasJgTag": 1,
        "mtCount": 26,
        "jgCount": 397
    },
    {
        "name": "[UGirlsAPP]\u7231\u5c24\u7269 No.575 \u827e\u9713\u838e",
        "src": "http://d.duotuwang.com/2016/12/14/4926/0.jpg",
        "mtId": "cf0d9f99f400fd55",
        "mtName": "\u827e\u9713\u838e",
        "jgId": "ugirlsapp",
        "jgName": "\u7231\u5c24\u7269",
        "href": "http://d.duotuwang.com/2016/12/14/4926/",
        "count": 40,
        "start": 1,
        "hasMtTag": 1,
        "hasJgTag": 1,
        "mtCount": 1,
        "jgCount": 397
    },
    {
        "name": "[UGirlsAPP]\u7231\u5c24\u7269 No.574 \u963f\u4f9d\u52aa\u5c14\u74e6\u5a05",
        "src": "http://d.duotuwang.com/2016/12/13/4927/0.jpg",
        "mtId": "8041c72d7ceeaaf5",
        "mtName": "\u963f\u4f9d\u52aa\u5c14\u74e6\u5a05",
        "jgId": "ugirlsapp",
        "jgName": "\u7231\u5c24\u7269",
        "href": "http://d.duotuwang.com/2016/12/13/4927/",
        "count": 40,
        "start": 1,
        "hasMtTag": 1,
        "hasJgTag": 1,
        "mtCount": 3,
        "jgCount": 397
    }
]