[
    {
        "name": "[UGirlsAPP]\u7231\u5c24\u7269 No.2198 \u59dc\u4e91\u66e6 \u6380\u4e91\u63a2\u7231",
        "src": "http://d.duotuwang.com/2021/10/22/27074/0.jpg",
        "mtId": "855c4af9394e4c5a",
        "mtName": "\u59dc\u4e91\u66e6",
        "jgId": "ugirlsapp",
        "jgName": "\u7231\u5c24\u7269",
        "href": "http://d.duotuwang.com/2021/10/22/27074/",
        "count": 35,
        "start": 1,
        "hasMtTag": 1,
        "hasJgTag": 1,
        "mtCount": 1,
        "jgCount": 397
    },
    {
        "name": "[UGirlsAPP]\u7231\u5c24\u7269 No.2197 \u845b\u5f81Model office\u817f\u7cbe",
        "src": "http://d.duotuwang.com/2021/10/20/26980/0.jpg",
        "mtId": "bac3f4adea859891",
        "mtName": "\u845b\u5f81Model",
        "jgId": "ugirlsapp",
        "jgName": "\u7231\u5c24\u7269",
        "href": "http://d.duotuwang.com/2021/10/20/26980/",
        "count": 34,
        "start": 1,
        "hasMtTag": 1,
        "hasJgTag": 1,
        "mtCount": 10,
        "jgCount": 397
    },
    {
        "name": "[UGirlsAPP]\u7231\u5c24\u7269 No.2196 \u8d4f\u5fc3\u60a6\u76ee",
        "src": "http://d.duotuwang.com/2021/10/18/26979/0.jpg",
        "jgId": "ugirlsapp",
        "jgName": "\u7231\u5c24\u7269",
        "href": "http://d.duotuwang.com/2021/10/18/26979/",
        "count": 35,
        "start": 1,
        "hasMtTag": 0,
        "hasJgTag": 1,
        "jgCount": 397
    },
    {
        "name": "[UGirlsAPP]\u7231\u5c24\u7269 No.2195 \u590f\u73b2\u8513 \u6c89\u9ed8\u7684\u5973\u7687",
        "src": "http://d.duotuwang.com/2021/10/17/26978/0.jpg",
        "mtId": "3c2ce021a80f2525",
        "mtName": "\u590f\u73b2\u8513",
        "jgId": "ugirlsapp",
        "jgName": "\u7231\u5c24\u7269",
        "href": "http://d.duotuwang.com/2021/10/17/26978/",
        "count": 35,
        "start": 1,
        "hasMtTag": 1,
        "hasJgTag": 1,
        "mtCount": 2,
        "jgCount": 397
    },
    {
        "name": "[UGirlsAPP]\u7231\u5c24\u7269 No.2194 \u598d\u7699 \u4e00\u773c\u5fc3\u52a8",
        "src": "http://d.duotuwang.com/2021/10/16/26977/0.jpg",
        "jgId": "ugirlsapp",
        "jgName": "\u7231\u5c24\u7269",
        "href": "http://d.duotuwang.com/2021/10/16/26977/",
        "count": 35,
        "start": 1,
        "hasMtTag": 0,
        "hasJgTag": 1,
        "jgCount": 397
    },
    {
        "name": "[UGirlsAPP]\u7231\u5c24\u7269 No.2193 \u957f\u817f\u598d\u5ae3 \u590d\u53e4\u60c5\u8c03",
        "src": "http://d.duotuwang.com/2021/10/15/26976/0.jpg",
        "mtId": "2de5d0271289d03e",
        "mtName": "\u957f\u817f\u598d\u5ae3",
        "jgId": "ugirlsapp",
        "jgName": "\u7231\u5c24\u7269",
        "href": "http://d.duotuwang.com/2021/10/15/26976/",
        "count": 35,
        "start": 1,
        "hasMtTag": 1,
        "hasJgTag": 1,
        "mtCount": 1,
        "jgCount": 397
    }
]