[
    {
        "name": "[UGirlsAPP]\u7231\u5c24\u7269 No.387 \u6e29\u920a\u6021",
        "src": "http://d.duotuwang.com/2016/06/08/4733/0.jpg",
        "mtId": "66734acb57d94af0",
        "mtName": "\u6e29\u920a\u6021",
        "jgId": "ugirlsapp",
        "jgName": "\u7231\u5c24\u7269",
        "href": "http://d.duotuwang.com/2016/06/08/4733/",
        "count": 40,
        "start": 1,
        "hasMtTag": 1,
        "hasJgTag": 1,
        "mtCount": 2,
        "jgCount": 397
    },
    {
        "name": "[UGirlsAPP]\u7231\u5c24\u7269 No.386 \u738b\u683c",
        "src": "http://d.duotuwang.com/2016/06/07/4734/0.jpg",
        "jgId": "ugirlsapp",
        "jgName": "\u7231\u5c24\u7269",
        "href": "http://d.duotuwang.com/2016/06/07/4734/",
        "count": 40,
        "start": 1,
        "hasMtTag": 0,
        "hasJgTag": 1,
        "jgCount": 397
    },
    {
        "name": "[UGirlsAPP]\u7231\u5c24\u7269 No.385 \u963f\u4f9d\u52aa\u5c14\u74e6\u5a05",
        "src": "http://d.duotuwang.com/2016/06/07/4735/0.jpg",
        "mtId": "8041c72d7ceeaaf5",
        "mtName": "\u963f\u4f9d\u52aa\u5c14\u74e6\u5a05",
        "jgId": "ugirlsapp",
        "jgName": "\u7231\u5c24\u7269",
        "href": "http://d.duotuwang.com/2016/06/07/4735/",
        "count": 40,
        "start": 1,
        "hasMtTag": 1,
        "hasJgTag": 1,
        "mtCount": 3,
        "jgCount": 397
    },
    {
        "name": "[UGirlsAPP]\u7231\u5c24\u7269 No.384 \u674e\u59ca\u4e50",
        "src": "http://d.duotuwang.com/2016/06/03/4736/0.jpg",
        "jgId": "ugirlsapp",
        "jgName": "\u7231\u5c24\u7269",
        "href": "http://d.duotuwang.com/2016/06/03/4736/",
        "count": 40,
        "start": 1,
        "hasMtTag": 0,
        "hasJgTag": 1,
        "jgCount": 397
    },
    {
        "name": "[UGirlsAPP]\u7231\u5c24\u7269 No.383 \u9752\u6811",
        "src": "http://d.duotuwang.com/2016/06/03/4737/0.jpg",
        "mtId": "e198f565d0da3712",
        "mtName": "\u9752\u6811",
        "jgId": "ugirlsapp",
        "jgName": "\u7231\u5c24\u7269",
        "href": "http://d.duotuwang.com/2016/06/03/4737/",
        "count": 40,
        "start": 1,
        "hasMtTag": 1,
        "hasJgTag": 1,
        "mtCount": 8,
        "jgCount": 397
    },
    {
        "name": "[UGirlsAPP]\u7231\u5c24\u7269 No.382 \u9648\u96c5\u6f2b",
        "src": "http://d.duotuwang.com/2016/06/03/4738/0.jpg",
        "mtId": "6bd2ad886173cf46",
        "mtName": "\u9648\u96c5\u6f2b",
        "jgId": "ugirlsapp",
        "jgName": "\u7231\u5c24\u7269",
        "href": "http://d.duotuwang.com/2016/06/03/4738/",
        "count": 40,
        "start": 1,
        "hasMtTag": 1,
        "hasJgTag": 1,
        "mtCount": 3,
        "jgCount": 397
    }
]