[
    {
        "name": "[UGirlsAPP]\u7231\u5c24\u7269 No.363 \u6b23\u6768Kitty",
        "src": "http://d.duotuwang.com/2016/05/16/4709/0.jpg",
        "mtId": "8cbc600605b62ac0",
        "mtName": "\u6b23\u6768Kitty",
        "jgId": "ugirlsapp",
        "jgName": "\u7231\u5c24\u7269",
        "href": "http://d.duotuwang.com/2016/05/16/4709/",
        "count": 40,
        "start": 1,
        "hasMtTag": 1,
        "hasJgTag": 1,
        "mtCount": 1,
        "jgCount": 397
    },
    {
        "name": "[UGirlsAPP]\u7231\u5c24\u7269 No.362 \u5609\u7199",
        "src": "http://d.duotuwang.com/2016/05/14/5327/0.jpg",
        "jgId": "ugirlsapp",
        "jgName": "\u7231\u5c24\u7269",
        "href": "http://d.duotuwang.com/2016/05/14/5327/",
        "count": 39,
        "start": 1,
        "hasMtTag": 0,
        "hasJgTag": 1,
        "jgCount": 397
    },
    {
        "name": "[UGirlsAPP]\u7231\u5c24\u7269 No.361 \u7a0b\u7490",
        "src": "http://d.duotuwang.com/2016/05/13/4710/0.jpg",
        "jgId": "ugirlsapp",
        "jgName": "\u7231\u5c24\u7269",
        "href": "http://d.duotuwang.com/2016/05/13/4710/",
        "count": 40,
        "start": 1,
        "hasMtTag": 0,
        "hasJgTag": 1,
        "jgCount": 397
    },
    {
        "name": "[UGirlsAPP]\u7231\u5c24\u7269 No.360 \u9038\u67d3",
        "src": "http://d.duotuwang.com/2016/05/13/4711/0.jpg",
        "mtId": "d87ce9c2781a5057",
        "mtName": "\u9038\u67d3",
        "jgId": "ugirlsapp",
        "jgName": "\u7231\u5c24\u7269",
        "href": "http://d.duotuwang.com/2016/05/13/4711/",
        "count": 40,
        "start": 1,
        "hasMtTag": 1,
        "hasJgTag": 1,
        "mtCount": 1,
        "jgCount": 397
    },
    {
        "name": "[UGirlsAPP]\u7231\u5c24\u7269 No.359 \u5566\u5566baby",
        "src": "http://d.duotuwang.com/2016/05/12/4712/0.jpg",
        "jgId": "ugirlsapp",
        "jgName": "\u7231\u5c24\u7269",
        "href": "http://d.duotuwang.com/2016/05/12/4712/",
        "count": 40,
        "start": 1,
        "hasMtTag": 0,
        "hasJgTag": 1,
        "jgCount": 397
    },
    {
        "name": "[UGirlsAPP]\u7231\u5c24\u7269 No.358 \u5c0f\u541b\u9171",
        "src": "http://d.duotuwang.com/2016/05/11/4713/0.jpg",
        "jgId": "ugirlsapp",
        "jgName": "\u7231\u5c24\u7269",
        "href": "http://d.duotuwang.com/2016/05/11/4713/",
        "count": 40,
        "start": 1,
        "hasMtTag": 0,
        "hasJgTag": 1,
        "jgCount": 397
    }
]