[
    {
        "name": "[UGirlsAPP]\u7231\u5c24\u7269 No.297 \u738b\u4e54\u6069",
        "src": "http://d.duotuwang.com/2016/03/11/4633/0.jpg",
        "jgId": "ugirlsapp",
        "jgName": "\u7231\u5c24\u7269",
        "href": "http://d.duotuwang.com/2016/03/11/4633/",
        "count": 40,
        "start": 1,
        "hasMtTag": 0,
        "hasJgTag": 1,
        "jgCount": 397
    },
    {
        "name": "[UGirlsAPP]\u7231\u5c24\u7269 No.296 \u674e\u5a05\u8426",
        "src": "http://d.duotuwang.com/2016/03/10/4634/0.jpg",
        "mtId": "f6cff3ef68333e71",
        "mtName": "\u674e\u5a05\u8426",
        "jgId": "ugirlsapp",
        "jgName": "\u7231\u5c24\u7269",
        "href": "http://d.duotuwang.com/2016/03/10/4634/",
        "count": 40,
        "start": 1,
        "hasMtTag": 1,
        "hasJgTag": 1,
        "mtCount": 1,
        "jgCount": 397
    },
    {
        "name": "[UGirlsAPP]\u7231\u5c24\u7269 No.295 \u767d\u5e7d\u5e7d",
        "src": "http://d.duotuwang.com/2016/03/09/4635/0.jpg",
        "jgId": "ugirlsapp",
        "jgName": "\u7231\u5c24\u7269",
        "href": "http://d.duotuwang.com/2016/03/09/4635/",
        "count": 40,
        "start": 1,
        "hasMtTag": 0,
        "hasJgTag": 1,
        "jgCount": 397
    },
    {
        "name": "[UGirlsAPP]\u7231\u5c24\u7269 No.294 MiuMiu",
        "src": "http://d.duotuwang.com/2016/03/08/4636/0.jpg",
        "mtId": "0feb7743f0c9e633",
        "mtName": "MiuMiu",
        "jgId": "ugirlsapp",
        "jgName": "\u7231\u5c24\u7269",
        "href": "http://d.duotuwang.com/2016/03/08/4636/",
        "count": 40,
        "start": 1,
        "hasMtTag": 1,
        "hasJgTag": 1,
        "mtCount": 1,
        "jgCount": 397
    },
    {
        "name": "[UGirlsAPP]\u7231\u5c24\u7269 No.293 \u6613\u946b",
        "src": "http://d.duotuwang.com/2016/03/07/4637/0.jpg",
        "jgId": "ugirlsapp",
        "jgName": "\u7231\u5c24\u7269",
        "href": "http://d.duotuwang.com/2016/03/07/4637/",
        "count": 40,
        "start": 1,
        "hasMtTag": 0,
        "hasJgTag": 1,
        "jgCount": 397
    },
    {
        "name": "[UGirlsAPP]\u7231\u5c24\u7269 No.292 \u6bdb\u6bdb",
        "src": "http://d.duotuwang.com/2016/03/04/4638/0.jpg",
        "jgId": "ugirlsapp",
        "jgName": "\u7231\u5c24\u7269",
        "href": "http://d.duotuwang.com/2016/03/04/4638/",
        "count": 40,
        "start": 1,
        "hasMtTag": 0,
        "hasJgTag": 1,
        "jgCount": 397
    }
]