[
    {
        "name": "[UGirlsAPP]\u7231\u5c24\u7269 No.2180 \u67da\u5b50 \u751c\u67da\u9171",
        "src": "http://d.duotuwang.com/2021/09/24/26696/0.jpg",
        "mtId": "67ce743187e29ba3",
        "mtName": "\u67da\u5b50",
        "jgId": "ugirlsapp",
        "jgName": "\u7231\u5c24\u7269",
        "href": "http://d.duotuwang.com/2021/09/24/26696/",
        "count": 35,
        "start": 1,
        "hasMtTag": 1,
        "hasJgTag": 1,
        "mtCount": 1,
        "jgCount": 397
    },
    {
        "name": "[UGirlsAPP]\u7231\u5c24\u7269 No.2179 \u6ee1\u6ee1\u7231",
        "src": "http://d.duotuwang.com/2021/09/22/26695/0.jpg",
        "jgId": "ugirlsapp",
        "jgName": "\u7231\u5c24\u7269",
        "href": "http://d.duotuwang.com/2021/09/22/26695/",
        "count": 35,
        "start": 1,
        "hasMtTag": 0,
        "hasJgTag": 1,
        "jgCount": 397
    },
    {
        "name": "[UGirlsAPP]\u7231\u5c24\u7269 No.2178 \u7b71\u6167 \u7cd6\u5fc3\u6ee1\u6708",
        "src": "http://d.duotuwang.com/2021/09/21/26694/0.jpg",
        "mtId": "c739b89a0b9c02a0",
        "mtName": "\u7b71\u6167",
        "jgId": "ugirlsapp",
        "jgName": "\u7231\u5c24\u7269",
        "href": "http://d.duotuwang.com/2021/09/21/26694/",
        "count": 30,
        "start": 1,
        "hasMtTag": 1,
        "hasJgTag": 1,
        "mtCount": 17,
        "jgCount": 397
    },
    {
        "name": "[UGirlsAPP]\u7231\u5c24\u7269 No.2177 \u827e\u4f18\u871c \u5fc6\u7231\u601d\u751c",
        "src": "http://d.duotuwang.com/2021/09/19/26693/0.jpg",
        "mtId": "c1a56df551cce5e0",
        "mtName": "\u827e\u4f18\u871c",
        "jgId": "ugirlsapp",
        "jgName": "\u7231\u5c24\u7269",
        "href": "http://d.duotuwang.com/2021/09/19/26693/",
        "count": 35,
        "start": 1,
        "hasMtTag": 1,
        "hasJgTag": 1,
        "mtCount": 1,
        "jgCount": 397
    },
    {
        "name": "[UGirlsAPP]\u7231\u5c24\u7269 No.2176 \u767d\u5b50\u5ae3 \u6d77\u76d0\u7cfb\u5973\u795e",
        "src": "http://d.duotuwang.com/2021/09/18/26692/0.jpg",
        "mtId": "ed71948751a1427f",
        "mtName": "\u767d\u5b50\u5ae3",
        "jgId": "ugirlsapp",
        "jgName": "\u7231\u5c24\u7269",
        "href": "http://d.duotuwang.com/2021/09/18/26692/",
        "count": 35,
        "start": 1,
        "hasMtTag": 1,
        "hasJgTag": 1,
        "mtCount": 4,
        "jgCount": 397
    },
    {
        "name": "[UGirlsAPP]\u7231\u5c24\u7269 No.2175 \u4f0a\u8bfa \u98ce\u60c5\u4fe1\u7bb1",
        "src": "http://d.duotuwang.com/2021/09/17/26691/0.jpg",
        "mtId": "8d04713d44d20fd0",
        "mtName": "\u4f0a\u8bfa",
        "jgId": "ugirlsapp",
        "jgName": "\u7231\u5c24\u7269",
        "href": "http://d.duotuwang.com/2021/09/17/26691/",
        "count": 35,
        "start": 1,
        "hasMtTag": 1,
        "hasJgTag": 1,
        "mtCount": 3,
        "jgCount": 397
    }
]