[
    {
        "name": "[UGirlsAPP]\u7231\u5c24\u7269 No.213 \u68a6\u83f2\u83f2",
        "src": "http://d.duotuwang.com/2015/12/18/4573/0.jpg",
        "jgId": "ugirlsapp",
        "jgName": "\u7231\u5c24\u7269",
        "href": "http://d.duotuwang.com/2015/12/18/4573/",
        "count": 40,
        "start": 1,
        "hasMtTag": 0,
        "hasJgTag": 1,
        "jgCount": 397
    },
    {
        "name": "[UGirlsAPP]\u7231\u5c24\u7269 No.212 \u6731\u601d\u4f73",
        "src": "http://d.duotuwang.com/2015/12/17/4574/0.jpg",
        "jgId": "ugirlsapp",
        "jgName": "\u7231\u5c24\u7269",
        "href": "http://d.duotuwang.com/2015/12/17/4574/",
        "count": 40,
        "start": 1,
        "hasMtTag": 0,
        "hasJgTag": 1,
        "jgCount": 397
    },
    {
        "name": "[UGirlsAPP]\u7231\u5c24\u7269 No.211 \u4e8e\u5a1c",
        "src": "http://d.duotuwang.com/2015/12/16/4575/0.jpg",
        "mtId": "41cdb04dabf5c720",
        "mtName": "\u4e8e\u5a1c",
        "jgId": "ugirlsapp",
        "jgName": "\u7231\u5c24\u7269",
        "href": "http://d.duotuwang.com/2015/12/16/4575/",
        "count": 40,
        "start": 1,
        "hasMtTag": 1,
        "hasJgTag": 1,
        "mtCount": 1,
        "jgCount": 397
    },
    {
        "name": "[UGirlsAPP]\u7231\u5c24\u7269 No.210 \u5b89\u6c9b\u857e",
        "src": "http://d.duotuwang.com/2015/12/15/4576/0.jpg",
        "mtId": "7ef68c1e9c42f21c",
        "mtName": "\u5b89\u6c9b\u857e",
        "jgId": "ugirlsapp",
        "jgName": "\u7231\u5c24\u7269",
        "href": "http://d.duotuwang.com/2015/12/15/4576/",
        "count": 40,
        "start": 1,
        "hasMtTag": 1,
        "hasJgTag": 1,
        "mtCount": 2,
        "jgCount": 397
    },
    {
        "name": "[UGirlsAPP]\u7231\u5c24\u7269 No.209 \u6668\u6668",
        "src": "http://d.duotuwang.com/2015/12/14/4577/0.jpg",
        "mtId": "59dd8b0ba606896f",
        "mtName": "\u6668\u6668Cherry",
        "jgId": "ugirlsapp",
        "jgName": "\u7231\u5c24\u7269",
        "href": "http://d.duotuwang.com/2015/12/14/4577/",
        "count": 40,
        "start": 1,
        "hasMtTag": 1,
        "hasJgTag": 1,
        "mtCount": 1,
        "jgCount": 397
    },
    {
        "name": "[UGirlsAPP]\u7231\u5c24\u7269 No.208 \u53f6\u7d2b\u964c",
        "src": "http://d.duotuwang.com/2015/12/11/4531/0.jpg",
        "jgId": "ugirlsapp",
        "jgName": "\u7231\u5c24\u7269",
        "href": "http://d.duotuwang.com/2015/12/11/4531/",
        "count": 40,
        "start": 1,
        "hasMtTag": 0,
        "hasJgTag": 1,
        "jgCount": 397
    }
]