[
    {
        "name": "[UGirlsAPP]\u7231\u5c24\u7269 No.201 \u66fc\u4f9d",
        "src": "http://d.duotuwang.com/2015/12/04/4538/0.jpg",
        "jgId": "ugirlsapp",
        "jgName": "\u7231\u5c24\u7269",
        "href": "http://d.duotuwang.com/2015/12/04/4538/",
        "count": 40,
        "start": 1,
        "hasMtTag": 0,
        "hasJgTag": 1,
        "jgCount": 397
    },
    {
        "name": "[UGirlsAPP]\u7231\u5c24\u7269 No.200 \u674e\u601d\u5b81",
        "src": "http://d.duotuwang.com/2015/12/04/4539/0.jpg",
        "mtId": "38ac5df08abbf87b",
        "mtName": "\u674e\u601d\u5b81",
        "jgId": "ugirlsapp",
        "jgName": "\u7231\u5c24\u7269",
        "href": "http://d.duotuwang.com/2015/12/04/4539/",
        "count": 40,
        "start": 1,
        "hasMtTag": 1,
        "hasJgTag": 1,
        "mtCount": 3,
        "jgCount": 397
    },
    {
        "name": "[UGirlsAPP]\u7231\u5c24\u7269 No.199 \u9648\u5b87\u66e6",
        "src": "http://d.duotuwang.com/2015/12/04/4540/0.jpg",
        "mtId": "e6191308df24ea26",
        "mtName": "\u9648\u5b87\u66e6",
        "jgId": "ugirlsapp",
        "jgName": "\u7231\u5c24\u7269",
        "href": "http://d.duotuwang.com/2015/12/04/4540/",
        "count": 40,
        "start": 1,
        "hasMtTag": 1,
        "hasJgTag": 1,
        "mtCount": 10,
        "jgCount": 397
    },
    {
        "name": "[UGirlsAPP]\u7231\u5c24\u7269 No.198 \u5c0f\u6b27",
        "src": "http://d.duotuwang.com/2015/12/03/4541/0.jpg",
        "mtId": "e1d4afa96fddf190",
        "mtName": "\u5c0f\u6b27",
        "jgId": "ugirlsapp",
        "jgName": "\u7231\u5c24\u7269",
        "href": "http://d.duotuwang.com/2015/12/03/4541/",
        "count": 40,
        "start": 1,
        "hasMtTag": 1,
        "hasJgTag": 1,
        "mtCount": 1,
        "jgCount": 397
    },
    {
        "name": "[UGirlsAPP]\u7231\u5c24\u7269 No.197 Alin",
        "src": "http://d.duotuwang.com/2015/12/02/4542/0.jpg",
        "mtId": "f38ac5f4e754e965",
        "mtName": "Alin",
        "jgId": "ugirlsapp",
        "jgName": "\u7231\u5c24\u7269",
        "href": "http://d.duotuwang.com/2015/12/02/4542/",
        "count": 40,
        "start": 1,
        "hasMtTag": 1,
        "hasJgTag": 1,
        "mtCount": 1,
        "jgCount": 397
    },
    {
        "name": "[UGirlsAPP]\u7231\u5c24\u7269 No.196 \u6768\u6f2b\u59ae",
        "src": "http://d.duotuwang.com/2015/12/01/4543/0.jpg",
        "mtId": "a9cb55a9fd5a17d9",
        "mtName": "\u6768\u6f2b\u59ae",
        "jgId": "ugirlsapp",
        "jgName": "\u7231\u5c24\u7269",
        "href": "http://d.duotuwang.com/2015/12/01/4543/",
        "count": 40,
        "start": 1,
        "hasMtTag": 1,
        "hasJgTag": 1,
        "mtCount": 4,
        "jgCount": 397
    }
]