[
    {
        "name": "[UGirlsAPP]\u7231\u5c24\u7269 No.2156 Jenny \u7cbe\u81f4\u604b\u7231\u62a5\u544a",
        "src": "http://d.duotuwang.com/2021/08/21/26221/0.jpg",
        "mtId": "e9d15281ce6ba7d8",
        "mtName": "Jenny",
        "jgId": "ugirlsapp",
        "jgName": "\u7231\u5c24\u7269",
        "href": "http://d.duotuwang.com/2021/08/21/26221/",
        "count": 35,
        "start": 1,
        "hasMtTag": 1,
        "hasJgTag": 1,
        "mtCount": 2,
        "jgCount": 397
    },
    {
        "name": "[UGirlsAPP]\u7231\u5c24\u7269 No.2155 Pink\u6234\u5b89\u5a1c \u7f8e\u675c\u838e\u7684\u7f8e",
        "src": "http://d.duotuwang.com/2021/08/20/26220/0.jpg",
        "mtId": "aea7dcfeb92c3288",
        "mtName": "Pink\u6234\u5b89\u5a1c",
        "jgId": "ugirlsapp",
        "jgName": "\u7231\u5c24\u7269",
        "href": "http://d.duotuwang.com/2021/08/20/26220/",
        "count": 35,
        "start": 1,
        "hasMtTag": 1,
        "hasJgTag": 1,
        "mtCount": 1,
        "jgCount": 397
    },
    {
        "name": "[UGirlsAPP]\u7231\u5c24\u7269 No.2154 \u97e9\u7f8e\u8f69 \u9999\u8272\u8ff7\u60c5",
        "src": "http://d.duotuwang.com/2021/08/18/26219/0.jpg",
        "mtId": "270c82acd143c2ef",
        "mtName": "\u97e9\u7f8e\u8f69",
        "jgId": "ugirlsapp",
        "jgName": "\u7231\u5c24\u7269",
        "href": "http://d.duotuwang.com/2021/08/18/26219/",
        "count": 35,
        "start": 1,
        "hasMtTag": 1,
        "hasJgTag": 1,
        "mtCount": 1,
        "jgCount": 397
    },
    {
        "name": "[UGirlsAPP]\u7231\u5c24\u7269 No.2153 \u7535\u8bdd\u90a3\u5934",
        "src": "http://d.duotuwang.com/2021/08/16/26218/0.jpg",
        "mtId": "35281e9daed23ddb",
        "mtName": "\u674e\u8389\u8389",
        "jgId": "ugirlsapp",
        "jgName": "\u7231\u5c24\u7269",
        "href": "http://d.duotuwang.com/2021/08/16/26218/",
        "count": 35,
        "start": 1,
        "hasMtTag": 1,
        "hasJgTag": 1,
        "mtCount": 1,
        "jgCount": 397
    },
    {
        "name": "[UGirlsAPP]\u7231\u5c24\u7269 No.2152 \u7ec7\u5973\u68a6",
        "src": "http://d.duotuwang.com/2021/08/14/26217/0.jpg",
        "mtId": "a54d8f09b1be067f",
        "mtName": "\u59ae\u5c0f\u5996",
        "jgId": "ugirlsapp",
        "jgName": "\u7231\u5c24\u7269",
        "href": "http://d.duotuwang.com/2021/08/14/26217/",
        "count": 35,
        "start": 1,
        "hasMtTag": 1,
        "hasJgTag": 1,
        "mtCount": 3,
        "jgCount": 397
    },
    {
        "name": "[UGirlsAPP]\u7231\u5c24\u7269 No.2151 \u5c0f\u96e8\u70b9 \u9ed1\u767d\u8c03\u60c5",
        "src": "http://d.duotuwang.com/2021/08/13/26216/0.jpg",
        "mtId": "5238bf8af45d3a2e",
        "mtName": "\u5c0f\u96e8\u70b9",
        "jgId": "ugirlsapp",
        "jgName": "\u7231\u5c24\u7269",
        "href": "http://d.duotuwang.com/2021/08/13/26216/",
        "count": 35,
        "start": 1,
        "hasMtTag": 1,
        "hasJgTag": 1,
        "mtCount": 1,
        "jgCount": 397
    }
]