[
    {
        "name": "[UGirlsAPP]\u7231\u5c24\u7269 No.2138 \u6dc7baby \u751c\u60c5\u51e0\u5ea6",
        "src": "http://d.duotuwang.com/2021/07/25/25936/0.jpg",
        "mtId": "8660b96e7bf2b23a",
        "mtName": "\u6dc7baby",
        "jgId": "ugirlsapp",
        "jgName": "\u7231\u5c24\u7269",
        "href": "http://d.duotuwang.com/2021/07/25/25936/",
        "count": 35,
        "start": 1,
        "hasMtTag": 1,
        "hasJgTag": 1,
        "mtCount": 1,
        "jgCount": 397
    },
    {
        "name": "[UGirlsAPP]\u7231\u5c24\u7269 No.2137 \u590f\u5e0c\u5b50 \u7c89\u591c",
        "src": "http://d.duotuwang.com/2021/07/24/25935/0.jpg",
        "mtId": "07efa52e6fc3b6a5",
        "mtName": "\u590f\u5e0c\u5b50",
        "jgId": "ugirlsapp",
        "jgName": "\u7231\u5c24\u7269",
        "href": "http://d.duotuwang.com/2021/07/24/25935/",
        "count": 33,
        "start": 1,
        "hasMtTag": 1,
        "hasJgTag": 1,
        "mtCount": 1,
        "jgCount": 397
    },
    {
        "name": "[UGirlsAPP]\u7231\u5c24\u7269 No.2136 \u82cf\u5c0f\u66fc \u96be\u7720\u7684\u4e91",
        "src": "http://d.duotuwang.com/2021/07/23/25934/0.jpg",
        "mtId": "4a595ac08e09c195",
        "mtName": "\u82cf\u5c0f\u66fc",
        "jgId": "ugirlsapp",
        "jgName": "\u7231\u5c24\u7269",
        "href": "http://d.duotuwang.com/2021/07/23/25934/",
        "count": 35,
        "start": 1,
        "hasMtTag": 1,
        "hasJgTag": 1,
        "mtCount": 6,
        "jgCount": 397
    },
    {
        "name": "[UGirlsAPP]\u7231\u5c24\u7269 No.2135 \u732b\u732b \u5c0f\u751c\u67e0",
        "src": "http://d.duotuwang.com/2021/07/21/25772/0.jpg",
        "mtId": "93f6c3d625ff08cd",
        "mtName": "\u732b\u732b",
        "jgId": "ugirlsapp",
        "jgName": "\u7231\u5c24\u7269",
        "href": "http://d.duotuwang.com/2021/07/21/25772/",
        "count": 35,
        "start": 1,
        "hasMtTag": 1,
        "hasJgTag": 1,
        "mtCount": 1,
        "jgCount": 397
    },
    {
        "name": "[UGirlsAPP]\u7231\u5c24\u7269 No.2134 \u6c34\u6c34 \u7948\u798f\u5c11\u5973",
        "src": "http://d.duotuwang.com/2021/07/19/25771/0.jpg",
        "jgId": "ugirlsapp",
        "jgName": "\u7231\u5c24\u7269",
        "href": "http://d.duotuwang.com/2021/07/19/25771/",
        "count": 35,
        "start": 1,
        "hasMtTag": 0,
        "hasJgTag": 1,
        "jgCount": 397
    },
    {
        "name": "[UGirlsAPP]\u7231\u5c24\u7269 No.2133 \u897f\u95e8\u5c0f\u7389 \u7c89\u7ea2\u65b0\u6708",
        "src": "http://d.duotuwang.com/2021/07/18/25770/0.jpg",
        "mtId": "489383cc4fc04819",
        "mtName": "\u897f\u95e8\u5c0f\u7389",
        "jgId": "ugirlsapp",
        "jgName": "\u7231\u5c24\u7269",
        "href": "http://d.duotuwang.com/2021/07/18/25770/",
        "count": 35,
        "start": 1,
        "hasMtTag": 1,
        "hasJgTag": 1,
        "mtCount": 4,
        "jgCount": 397
    }
]