[
    {
        "name": "[UGirlsAPP]\u7231\u5c24\u7269 No.2120 \u5c0f\u4e03 \u7231\u662f\u593a\u76ee",
        "src": "http://d.duotuwang.com/2021/06/30/25619/0.jpg",
        "mtId": "2fe11e8bb1613990",
        "mtName": "\u5c0f\u4e03",
        "jgId": "ugirlsapp",
        "jgName": "\u7231\u5c24\u7269",
        "href": "http://d.duotuwang.com/2021/06/30/25619/",
        "count": 35,
        "start": 1,
        "hasMtTag": 1,
        "hasJgTag": 1,
        "mtCount": 1,
        "jgCount": 397
    },
    {
        "name": "[UGirlsAPP]\u7231\u5c24\u7269 No.2119 \u738b\u6167\u6167 \u7231\u662f\u5de5\u4f5c\u5185\u5bb9",
        "src": "http://d.duotuwang.com/2021/06/27/25618/0.jpg",
        "mtId": "c305becadbf0ef7c",
        "mtName": "\u738b\u6167\u6167",
        "jgId": "ugirlsapp",
        "jgName": "\u7231\u5c24\u7269",
        "href": "http://d.duotuwang.com/2021/06/27/25618/",
        "count": 35,
        "start": 1,
        "hasMtTag": 1,
        "hasJgTag": 1,
        "mtCount": 1,
        "jgCount": 397
    },
    {
        "name": "[UGirlsAPP]\u7231\u5c24\u7269 No.2118 \u5c0f\u4e03 \u60c5\u4eba\u7684\u767d\u886c\u886b",
        "src": "http://d.duotuwang.com/2021/06/26/25617/0.jpg",
        "mtId": "2fe11e8bb1613990",
        "mtName": "\u5c0f\u4e03",
        "jgId": "ugirlsapp",
        "jgName": "\u7231\u5c24\u7269",
        "href": "http://d.duotuwang.com/2021/06/26/25617/",
        "count": 35,
        "start": 1,
        "hasMtTag": 1,
        "hasJgTag": 1,
        "mtCount": 1,
        "jgCount": 397
    },
    {
        "name": "[UGirlsAPP]\u7231\u5c24\u7269 No.2117 \u4e2d\u7530\u5408\u7f8e\u5b50 \u751c\u5fc3\u9884\u62a5",
        "src": "http://d.duotuwang.com/2021/06/25/25616/0.jpg",
        "mtId": "a75efc80d76dd8db",
        "mtName": "\u4e2d\u7530\u5408\u7f8e\u5b50",
        "jgId": "ugirlsapp",
        "jgName": "\u7231\u5c24\u7269",
        "href": "http://d.duotuwang.com/2021/06/25/25616/",
        "count": 35,
        "start": 1,
        "hasMtTag": 1,
        "hasJgTag": 1,
        "mtCount": 1,
        "jgCount": 397
    },
    {
        "name": "[UGirlsAPP]\u7231\u5c24\u7269 No.2116 \u9f99\u5973\u5b9d\u5b9d \u7834\u6b21\u5143\u604b\u7231",
        "src": "http://d.duotuwang.com/2021/06/23/25496/0.jpg",
        "mtId": "94200dc7ee2aae47",
        "mtName": "\u9f99\u5973\u5b9d\u5b9d",
        "jgId": "ugirlsapp",
        "jgName": "\u7231\u5c24\u7269",
        "href": "http://d.duotuwang.com/2021/06/23/25496/",
        "count": 35,
        "start": 1,
        "hasMtTag": 1,
        "hasJgTag": 1,
        "mtCount": 2,
        "jgCount": 397
    },
    {
        "name": "[UGirlsAPP]\u7231\u5c24\u7269 No.2115 \u827e\u4f18\u871c \u5a07\u50b2\u7684\u5154\u5973\u58eb",
        "src": "http://d.duotuwang.com/2021/06/21/25495/0.jpg",
        "mtId": "c1a56df551cce5e0",
        "mtName": "\u827e\u4f18\u871c",
        "jgId": "ugirlsapp",
        "jgName": "\u7231\u5c24\u7269",
        "href": "http://d.duotuwang.com/2021/06/21/25495/",
        "count": 35,
        "start": 1,
        "hasMtTag": 1,
        "hasJgTag": 1,
        "mtCount": 1,
        "jgCount": 397
    }
]