[
    {
        "name": "[UGirlsAPP]\u7231\u5c24\u7269 No.1988 \u91d1\u831c \u590d\u53e4\u66a7\u6627",
        "src": "http://d.duotuwang.com/2020/12/27/23594/0.jpg",
        "jgId": "ugirlsapp",
        "jgName": "\u7231\u5c24\u7269",
        "href": "http://d.duotuwang.com/2020/12/27/23594/",
        "count": 34,
        "start": 1,
        "hasMtTag": 0,
        "hasJgTag": 1,
        "jgCount": 397
    },
    {
        "name": "[UGirlsAPP]\u7231\u5c24\u7269 No.1987 \u59ae\u5c0f\u5996 \u53cc\u8272\u5723\u8bde",
        "src": "http://d.duotuwang.com/2020/12/26/23593/0.jpg",
        "mtId": "a54d8f09b1be067f",
        "mtName": "\u59ae\u5c0f\u5996",
        "jgId": "ugirlsapp",
        "jgName": "\u7231\u5c24\u7269",
        "href": "http://d.duotuwang.com/2020/12/26/23593/",
        "count": 35,
        "start": 1,
        "hasMtTag": 1,
        "hasJgTag": 1,
        "mtCount": 3,
        "jgCount": 397
    },
    {
        "name": "[UGirlsAPP]\u7231\u5c24\u7269 No.1986 \u679c\u513fVictoria \u5723\u8bde\u7684\u5c0f\u9e7f\u5728\u4e71\u649e",
        "src": "http://d.duotuwang.com/2020/12/25/23592/0.jpg",
        "mtId": "fc1868c8a652655f",
        "mtName": "\u679c\u513fVictoria",
        "jgId": "ugirlsapp",
        "jgName": "\u7231\u5c24\u7269",
        "href": "http://d.duotuwang.com/2020/12/25/23592/",
        "count": 35,
        "start": 1,
        "hasMtTag": 1,
        "hasJgTag": 1,
        "mtCount": 29,
        "jgCount": 397
    },
    {
        "name": "[UGirlsAPP]\u7231\u5c24\u7269 No.1985 \u6797\u6e03\u6657 \u82b1\u71c3",
        "src": "http://d.duotuwang.com/2020/12/23/23415/0.jpg",
        "mtId": "cb8b6f99ba23fcc2",
        "mtName": "\u6797\u6e03\u6657",
        "jgId": "ugirlsapp",
        "jgName": "\u7231\u5c24\u7269",
        "href": "http://d.duotuwang.com/2020/12/23/23415/",
        "count": 35,
        "start": 1,
        "hasMtTag": 1,
        "hasJgTag": 1,
        "mtCount": 2,
        "jgCount": 397
    },
    {
        "name": "[UGirlsAPP]\u7231\u5c24\u7269 No.1984 \u767d\u4ea6ada \u6211\u6000\u5ff5\u7684",
        "src": "http://d.duotuwang.com/2020/12/21/23414/0.jpg",
        "mtId": "eb797c6f4d954e11",
        "mtName": "\u767d\u4ea6ada",
        "jgId": "ugirlsapp",
        "jgName": "\u7231\u5c24\u7269",
        "href": "http://d.duotuwang.com/2020/12/21/23414/",
        "count": 35,
        "start": 1,
        "hasMtTag": 1,
        "hasJgTag": 1,
        "mtCount": 2,
        "jgCount": 397
    },
    {
        "name": "[UGirlsAPP]\u7231\u5c24\u7269 No.1983 \u7ef4\u59ae\u5361 \u4eba\u95f4\u7cbe\u5fc3",
        "src": "http://d.duotuwang.com/2020/12/20/23413/0.jpg",
        "jgId": "ugirlsapp",
        "jgName": "\u7231\u5c24\u7269",
        "href": "http://d.duotuwang.com/2020/12/20/23413/",
        "count": 35,
        "start": 1,
        "hasMtTag": 0,
        "hasJgTag": 1,
        "jgCount": 397
    }
]