[
    {
        "name": "[UGirlsAPP]\u7231\u5c24\u7269 No.2356 \u6a58\u5b50 \u6a58\u5b50\u719f\u4e86",
        "src": "http://d.duotuwang.com/2022/06/27/30500/0.jpg",
        "mtId": "eed9cd709ae5ce17",
        "mtName": "\u6a58\u5b50",
        "jgId": "ugirlsapp",
        "jgName": "\u7231\u5c24\u7269",
        "href": "http://d.duotuwang.com/2022/06/27/30500/",
        "count": 35,
        "start": 1,
        "hasMtTag": 1,
        "hasJgTag": 1,
        "mtCount": 2,
        "jgCount": 397
    },
    {
        "name": "[UGirlsAPP]\u7231\u5c24\u7269 No.2355 \u6b23\u51cc \u7231\u60c5\u65c5\u9014",
        "src": "http://d.duotuwang.com/2022/06/26/30499/0.jpg",
        "mtId": "7a3db30e3b5c3726",
        "mtName": "\u6b23\u51cc",
        "jgId": "ugirlsapp",
        "jgName": "\u7231\u5c24\u7269",
        "href": "http://d.duotuwang.com/2022/06/26/30499/",
        "count": 35,
        "start": 1,
        "hasMtTag": 1,
        "hasJgTag": 1,
        "mtCount": 2,
        "jgCount": 397
    },
    {
        "name": "[UGirlsAPP]\u7231\u5c24\u7269 No.2354 \u6960\u6960 \u65f6\u4e4b\u56de\u54cd",
        "src": "http://d.duotuwang.com/2022/06/25/30498/0.jpg",
        "jgId": "ugirlsapp",
        "jgName": "\u7231\u5c24\u7269",
        "href": "http://d.duotuwang.com/2022/06/25/30498/",
        "count": 35,
        "start": 1,
        "hasMtTag": 0,
        "hasJgTag": 1,
        "jgCount": 397
    },
    {
        "name": "[UGirlsAPP]\u7231\u5c24\u7269 No.2353 \u4e01\u838e\u838e \u4e0d\u7ecf\u610f",
        "src": "http://d.duotuwang.com/2022/06/24/30497/0.jpg",
        "jgId": "ugirlsapp",
        "jgName": "\u7231\u5c24\u7269",
        "href": "http://d.duotuwang.com/2022/06/24/30497/",
        "count": 35,
        "start": 1,
        "hasMtTag": 0,
        "hasJgTag": 1,
        "jgCount": 397
    },
    {
        "name": "[UGirlsAPP]\u7231\u5c24\u7269 No.2352 \u751c\u59b9\u5976\u5496",
        "src": "http://d.duotuwang.com/2022/06/22/30496/0.jpg",
        "jgId": "ugirlsapp",
        "jgName": "\u7231\u5c24\u7269",
        "href": "http://d.duotuwang.com/2022/06/22/30496/",
        "count": 35,
        "start": 1,
        "hasMtTag": 0,
        "hasJgTag": 1,
        "jgCount": 397
    },
    {
        "name": "[UGirlsAPP]\u7231\u5c24\u7269 No.2351 \u767d\u5b50\u5ae3 \u6d6a\u4eba\u7435\u7436",
        "src": "http://d.duotuwang.com/2022/06/20/30495/0.jpg",
        "mtId": "ed71948751a1427f",
        "mtName": "\u767d\u5b50\u5ae3",
        "jgId": "ugirlsapp",
        "jgName": "\u7231\u5c24\u7269",
        "href": "http://d.duotuwang.com/2022/06/20/30495/",
        "count": 35,
        "start": 1,
        "hasMtTag": 1,
        "hasJgTag": 1,
        "mtCount": 4,
        "jgCount": 397
    }
]