[
    {
        "name": "[UGirlsAPP]\u7231\u5c24\u7269 No.1921 \u738b\u4fea\u4e01 \u4e3d\u4eba\u5fc3",
        "src": "http://d.duotuwang.com/2020/09/29/22376/0.jpg",
        "mtId": "62e4ef034ad0eadf",
        "mtName": "\u738b\u4fea\u4e01",
        "jgId": "ugirlsapp",
        "jgName": "\u7231\u5c24\u7269",
        "href": "http://d.duotuwang.com/2020/09/29/22376/",
        "count": 35,
        "start": 1,
        "hasMtTag": 1,
        "hasJgTag": 1,
        "mtCount": 2,
        "jgCount": 397
    },
    {
        "name": "[UGirlsAPP]\u7231\u5c24\u7269 No.1920 riri \u6e05\u7eaf\u7684\u6b32\u706b",
        "src": "http://d.duotuwang.com/2020/09/28/22375/0.jpg",
        "mtId": "2614619771f3fa32",
        "mtName": "riri",
        "jgId": "ugirlsapp",
        "jgName": "\u7231\u5c24\u7269",
        "href": "http://d.duotuwang.com/2020/09/28/22375/",
        "count": 35,
        "start": 1,
        "hasMtTag": 1,
        "hasJgTag": 1,
        "mtCount": 1,
        "jgCount": 397
    },
    {
        "name": "[UGirlsAPP]\u7231\u5c24\u7269 No.1919 \u845b\u5f81Model \u4ed9\u5973\u7f8e\u817f",
        "src": "http://d.duotuwang.com/2020/09/27/22324/0.jpg",
        "mtId": "bac3f4adea859891",
        "mtName": "\u845b\u5f81Model",
        "jgId": "ugirlsapp",
        "jgName": "\u7231\u5c24\u7269",
        "href": "http://d.duotuwang.com/2020/09/27/22324/",
        "count": 35,
        "start": 1,
        "hasMtTag": 1,
        "hasJgTag": 1,
        "mtCount": 10,
        "jgCount": 397
    },
    {
        "name": "[UGirlsAPP]\u7231\u5c24\u7269 No.1918 \u5468\u5927\u840c \u4e1c\u65b9\u751c\u5fc3",
        "src": "http://d.duotuwang.com/2020/09/26/22323/0.jpg",
        "mtId": "211e912dfdb41ee3",
        "mtName": "\u5468\u5927\u840c",
        "jgId": "ugirlsapp",
        "jgName": "\u7231\u5c24\u7269",
        "href": "http://d.duotuwang.com/2020/09/26/22323/",
        "count": 35,
        "start": 1,
        "hasMtTag": 1,
        "hasJgTag": 1,
        "mtCount": 10,
        "jgCount": 397
    },
    {
        "name": "[UGirlsAPP]\u7231\u5c24\u7269 No.1917 \u6768\u7b71\u654f \u6de1\u84dd\u8272\u7684\u59b3",
        "src": "http://d.duotuwang.com/2020/09/25/22322/0.jpg",
        "jgId": "ugirlsapp",
        "jgName": "\u7231\u5c24\u7269",
        "href": "http://d.duotuwang.com/2020/09/25/22322/",
        "count": 35,
        "start": 1,
        "hasMtTag": 0,
        "hasJgTag": 1,
        "jgCount": 397
    },
    {
        "name": "[UGirlsAPP]\u7231\u5c24\u7269 No.1916 \u6f2a\u6d1b\u7199 \u7cbe\u5986\u604b\u4eba",
        "src": "http://d.duotuwang.com/2020/09/23/22321/0.jpg",
        "jgId": "ugirlsapp",
        "jgName": "\u7231\u5c24\u7269",
        "href": "http://d.duotuwang.com/2020/09/23/22321/",
        "count": 35,
        "start": 1,
        "hasMtTag": 0,
        "hasJgTag": 1,
        "jgCount": 397
    }
]