[
    {
        "name": "[UGirlsAPP]\u7231\u5c24\u7269 No.1855 \u6708\u97f3\u77b3 \u5077\u5fc3\u591c\u732b",
        "src": "http://d.duotuwang.com/2020/06/29/20972/0.jpg",
        "mtId": "ad1cc72dcd927205",
        "mtName": "\u6708\u97f3\u77b3",
        "jgId": "ugirlsapp",
        "jgName": "\u7231\u5c24\u7269",
        "href": "http://d.duotuwang.com/2020/06/29/20972/",
        "count": 35,
        "start": 1,
        "hasMtTag": 1,
        "hasJgTag": 1,
        "mtCount": 11,
        "jgCount": 397
    },
    {
        "name": "[UGirlsAPP]\u7231\u5c24\u7269 No.1854 \u53f6\u5b50 \u590f\u5929\u590f\u751c",
        "src": "http://d.duotuwang.com/2020/06/28/20971/0.jpg",
        "mtId": "b8559edbd73e19d2",
        "mtName": "\u53f6\u5b50",
        "jgId": "ugirlsapp",
        "jgName": "\u7231\u5c24\u7269",
        "href": "http://d.duotuwang.com/2020/06/28/20971/",
        "count": 35,
        "start": 1,
        "hasMtTag": 1,
        "hasJgTag": 1,
        "mtCount": 1,
        "jgCount": 397
    },
    {
        "name": "[UGirlsAPP]\u7231\u5c24\u7269 No.1853 \u738b\u4fea\u4e01 \u5c0f\u9f99\u5973",
        "src": "http://d.duotuwang.com/2020/06/27/20970/0.jpg",
        "mtId": "62e4ef034ad0eadf",
        "mtName": "\u738b\u4fea\u4e01",
        "jgId": "ugirlsapp",
        "jgName": "\u7231\u5c24\u7269",
        "href": "http://d.duotuwang.com/2020/06/27/20970/",
        "count": 35,
        "start": 1,
        "hasMtTag": 1,
        "hasJgTag": 1,
        "mtCount": 2,
        "jgCount": 397
    },
    {
        "name": "[UGirlsAPP]\u7231\u5c24\u7269 No.1852 \u7b71\u6167 \u653e\u7cbd\u4e00\u591c",
        "src": "http://d.duotuwang.com/2020/06/25/20884/0.jpg",
        "mtId": "c739b89a0b9c02a0",
        "mtName": "\u7b71\u6167",
        "jgId": "ugirlsapp",
        "jgName": "\u7231\u5c24\u7269",
        "href": "http://d.duotuwang.com/2020/06/25/20884/",
        "count": 35,
        "start": 1,
        "hasMtTag": 1,
        "hasJgTag": 1,
        "mtCount": 17,
        "jgCount": 397
    },
    {
        "name": "[UGirlsAPP]\u7231\u5c24\u7269 No.1851 \u7c89\u7ea2\u5973\u90ce",
        "src": "http://d.duotuwang.com/2020/06/24/20883/0.jpg",
        "mtId": "6e004272b0bd9b8a",
        "mtName": "\u5434\u7f8e\u6eaa",
        "jgId": "ugirlsapp",
        "jgName": "\u7231\u5c24\u7269",
        "href": "http://d.duotuwang.com/2020/06/24/20883/",
        "count": 30,
        "start": 1,
        "hasMtTag": 1,
        "hasJgTag": 1,
        "mtCount": 1,
        "jgCount": 397
    },
    {
        "name": "[UGirlsAPP]\u7231\u5c24\u7269 No.1849 \u7403\u7403 \u80c6\u5927\u624d\u66f4\u7f8e",
        "src": "http://d.duotuwang.com/2020/06/21/20881/0.jpg",
        "mtId": "2c039d14016a9d7f",
        "mtName": "\u7403\u7403",
        "jgId": "ugirlsapp",
        "jgName": "\u7231\u5c24\u7269",
        "href": "http://d.duotuwang.com/2020/06/21/20881/",
        "count": 35,
        "start": 1,
        "hasMtTag": 1,
        "hasJgTag": 1,
        "mtCount": 3,
        "jgCount": 397
    }
]