[
    {
        "name": "[UGirlsAPP]\u7231\u5c24\u7269 No.1824 YOYO \u6625\u6342\u590f\u52a8",
        "src": "http://d.duotuwang.com/2020/05/17/20673/0.jpg",
        "mtId": "8ac4a6e99fb0f7d3",
        "mtName": "YOYO",
        "jgId": "ugirlsapp",
        "jgName": "\u7231\u5c24\u7269",
        "href": "http://d.duotuwang.com/2020/05/17/20673/",
        "count": 35,
        "start": 1,
        "hasMtTag": 1,
        "hasJgTag": 1,
        "mtCount": 1,
        "jgCount": 397
    },
    {
        "name": "[UGirlsAPP]\u7231\u5c24\u7269 No.1823 \u5154\u5154 \u871c\u7c89\u840c\u5154",
        "src": "http://d.duotuwang.com/2020/05/16/20672/0.jpg",
        "mtId": "0de09e55e38b5c7c",
        "mtName": "\u5154\u5154",
        "jgId": "ugirlsapp",
        "jgName": "\u7231\u5c24\u7269",
        "href": "http://d.duotuwang.com/2020/05/16/20672/",
        "count": 35,
        "start": 1,
        "hasMtTag": 1,
        "hasJgTag": 1,
        "mtCount": 1,
        "jgCount": 397
    },
    {
        "name": "[UGirlsAPP]\u7231\u5c24\u7269 No.1822 \u6797\u96e8\u840c \u8bf1\u4eba\u7684\u6a31\u6843",
        "src": "http://d.duotuwang.com/2020/05/15/20671/0.jpg",
        "mtId": "f0a4bfb95bc0d516",
        "mtName": "\u6797\u96e8\u840c",
        "jgId": "ugirlsapp",
        "jgName": "\u7231\u5c24\u7269",
        "href": "http://d.duotuwang.com/2020/05/15/20671/",
        "count": 35,
        "start": 1,
        "hasMtTag": 1,
        "hasJgTag": 1,
        "mtCount": 1,
        "jgCount": 397
    },
    {
        "name": "[UGirlsAPP]\u7231\u5c24\u7269 No.1821 Jenny \u591c\u6f6e",
        "src": "http://d.duotuwang.com/2020/05/14/20670/0.jpg",
        "mtId": "e9d15281ce6ba7d8",
        "mtName": "Jenny",
        "jgId": "ugirlsapp",
        "jgName": "\u7231\u5c24\u7269",
        "href": "http://d.duotuwang.com/2020/05/14/20670/",
        "count": 35,
        "start": 1,
        "hasMtTag": 1,
        "hasJgTag": 1,
        "mtCount": 2,
        "jgCount": 397
    },
    {
        "name": "[UGirlsAPP]\u7231\u5c24\u7269 No.1820 \u4e00\u53ea\u9999\u8549\u8239 \u871c\u7cd6\u5c0f\u8239",
        "src": "http://d.duotuwang.com/2020/05/13/20595/0.jpg",
        "mtId": "ce7847958c820044",
        "mtName": "\u4e00\u53ea\u9999\u8549\u8239",
        "jgId": "ugirlsapp",
        "jgName": "\u7231\u5c24\u7269",
        "href": "http://d.duotuwang.com/2020/05/13/20595/",
        "count": 35,
        "start": 1,
        "hasMtTag": 1,
        "hasJgTag": 1,
        "mtCount": 1,
        "jgCount": 397
    },
    {
        "name": "[UGirlsAPP]\u7231\u5c24\u7269 No.1819 \u59ae\u5c0f\u5996 \u56f0\u4f4f\u7684\u7231",
        "src": "http://d.duotuwang.com/2020/05/12/20594/0.jpg",
        "mtId": "a54d8f09b1be067f",
        "mtName": "\u59ae\u5c0f\u5996",
        "jgId": "ugirlsapp",
        "jgName": "\u7231\u5c24\u7269",
        "href": "http://d.duotuwang.com/2020/05/12/20594/",
        "count": 35,
        "start": 1,
        "hasMtTag": 1,
        "hasJgTag": 1,
        "mtCount": 3,
        "jgCount": 397
    }
]