[
    {
        "name": "[UGirlsAPP]\u7231\u5c24\u7269 No.2177 \u827e\u4f18\u871c \u5fc6\u7231\u601d\u751c",
        "src": "http://d.duotuwang.com/2021/09/19/26693/0.jpg",
        "mtId": "c1a56df551cce5e0",
        "mtName": "\u827e\u4f18\u871c",
        "jgId": "ugirlsapp",
        "jgName": "\u7231\u5c24\u7269",
        "href": "http://d.duotuwang.com/2021/09/19/26693/",
        "count": 35,
        "start": 1,
        "hasMtTag": 1,
        "hasJgTag": 1,
        "mtCount": 1,
        "jgCount": 397
    },
    {
        "name": "[UGirlsAPP]\u7231\u5c24\u7269 No.2115 \u827e\u4f18\u871c \u5a07\u50b2\u7684\u5154\u5973\u58eb",
        "src": "http://d.duotuwang.com/2021/06/21/25495/0.jpg",
        "mtId": "c1a56df551cce5e0",
        "mtName": "\u827e\u4f18\u871c",
        "jgId": "ugirlsapp",
        "jgName": "\u7231\u5c24\u7269",
        "href": "http://d.duotuwang.com/2021/06/21/25495/",
        "count": 35,
        "start": 1,
        "hasMtTag": 1,
        "hasJgTag": 1,
        "mtCount": 1,
        "jgCount": 397
    },
    {
        "name": "[YouWu]\u5c24\u7269\u9986 VOL.139 \u827e\u4f18\u871cVV",
        "src": "http://d.duotuwang.com/2019/03/29/14758/0.jpg",
        "mtId": "c1a56df551cce5e0",
        "mtName": "\u827e\u4f18\u871c",
        "jgId": "youwu",
        "jgName": "\u5c24\u7269\u9986",
        "href": "http://d.duotuwang.com/2019/03/29/14758/",
        "count": 40,
        "start": 1,
        "hasMtTag": 1,
        "hasJgTag": 1,
        "mtCount": 1,
        "jgCount": 29
    }
]