[
    {
        "name": "[XIUREN]\u79c0\u4eba\u7f51 No.1627 Cris_\u5353\u5a05\u797a",
        "src": "http://d.duotuwang.com/2019/08/19/17712/0.jpg",
        "mtId": "508d1bde3048cf28",
        "mtName": "Cris_\u5353\u5a05\u797a",
        "jgId": "xiuren",
        "jgName": "\u79c0\u4eba\u7f51",
        "href": "http://d.duotuwang.com/2019/08/19/17712/",
        "count": 51,
        "start": 1,
        "hasMtTag": 1,
        "hasJgTag": 1,
        "mtCount": 10,
        "jgCount": 750
    },
    {
        "name": "[XIAOYU]\u8bed\u753b\u754c VOL.117 Cris_\u5353\u5a05\u797a",
        "src": "http://d.duotuwang.com/2019/07/24/17272/0.jpg",
        "mtId": "508d1bde3048cf28",
        "mtName": "Cris_\u5353\u5a05\u797a",
        "jgId": "xiaoyu",
        "jgName": "\u8bed\u753b\u754c",
        "href": "http://d.duotuwang.com/2019/07/24/17272/",
        "count": 54,
        "start": 1,
        "hasMtTag": 1,
        "hasJgTag": 1,
        "mtCount": 10,
        "jgCount": 155
    },
    {
        "name": "[CANDY]\u7f51\u7ea2\u9986 VOL.072 Cris_\u5353\u5a05\u797a",
        "src": "http://d.duotuwang.com/2019/07/01/16968/0.jpg",
        "mtId": "508d1bde3048cf28",
        "mtName": "Cris_\u5353\u5a05\u797a",
        "jgId": "candy",
        "jgName": "\u7cd6\u679c\u753b\u62a5",
        "href": "http://d.duotuwang.com/2019/07/01/16968/",
        "count": 41,
        "start": 1,
        "hasMtTag": 1,
        "hasJgTag": 1,
        "mtCount": 10,
        "jgCount": 15
    },
    {
        "name": "[XIAOYU]\u8bed\u753b\u754c VOL.093 Cris_\u5353\u5a05\u797a",
        "src": "http://d.duotuwang.com/2019/06/20/16868/0.jpg",
        "mtId": "508d1bde3048cf28",
        "mtName": "Cris_\u5353\u5a05\u797a",
        "jgId": "xiaoyu",
        "jgName": "\u8bed\u753b\u754c",
        "href": "http://d.duotuwang.com/2019/06/20/16868/",
        "count": 50,
        "start": 1,
        "hasMtTag": 1,
        "hasJgTag": 1,
        "mtCount": 10,
        "jgCount": 155
    },
    {
        "name": "[XIUREN]\u79c0\u4eba\u7f51 No.1458 Cris_\u5353\u5a05\u797a",
        "src": "http://d.duotuwang.com/2019/05/17/16491/0.jpg",
        "mtId": "508d1bde3048cf28",
        "mtName": "Cris_\u5353\u5a05\u797a",
        "jgId": "xiuren",
        "jgName": "\u79c0\u4eba\u7f51",
        "href": "http://d.duotuwang.com/2019/05/17/16491/",
        "count": 63,
        "start": 1,
        "hasMtTag": 1,
        "hasJgTag": 1,
        "mtCount": 10,
        "jgCount": 750
    },
    {
        "name": "[XIUREN]\u79c0\u4eba\u7f51 No.1438 Cris_\u5353\u5a05\u797a",
        "src": "http://d.duotuwang.com/2019/05/08/16406/0.jpg",
        "mtId": "508d1bde3048cf28",
        "mtName": "Cris_\u5353\u5a05\u797a",
        "jgId": "xiuren",
        "jgName": "\u79c0\u4eba\u7f51",
        "href": "http://d.duotuwang.com/2019/05/08/16406/",
        "count": 60,
        "start": 1,
        "hasMtTag": 1,
        "hasJgTag": 1,
        "mtCount": 10,
        "jgCount": 750
    }
]