[
    {
        "id": "kDe0W2qOqZRMA4Bz",
        "url": "9/kDe0W2qOqZRMA4Bz/playlist.m3u8",
        "title": "\u97e9\u6d41\u8f66\u6a21\u5c55MV",
        "pic": "https://sta-op.douyucdn.cn/vod-cover/2021/01/18/f0f678dd99a47ef9f5e1f1e893873167.jpg"
    },
    {
        "id": "2V0JMVrmrwqMRY5k",
        "url": "9/2V0JMVrmrwqMRY5k/playlist.m3u8",
        "title": "\u97e9\u6d41\u8f66\u6a21\u5c55MV",
        "pic": "https://sta-op.douyucdn.cn/vod-cover/2021/01/18/5a5c3c92fdbe70ac2d4c561655012919.jpg"
    },
    {
        "id": "Bjq4MeY2YOGM5Ea8",
        "url": "9/Bjq4MeY2YOGM5Ea8/playlist.m3u8",
        "title": "\u97e9\u6d41\u8f66\u6a21\u5c55MV",
        "pic": "https://sta-op.douyucdn.cn/vod-cover/2021/01/18/ad603db82148095476219d0dd0ab249c.jpg"
    },
    {
        "id": "ZB5Kv9QaQw9va93x",
        "url": "9/ZB5Kv9QaQw9va93x/playlist.m3u8",
        "title": "\u97e9\u6d41\u8f66\u6a21\u5c55MV",
        "pic": "https://sta-op.douyucdn.cn/vod-cover/2021/01/18/9fd2d2b0542b1f3e3d0c81324fbf74a9.jpg"
    },
    {
        "id": "X3JzMamamgPMPQro",
        "url": "9/X3JzMamamgPMPQro/playlist.m3u8",
        "title": "\u97e9\u6d41\u8f66\u6a21\u5c55MV",
        "pic": "https://sta-op.douyucdn.cn/vod-cover/2021/01/18/47cb1aea0d2739b9d73ecefa7b428005.jpg"
    },
    {
        "id": "85BAvq9A9nbvG4Lm",
        "url": "9/85BAvq9A9nbvG4Lm/playlist.m3u8",
        "title": "\u97e9\u6d41\u8f66\u6a21\u5c55MV",
        "pic": "https://sta-op.douyucdn.cn/vod-cover/2021/01/18/cfda1a0abaa4e7fe6ca9aef29471a63f.jpg"
    },
    {
        "id": "brN0Mm2Y2lrWpyxA",
        "url": "9/brN0Mm2Y2lrWpyxA/playlist.m3u8",
        "title": "\u97e9\u6d41\u8f66\u6a21\u5c55MV",
        "pic": "https://sta-op.douyucdn.cn/vod-cover/2021/01/18/79e2c6d4605db64a2dcb265c2129ecc5.jpg"
    },
    {
        "id": "aRbBv3VmnjyW6PYV",
        "url": "9/aRbBv3VmnjyW6PYV/playlist.m3u8",
        "title": "\u97e9\u6d41\u8f66\u6a21\u5c55MV",
        "pic": "https://sta-op.douyucdn.cn/vod-cover/2021/01/17/420430d5413d5e6cafc7b5f8c05e770a.jpg"
    },
    {
        "id": "Kp1QM8pEOQwMk4bj",
        "url": "9/Kp1QM8pEOQwMk4bj/playlist.m3u8",
        "title": "\u97e9\u6d41\u8f66\u6a21\u5c55MV",
        "pic": "https://sta-op.douyucdn.cn/vod-cover/2021/01/17/4a6f07c99e1548dafd35f8da7153b496.jpg"
    },
    {
        "id": "NbwE7ZobqeqMn5Zz",
        "url": "9/NbwE7ZobqeqMn5Zz/playlist.m3u8",
        "title": "\u97e9\u6d41\u8f66\u6a21\u5c55MV",
        "pic": "https://sta-op.douyucdn.cn/vod-cover/2021/01/17/bdf2a1a71821e7747a0f98b27d97a1b4.jpg"
    },
    {
        "id": "2V0JMVropeGMRY5k",
        "url": "9/2V0JMVropeGMRY5k/playlist.m3u8",
        "title": "\u97e9\u6d41\u8f66\u6a21\u5c55MV",
        "pic": "https://sta-op.douyucdn.cn/vod-cover/2021/01/17/c46bf912fb9e6fa646292a535717e1c3.jpg"
    },
    {
        "id": "DrwnvzmkxpKWPNaX",
        "url": "9/DrwnvzmkxpKWPNaX/playlist.m3u8",
        "title": "\u97e9\u6d41\u8f66\u6a21\u5c55MV",
        "pic": "https://sta-op.douyucdn.cn/vod-cover/2021/01/17/cf727cc9d2a5755bab7630575cf22c2e.jpg"
    },
    {
        "id": "NVm0WKxqY6bvJeBP",
        "url": "9/NVm0WKxqY6bvJeBP/playlist.m3u8",
        "title": "\u97e9\u6d41\u8f66\u6a21\u5c55MV",
        "pic": "https://sta-op.douyucdn.cn/vod-cover/2021/01/17/68ea97f6e9ba92792812313931218091.jpg"
    },
    {
        "id": "r90XWgr5P6gMgk25",
        "url": "9/r90XWgr5P6gMgk25/playlist.m3u8",
        "title": "\u97e9\u6d41\u8f66\u6a21\u5c55MV",
        "pic": "https://sta-op.douyucdn.cn/vod-cover/2021/01/17/65003692527c2fae81012daba0fc0376.jpg"
    },
    {
        "id": "Qyz171zPp81MBJj9",
        "url": "9/Qyz171zPp81MBJj9/playlist.m3u8",
        "title": "\u97e9\u6d41\u8f66\u6a21\u5c55MV",
        "pic": "https://sta-op.douyucdn.cn/vod-cover/2021/01/17/4c38a881e848bba9157b1233c3505ed2.jpg"
    },
    {
        "id": "Kp1QM8pEOqVMk4bj",
        "url": "9/Kp1QM8pEOqVMk4bj/playlist.m3u8",
        "title": "\u97e9\u6d41\u8f66\u6a21\u5c55MV",
        "pic": "https://sta-op.douyucdn.cn/vod-cover/2021/01/17/7f68c19ebfd197c06c46f7d8aff56019.jpg"
    },
    {
        "id": "0zZVvPxJNj3vO4E2",
        "url": "9/0zZVvPxJNj3vO4E2/playlist.m3u8",
        "title": "\u97e9\u6d41\u8f66\u6a21\u5c55MV",
        "pic": "https://sta-op.douyucdn.cn/vod-cover/2021/01/17/ca1838459548a4e75e7fdc1b7498cc5e.jpg"
    },
    {
        "id": "X3JzMamYr6NMPQro",
        "url": "9/X3JzMamYr6NMPQro/playlist.m3u8",
        "title": "\u97e9\u6d41\u8f66\u6a21\u5c55MV",
        "pic": "https://sta-op.douyucdn.cn/vod-cover/2021/01/17/b290b15a49c8817468ed531e4627a29d.jpg"
    },
    {
        "id": "Yo4evy1rXLmv8L62",
        "url": "9/Yo4evy1rXLmv8L62/playlist.m3u8",
        "title": "\u97e9\u6d41\u8f66\u6a21\u5c55MV",
        "pic": "https://sta-op.douyucdn.cn/vod-cover/2021/01/17/9915fa827a2f7c8f5ee2e6959066b1e7.jpg"
    },
    {
        "id": "jNBdvnZnELmvE2yw",
        "url": "9/jNBdvnZnELmvE2yw/playlist.m3u8",
        "title": "\u97e9\u6d41\u8f66\u6a21\u5c55MV",
        "pic": "https://sta-op.douyucdn.cn/vod-cover/2021/01/17/9a33911cee5ae49143d00dd9249043f7.jpg"
    }
]