[
    {
        "name": "[XIUREN]\u79c0\u4eba\u7f51 No.328 \u745e\u838eTrista",
        "src": "http://d.duotuwang.com/2015/05/19/2148/0.jpg",
        "mtId": "3ef53c820ead4ae8",
        "mtName": "\u745e\u838eTrista",
        "jgId": "xiuren",
        "jgName": "\u79c0\u4eba\u7f51",
        "href": "http://d.duotuwang.com/2015/05/19/2148/",
        "count": 52,
        "start": 1,
        "hasMtTag": 1,
        "hasJgTag": 1,
        "mtCount": 2,
        "jgCount": 750
    }
]