[
    {
        "name": "[MICAT]\u732b\u840c\u699c VOL.009 \u840c\u742a\u742aIrene",
        "src": "http://d.duotuwang.com/2017/06/12/3940/0.jpg",
        "mtId": "66729276e15617cd",
        "mtName": "\u840c\u742a\u742aIrene",
        "jgId": "micat",
        "jgName": "\u732b\u840c\u699c",
        "href": "http://d.duotuwang.com/2017/06/12/3940/",
        "count": 50,
        "start": 1,
        "hasMtTag": 1,
        "hasJgTag": 1,
        "mtCount": 7,
        "jgCount": 6
    },
    {
        "name": "[FEILIN]\u55f2\u56e1\u56e1 VOL.097 \u840c\u742a\u742aIrene",
        "src": "http://d.duotuwang.com/2017/06/09/3946/0.jpg",
        "mtId": "66729276e15617cd",
        "mtName": "\u840c\u742a\u742aIrene",
        "jgId": "feilin",
        "jgName": "\u55f2\u56e1\u56e1",
        "href": "http://d.duotuwang.com/2017/06/09/3946/",
        "count": 48,
        "start": 1,
        "hasMtTag": 1,
        "hasJgTag": 1,
        "mtCount": 7,
        "jgCount": 61
    },
    {
        "name": "[MICAT]\u732b\u840c\u699c VOL.006 \u840c\u742a\u742aIrene",
        "src": "http://d.duotuwang.com/2017/06/05/3928/0.jpg",
        "mtId": "66729276e15617cd",
        "mtName": "\u840c\u742a\u742aIrene",
        "jgId": "micat",
        "jgName": "\u732b\u840c\u699c",
        "href": "http://d.duotuwang.com/2017/06/05/3928/",
        "count": 50,
        "start": 1,
        "hasMtTag": 1,
        "hasJgTag": 1,
        "mtCount": 7,
        "jgCount": 6
    },
    {
        "name": "[MICAT]\u732b\u840c\u699c VOL.005 \u840c\u742a\u742aIrene",
        "src": "http://d.duotuwang.com/2017/06/02/3840/0.jpg",
        "mtId": "66729276e15617cd",
        "mtName": "\u840c\u742a\u742aIrene",
        "jgId": "micat",
        "jgName": "\u732b\u840c\u699c",
        "href": "http://d.duotuwang.com/2017/06/02/3840/",
        "count": 47,
        "start": 1,
        "hasMtTag": 1,
        "hasJgTag": 1,
        "mtCount": 7,
        "jgCount": 6
    },
    {
        "name": "[UGirlsAPP]\u7231\u5c24\u7269 No.738 \u840c\u742a\u742a",
        "src": "http://d.duotuwang.com/2017/05/27/5049/0.jpg",
        "mtId": "66729276e15617cd",
        "mtName": "\u840c\u742a\u742a",
        "jgId": "ugirlsapp",
        "jgName": "\u7231\u5c24\u7269",
        "href": "http://d.duotuwang.com/2017/05/27/5049/",
        "count": 40,
        "start": 1,
        "hasMtTag": 1,
        "hasJgTag": 1,
        "mtCount": 7,
        "jgCount": 397
    },
    {
        "name": "[MICAT]\u732b\u840c\u699c VOL.001 \u840c\u742a\u742aIrene",
        "src": "http://d.duotuwang.com/2017/05/10/3836/0.jpg",
        "mtId": "66729276e15617cd",
        "mtName": "\u840c\u742a\u742aIrene",
        "jgId": "micat",
        "jgName": "\u732b\u840c\u699c",
        "href": "http://d.duotuwang.com/2017/05/10/3836/",
        "count": 50,
        "start": 1,
        "hasMtTag": 1,
        "hasJgTag": 1,
        "mtCount": 7,
        "jgCount": 6
    }
]