[
    {
        "name": "[XIUREN]\u79c0\u4eba\u7f51 No.669 \u840c\u742a\u742aIrene",
        "src": "http://d.duotuwang.com/2016/12/28/1983/0.jpg",
        "mtId": "66729276e15617cd",
        "mtName": "\u840c\u742a\u742aIrene",
        "jgId": "xiuren",
        "jgName": "\u79c0\u4eba\u7f51",
        "href": "http://d.duotuwang.com/2016/12/28/1983/",
        "count": 70,
        "start": 1,
        "hasMtTag": 1,
        "hasJgTag": 1,
        "mtCount": 7,
        "jgCount": 750
    },
    {
        "name": "[toutiaogirls]\u5934\u6761\u5973\u795e 2016-11-06 \u840c\u742a\u742a",
        "src": "http://d.duotuwang.com/2016/11/06/3591/0.jpg",
        "mtId": "66729276e15617cd",
        "mtName": "\u840c\u742a\u742a",
        "jgId": "toutiaogirls",
        "jgName": "\u5934\u6761\u5973\u795e",
        "href": "http://d.duotuwang.com/2016/11/06/3591/",
        "count": 42,
        "start": 1,
        "hasMtTag": 1,
        "hasJgTag": 1,
        "mtCount": 7,
        "jgCount": 133
    },
    {
        "name": "[XIUREN]\u79c0\u4eba\u7f51 No.625 \u840c\u742a\u742aIrene",
        "src": "http://d.duotuwang.com/2016/10/26/1763/0.jpg",
        "mtId": "66729276e15617cd",
        "mtName": "\u840c\u742a\u742aIrene",
        "jgId": "xiuren",
        "jgName": "\u79c0\u4eba\u7f51",
        "href": "http://d.duotuwang.com/2016/10/26/1763/",
        "count": 59,
        "start": 1,
        "hasMtTag": 1,
        "hasJgTag": 1,
        "mtCount": 7,
        "jgCount": 750
    },
    {
        "name": "[FEILIN]\u55f2\u56e1\u56e1 VOL.059 \u840c\u742a\u742aIrene",
        "src": "http://d.duotuwang.com/2016/10/21/1770/0.jpg",
        "mtId": "66729276e15617cd",
        "mtName": "\u840c\u742a\u742aIrene",
        "jgId": "feilin",
        "jgName": "\u55f2\u56e1\u56e1",
        "href": "http://d.duotuwang.com/2016/10/21/1770/",
        "count": 41,
        "start": 1,
        "hasMtTag": 1,
        "hasJgTag": 1,
        "mtCount": 7,
        "jgCount": 61
    },
    {
        "name": "[UGirlsAPP]\u7231\u5c24\u7269 No.516 \u840c\u742a\u742a",
        "src": "http://d.duotuwang.com/2016/10/14/4840/0.jpg",
        "mtId": "66729276e15617cd",
        "mtName": "\u840c\u742a\u742a",
        "jgId": "ugirlsapp",
        "jgName": "\u7231\u5c24\u7269",
        "href": "http://d.duotuwang.com/2016/10/14/4840/",
        "count": 40,
        "start": 1,
        "hasMtTag": 1,
        "hasJgTag": 1,
        "mtCount": 7,
        "jgCount": 397
    },
    {
        "name": "[UGirls]\u5c24\u679c\u7f51 U217 \u840c\u742a\u742a",
        "src": "http://d.duotuwang.com/2016/10/14/3228/0.jpg",
        "mtId": "66729276e15617cd",
        "mtName": "\u840c\u742a\u742a",
        "jgId": "ugirls",
        "jgName": "\u5c24\u679c\u7f51",
        "href": "http://d.duotuwang.com/2016/10/14/3228/",
        "count": 67,
        "start": 1,
        "hasMtTag": 1,
        "hasJgTag": 1,
        "mtCount": 7,
        "jgCount": 79
    }
]