[
    {
        "name": "[PartyCat]\u8f70\u8db4\u732b VOL.75 \u732b\u5988",
        "src": "http://d.duotuwang.com/2018/03/31/9011/0.jpg",
        "jgId": "partycat",
        "jgName": "\u8f70\u8db4\u732b",
        "href": "http://d.duotuwang.com/2018/03/31/9011/",
        "count": 41,
        "start": 1,
        "hasMtTag": 0,
        "hasJgTag": 1,
        "jgCount": 33
    },
    {
        "name": "[PartyCat]\u8f70\u8db4\u732b VOL.70 \u827e\u5c0f\u9752",
        "src": "http://d.duotuwang.com/2018/03/29/17297/0.jpg",
        "mtId": "956ac07ef794d061",
        "mtName": "\u827e\u5c0f\u9752",
        "jgId": "partycat",
        "jgName": "\u8f70\u8db4\u732b",
        "href": "http://d.duotuwang.com/2018/03/29/17297/",
        "count": 40,
        "start": 1,
        "hasMtTag": 1,
        "hasJgTag": 1,
        "mtCount": 16,
        "jgCount": 33
    },
    {
        "name": "[PartyCat]\u8f70\u8db4\u732b VOL.68 \u6731\u8d62",
        "src": "http://d.duotuwang.com/2018/03/26/17298/0.jpg",
        "mtId": "87163f412cd52eaf",
        "mtName": "\u6731\u8d62",
        "jgId": "partycat",
        "jgName": "\u8f70\u8db4\u732b",
        "href": "http://d.duotuwang.com/2018/03/26/17298/",
        "count": 38,
        "start": 1,
        "hasMtTag": 1,
        "hasJgTag": 1,
        "mtCount": 3,
        "jgCount": 33
    },
    {
        "name": "[PartyCat]\u8f70\u8db4\u732b VOL.67",
        "src": "http://d.duotuwang.com/2018/03/22/9019/0.jpg",
        "jgId": "partycat",
        "jgName": "\u8f70\u8db4\u732b",
        "href": "http://d.duotuwang.com/2018/03/22/9019/",
        "count": 38,
        "start": 1,
        "hasMtTag": 0,
        "hasJgTag": 1,
        "jgCount": 33
    },
    {
        "name": "[PartyCat]\u8f70\u8db4\u732b VOL.065 \u5468\u598d\u5e0c",
        "src": "http://d.duotuwang.com/2018/03/20/9021/0.jpg",
        "mtId": "2fd18d00d5f9689f",
        "mtName": "\u5468\u598d\u5e0c",
        "jgId": "partycat",
        "jgName": "\u8f70\u8db4\u732b",
        "href": "http://d.duotuwang.com/2018/03/20/9021/",
        "count": 50,
        "start": 1,
        "hasMtTag": 1,
        "hasJgTag": 1,
        "mtCount": 23,
        "jgCount": 33
    },
    {
        "name": "[PartyCat]\u8f70\u8db4\u732b VOL.062 \u5468\u598d\u5e0c",
        "src": "http://d.duotuwang.com/2018/03/16/9024/0.jpg",
        "mtId": "2fd18d00d5f9689f",
        "mtName": "\u5468\u598d\u5e0c",
        "jgId": "partycat",
        "jgName": "\u8f70\u8db4\u732b",
        "href": "http://d.duotuwang.com/2018/03/16/9024/",
        "count": 45,
        "start": 1,
        "hasMtTag": 1,
        "hasJgTag": 1,
        "mtCount": 23,
        "jgCount": 33
    }
]