[
    {
        "name": "[PartyCat]\u8f70\u8db4\u732b VOL.16 K8\u50b2\u5a07\u840c\u840c",
        "src": "http://d.duotuwang.com/2017/12/10/8953/0.jpg",
        "mtId": "211e912dfdb41ee3",
        "mtName": "K8\u50b2\u5a07\u840c\u840c",
        "jgId": "partycat",
        "jgName": "\u8f70\u8db4\u732b",
        "href": "http://d.duotuwang.com/2017/12/10/8953/",
        "count": 40,
        "start": 1,
        "hasMtTag": 1,
        "hasJgTag": 1,
        "mtCount": 10,
        "jgCount": 33
    },
    {
        "name": "[PartyCat]\u8f70\u8db4\u732b VOL.15 \u5b59\u68a6\u7476V",
        "src": "http://d.duotuwang.com/2017/12/08/8954/0.jpg",
        "mtId": "555d525a22aa2df3",
        "mtName": "\u5b59\u68a6\u7476V",
        "jgId": "partycat",
        "jgName": "\u8f70\u8db4\u732b",
        "href": "http://d.duotuwang.com/2017/12/08/8954/",
        "count": 39,
        "start": 1,
        "hasMtTag": 1,
        "hasJgTag": 1,
        "mtCount": 7,
        "jgCount": 33
    },
    {
        "name": "[PartyCat]\u8f70\u8db4\u732b VOL.12 \u6587\u7433",
        "src": "http://d.duotuwang.com/2017/12/03/8955/0.jpg",
        "jgId": "partycat",
        "jgName": "\u8f70\u8db4\u732b",
        "href": "http://d.duotuwang.com/2017/12/03/8955/",
        "count": 40,
        "start": 1,
        "hasMtTag": 0,
        "hasJgTag": 1,
        "jgCount": 33
    },
    {
        "name": "[PartyCat]\u8f70\u8db4\u732b VOL.11 \u5029\u5029",
        "src": "http://d.duotuwang.com/2017/12/01/8956/0.jpg",
        "jgId": "partycat",
        "jgName": "\u8f70\u8db4\u732b",
        "href": "http://d.duotuwang.com/2017/12/01/8956/",
        "count": 45,
        "start": 1,
        "hasMtTag": 0,
        "hasJgTag": 1,
        "jgCount": 33
    },
    {
        "name": "[PartyCat]\u8f70\u8db4\u732b VOL.010 \u5468\u598d\u5e0c",
        "src": "http://d.duotuwang.com/2017/11/25/8957/0.jpg",
        "mtId": "2fd18d00d5f9689f",
        "mtName": "\u5468\u598d\u5e0c",
        "jgId": "partycat",
        "jgName": "\u8f70\u8db4\u732b",
        "href": "http://d.duotuwang.com/2017/11/25/8957/",
        "count": 40,
        "start": 1,
        "hasMtTag": 1,
        "hasJgTag": 1,
        "mtCount": 23,
        "jgCount": 33
    },
    {
        "name": "[PartyCat]\u8f70\u8db4\u732b VOL.9 \u5b89\u742a\u62c9",
        "src": "http://d.duotuwang.com/2017/11/20/8958/0.jpg",
        "mtId": "5c2d390d02ab2f4c",
        "mtName": "\u5b89\u742a\u62c9",
        "jgId": "partycat",
        "jgName": "\u8f70\u8db4\u732b",
        "href": "http://d.duotuwang.com/2017/11/20/8958/",
        "count": 34,
        "start": 1,
        "hasMtTag": 1,
        "hasJgTag": 1,
        "mtCount": 1,
        "jgCount": 33
    }
]