[
    {
        "name": "[Pure Media] Vol.69 Mozzi",
        "src": "http://d.duotuwang.com/2021/04/06/26190/0.jpg",
        "mtId": "0863e388f319a3e1",
        "mtName": "PureMedia",
        "href": "http://d.duotuwang.com/2021/04/06/26190/",
        "count": 86,
        "start": 1,
        "hasMtTag": 1,
        "hasJgTag": 0,
        "mtCount": 6
    },
    {
        "name": "[Pure Media] Vol.39 Mozzi",
        "src": "http://d.duotuwang.com/2020/11/30/26000/0.jpg",
        "mtId": "0863e388f319a3e1",
        "mtName": "PureMedia",
        "href": "http://d.duotuwang.com/2020/11/30/26000/",
        "count": 75,
        "start": 1,
        "hasMtTag": 1,
        "hasJgTag": 0,
        "mtCount": 6
    },
    {
        "name": "[Pure Media] Vol.29 Mozzi 2/2",
        "src": "http://d.duotuwang.com/2020/08/01/26016/0.jpg",
        "mtId": "0863e388f319a3e1",
        "mtName": "PureMedia",
        "href": "http://d.duotuwang.com/2020/08/01/26016/",
        "count": 60,
        "start": 49,
        "hasMtTag": 1,
        "hasJgTag": 0,
        "mtCount": 6
    },
    {
        "name": "[Pure Media] Vol.29 Mozzi 1/2",
        "src": "http://d.duotuwang.com/2020/08/01/25998/0.jpg",
        "mtId": "0863e388f319a3e1",
        "mtName": "PureMedia",
        "href": "http://d.duotuwang.com/2020/08/01/25998/",
        "count": 48,
        "start": 1,
        "hasMtTag": 1,
        "hasJgTag": 0,
        "mtCount": 6
    },
    {
        "name": "[Pure Media] Vol.22 Mozzi",
        "src": "http://d.duotuwang.com/2020/07/06/25997/0.jpg",
        "mtId": "0863e388f319a3e1",
        "mtName": "PureMedia",
        "href": "http://d.duotuwang.com/2020/07/06/25997/",
        "count": 76,
        "start": 1,
        "hasMtTag": 1,
        "hasJgTag": 0,
        "mtCount": 6
    }
]