[
    {
        "name": "[MyGirl]\u7f8e\u5a9b\u9986 VOL.359 \u4ed3\u4e95\u4f18\u9999",
        "src": "http://d.duotuwang.com/2019/05/29/16691/0.jpg",
        "mtId": "3734ba1c3fb8c9ed",
        "mtName": "\u4ed3\u4e95\u4f18\u9999",
        "jgId": "mygirl",
        "jgName": "\u7f8e\u5a9b\u9986",
        "href": "http://d.duotuwang.com/2019/05/29/16691/",
        "count": 96,
        "start": 1,
        "hasMtTag": 1,
        "hasJgTag": 1,
        "mtCount": 9,
        "jgCount": 110
    },
    {
        "name": "[MFStar]\u6a21\u8303\u5b66\u9662 VOL.192 \u4ed3\u4e95\u4f18\u9999",
        "src": "http://d.duotuwang.com/2019/05/20/16530/0.jpg",
        "mtId": "3734ba1c3fb8c9ed",
        "mtName": "\u4ed3\u4e95\u4f18\u9999",
        "jgId": "mfstar",
        "jgName": "\u6a21\u8303\u5b66\u9662",
        "href": "http://d.duotuwang.com/2019/05/20/16530/",
        "count": 40,
        "start": 1,
        "hasMtTag": 1,
        "hasJgTag": 1,
        "mtCount": 9,
        "jgCount": 94
    },
    {
        "name": "[MyGirl]\u7f8e\u5a9b\u9986 VOL.351 \u4ed3\u4e95\u4f18\u9999",
        "src": "http://d.duotuwang.com/2019/03/29/14756/0.jpg",
        "mtId": "3734ba1c3fb8c9ed",
        "mtName": "\u4ed3\u4e95\u4f18\u9999",
        "jgId": "mygirl",
        "jgName": "\u7f8e\u5a9b\u9986",
        "href": "http://d.duotuwang.com/2019/03/29/14756/",
        "count": 70,
        "start": 1,
        "hasMtTag": 1,
        "hasJgTag": 1,
        "mtCount": 9,
        "jgCount": 110
    },
    {
        "name": "[MyGirl]\u7f8e\u5a9b\u9986 VOL.349 \u4ed3\u4e95\u4f18\u9999",
        "src": "http://d.duotuwang.com/2019/03/15/14538/0.jpg",
        "mtId": "3734ba1c3fb8c9ed",
        "mtName": "\u4ed3\u4e95\u4f18\u9999",
        "jgId": "mygirl",
        "jgName": "\u7f8e\u5a9b\u9986",
        "href": "http://d.duotuwang.com/2019/03/15/14538/",
        "count": 41,
        "start": 1,
        "hasMtTag": 1,
        "hasJgTag": 1,
        "mtCount": 9,
        "jgCount": 110
    },
    {
        "name": "[MFStar]\u6a21\u8303\u5b66\u9662 VOL.175 \u4ed3\u4e95\u4f18\u9999",
        "src": "http://d.duotuwang.com/2019/01/28/10432/0.jpg",
        "mtId": "3734ba1c3fb8c9ed",
        "mtName": "\u4ed3\u4e95\u4f18\u9999",
        "jgId": "mfstar",
        "jgName": "\u6a21\u8303\u5b66\u9662",
        "href": "http://d.duotuwang.com/2019/01/28/10432/",
        "count": 38,
        "start": 1,
        "hasMtTag": 1,
        "hasJgTag": 1,
        "mtCount": 9,
        "jgCount": 94
    },
    {
        "name": "[XIUREN\u79c0\u4eba\u7f51] No.1313 \u4ed3\u4e95\u4f18\u9999",
        "src": "http://d.duotuwang.com/2019/01/16/10397/0.jpg",
        "mtId": "3734ba1c3fb8c9ed",
        "mtName": "\u4ed3\u4e95\u4f18\u9999",
        "jgId": "xiuren",
        "jgName": "\u79c0\u4eba\u7f51",
        "href": "http://d.duotuwang.com/2019/01/16/10397/",
        "count": 45,
        "start": 1,
        "hasMtTag": 1,
        "hasJgTag": 1,
        "mtCount": 9,
        "jgCount": 750
    }
]