[
    {
        "name": "[toutiaogirls]\u5934\u6761\u5973\u795e 2019-09-07 \u7d22\u83f2 \u5976\u8336\u5e97\u7684\u5c0f\u516c\u4e3b",
        "src": "http://d.duotuwang.com/2019/09/07/17912/0.jpg",
        "mtId": "c81c82aafbbc65f4",
        "mtName": "\u7d22\u83f2",
        "jgId": "toutiaogirls",
        "jgName": "\u5934\u6761\u5973\u795e",
        "href": "http://d.duotuwang.com/2019/09/07/17912/",
        "count": 8,
        "start": 1,
        "hasMtTag": 1,
        "hasJgTag": 1,
        "mtCount": 1,
        "jgCount": 133
    },
    {
        "name": "[toutiaogirls]\u5934\u6761\u5973\u795e 2019-09-07 \u7d22\u83f2 \u5f00\u5b66\u7b2c\u4e00\u5929",
        "src": "http://d.duotuwang.com/2019/09/07/17911/0.jpg",
        "mtId": "c81c82aafbbc65f4",
        "mtName": "\u7d22\u83f2",
        "jgId": "toutiaogirls",
        "jgName": "\u5934\u6761\u5973\u795e",
        "href": "http://d.duotuwang.com/2019/09/07/17911/",
        "count": 9,
        "start": 1,
        "hasMtTag": 1,
        "hasJgTag": 1,
        "mtCount": 1,
        "jgCount": 133
    },
    {
        "name": "[toutiaogirls]\u5934\u6761\u5973\u795e 2019-08-14 \u7d22\u83f2 \u8f7b\u719f\u98ce\u97f5",
        "src": "http://d.duotuwang.com/2019/08/14/17743/0.jpg",
        "mtId": "c81c82aafbbc65f4",
        "mtName": "\u7d22\u83f2",
        "jgId": "toutiaogirls",
        "jgName": "\u5934\u6761\u5973\u795e",
        "href": "http://d.duotuwang.com/2019/08/14/17743/",
        "count": 11,
        "start": 1,
        "hasMtTag": 1,
        "hasJgTag": 1,
        "mtCount": 1,
        "jgCount": 133
    },
    {
        "name": "[toutiaogirls]\u5934\u6761\u5973\u795e 2019-07-25 \u7d22\u83f2 \u8db3\u7403\u5b9d\u8d1d\u7d22\u83f2\u5a05",
        "src": "http://d.duotuwang.com/2019/07/25/17462/0.jpg",
        "mtId": "c81c82aafbbc65f4",
        "mtName": "\u7d22\u83f2",
        "jgId": "toutiaogirls",
        "jgName": "\u5934\u6761\u5973\u795e",
        "href": "http://d.duotuwang.com/2019/07/25/17462/",
        "count": 12,
        "start": 1,
        "hasMtTag": 1,
        "hasJgTag": 1,
        "mtCount": 1,
        "jgCount": 133
    },
    {
        "name": "[toutiaogirls]\u5934\u6761\u5973\u795e 2019-07-16 \u7d22\u83f2 \u5404\u4f4d\u4e58\u5ba2\u8bf7\u5750\u7a33\u6276\u597d\uff01",
        "src": "http://d.duotuwang.com/2019/07/16/17215/0.jpg",
        "mtId": "c81c82aafbbc65f4",
        "mtName": "\u7d22\u83f2",
        "jgId": "toutiaogirls",
        "jgName": "\u5934\u6761\u5973\u795e",
        "href": "http://d.duotuwang.com/2019/07/16/17215/",
        "count": 9,
        "start": 1,
        "hasMtTag": 1,
        "hasJgTag": 1,
        "mtCount": 1,
        "jgCount": 133
    }
]