[
    {
        "name": "[YALAYI]\u96c5\u62c9\u4f0a Y729 \u695a\u8587 \u9c9c\u80a4\u4e00\u4f55\u6da6",
        "src": "http://d.duotuwang.com/2020/11/21/23171/0.jpg",
        "mtId": "33241ce8ab367e36",
        "mtName": "\u695a\u8587",
        "jgId": "yalayi",
        "jgName": "\u96c5\u62c9\u4f0a",
        "href": "http://d.duotuwang.com/2020/11/21/23171/",
        "count": 43,
        "start": 1,
        "hasMtTag": 1,
        "hasJgTag": 1,
        "mtCount": 2,
        "jgCount": 156
    },
    {
        "name": "[YALAYI]\u96c5\u62c9\u4f0a Y554 \u695a\u8587 \u7b49\u4f60\u597d\u4e45",
        "src": "http://d.duotuwang.com/2020/02/23/19669/0.jpg",
        "mtId": "33241ce8ab367e36",
        "mtName": "\u695a\u8587",
        "jgId": "yalayi",
        "jgName": "\u96c5\u62c9\u4f0a",
        "href": "http://d.duotuwang.com/2020/02/23/19669/",
        "count": 44,
        "start": 1,
        "hasMtTag": 1,
        "hasJgTag": 1,
        "mtCount": 2,
        "jgCount": 156
    },
    {
        "name": "[YALAYI]\u96c5\u62c9\u4f0a Y503 \u695a\u8587 \u8587\u670d\u79c1\u8bbf",
        "src": "http://d.duotuwang.com/2019/12/27/19080/0.jpg",
        "mtId": "33241ce8ab367e36",
        "mtName": "\u695a\u8587",
        "jgId": "yalayi",
        "jgName": "\u96c5\u62c9\u4f0a",
        "href": "http://d.duotuwang.com/2019/12/27/19080/",
        "count": 48,
        "start": 1,
        "hasMtTag": 1,
        "hasJgTag": 1,
        "mtCount": 2,
        "jgCount": 156
    },
    {
        "name": "[YALAYI]\u96c5\u62c9\u4f0a Y260 \u695a\u8587 \u5fae\u5149",
        "src": "http://d.duotuwang.com/2019/09/03/17883/0.jpg",
        "mtId": "33241ce8ab367e36",
        "mtName": "\u695a\u8587",
        "jgId": "yalayi",
        "jgName": "\u96c5\u62c9\u4f0a",
        "href": "http://d.duotuwang.com/2019/09/03/17883/",
        "count": 43,
        "start": 1,
        "hasMtTag": 1,
        "hasJgTag": 1,
        "mtCount": 2,
        "jgCount": 156
    },
    {
        "name": "[YALAYI]\u96c5\u62c9\u4f0a Y237 \u695a\u8587 \u6dd1\u8d28\u8273\u5149",
        "src": "http://d.duotuwang.com/2019/07/15/16344/0.jpg",
        "mtId": "33241ce8ab367e36",
        "mtName": "\u695a\u8587",
        "jgId": "yalayi",
        "jgName": "\u96c5\u62c9\u4f0a",
        "href": "http://d.duotuwang.com/2019/07/15/16344/",
        "count": 44,
        "start": 1,
        "hasMtTag": 1,
        "hasJgTag": 1,
        "mtCount": 2,
        "jgCount": 156
    },
    {
        "name": "[YALAYI]\u96c5\u62c9\u4f0a Y324 \u695a\u8587 \u94f6\u72d0",
        "src": "http://d.duotuwang.com/2019/06/30/16978/0.jpg",
        "mtId": "33241ce8ab367e36",
        "mtName": "\u695a\u8587",
        "jgId": "yalayi",
        "jgName": "\u96c5\u62c9\u4f0a",
        "href": "http://d.duotuwang.com/2019/06/30/16978/",
        "count": 44,
        "start": 1,
        "hasMtTag": 1,
        "hasJgTag": 1,
        "mtCount": 2,
        "jgCount": 156
    }
]