[
    {
        "name": "[XIAOYU]\u8bed\u753b\u754c VOL.636 \u7a0b\u7a0b\u7a0b-",
        "src": "http://d.duotuwang.com/2021/10/20/27015/0.jpg",
        "mtId": "db3582bed21e076b",
        "mtName": "\u7a0b\u7a0b\u7a0b-",
        "jgId": "xiaoyu",
        "jgName": "\u8bed\u753b\u754c",
        "href": "http://d.duotuwang.com/2021/10/20/27015/",
        "count": 79,
        "start": 1,
        "hasMtTag": 1,
        "hasJgTag": 1,
        "mtCount": 6,
        "jgCount": 155
    },
    {
        "name": "[XIAOYU]\u8bed\u753b\u754c VOL.620 \u7a0b\u7a0b\u7a0b-",
        "src": "http://d.duotuwang.com/2021/09/23/26720/0.jpg",
        "mtId": "db3582bed21e076b",
        "mtName": "\u7a0b\u7a0b\u7a0b-",
        "jgId": "xiaoyu",
        "jgName": "\u8bed\u753b\u754c",
        "href": "http://d.duotuwang.com/2021/09/23/26720/",
        "count": 85,
        "start": 1,
        "hasMtTag": 1,
        "hasJgTag": 1,
        "mtCount": 6,
        "jgCount": 155
    },
    {
        "name": "[XIAOYU]\u8bed\u753b\u754c VOL.599 \u7a0b\u7a0b\u7a0b-",
        "src": "http://d.duotuwang.com/2021/08/24/26297/0.jpg",
        "mtId": "db3582bed21e076b",
        "mtName": "\u7a0b\u7a0b\u7a0b-",
        "jgId": "xiaoyu",
        "jgName": "\u8bed\u753b\u754c",
        "href": "http://d.duotuwang.com/2021/08/24/26297/",
        "count": 88,
        "start": 1,
        "hasMtTag": 1,
        "hasJgTag": 1,
        "mtCount": 6,
        "jgCount": 155
    },
    {
        "name": "[XIAOYU]\u8bed\u753b\u754c VOL.591 \u7a0b\u7a0b\u7a0b-",
        "src": "http://d.duotuwang.com/2021/08/12/26289/0.jpg",
        "mtId": "db3582bed21e076b",
        "mtName": "\u7a0b\u7a0b\u7a0b-",
        "jgId": "xiaoyu",
        "jgName": "\u8bed\u753b\u754c",
        "href": "http://d.duotuwang.com/2021/08/12/26289/",
        "count": 57,
        "start": 1,
        "hasMtTag": 1,
        "hasJgTag": 1,
        "mtCount": 6,
        "jgCount": 155
    },
    {
        "name": "[XIAOYU]\u8bed\u753b\u754c VOL.386 \u7a0b\u7a0b\u7a0b-",
        "src": "http://d.duotuwang.com/2020/10/14/22823/0.jpg",
        "mtId": "db3582bed21e076b",
        "mtName": "\u7a0b\u7a0b\u7a0b-",
        "jgId": "xiaoyu",
        "jgName": "\u8bed\u753b\u754c",
        "href": "http://d.duotuwang.com/2020/10/14/22823/",
        "count": 68,
        "start": 1,
        "hasMtTag": 1,
        "hasJgTag": 1,
        "mtCount": 6,
        "jgCount": 155
    },
    {
        "name": "[XIAOYU]\u8bed\u753b\u754c VOL.374 \u7a0b\u7a0b\u7a0b-",
        "src": "http://d.duotuwang.com/2020/09/22/22339/0.jpg",
        "mtId": "db3582bed21e076b",
        "mtName": "\u7a0b\u7a0b\u7a0b-",
        "jgId": "xiaoyu",
        "jgName": "\u8bed\u753b\u754c",
        "href": "http://d.duotuwang.com/2020/09/22/22339/",
        "count": 71,
        "start": 1,
        "hasMtTag": 1,
        "hasJgTag": 1,
        "mtCount": 6,
        "jgCount": 155
    }
]