[
    {
        "name": "[XIAOYU]\u8bed\u753b\u754c VOL.218 \u7a0b\u7a0b\u7a0b-",
        "src": "http://d.duotuwang.com/2019/12/19/18957/0.jpg",
        "mtId": "db3582bed21e076b",
        "mtName": "\u7a0b\u7a0b\u7a0b-",
        "jgId": "xiaoyu",
        "jgName": "\u8bed\u753b\u754c",
        "href": "http://d.duotuwang.com/2019/12/19/18957/",
        "count": 54,
        "start": 1,
        "hasMtTag": 1,
        "hasJgTag": 1,
        "mtCount": 6,
        "jgCount": 155
    },
    {
        "name": "[XIAOYU]\u8bed\u753b\u754c VOL.210 \u7a0b\u7a0b\u7a0b- 2/2",
        "src": "http://d.duotuwang.com/2019/12/09/19001/0.jpg",
        "mtId": "db3582bed21e076b",
        "mtName": "\u7a0b\u7a0b\u7a0b-",
        "jgId": "xiaoyu",
        "jgName": "\u8bed\u753b\u754c",
        "href": "http://d.duotuwang.com/2019/12/09/19001/",
        "count": 53,
        "start": 57,
        "hasMtTag": 1,
        "hasJgTag": 1,
        "mtCount": 6,
        "jgCount": 155
    },
    {
        "name": "[XIAOYU]\u8bed\u753b\u754c VOL.210 \u7a0b\u7a0b\u7a0b- 1/2",
        "src": "http://d.duotuwang.com/2019/12/09/18876/0.jpg",
        "mtId": "db3582bed21e076b",
        "mtName": "\u7a0b\u7a0b\u7a0b-",
        "jgId": "xiaoyu",
        "jgName": "\u8bed\u753b\u754c",
        "href": "http://d.duotuwang.com/2019/12/09/18876/",
        "count": 55,
        "start": 1,
        "hasMtTag": 1,
        "hasJgTag": 1,
        "mtCount": 6,
        "jgCount": 155
    },
    {
        "name": "[XIAOYU]\u8bed\u753b\u754c VOL.201 \u7a0b\u7a0b\u7a0b-",
        "src": "http://d.duotuwang.com/2019/11/26/18725/0.jpg",
        "mtId": "db3582bed21e076b",
        "mtName": "\u7a0b\u7a0b\u7a0b-",
        "jgId": "xiaoyu",
        "jgName": "\u8bed\u753b\u754c",
        "href": "http://d.duotuwang.com/2019/11/26/18725/",
        "count": 98,
        "start": 1,
        "hasMtTag": 1,
        "hasJgTag": 1,
        "mtCount": 6,
        "jgCount": 155
    }
]