[
    {
        "name": "[MyGirl]\u7f8e\u5a9b\u9986 VOL.140 \u718a\u5416BOBO",
        "src": "http://d.duotuwang.com/2015/08/17/901/0.jpg",
        "mtId": "14ef7c57e2b40037",
        "mtName": "\u718a\u5416BOBO",
        "jgId": "mygirl",
        "jgName": "\u7f8e\u5a9b\u9986",
        "href": "http://d.duotuwang.com/2015/08/17/901/",
        "count": 61,
        "start": 1,
        "hasMtTag": 1,
        "hasJgTag": 1,
        "mtCount": 5,
        "jgCount": 110
    }
]