[
    {
        "name": "[toutiaogirls]\u5934\u6761\u5973\u795e 2018-12-24 2018\u5723\u8bde\u8282\u5feb\u4e50",
        "src": "http://d.duotuwang.com/2018/12/24/10271/0.jpg",
        "mtId": "eaa19160eb9a4e36",
        "mtName": "SOLO-\u5c39\u83f2",
        "jgId": "toutiaogirls",
        "jgName": "\u5934\u6761\u5973\u795e",
        "href": "http://d.duotuwang.com/2018/12/24/10271/",
        "count": 73,
        "start": 1,
        "hasMtTag": 1,
        "hasJgTag": 1,
        "mtCount": 22,
        "jgCount": 133
    },
    {
        "name": "[MyGirl]\u7f8e\u5a9b\u9986 VOL.335 SOLO-\u5c39\u83f2",
        "src": "http://d.duotuwang.com/2018/12/17/10180/0.jpg",
        "mtId": "eaa19160eb9a4e36",
        "mtName": "SOLO-\u5c39\u83f2",
        "jgId": "mygirl",
        "jgName": "\u7f8e\u5a9b\u9986",
        "href": "http://d.duotuwang.com/2018/12/17/10180/",
        "count": 52,
        "start": 1,
        "hasMtTag": 1,
        "hasJgTag": 1,
        "mtCount": 22,
        "jgCount": 110
    },
    {
        "name": "[HuaYang]\u82b1\u6f3eshow VOL.099 SOLO-\u5c39\u83f2",
        "src": "http://d.duotuwang.com/2018/12/13/10156/0.jpg",
        "mtId": "eaa19160eb9a4e36",
        "mtName": "SOLO-\u5c39\u83f2",
        "jgId": "huayang",
        "jgName": "\u82b1\u6f3eshow",
        "href": "http://d.duotuwang.com/2018/12/13/10156/",
        "count": 46,
        "start": 1,
        "hasMtTag": 1,
        "hasJgTag": 1,
        "mtCount": 22,
        "jgCount": 86
    },
    {
        "name": "[toutiaogirls]\u5934\u6761\u5973\u795e 2018-12-10 \u5c39\u83f2",
        "src": "http://d.duotuwang.com/2018/12/10/10205/0.jpg",
        "mtId": "eaa19160eb9a4e36",
        "mtName": "SOLO-\u5c39\u83f2",
        "jgId": "toutiaogirls",
        "jgName": "\u5934\u6761\u5973\u795e",
        "href": "http://d.duotuwang.com/2018/12/10/10205/",
        "count": 32,
        "start": 1,
        "hasMtTag": 1,
        "hasJgTag": 1,
        "mtCount": 22,
        "jgCount": 133
    },
    {
        "name": "[YouMei]\u5c24\u7f8e No.89  \u5c39\u83f2 \u968f\u6027\u306e\u8bf1\u60d1",
        "src": "http://d.duotuwang.com/2018/11/30/11041/0.jpg",
        "mtId": "eaa19160eb9a4e36",
        "mtName": "SOLO-\u5c39\u83f2",
        "jgId": "youmei",
        "jgName": "\u5c24\u7f8e\u7f51",
        "href": "http://d.duotuwang.com/2018/11/30/11041/",
        "count": 5,
        "start": 1,
        "hasMtTag": 1,
        "hasJgTag": 1,
        "mtCount": 22,
        "jgCount": 47
    },
    {
        "name": "[YouMei]\u5c24\u7f8e No.077 SOLO-\u5c39\u83f2 \u591c\u82b3\u83f2 \u89c6\u89c9\u76db\u5bb4\u52fe\u4eba\u9b42\u9b44",
        "src": "http://d.duotuwang.com/2018/11/23/10533/0.jpg",
        "mtId": "eaa19160eb9a4e36",
        "mtName": "SOLO-\u5c39\u83f2",
        "jgId": "youmei",
        "jgName": "\u5c24\u7f8e\u7f51",
        "href": "http://d.duotuwang.com/2018/11/23/10533/",
        "count": 21,
        "start": 1,
        "hasMtTag": 1,
        "hasJgTag": 1,
        "mtCount": 22,
        "jgCount": 47
    }
]