[
    {
        "name": "[YALAYI]\u96c5\u62c9\u4f0a Y790 \u5a49\u513f \u75f4\u60c5\u4eba",
        "src": "http://d.duotuwang.com/2021/04/23/24894/0.jpg",
        "mtId": "4f131495f34b6385",
        "mtName": "\u5a49\u513f",
        "jgId": "yalayi",
        "jgName": "\u96c5\u62c9\u4f0a",
        "href": "http://d.duotuwang.com/2021/04/23/24894/",
        "count": 38,
        "start": 1,
        "hasMtTag": 1,
        "hasJgTag": 1,
        "mtCount": 1,
        "jgCount": 156
    },
    {
        "name": "[YALAYI]\u96c5\u62c9\u4f0a Y755 \u5a49\u513f \u8ff7\u60c5\u516c\u5bd3",
        "src": "http://d.duotuwang.com/2021/01/20/23779/0.jpg",
        "mtId": "4f131495f34b6385",
        "mtName": "\u5a49\u513f",
        "jgId": "yalayi",
        "jgName": "\u96c5\u62c9\u4f0a",
        "href": "http://d.duotuwang.com/2021/01/20/23779/",
        "count": 37,
        "start": 1,
        "hasMtTag": 1,
        "hasJgTag": 1,
        "mtCount": 1,
        "jgCount": 156
    },
    {
        "name": "[YALAYI]\u96c5\u62c9\u4f0a Y658 \u5a49\u513f \u6726\u80e7",
        "src": "http://d.duotuwang.com/2020/06/11/20811/0.jpg",
        "mtId": "4f131495f34b6385",
        "mtName": "\u5a49\u513f",
        "jgId": "yalayi",
        "jgName": "\u96c5\u62c9\u4f0a",
        "href": "http://d.duotuwang.com/2020/06/11/20811/",
        "count": 58,
        "start": 1,
        "hasMtTag": 1,
        "hasJgTag": 1,
        "mtCount": 1,
        "jgCount": 156
    },
    {
        "name": "[YALAYI]\u96c5\u62c9\u4f0a Y502 \u5a49\u513f \u4f0a\u80fd\u91cf",
        "src": "http://d.duotuwang.com/2019/12/26/19005/0.jpg",
        "mtId": "4f131495f34b6385",
        "mtName": "\u5a49\u513f",
        "jgId": "yalayi",
        "jgName": "\u96c5\u62c9\u4f0a",
        "href": "http://d.duotuwang.com/2019/12/26/19005/",
        "count": 38,
        "start": 1,
        "hasMtTag": 1,
        "hasJgTag": 1,
        "mtCount": 1,
        "jgCount": 156
    },
    {
        "name": "[YALAYI]\u96c5\u62c9\u4f0a Y490 \u5a49\u513f \u7a88\u7a95\u5973\u90ce",
        "src": "http://d.duotuwang.com/2019/12/14/18926/0.jpg",
        "mtId": "4f131495f34b6385",
        "mtName": "\u5a49\u513f",
        "jgId": "yalayi",
        "jgName": "\u96c5\u62c9\u4f0a",
        "href": "http://d.duotuwang.com/2019/12/14/18926/",
        "count": 46,
        "start": 1,
        "hasMtTag": 1,
        "hasJgTag": 1,
        "mtCount": 1,
        "jgCount": 156
    }
]