[
    {
        "name": "[MyGirl]\u7f8e\u5a9b\u9986 VOL.600 \u7eee\u91cc\u5609ula",
        "src": "http://d.duotuwang.com/2021/10/09/26875/0.jpg",
        "mtId": "4ebc33c7dadc04af",
        "mtName": "\u7eee\u91cc\u5609ula",
        "jgId": "mygirl",
        "jgName": "\u7f8e\u5a9b\u9986",
        "href": "http://d.duotuwang.com/2021/10/09/26875/",
        "count": 56,
        "start": 1,
        "hasMtTag": 1,
        "hasJgTag": 1,
        "mtCount": 27,
        "jgCount": 110
    },
    {
        "name": "[XIUREN]\u79c0\u4eba\u7f51 No.4026 \u7eee\u91cc\u5609ula",
        "src": "http://d.duotuwang.com/2021/09/30/26917/0.jpg",
        "mtId": "4ebc33c7dadc04af",
        "mtName": "\u7eee\u91cc\u5609ula",
        "jgId": "xiuren",
        "jgName": "\u79c0\u4eba\u7f51",
        "href": "http://d.duotuwang.com/2021/09/30/26917/",
        "count": 57,
        "start": 1,
        "hasMtTag": 1,
        "hasJgTag": 1,
        "mtCount": 27,
        "jgCount": 750
    },
    {
        "name": "[MyGirl]\u7f8e\u5a9b\u9986 VOL.597 \u7eee\u91cc\u5609ula",
        "src": "http://d.duotuwang.com/2021/09/27/26715/0.jpg",
        "mtId": "4ebc33c7dadc04af",
        "mtName": "\u7eee\u91cc\u5609ula",
        "jgId": "mygirl",
        "jgName": "\u7f8e\u5a9b\u9986",
        "href": "http://d.duotuwang.com/2021/09/27/26715/",
        "count": 50,
        "start": 1,
        "hasMtTag": 1,
        "hasJgTag": 1,
        "mtCount": 27,
        "jgCount": 110
    },
    {
        "name": "[MyGirl]\u7f8e\u5a9b\u9986 VOL.594 \u7eee\u91cc\u5609ula",
        "src": "http://d.duotuwang.com/2021/09/22/26712/0.jpg",
        "mtId": "4ebc33c7dadc04af",
        "mtName": "\u7eee\u91cc\u5609ula",
        "jgId": "mygirl",
        "jgName": "\u7f8e\u5a9b\u9986",
        "href": "http://d.duotuwang.com/2021/09/22/26712/",
        "count": 72,
        "start": 1,
        "hasMtTag": 1,
        "hasJgTag": 1,
        "mtCount": 27,
        "jgCount": 110
    },
    {
        "name": "[MyGirl]\u7f8e\u5a9b\u9986 VOL.593 \u7eee\u91cc\u5609ula",
        "src": "http://d.duotuwang.com/2021/09/18/26711/0.jpg",
        "mtId": "4ebc33c7dadc04af",
        "mtName": "\u7eee\u91cc\u5609ula",
        "jgId": "mygirl",
        "jgName": "\u7f8e\u5a9b\u9986",
        "href": "http://d.duotuwang.com/2021/09/18/26711/",
        "count": 88,
        "start": 1,
        "hasMtTag": 1,
        "hasJgTag": 1,
        "mtCount": 27,
        "jgCount": 110
    },
    {
        "name": "[MyGirl]\u7f8e\u5a9b\u9986 VOL.592 \u7eee\u91cc\u5609ula",
        "src": "http://d.duotuwang.com/2021/09/14/26523/0.jpg",
        "mtId": "4ebc33c7dadc04af",
        "mtName": "\u7eee\u91cc\u5609ula",
        "jgId": "mygirl",
        "jgName": "\u7f8e\u5a9b\u9986",
        "href": "http://d.duotuwang.com/2021/09/14/26523/",
        "count": 47,
        "start": 1,
        "hasMtTag": 1,
        "hasJgTag": 1,
        "mtCount": 27,
        "jgCount": 110
    }
]