[
    {
        "name": "[XIUREN]\u79c0\u4eba\u7f51 No.5360 \u7eee\u91cc\u5609ula",
        "src": "http://d.duotuwang.com/2022/07/29/30817/0.jpg",
        "mtId": "4ebc33c7dadc04af",
        "mtName": "\u7eee\u91cc\u5609ula",
        "jgId": "xiuren",
        "jgName": "\u79c0\u4eba\u7f51",
        "href": "http://d.duotuwang.com/2022/07/29/30817/",
        "count": 94,
        "start": 1,
        "hasMtTag": 1,
        "hasJgTag": 1,
        "mtCount": 27,
        "jgCount": 750
    },
    {
        "name": "[XIUREN]\u79c0\u4eba\u7f51 No.5321 \u7eee\u91cc\u5609ula",
        "src": "http://d.duotuwang.com/2022/07/22/30715/0.jpg",
        "mtId": "4ebc33c7dadc04af",
        "mtName": "\u7eee\u91cc\u5609ula",
        "jgId": "xiuren",
        "jgName": "\u79c0\u4eba\u7f51",
        "href": "http://d.duotuwang.com/2022/07/22/30715/",
        "count": 80,
        "start": 1,
        "hasMtTag": 1,
        "hasJgTag": 1,
        "mtCount": 27,
        "jgCount": 750
    },
    {
        "name": "[XIUREN]\u79c0\u4eba\u7f51 No.5284 \u7eee\u91cc\u5609ula",
        "src": "http://d.duotuwang.com/2022/07/15/30619/0.jpg",
        "mtId": "4ebc33c7dadc04af",
        "mtName": "\u7eee\u91cc\u5609ula",
        "jgId": "xiuren",
        "jgName": "\u79c0\u4eba\u7f51",
        "href": "http://d.duotuwang.com/2022/07/15/30619/",
        "count": 79,
        "start": 1,
        "hasMtTag": 1,
        "hasJgTag": 1,
        "mtCount": 27,
        "jgCount": 750
    },
    {
        "name": "[XIUREN]\u79c0\u4eba\u7f51 No.5250 \u7eee\u91cc\u5609ula",
        "src": "http://d.duotuwang.com/2022/07/08/30525/0.jpg",
        "mtId": "4ebc33c7dadc04af",
        "mtName": "\u7eee\u91cc\u5609ula",
        "jgId": "xiuren",
        "jgName": "\u79c0\u4eba\u7f51",
        "href": "http://d.duotuwang.com/2022/07/08/30525/",
        "count": 76,
        "start": 1,
        "hasMtTag": 1,
        "hasJgTag": 1,
        "mtCount": 27,
        "jgCount": 750
    },
    {
        "name": "[XIUREN]\u79c0\u4eba\u7f51 No.5219 \u7eee\u91cc\u5609ula",
        "src": "http://d.duotuwang.com/2022/07/01/30442/0.jpg",
        "mtId": "4ebc33c7dadc04af",
        "mtName": "\u7eee\u91cc\u5609ula",
        "jgId": "xiuren",
        "jgName": "\u79c0\u4eba\u7f51",
        "href": "http://d.duotuwang.com/2022/07/01/30442/",
        "count": 62,
        "start": 1,
        "hasMtTag": 1,
        "hasJgTag": 1,
        "mtCount": 27,
        "jgCount": 750
    },
    {
        "name": "[XIUREN]\u79c0\u4eba\u7f51 No.5189 \u7eee\u91cc\u5609ula",
        "src": "http://d.duotuwang.com/2022/06/24/30412/0.jpg",
        "mtId": "4ebc33c7dadc04af",
        "mtName": "\u7eee\u91cc\u5609ula",
        "jgId": "xiuren",
        "jgName": "\u79c0\u4eba\u7f51",
        "href": "http://d.duotuwang.com/2022/06/24/30412/",
        "count": 85,
        "start": 1,
        "hasMtTag": 1,
        "hasJgTag": 1,
        "mtCount": 27,
        "jgCount": 750
    }
]