[
    {
        "name": "[QingDouKe]\u9752\u8c46\u5ba2 2014-10-08 \u7eee\u91cc\u5609ula",
        "src": "http://d.duotuwang.com/2014/10/08/6284/0.jpg",
        "mtId": "4ebc33c7dadc04af",
        "mtName": "\u7eee\u91cc\u5609ula",
        "jgId": "qingdouke",
        "jgName": "\u9752\u8c46\u5ba2",
        "href": "http://d.duotuwang.com/2014/10/08/6284/",
        "count": 70,
        "start": 1,
        "hasMtTag": 1,
        "hasJgTag": 1,
        "mtCount": 27,
        "jgCount": 23
    },
    {
        "name": "[MyGirl]\u7f8e\u5a9b\u9986 Vol.062 \u7eee\u91cc\u5609ula",
        "src": "http://d.duotuwang.com/2014/10/08/575/0.jpg",
        "mtId": "4ebc33c7dadc04af",
        "mtName": "\u7eee\u91cc\u5609ula",
        "jgId": "mygirl",
        "jgName": "\u7f8e\u5a9b\u9986",
        "href": "http://d.duotuwang.com/2014/10/08/575/",
        "count": 68,
        "start": 1,
        "hasMtTag": 1,
        "hasJgTag": 1,
        "mtCount": 27,
        "jgCount": 110
    },
    {
        "name": "[TGod]\u63a8\u5973\u795e 2014-10-08 \u7eee\u91cc\u5609ula",
        "src": "http://d.duotuwang.com/2014/10/08/2245/0.jpg",
        "mtId": "4ebc33c7dadc04af",
        "mtName": "\u7eee\u91cc\u5609ula",
        "jgId": "tgod",
        "jgName": "\u63a8\u5973\u795e",
        "href": "http://d.duotuwang.com/2014/10/08/2245/",
        "count": 76,
        "start": 1,
        "hasMtTag": 1,
        "hasJgTag": 1,
        "mtCount": 27,
        "jgCount": 78
    },
    {
        "name": "[MyGirl]\u7f8e\u5a9b\u9986 Vol.060 \u7eee\u91cc\u5609ula",
        "src": "http://d.duotuwang.com/2014/10/03/573/0.jpg",
        "mtId": "4ebc33c7dadc04af",
        "mtName": "\u7eee\u91cc\u5609ula",
        "jgId": "mygirl",
        "jgName": "\u7f8e\u5a9b\u9986",
        "href": "http://d.duotuwang.com/2014/10/03/573/",
        "count": 50,
        "start": 1,
        "hasMtTag": 1,
        "hasJgTag": 1,
        "mtCount": 27,
        "jgCount": 110
    },
    {
        "name": "[MyGirl]\u7f8e\u5a9b\u9986 Vol.057 \u7eee\u91cc\u5609ula",
        "src": "http://d.duotuwang.com/2014/09/26/567/0.jpg",
        "mtId": "4ebc33c7dadc04af",
        "mtName": "\u7eee\u91cc\u5609ula",
        "jgId": "mygirl",
        "jgName": "\u7f8e\u5a9b\u9986",
        "href": "http://d.duotuwang.com/2014/09/26/567/",
        "count": 56,
        "start": 1,
        "hasMtTag": 1,
        "hasJgTag": 1,
        "mtCount": 27,
        "jgCount": 110
    },
    {
        "name": "[TGod]\u63a8\u5973\u795e 2014-09-20 \u7eee\u91cc\u5609Ula",
        "src": "http://d.duotuwang.com/2014/09/20/2220/0.jpg",
        "mtId": "4ebc33c7dadc04af",
        "mtName": "\u7eee\u91cc\u5609Ula",
        "jgId": "tgod",
        "jgName": "\u63a8\u5973\u795e",
        "href": "http://d.duotuwang.com/2014/09/20/2220/",
        "count": 77,
        "start": 1,
        "hasMtTag": 1,
        "hasJgTag": 1,
        "mtCount": 27,
        "jgCount": 78
    }
]