[
    {
        "name": "[XIUREN]\u79c0\u4eba\u7f51 No.4353 \u7eee\u91cc\u5609ula",
        "src": "http://d.duotuwang.com/2021/12/17/27830/0.jpg",
        "mtId": "4ebc33c7dadc04af",
        "mtName": "\u7eee\u91cc\u5609ula",
        "jgId": "xiuren",
        "jgName": "\u79c0\u4eba\u7f51",
        "href": "http://d.duotuwang.com/2021/12/17/27830/",
        "count": 48,
        "start": 1,
        "hasMtTag": 1,
        "hasJgTag": 1,
        "mtCount": 27,
        "jgCount": 750
    },
    {
        "name": "[MyGirl]\u7f8e\u5a9b\u9986 VOL.620 \u7eee\u91cc\u5609ula",
        "src": "http://d.duotuwang.com/2021/12/10/27712/0.jpg",
        "mtId": "4ebc33c7dadc04af",
        "mtName": "\u7eee\u91cc\u5609ula",
        "jgId": "mygirl",
        "jgName": "\u7f8e\u5a9b\u9986",
        "href": "http://d.duotuwang.com/2021/12/10/27712/",
        "count": 62,
        "start": 1,
        "hasMtTag": 1,
        "hasJgTag": 1,
        "mtCount": 27,
        "jgCount": 110
    },
    {
        "name": "[XIUREN]\u79c0\u4eba\u7f51 No.4296 \u7eee\u91cc\u5609ula",
        "src": "http://d.duotuwang.com/2021/12/03/27677/0.jpg",
        "mtId": "4ebc33c7dadc04af",
        "mtName": "\u7eee\u91cc\u5609ula",
        "jgId": "xiuren",
        "jgName": "\u79c0\u4eba\u7f51",
        "href": "http://d.duotuwang.com/2021/12/03/27677/",
        "count": 61,
        "start": 1,
        "hasMtTag": 1,
        "hasJgTag": 1,
        "mtCount": 27,
        "jgCount": 750
    },
    {
        "name": "[XIUREN]\u79c0\u4eba\u7f51 No.4285 \u7eee\u91cc\u5609ula",
        "src": "http://d.duotuwang.com/2021/11/30/27570/0.jpg",
        "mtId": "4ebc33c7dadc04af",
        "mtName": "\u7eee\u91cc\u5609ula",
        "jgId": "xiuren",
        "jgName": "\u79c0\u4eba\u7f51",
        "href": "http://d.duotuwang.com/2021/11/30/27570/",
        "count": 68,
        "start": 1,
        "hasMtTag": 1,
        "hasJgTag": 1,
        "mtCount": 27,
        "jgCount": 750
    },
    {
        "name": "[MyGirl]\u7f8e\u5a9b\u9986 VOL.619 \u7eee\u91cc\u5609ula",
        "src": "http://d.duotuwang.com/2021/11/26/27543/0.jpg",
        "mtId": "4ebc33c7dadc04af",
        "mtName": "\u7eee\u91cc\u5609ula",
        "jgId": "mygirl",
        "jgName": "\u7f8e\u5a9b\u9986",
        "href": "http://d.duotuwang.com/2021/11/26/27543/",
        "count": 61,
        "start": 1,
        "hasMtTag": 1,
        "hasJgTag": 1,
        "mtCount": 27,
        "jgCount": 110
    },
    {
        "name": "[XIUREN]\u79c0\u4eba\u7f51 No.4257 \u7eee\u91cc\u5609ula",
        "src": "http://d.duotuwang.com/2021/11/23/27466/0.jpg",
        "mtId": "4ebc33c7dadc04af",
        "mtName": "\u7eee\u91cc\u5609ula",
        "jgId": "xiuren",
        "jgName": "\u79c0\u4eba\u7f51",
        "href": "http://d.duotuwang.com/2021/11/23/27466/",
        "count": 56,
        "start": 1,
        "hasMtTag": 1,
        "hasJgTag": 1,
        "mtCount": 27,
        "jgCount": 750
    }
]