[
    {
        "name": "[YALAYI]\u96c5\u62c9\u4f0a Y869 \u6893\u6587 \u8001\u623f\u5b50",
        "src": "http://d.duotuwang.com/2021/12/03/27871/0.jpg",
        "mtId": "12b98d50505a95fc",
        "mtName": "\u6893\u6587",
        "jgId": "yalayi",
        "jgName": "\u96c5\u62c9\u4f0a",
        "href": "http://d.duotuwang.com/2021/12/03/27871/",
        "count": 39,
        "start": 1,
        "hasMtTag": 1,
        "hasJgTag": 1,
        "mtCount": 1,
        "jgCount": 156
    },
    {
        "name": "[YALAYI]\u96c5\u62c9\u4f0a Y851 \u6893\u6587 \u56de\u5230\u8fc7\u53bb",
        "src": "http://d.duotuwang.com/2021/10/20/27070/0.jpg",
        "mtId": "12b98d50505a95fc",
        "mtName": "\u6893\u6587",
        "jgId": "yalayi",
        "jgName": "\u96c5\u62c9\u4f0a",
        "href": "http://d.duotuwang.com/2021/10/20/27070/",
        "count": 40,
        "start": 1,
        "hasMtTag": 1,
        "hasJgTag": 1,
        "mtCount": 1,
        "jgCount": 156
    }
]