[
    {
        "name": "[TGod]\u63a8\u5973\u795e 2015-05-14 \u6cab\u6cab-Miracle",
        "src": "http://d.duotuwang.com/2015/05/14/2354/0.jpg",
        "mtId": "f6b11a5505e50e0c",
        "mtName": "\u6cab\u6cab-Miracle",
        "jgId": "tgod",
        "jgName": "\u63a8\u5973\u795e",
        "href": "http://d.duotuwang.com/2015/05/14/2354/",
        "count": 49,
        "start": 1,
        "hasMtTag": 1,
        "hasJgTag": 1,
        "mtCount": 1,
        "jgCount": 78
    }
]