[
    {
        "name": "[XIUREN]\u79c0\u4eba\u7f51 No.115 \u96ef\u5927\u738bsusie",
        "src": "http://d.duotuwang.com/2014/03/19/438/0.jpg",
        "mtId": "1e9bb30c55c9a6aa",
        "mtName": "\u96ef\u5927\u738bsusie",
        "jgId": "xiuren",
        "jgName": "\u79c0\u4eba\u7f51",
        "href": "http://d.duotuwang.com/2014/03/19/438/",
        "count": 79,
        "start": 1,
        "hasMtTag": 1,
        "hasJgTag": 1,
        "mtCount": 1,
        "jgCount": 750
    }
]