[
    {
        "name": "[Girlt]\u679c\u56e2\u7f51 GT001 \u5f20\u7433\u7199",
        "src": "http://d.duotuwang.com/2017/05/26/4063/0.jpg",
        "mtId": "a506819b361c4966",
        "mtName": "\u5f20\u7433\u7199",
        "jgId": "girlt",
        "jgName": "\u679c\u56e2\u7f51",
        "href": "http://d.duotuwang.com/2017/05/26/4063/",
        "count": 63,
        "start": 1,
        "hasMtTag": 1,
        "hasJgTag": 1,
        "mtCount": 1,
        "jgCount": 37
    }
]