[
    {
        "name": "[YALAYI]\u96c5\u62c9\u4f0a Y362 \u84c9\u84c9 \u56fe\u4e66\u9986\u7cbe\u7075",
        "src": "http://d.duotuwang.com/2019/08/07/17554/0.jpg",
        "mtId": "4ce8db190613ddcf",
        "mtName": "\u84c9\u84c9",
        "jgId": "yalayi",
        "jgName": "\u96c5\u62c9\u4f0a",
        "href": "http://d.duotuwang.com/2019/08/07/17554/",
        "count": 41,
        "start": 1,
        "hasMtTag": 1,
        "hasJgTag": 1,
        "mtCount": 2,
        "jgCount": 156
    },
    {
        "name": "[YALAYI]\u96c5\u62c9\u4f0a Y149 \u84c9\u84c9 \u8fdd\u7981",
        "src": "http://d.duotuwang.com/2019/04/09/15983/0.jpg",
        "mtId": "4ce8db190613ddcf",
        "mtName": "\u84c9\u84c9",
        "jgId": "yalayi",
        "jgName": "\u96c5\u62c9\u4f0a",
        "href": "http://d.duotuwang.com/2019/04/09/15983/",
        "count": 42,
        "start": 1,
        "hasMtTag": 1,
        "hasJgTag": 1,
        "mtCount": 2,
        "jgCount": 156
    }
]