[
    {
        "id": "530782843",
        "title": "\u90a3\u4e9b\u51fa\u573a\u81ea\u5e26BGM\u7684\u7537\u4eba",
        "src": "http://v-huya-img2.msstatic.com/screenshot/2126/530782843/99.jpg?x-oss-process=style/460x268&amp;amp;v=db3b10bad47f1962da5083929e822ddd1624964017",
        "url": "http://huya-w10.huya.com/2126/530782843/1300/5184c3cc0cd1848704e08a1715b33121.m3u8?bitrate=1282&client=93&definition=1300&pid=1199520110371&scene=vod&vid=530782843"
    },
    {
        "id": "527177535",
        "title": "\u751c\u751c\u7684\u543b",
        "src": "http://v-huya-img2.msstatic.com/screenshot/2125/527177535/99.jpg?x-oss-process=style/460x268&amp;amp;v=94d8be2f7f449e8b63dfe15268d50bee1624412376",
        "url": "http://videohw-platform.cdn.huya.com/1048585/1199520110371/24149817/642e59d029d1509b07049402f8b72efd.m3u8?bitrate=1318&client=106&definition=1300&pid=1199520110371&scene=vod&vid=527177535"
    },
    {
        "id": "526828695",
        "title": "\u6bcf\u5929\u4e00\u904d\uff0c\u6bcf\u6b21\u65e9\u604b",
        "src": "http://v-huya-img2.msstatic.com/screenshot/2125/526828695/99.jpg?x-oss-process=style/460x268&amp;amp;v=3bc15448008305b041df9a27397213bb1624363826",
        "url": "http://videotx-platform.cdn.huya.com/1048585/1199520110371/24122901/23998422397f62e237c713afd5cf511c.m3u8?bitrate=1312&client=106&definition=1300&pid=1199520110371&scene=vod&vid=526828695"
    },
    {
        "id": "522878749",
        "title": "\u6708\u8001\u7528\u94a2\u4e1d\u90fd\u7275\u4e0d\u4f4f\u4f60\u4fe9\u7684\u59fb\u7f18\u5450",
        "src": "http://v-huya-img2.msstatic.com/screenshot/2124/522878749/99.jpg?x-oss-process=style/460x268&amp;amp;v=ef7b38b18aacf462c88411848c901d6f1623761106",
        "url": "http://videohw-platform.cdn.huya.com/1048585/1199520110371/23813175/340580d7aa3c46dc8b834e2b8695282a.m3u8?bitrate=1275&client=106&definition=1300&pid=1199520110371&scene=vodreplay&vid=522878749"
    },
    {
        "id": "518170031",
        "title": "\u7537\u4eba\u521a\u7ed3\u5a5a\uff0c\u5929\u6ca1\u9ed1\u5c31\u5f80\u5c4b\u91cc\u94bb",
        "src": "https://v-huya-img2.msstatic.com/screenshot/2123/518170031/4.jpg?x-oss-process=style/460x268",
        "url": "http://videotx-platform.cdn.huya.com/1048585/1199520110371/23400139/b7565e6b328baac686a28be695ea444f.m3u8?bitrate=443&client=106&definition=350&pid=1199520110371&scene=vod&vid=518170031"
    },
    {
        "id": "518157605",
        "title": "\u73cd\u85cf\u4e8c\u5341\u5e74\u7684\u7279\u6548\u6765\u4e86",
        "src": "http://v-huya-img.huya.com/2123/518157605/99-460x268.jpg?v=3f3b5ce8e81ae59c7e390650b9cd15921623047344",
        "url": "http://videotx-platform.cdn.huya.com/1048585/1199520110371/23398961/bee40f05025d812484ee2485e1f203ff.m3u8?bitrate=1316&client=106&definition=1300&pid=1199520110371&scene=vod&vid=518157605"
    },
    {
        "id": "512124039",
        "title": "\u8fd9\u624d\u53eb\u543e\u8f88\u6977\u6a21\uff0c\u5f53\u7740\u5168\u6821\u628a\u6700\u9753\u8001\u5e08\u7ed9\u62ff\u4e0b\u4e86",
        "src": "http://v-huya-img.huya.com/2121/512124039/99-460x268.jpg?v=fe3641075ebb9a399aa0e0ef69fa121b1621986802",
        "url": "http://videobd-platform.cdn.huya.com/1048585/1199520110371/22848435/b1ab6f25082f84ebb9e9de5cec1a8032.m3u8?bitrate=1234&client=106&definition=1300&pid=1199520110371&scene=vod&vid=512124039"
    },
    {
        "id": "511283967",
        "title": "\u6f14\u5458\u5f88\u656c\u4e1a\uff0c\u543b\u620f\u5f88\u8ba4\u771f",
        "src": "http://v-huya-img.huya.com/2121/511283967/99-460x268.jpg?v=c885bac781e620d303e659c3d966196e1621843969",
        "url": "http://videobd-platform.cdn.huya.com/1048585/1199520110371/22789273/79d2c891d37285b746c1351b38720b66.m3u8?bitrate=1106&client=106&definition=1300&pid=1199520110371&scene=vod&vid=511283967"
    },
    {
        "id": "509346587",
        "title": "\u56e0\u4e3a\u4e00\u4e2a\u7247\u6bb5\uff0c\u800c\u60f3\u770b\u6574\u90e8\u7535\u5f71",
        "src": "http://v-huya-img.huya.com/2120/509346587/99-460x268.jpg?v=a2e18691fb671fefef82380b10b8d9341621507681",
        "url": "http://videohw-platform.cdn.huya.com/1048585/1199520110371/22625065/72be737d035fbb494083e553babbf01b.m3u8?bitrate=1167&client=106&definition=1300&pid=1199520110371&scene=vod&vid=509346587"
    },
    {
        "id": "486441073",
        "title": "\u3010\u9876\u7ea7\u63a5\u543b\u5408\u96c6\u3011\u4f60\u4eec\u8fd9\u6837\u63a5\u543b\uff0c\u662f\u9b54\u9b3c\u5427",
        "src": "http://v-huya-img.huya.com/2114/486441073/99-460x268.jpg?v=ae806ecaa9388ac381608169ec9f573a1617628869",
        "url": "http://huya-w21.huya.com/2114/486441073/1300/0706757a2fc550e3b5657d8179162f80.m3u8?bitrate=1203&client=70&definition=1300&pid=1199520110371&scene=vod&vid=486441073"
    },
    {
        "id": "484265063",
        "title": "\u5168\u7a0b\u9ad8\u751c\u543b\u620f",
        "src": "http://v-huya-img.huya.com/2113/484265063/99-460x268.jpg?v=642f87f7ffe8fe12a5c698b006bf0e691617270965",
        "url": "http://huya-w10.huya.com/2113/484265063/1300/5cd96a7f128dd76afae9fdfea16c4220.m3u8?bitrate=1328&client=70&definition=1300&pid=1199520110371&scene=vod&vid=484265063"
    },
    {
        "id": "484112069",
        "title": "\u9738\u603b\u5f0f\u5ba0\u7231\uff0c\u8d85\u7ea7\u751c",
        "src": "http://v-huya-img.huya.com/2113/484112069/99-460x268.jpg?v=e2398c9d75008dccf1d2367b24e0ce511617244537",
        "url": "http://huya-w20.huya.com/2113/484112069/1300/ae872dc7df634e70122901a0a6511b93.m3u8?bitrate=1093&client=70&definition=1300&pid=1199520110371&scene=vod&vid=484112069"
    }
]