[
    {
        "name": "[XIUREN]\u79c0\u4eba\u7f51 No.4604 \u718a\u6653\u6653",
        "src": "http://d.duotuwang.com/2022/02/18/28581/0.jpg",
        "mtId": "7456c41fdf448637",
        "mtName": "\u718a\u6653\u6653",
        "jgId": "xiuren",
        "jgName": "\u79c0\u4eba\u7f51",
        "href": "http://d.duotuwang.com/2022/02/18/28581/",
        "count": 43,
        "start": 1,
        "hasMtTag": 1,
        "hasJgTag": 1,
        "mtCount": 1,
        "jgCount": 750
    }
]