[
    {
        "name": "[UGirlsAPP]\u7231\u5c24\u7269 No.1469 \u91d1\u5353\u7136 \u9ed1\u767d\u8bf1\u60d1",
        "src": "http://d.duotuwang.com/2019/05/28/16668/0.jpg",
        "mtId": "64f966a8f9576fc7",
        "mtName": "\u91d1\u5353\u7136",
        "jgId": "ugirlsapp",
        "jgName": "\u7231\u5c24\u7269",
        "href": "http://d.duotuwang.com/2019/05/28/16668/",
        "count": 35,
        "start": 1,
        "hasMtTag": 1,
        "hasJgTag": 1,
        "mtCount": 1,
        "jgCount": 397
    },
    {
        "name": "[UGirlsAPP]\u7231\u5c24\u7269 No.1102 \u91d1\u5353\u7136",
        "src": "http://d.duotuwang.com/2018/05/25/8888/0.jpg",
        "mtId": "64f966a8f9576fc7",
        "mtName": "\u91d1\u5353\u7136",
        "jgId": "ugirlsapp",
        "jgName": "\u7231\u5c24\u7269",
        "href": "http://d.duotuwang.com/2018/05/25/8888/",
        "count": 35,
        "start": 1,
        "hasMtTag": 1,
        "hasJgTag": 1,
        "mtCount": 1,
        "jgCount": 397
    },
    {
        "name": "[UGirlsAPP]\u7231\u5c24\u7269 No.672 \u91d1\u5353\u7136",
        "src": "http://d.duotuwang.com/2017/03/21/5019/0.jpg",
        "mtId": "64f966a8f9576fc7",
        "mtName": "\u91d1\u5353\u7136",
        "jgId": "ugirlsapp",
        "jgName": "\u7231\u5c24\u7269",
        "href": "http://d.duotuwang.com/2017/03/21/5019/",
        "count": 41,
        "start": 1,
        "hasMtTag": 1,
        "hasJgTag": 1,
        "mtCount": 1,
        "jgCount": 397
    },
    {
        "name": "[UGirlsAPP]\u7231\u5c24\u7269 No.531 \u91d1\u5353\u7136",
        "src": "http://d.duotuwang.com/2016/10/31/4873/0.jpg",
        "mtId": "64f966a8f9576fc7",
        "mtName": "\u91d1\u5353\u7136",
        "jgId": "ugirlsapp",
        "jgName": "\u7231\u5c24\u7269",
        "href": "http://d.duotuwang.com/2016/10/31/4873/",
        "count": 40,
        "start": 1,
        "hasMtTag": 1,
        "hasJgTag": 1,
        "mtCount": 1,
        "jgCount": 397
    }
]