[
    {
        "name": "[UGirlsAPP]\u7231\u5c24\u7269 No.1267 \u6893\u5b89 \u95fb\u6893\u800c\u6765",
        "src": "http://d.duotuwang.com/2018/11/07/9922/0.jpg",
        "mtId": "18a1efce2a2f62d1",
        "mtName": "\u6893\u5b89",
        "jgId": "ugirlsapp",
        "jgName": "\u7231\u5c24\u7269",
        "href": "http://d.duotuwang.com/2018/11/07/9922/",
        "count": 35,
        "start": 1,
        "hasMtTag": 1,
        "hasJgTag": 1,
        "mtCount": 2,
        "jgCount": 397
    },
    {
        "name": "[UGirlsAPP]\u7231\u5c24\u7269 No.416 \u6893\u5b89",
        "src": "http://d.duotuwang.com/2016/07/08/4752/0.jpg",
        "mtId": "18a1efce2a2f62d1",
        "mtName": "\u6893\u5b89",
        "jgId": "ugirlsapp",
        "jgName": "\u7231\u5c24\u7269",
        "href": "http://d.duotuwang.com/2016/07/08/4752/",
        "count": 40,
        "start": 1,
        "hasMtTag": 1,
        "hasJgTag": 1,
        "mtCount": 2,
        "jgCount": 397
    },
    {
        "name": "[UGirls]\u5c24\u679c\u7f51 T015 \u4e09\u871c\u5347\u804c\u8bb0 \u6893\u5b89",
        "src": "http://d.duotuwang.com/2016/02/02/3157/0.jpg",
        "mtId": "18a1efce2a2f62d1",
        "mtName": "\u6893\u5b89",
        "jgId": "ugirls",
        "jgName": "\u5c24\u679c\u7f51",
        "href": "http://d.duotuwang.com/2016/02/02/3157/",
        "count": 65,
        "start": 1,
        "hasMtTag": 1,
        "hasJgTag": 1,
        "mtCount": 2,
        "jgCount": 79
    },
    {
        "name": "[UGirlsAPP]\u7231\u5c24\u7269 No.218 \u6893\u5b89",
        "src": "http://d.duotuwang.com/2015/12/23/4568/0.jpg",
        "mtId": "18a1efce2a2f62d1",
        "mtName": "\u6893\u5b89",
        "jgId": "ugirlsapp",
        "jgName": "\u7231\u5c24\u7269",
        "href": "http://d.duotuwang.com/2015/12/23/4568/",
        "count": 40,
        "start": 1,
        "hasMtTag": 1,
        "hasJgTag": 1,
        "mtCount": 2,
        "jgCount": 397
    },
    {
        "name": "[UGirls]\u5c24\u679c\u7f51 T012 \u6893\u5b89 \u5723\u8bde\u7279\u8f91",
        "src": "http://d.duotuwang.com/2015/12/23/3151/0.jpg",
        "mtId": "18a1efce2a2f62d1",
        "mtName": "\u6893\u5b89",
        "jgId": "ugirls",
        "jgName": "\u5c24\u679c\u7f51",
        "href": "http://d.duotuwang.com/2015/12/23/3151/",
        "count": 65,
        "start": 1,
        "hasMtTag": 1,
        "hasJgTag": 1,
        "mtCount": 2,
        "jgCount": 79
    },
    {
        "name": "[UGirls]\u5c24\u679c\u7f51 U135 \u6893\u5b89",
        "src": "http://d.duotuwang.com/2015/11/25/3138/0.jpg",
        "mtId": "18a1efce2a2f62d1",
        "mtName": "\u6893\u5b89",
        "jgId": "ugirls",
        "jgName": "\u5c24\u679c\u7f51",
        "href": "http://d.duotuwang.com/2015/11/25/3138/",
        "count": 65,
        "start": 1,
        "hasMtTag": 1,
        "hasJgTag": 1,
        "mtCount": 2,
        "jgCount": 79
    }
]