[
    {
        "name": "[MyGirl]\u7f8e\u5a9b\u9986 VOL.130 \u732b\u672camy",
        "src": "http://d.duotuwang.com/2015/07/08/816/0.jpg",
        "mtId": "0c4ea84793303a1e",
        "mtName": "\u732b\u672camy",
        "jgId": "mygirl",
        "jgName": "\u7f8e\u5a9b\u9986",
        "href": "http://d.duotuwang.com/2015/07/08/816/",
        "count": 30,
        "start": 1,
        "hasMtTag": 1,
        "hasJgTag": 1,
        "mtCount": 1,
        "jgCount": 110
    }
]