[
    {
        "name": "[ROSI\u5199\u771f]\u5185\u8863\u7cfb\u5217 NO.3158",
        "src": "http://d.duotuwang.com/2020/07/28/21204/0.jpg",
        "jgId": "rosi",
        "jgName": "ROSI\u5185\u8863",
        "href": "http://d.duotuwang.com/2020/07/28/21204/",
        "count": 67,
        "start": 1,
        "hasMtTag": 0,
        "hasJgTag": 1,
        "jgCount": 391
    },
    {
        "name": "[ROSI\u5199\u771f]\u5185\u8863\u7cfb\u5217 NO.3157",
        "src": "http://d.duotuwang.com/2020/07/27/21203/0.jpg",
        "jgId": "rosi",
        "jgName": "ROSI\u5185\u8863",
        "href": "http://d.duotuwang.com/2020/07/27/21203/",
        "count": 39,
        "start": 1,
        "hasMtTag": 0,
        "hasJgTag": 1,
        "jgCount": 391
    },
    {
        "name": "[ROSI\u5199\u771f]\u5185\u8863\u7cfb\u5217 NO.3156",
        "src": "http://d.duotuwang.com/2020/07/26/21202/0.jpg",
        "jgId": "rosi",
        "jgName": "ROSI\u5185\u8863",
        "href": "http://d.duotuwang.com/2020/07/26/21202/",
        "count": 27,
        "start": 1,
        "hasMtTag": 0,
        "hasJgTag": 1,
        "jgCount": 391
    },
    {
        "name": "[ROSI\u5199\u771f]\u5185\u8863\u7cfb\u5217 NO.3155",
        "src": "http://d.duotuwang.com/2020/07/25/21201/0.jpg",
        "jgId": "rosi",
        "jgName": "ROSI\u5185\u8863",
        "href": "http://d.duotuwang.com/2020/07/25/21201/",
        "count": 52,
        "start": 1,
        "hasMtTag": 0,
        "hasJgTag": 1,
        "jgCount": 391
    },
    {
        "name": "[ROSI\u5199\u771f]\u5185\u8863\u7cfb\u5217 NO.3154",
        "src": "http://d.duotuwang.com/2020/07/24/21200/0.jpg",
        "jgId": "rosi",
        "jgName": "ROSI\u5185\u8863",
        "href": "http://d.duotuwang.com/2020/07/24/21200/",
        "count": 25,
        "start": 1,
        "hasMtTag": 0,
        "hasJgTag": 1,
        "jgCount": 391
    },
    {
        "name": "[ROSI\u5199\u771f]\u5185\u8863\u7cfb\u5217 NO.3153",
        "src": "http://d.duotuwang.com/2020/07/23/21126/0.jpg",
        "jgId": "rosi",
        "jgName": "ROSI\u5185\u8863",
        "href": "http://d.duotuwang.com/2020/07/23/21126/",
        "count": 44,
        "start": 1,
        "hasMtTag": 0,
        "hasJgTag": 1,
        "jgCount": 391
    }
]