[
    {
        "name": "[ROSI\u5199\u771f]\u5185\u8863\u7cfb\u5217 NO.3884 2/2",
        "src": "http://d.duotuwang.com/2022/07/24/30934/0.jpg",
        "jgId": "rosi",
        "jgName": "ROSI\u5185\u8863",
        "href": "http://d.duotuwang.com/2022/07/24/30934/",
        "count": 63,
        "start": 60,
        "hasMtTag": 0,
        "hasJgTag": 1,
        "jgCount": 391
    },
    {
        "name": "[ROSI\u5199\u771f]\u5185\u8863\u7cfb\u5217 NO.3883",
        "src": "http://d.duotuwang.com/2022/07/23/30682/0.jpg",
        "jgId": "rosi",
        "jgName": "ROSI\u5185\u8863",
        "href": "http://d.duotuwang.com/2022/07/23/30682/",
        "count": 100,
        "start": 1,
        "hasMtTag": 0,
        "hasJgTag": 1,
        "jgCount": 391
    },
    {
        "name": "[ROSI\u5199\u771f]\u5185\u8863\u7cfb\u5217 NO.3882",
        "src": "http://d.duotuwang.com/2022/07/22/30683/0.jpg",
        "jgId": "rosi",
        "jgName": "ROSI\u5185\u8863",
        "href": "http://d.duotuwang.com/2022/07/22/30683/",
        "count": 49,
        "start": 1,
        "hasMtTag": 0,
        "hasJgTag": 1,
        "jgCount": 391
    },
    {
        "name": "[ROSI\u5199\u771f]\u5185\u8863\u7cfb\u5217 NO.3881 1/2",
        "src": "http://d.duotuwang.com/2022/07/21/30684/0.jpg",
        "jgId": "rosi",
        "jgName": "ROSI\u5185\u8863",
        "href": "http://d.duotuwang.com/2022/07/21/30684/",
        "count": 68,
        "start": 1,
        "hasMtTag": 0,
        "hasJgTag": 1,
        "jgCount": 391
    },
    {
        "name": "[ROSI\u5199\u771f]\u5185\u8863\u7cfb\u5217 NO.3881 2/2",
        "src": "http://d.duotuwang.com/2022/07/21/30935/0.jpg",
        "jgId": "rosi",
        "jgName": "ROSI\u5185\u8863",
        "href": "http://d.duotuwang.com/2022/07/21/30935/",
        "count": 91,
        "start": 68,
        "hasMtTag": 0,
        "hasJgTag": 1,
        "jgCount": 391
    },
    {
        "name": "[ROSI\u5199\u771f]\u5185\u8863\u7cfb\u5217 NO.3880",
        "src": "http://d.duotuwang.com/2022/07/20/30588/0.jpg",
        "jgId": "rosi",
        "jgName": "ROSI\u5185\u8863",
        "href": "http://d.duotuwang.com/2022/07/20/30588/",
        "count": 81,
        "start": 1,
        "hasMtTag": 0,
        "hasJgTag": 1,
        "jgCount": 391
    }
]