[
    {
        "name": "[ROSI\u5199\u771f]\u5185\u8863\u7cfb\u5217 NO.2936 2/2",
        "src": "http://d.duotuwang.com/2019/12/19/19075/0.jpg",
        "jgId": "rosi",
        "jgName": "ROSI\u5185\u8863",
        "href": "http://d.duotuwang.com/2019/12/19/19075/",
        "count": 55,
        "start": 56,
        "hasMtTag": 0,
        "hasJgTag": 1,
        "jgCount": 391
    },
    {
        "name": "[ROSI\u5199\u771f]\u5185\u8863\u7cfb\u5217 NO.2935",
        "src": "http://d.duotuwang.com/2019/12/18/19051/0.jpg",
        "jgId": "rosi",
        "jgName": "ROSI\u5185\u8863",
        "href": "http://d.duotuwang.com/2019/12/18/19051/",
        "count": 28,
        "start": 1,
        "hasMtTag": 0,
        "hasJgTag": 1,
        "jgCount": 391
    },
    {
        "name": "[ROSI\u5199\u771f]\u5185\u8863\u7cfb\u5217 NO.2934",
        "src": "http://d.duotuwang.com/2019/12/17/19050/0.jpg",
        "jgId": "rosi",
        "jgName": "ROSI\u5185\u8863",
        "href": "http://d.duotuwang.com/2019/12/17/19050/",
        "count": 41,
        "start": 1,
        "hasMtTag": 0,
        "hasJgTag": 1,
        "jgCount": 391
    },
    {
        "name": "[ROSI\u5199\u771f]\u5185\u8863\u7cfb\u5217 NO.2933",
        "src": "http://d.duotuwang.com/2019/12/16/18986/0.jpg",
        "jgId": "rosi",
        "jgName": "ROSI\u5185\u8863",
        "href": "http://d.duotuwang.com/2019/12/16/18986/",
        "count": 51,
        "start": 1,
        "hasMtTag": 0,
        "hasJgTag": 1,
        "jgCount": 391
    },
    {
        "name": "[ROSI\u5199\u771f]\u5185\u8863\u7cfb\u5217 NO.2932",
        "src": "http://d.duotuwang.com/2019/12/15/18985/0.jpg",
        "jgId": "rosi",
        "jgName": "ROSI\u5185\u8863",
        "href": "http://d.duotuwang.com/2019/12/15/18985/",
        "count": 99,
        "start": 1,
        "hasMtTag": 0,
        "hasJgTag": 1,
        "jgCount": 391
    },
    {
        "name": "[ROSI\u5199\u771f]\u5185\u8863\u7cfb\u5217 NO.2931",
        "src": "http://d.duotuwang.com/2019/12/14/18984/0.jpg",
        "jgId": "rosi",
        "jgName": "ROSI\u5185\u8863",
        "href": "http://d.duotuwang.com/2019/12/14/18984/",
        "count": 35,
        "start": 1,
        "hasMtTag": 0,
        "hasJgTag": 1,
        "jgCount": 391
    }
]