[
    {
        "name": "[ROSI\u5199\u771f]\u5185\u8863\u7cfb\u5217 NO.2773",
        "src": "http://d.duotuwang.com/2019/07/09/17058/0.jpg",
        "jgId": "rosi",
        "jgName": "ROSI\u5185\u8863",
        "href": "http://d.duotuwang.com/2019/07/09/17058/",
        "count": 34,
        "start": 1,
        "hasMtTag": 0,
        "hasJgTag": 1,
        "jgCount": 391
    },
    {
        "name": "[ROSI\u5199\u771f]\u5185\u8863\u7cfb\u5217 NO.2772",
        "src": "http://d.duotuwang.com/2019/07/08/17059/0.jpg",
        "jgId": "rosi",
        "jgName": "ROSI\u5185\u8863",
        "href": "http://d.duotuwang.com/2019/07/08/17059/",
        "count": 46,
        "start": 1,
        "hasMtTag": 0,
        "hasJgTag": 1,
        "jgCount": 391
    },
    {
        "name": "[ROSI\u5199\u771f]\u5185\u8863\u7cfb\u5217 NO.2771",
        "src": "http://d.duotuwang.com/2019/07/07/17060/0.jpg",
        "jgId": "rosi",
        "jgName": "ROSI\u5185\u8863",
        "href": "http://d.duotuwang.com/2019/07/07/17060/",
        "count": 31,
        "start": 1,
        "hasMtTag": 0,
        "hasJgTag": 1,
        "jgCount": 391
    },
    {
        "name": "[ROSI\u5199\u771f]\u5185\u8863\u7cfb\u5217 NO.2770",
        "src": "http://d.duotuwang.com/2019/07/06/17021/0.jpg",
        "jgId": "rosi",
        "jgName": "ROSI\u5185\u8863",
        "href": "http://d.duotuwang.com/2019/07/06/17021/",
        "count": 24,
        "start": 1,
        "hasMtTag": 0,
        "hasJgTag": 1,
        "jgCount": 391
    },
    {
        "name": "[ROSI\u5199\u771f]\u5185\u8863\u7cfb\u5217 NO.2769",
        "src": "http://d.duotuwang.com/2019/07/05/17022/0.jpg",
        "jgId": "rosi",
        "jgName": "ROSI\u5185\u8863",
        "href": "http://d.duotuwang.com/2019/07/05/17022/",
        "count": 49,
        "start": 1,
        "hasMtTag": 0,
        "hasJgTag": 1,
        "jgCount": 391
    },
    {
        "name": "[ROSI\u5199\u771f]\u5185\u8863\u7cfb\u5217 NO.2768",
        "src": "http://d.duotuwang.com/2019/07/04/17023/0.jpg",
        "jgId": "rosi",
        "jgName": "ROSI\u5185\u8863",
        "href": "http://d.duotuwang.com/2019/07/04/17023/",
        "count": 33,
        "start": 1,
        "hasMtTag": 0,
        "hasJgTag": 1,
        "jgCount": 391
    }
]