[
    {
        "name": "[ROSI\u5199\u771f]\u5185\u8863\u7cfb\u5217 NO.3676 2/2",
        "src": "http://d.duotuwang.com/2021/12/28/28247/0.jpg",
        "jgId": "rosi",
        "jgName": "ROSI\u5185\u8863",
        "href": "http://d.duotuwang.com/2021/12/28/28247/",
        "count": 70,
        "start": 63,
        "hasMtTag": 0,
        "hasJgTag": 1,
        "jgCount": 391
    },
    {
        "name": "[ROSI\u5199\u771f]\u5185\u8863\u7cfb\u5217 NO.3676 1/2",
        "src": "http://d.duotuwang.com/2021/12/28/27879/0.jpg",
        "jgId": "rosi",
        "jgName": "ROSI\u5185\u8863",
        "href": "http://d.duotuwang.com/2021/12/28/27879/",
        "count": 62,
        "start": 1,
        "hasMtTag": 0,
        "hasJgTag": 1,
        "jgCount": 391
    },
    {
        "name": "[ROSI\u5199\u771f]\u5185\u8863\u7cfb\u5217 NO.3675",
        "src": "http://d.duotuwang.com/2021/12/27/27880/0.jpg",
        "jgId": "rosi",
        "jgName": "ROSI\u5185\u8863",
        "href": "http://d.duotuwang.com/2021/12/27/27880/",
        "count": 40,
        "start": 1,
        "hasMtTag": 0,
        "hasJgTag": 1,
        "jgCount": 391
    },
    {
        "name": "[ROSI\u5199\u771f]\u5185\u8863\u7cfb\u5217 NO.3674",
        "src": "http://d.duotuwang.com/2021/12/26/27881/0.jpg",
        "jgId": "rosi",
        "jgName": "ROSI\u5185\u8863",
        "href": "http://d.duotuwang.com/2021/12/26/27881/",
        "count": 71,
        "start": 1,
        "hasMtTag": 0,
        "hasJgTag": 1,
        "jgCount": 391
    },
    {
        "name": "[ROSI\u5199\u771f]\u5185\u8863\u7cfb\u5217 NO.3673 2/2",
        "src": "http://d.duotuwang.com/2021/12/25/28040/0.jpg",
        "jgId": "rosi",
        "jgName": "ROSI\u5185\u8863",
        "href": "http://d.duotuwang.com/2021/12/25/28040/",
        "count": 70,
        "start": 72,
        "hasMtTag": 0,
        "hasJgTag": 1,
        "jgCount": 391
    },
    {
        "name": "[ROSI\u5199\u771f]\u5185\u8863\u7cfb\u5217 NO.3673 1/2",
        "src": "http://d.duotuwang.com/2021/12/25/27882/0.jpg",
        "jgId": "rosi",
        "jgName": "ROSI\u5185\u8863",
        "href": "http://d.duotuwang.com/2021/12/25/27882/",
        "count": 71,
        "start": 1,
        "hasMtTag": 0,
        "hasJgTag": 1,
        "jgCount": 391
    }
]