[
    {
        "name": "[UGirlsAPP]\u7231\u5c24\u7269 No.719 \u7530\u82af\u5a1cAngel",
        "src": "http://d.duotuwang.com/2017/05/05/5068/0.jpg",
        "mtId": "8fc793427005c9fb",
        "mtName": "\u7530\u82af\u5a1cAngel",
        "jgId": "ugirlsapp",
        "jgName": "\u7231\u5c24\u7269",
        "href": "http://d.duotuwang.com/2017/05/05/5068/",
        "count": 40,
        "start": 1,
        "hasMtTag": 1,
        "hasJgTag": 1,
        "mtCount": 1,
        "jgCount": 397
    },
    {
        "name": "[UGirlsAPP]\u7231\u5c24\u7269 No.340 \u7530\u82af\u5a1cAngel",
        "src": "http://d.duotuwang.com/2016/04/22/4683/0.jpg",
        "mtId": "8fc793427005c9fb",
        "mtName": "\u7530\u82af\u5a1cAngel",
        "jgId": "ugirlsapp",
        "jgName": "\u7231\u5c24\u7269",
        "href": "http://d.duotuwang.com/2016/04/22/4683/",
        "count": 40,
        "start": 1,
        "hasMtTag": 1,
        "hasJgTag": 1,
        "mtCount": 1,
        "jgCount": 397
    },
    {
        "name": "[MyGirl]\u7f8e\u5a9b\u9986 VOL.190 \u7530\u82af\u5a1cAngel",
        "src": "http://d.duotuwang.com/2016/01/27/1216/0.jpg",
        "mtId": "8fc793427005c9fb",
        "mtName": "\u7530\u82af\u5a1cAngel",
        "jgId": "mygirl",
        "jgName": "\u7f8e\u5a9b\u9986",
        "href": "http://d.duotuwang.com/2016/01/27/1216/",
        "count": 54,
        "start": 1,
        "hasMtTag": 1,
        "hasJgTag": 1,
        "mtCount": 1,
        "jgCount": 110
    },
    {
        "name": "[UGirlsAPP]\u7231\u5c24\u7269 No.182 \u7530\u82af\u5a1cAngel",
        "src": "http://d.duotuwang.com/2015/11/16/4509/0.jpg",
        "mtId": "8fc793427005c9fb",
        "mtName": "\u7530\u82af\u5a1cAngel",
        "jgId": "ugirlsapp",
        "jgName": "\u7231\u5c24\u7269",
        "href": "http://d.duotuwang.com/2015/11/16/4509/",
        "count": 40,
        "start": 1,
        "hasMtTag": 1,
        "hasJgTag": 1,
        "mtCount": 1,
        "jgCount": 397
    }
]