[
    {
        "name": "[XIUREN]\u79c0\u4eba\u7f51 No.2768 \u97e9\u9759\u5b89",
        "src": "http://d.duotuwang.com/2020/11/11/23130/0.jpg",
        "mtId": "85406606b185affd",
        "mtName": "\u97e9\u9759\u5b89",
        "jgId": "xiuren",
        "jgName": "\u79c0\u4eba\u7f51",
        "href": "http://d.duotuwang.com/2020/11/11/23130/",
        "count": 47,
        "start": 1,
        "hasMtTag": 1,
        "hasJgTag": 1,
        "mtCount": 5,
        "jgCount": 750
    },
    {
        "name": "[XIUREN]\u79c0\u4eba\u7f51 No.2737 \u97e9\u9759\u5b89",
        "src": "http://d.duotuwang.com/2020/11/04/23099/0.jpg",
        "mtId": "85406606b185affd",
        "mtName": "\u97e9\u9759\u5b89",
        "jgId": "xiuren",
        "jgName": "\u79c0\u4eba\u7f51",
        "href": "http://d.duotuwang.com/2020/11/04/23099/",
        "count": 50,
        "start": 1,
        "hasMtTag": 1,
        "hasJgTag": 1,
        "mtCount": 5,
        "jgCount": 750
    },
    {
        "name": "[XIUREN]\u79c0\u4eba\u7f51 No.2697 \u97e9\u9759\u5b89",
        "src": "http://d.duotuwang.com/2020/10/26/22932/0.jpg",
        "mtId": "85406606b185affd",
        "mtName": "\u97e9\u9759\u5b89",
        "jgId": "xiuren",
        "jgName": "\u79c0\u4eba\u7f51",
        "href": "http://d.duotuwang.com/2020/10/26/22932/",
        "count": 59,
        "start": 1,
        "hasMtTag": 1,
        "hasJgTag": 1,
        "mtCount": 5,
        "jgCount": 750
    },
    {
        "name": "[XIUREN]\u79c0\u4eba\u7f51 No.2669 \u97e9\u9759\u5b89",
        "src": "http://d.duotuwang.com/2020/10/19/22848/0.jpg",
        "mtId": "85406606b185affd",
        "mtName": "\u97e9\u9759\u5b89",
        "jgId": "xiuren",
        "jgName": "\u79c0\u4eba\u7f51",
        "href": "http://d.duotuwang.com/2020/10/19/22848/",
        "count": 70,
        "start": 1,
        "hasMtTag": 1,
        "hasJgTag": 1,
        "mtCount": 5,
        "jgCount": 750
    },
    {
        "name": "[MFStar]\u6a21\u8303\u5b66\u9662 VOL.398 \u97e9\u9759\u5b89",
        "src": "http://d.duotuwang.com/2020/10/09/22727/0.jpg",
        "mtId": "85406606b185affd",
        "mtName": "\u97e9\u9759\u5b89",
        "jgId": "mfstar",
        "jgName": "\u6a21\u8303\u5b66\u9662",
        "href": "http://d.duotuwang.com/2020/10/09/22727/",
        "count": 53,
        "start": 1,
        "hasMtTag": 1,
        "hasJgTag": 1,
        "mtCount": 5,
        "jgCount": 94
    },
    {
        "name": "[MFStar]\u6a21\u8303\u5b66\u9662 VOL.391 \u97e9\u9759\u5b89",
        "src": "http://d.duotuwang.com/2020/09/22/22335/0.jpg",
        "mtId": "85406606b185affd",
        "mtName": "\u97e9\u9759\u5b89",
        "jgId": "mfstar",
        "jgName": "\u6a21\u8303\u5b66\u9662",
        "href": "http://d.duotuwang.com/2020/09/22/22335/",
        "count": 59,
        "start": 1,
        "hasMtTag": 1,
        "hasJgTag": 1,
        "mtCount": 5,
        "jgCount": 94
    }
]