[
    {
        "name": "[XIUREN]\u79c0\u4eba\u7f51 No.3131 \u871c\u6843cc",
        "src": "http://d.duotuwang.com/2021/02/24/24307/0.jpg",
        "mtId": "e4b74da7b59cbb8a",
        "mtName": "\u871c\u6843cc",
        "jgId": "xiuren",
        "jgName": "\u79c0\u4eba\u7f51",
        "href": "http://d.duotuwang.com/2021/02/24/24307/",
        "count": 55,
        "start": 1,
        "hasMtTag": 1,
        "hasJgTag": 1,
        "mtCount": 2,
        "jgCount": 750
    },
    {
        "name": "[XIUREN]\u79c0\u4eba\u7f51 No.3054 \u871c\u6843cc",
        "src": "http://d.duotuwang.com/2021/01/28/24059/0.jpg",
        "mtId": "e4b74da7b59cbb8a",
        "mtName": "\u871c\u6843cc",
        "jgId": "xiuren",
        "jgName": "\u79c0\u4eba\u7f51",
        "href": "http://d.duotuwang.com/2021/01/28/24059/",
        "count": 64,
        "start": 1,
        "hasMtTag": 1,
        "hasJgTag": 1,
        "mtCount": 2,
        "jgCount": 750
    },
    {
        "name": "[IMISS]\u7231\u871c\u793e VOL.501 \u871c\u6843cc",
        "src": "http://d.duotuwang.com/2020/09/17/22329/0.jpg",
        "mtId": "e4b74da7b59cbb8a",
        "mtName": "\u871c\u6843cc",
        "jgId": "imiss",
        "jgName": "\u7231\u871c\u793e",
        "href": "http://d.duotuwang.com/2020/09/17/22329/",
        "count": 76,
        "start": 1,
        "hasMtTag": 1,
        "hasJgTag": 1,
        "mtCount": 2,
        "jgCount": 116
    },
    {
        "name": "[XIUREN]\u79c0\u4eba\u7f51 No.2407 \u871c\u6843cc",
        "src": "http://d.duotuwang.com/2020/08/05/21846/0.jpg",
        "mtId": "e4b74da7b59cbb8a",
        "mtName": "ceci",
        "jgId": "xiuren",
        "jgName": "\u79c0\u4eba\u7f51",
        "href": "http://d.duotuwang.com/2020/08/05/21846/",
        "count": 42,
        "start": 1,
        "hasMtTag": 1,
        "hasJgTag": 1,
        "mtCount": 2,
        "jgCount": 750
    },
    {
        "name": "[IMISS]\u7231\u871c\u793e VOL.429 ceci",
        "src": "http://d.duotuwang.com/2020/01/08/19194/0.jpg",
        "mtId": "e4b74da7b59cbb8a",
        "mtName": "ceci",
        "jgId": "imiss",
        "jgName": "\u7231\u871c\u793e",
        "href": "http://d.duotuwang.com/2020/01/08/19194/",
        "count": 47,
        "start": 1,
        "hasMtTag": 1,
        "hasJgTag": 1,
        "mtCount": 2,
        "jgCount": 116
    },
    {
        "name": "[IMISS]\u7231\u871c\u793e VOL.395 ceci",
        "src": "http://d.duotuwang.com/2019/11/01/18416/0.jpg",
        "mtId": "e4b74da7b59cbb8a",
        "mtName": "ceci",
        "jgId": "imiss",
        "jgName": "\u7231\u871c\u793e",
        "href": "http://d.duotuwang.com/2019/11/01/18416/",
        "count": 40,
        "start": 1,
        "hasMtTag": 1,
        "hasJgTag": 1,
        "mtCount": 2,
        "jgCount": 116
    }
]