[
    {
        "name": "[Fantrie] Echi 4/4",
        "src": "http://d.duotuwang.com/2021/04/27/29554/0.jpg",
        "mtId": "8658077f954e9dca",
        "mtName": "Fantrie",
        "href": "http://d.duotuwang.com/2021/04/27/29554/",
        "count": 74,
        "start": 1,
        "hasMtTag": 1,
        "hasJgTag": 0,
        "mtCount": 1
    },
    {
        "name": "[Fantrie] Echi 3/4",
        "src": "http://d.duotuwang.com/2021/04/27/29553/0.jpg",
        "mtId": "8658077f954e9dca",
        "mtName": "Fantrie",
        "href": "http://d.duotuwang.com/2021/04/27/29553/",
        "count": 84,
        "start": 1,
        "hasMtTag": 1,
        "hasJgTag": 0,
        "mtCount": 1
    },
    {
        "name": "[Fantrie] Echi 2/4",
        "src": "http://d.duotuwang.com/2021/04/27/29552/0.jpg",
        "mtId": "8658077f954e9dca",
        "mtName": "Fantrie",
        "href": "http://d.duotuwang.com/2021/04/27/29552/",
        "count": 78,
        "start": 1,
        "hasMtTag": 1,
        "hasJgTag": 0,
        "mtCount": 1
    },
    {
        "name": "[Fantrie] Echi 1/4",
        "src": "http://d.duotuwang.com/2021/04/27/29548/0.jpg",
        "mtId": "8658077f954e9dca",
        "mtName": "Fantrie",
        "href": "http://d.duotuwang.com/2021/04/27/29548/",
        "count": 75,
        "start": 1,
        "hasMtTag": 1,
        "hasJgTag": 0,
        "mtCount": 1
    }
]