[
    {
        "name": "[FEILIN]\u55f2\u56e1\u56e1 VOL.371 \u6843\u9999\u5b50",
        "src": "http://d.duotuwang.com/2021/01/25/23973/0.jpg",
        "mtId": "a4de9ab1825d3a60",
        "mtName": "\u6843\u9999\u5b50",
        "jgId": "feilin",
        "jgName": "\u55f2\u56e1\u56e1",
        "href": "http://d.duotuwang.com/2021/01/25/23973/",
        "count": 48,
        "start": 1,
        "hasMtTag": 1,
        "hasJgTag": 1,
        "mtCount": 2,
        "jgCount": 61
    },
    {
        "name": "[MFStar]\u6a21\u8303\u5b66\u9662 VOL.443 \u6843\u9999\u5b50",
        "src": "http://d.duotuwang.com/2021/01/20/23820/0.jpg",
        "mtId": "a4de9ab1825d3a60",
        "mtName": "\u6843\u9999\u5b50",
        "jgId": "mfstar",
        "jgName": "\u6a21\u8303\u5b66\u9662",
        "href": "http://d.duotuwang.com/2021/01/20/23820/",
        "count": 41,
        "start": 1,
        "hasMtTag": 1,
        "hasJgTag": 1,
        "mtCount": 2,
        "jgCount": 94
    },
    {
        "name": "[FEILIN]\u55f2\u56e1\u56e1 VOL.364 \u6843\u9999\u5b50",
        "src": "http://d.duotuwang.com/2021/01/04/23790/0.jpg",
        "mtId": "a4de9ab1825d3a60",
        "mtName": "\u6843\u9999\u5b50",
        "jgId": "feilin",
        "jgName": "\u55f2\u56e1\u56e1",
        "href": "http://d.duotuwang.com/2021/01/04/23790/",
        "count": 40,
        "start": 1,
        "hasMtTag": 1,
        "hasJgTag": 1,
        "mtCount": 2,
        "jgCount": 61
    },
    {
        "name": "[UGirls]\u5c24\u679c\u7f51 T039 \u6843\u9999\u5b50&\u5434\u7f8e\u6eaa&\u5468\u6ce2\u513f \u4e09\u9762\u559c\u6b22",
        "src": "http://d.duotuwang.com/2019/03/28/14751/0.jpg",
        "mtId": "a4de9ab1825d3a60",
        "mtName": "\u6843\u9999\u5b50",
        "jgId": "ugirls",
        "jgName": "\u5c24\u679c\u7f51",
        "href": "http://d.duotuwang.com/2019/03/28/14751/",
        "count": 70,
        "start": 1,
        "hasMtTag": 1,
        "hasJgTag": 1,
        "mtCount": 2,
        "jgCount": 79
    },
    {
        "name": "[UGirlsAPP]\u7231\u5c24\u7269 No.1396 \u6843\u9999\u5b50 \u7231\u4e0a\u5979\u6ca1\u6709\u89e3\u836f",
        "src": "http://d.duotuwang.com/2019/03/16/14514/0.jpg",
        "mtId": "a4de9ab1825d3a60",
        "mtName": "\u6843\u9999\u5b50",
        "jgId": "ugirlsapp",
        "jgName": "\u7231\u5c24\u7269",
        "href": "http://d.duotuwang.com/2019/03/16/14514/",
        "count": 35,
        "start": 1,
        "hasMtTag": 1,
        "hasJgTag": 1,
        "mtCount": 2,
        "jgCount": 397
    },
    {
        "name": "[UGirlsAPP]\u7231\u5c24\u7269 No.1339 \u6843\u9999\u5b50 \u9999\u6c14\u88ad\u4eba",
        "src": "http://d.duotuwang.com/2019/01/18/10346/0.jpg",
        "mtId": "a4de9ab1825d3a60",
        "mtName": "\u6843\u9999\u5b50",
        "jgId": "ugirlsapp",
        "jgName": "\u7231\u5c24\u7269",
        "href": "http://d.duotuwang.com/2019/01/18/10346/",
        "count": 35,
        "start": 1,
        "hasMtTag": 1,
        "hasJgTag": 1,
        "mtCount": 2,
        "jgCount": 397
    }
]