[
    {
        "name": "[MFStar]\u6a21\u8303\u5b66\u9662 VOL.277 \u7389\u5154miki",
        "src": "http://d.duotuwang.com/2020/02/28/19749/0.jpg",
        "mtId": "e7e5da8fd6f60683",
        "mtName": "\u7389\u5154miki",
        "jgId": "mfstar",
        "jgName": "\u6a21\u8303\u5b66\u9662",
        "href": "http://d.duotuwang.com/2020/02/28/19749/",
        "count": 60,
        "start": 1,
        "hasMtTag": 1,
        "hasJgTag": 1,
        "mtCount": 8,
        "jgCount": 94
    },
    {
        "name": "[MFStar]\u6a21\u8303\u5b66\u9662 VOL.274 \u7389\u5154miki",
        "src": "http://d.duotuwang.com/2020/02/25/19698/0.jpg",
        "mtId": "e7e5da8fd6f60683",
        "mtName": "\u7389\u5154miki",
        "jgId": "mfstar",
        "jgName": "\u6a21\u8303\u5b66\u9662",
        "href": "http://d.duotuwang.com/2020/02/25/19698/",
        "count": 62,
        "start": 1,
        "hasMtTag": 1,
        "hasJgTag": 1,
        "mtCount": 8,
        "jgCount": 94
    },
    {
        "name": "[MFStar]\u6a21\u8303\u5b66\u9662 VOL.272 \u7389\u5154miki",
        "src": "http://d.duotuwang.com/2020/02/21/19681/0.jpg",
        "mtId": "e7e5da8fd6f60683",
        "mtName": "\u7389\u5154miki",
        "jgId": "mfstar",
        "jgName": "\u6a21\u8303\u5b66\u9662",
        "href": "http://d.duotuwang.com/2020/02/21/19681/",
        "count": 67,
        "start": 1,
        "hasMtTag": 1,
        "hasJgTag": 1,
        "mtCount": 8,
        "jgCount": 94
    },
    {
        "name": "[MFStar]\u6a21\u8303\u5b66\u9662 VOL.265 \u7389\u5154miki",
        "src": "http://d.duotuwang.com/2020/02/10/19551/0.jpg",
        "mtId": "e7e5da8fd6f60683",
        "mtName": "\u7389\u5154miki",
        "jgId": "mfstar",
        "jgName": "\u6a21\u8303\u5b66\u9662",
        "href": "http://d.duotuwang.com/2020/02/10/19551/",
        "count": 65,
        "start": 1,
        "hasMtTag": 1,
        "hasJgTag": 1,
        "mtCount": 8,
        "jgCount": 94
    },
    {
        "name": "[MFStar]\u6a21\u8303\u5b66\u9662 VOL.264 \u7389\u5154miki",
        "src": "http://d.duotuwang.com/2020/01/23/19414/0.jpg",
        "mtId": "e7e5da8fd6f60683",
        "mtName": "\u7389\u5154miki",
        "jgId": "mfstar",
        "jgName": "\u6a21\u8303\u5b66\u9662",
        "href": "http://d.duotuwang.com/2020/01/23/19414/",
        "count": 65,
        "start": 1,
        "hasMtTag": 1,
        "hasJgTag": 1,
        "mtCount": 8,
        "jgCount": 94
    },
    {
        "name": "[MFStar]\u6a21\u8303\u5b66\u9662 VOL.261 \u7389\u5154miki",
        "src": "http://d.duotuwang.com/2020/01/20/19399/0.jpg",
        "mtId": "e7e5da8fd6f60683",
        "mtName": "\u7389\u5154miki",
        "jgId": "mfstar",
        "jgName": "\u6a21\u8303\u5b66\u9662",
        "href": "http://d.duotuwang.com/2020/01/20/19399/",
        "count": 61,
        "start": 1,
        "hasMtTag": 1,
        "hasJgTag": 1,
        "mtCount": 8,
        "jgCount": 94
    }
]