[
    {
        "name": "[HuaYang]\u82b1\u6f3eshow VOL.021 Abby\u674e\u96c5",
        "src": "http://d.duotuwang.com/2017/12/29/6723/0.jpg",
        "mtId": "7e50da9de4397e65",
        "mtName": "Abby\u674e\u96c5",
        "jgId": "huayang",
        "jgName": "\u82b1\u6f3eshow",
        "href": "http://d.duotuwang.com/2017/12/29/6723/",
        "count": 42,
        "start": 1,
        "hasMtTag": 1,
        "hasJgTag": 1,
        "mtCount": 4,
        "jgCount": 86
    },
    {
        "name": "[IMISS]\u7231\u871c\u793e VOL.156 Abby\u674e\u96c5",
        "src": "http://d.duotuwang.com/2017/03/21/3661/0.jpg",
        "mtId": "7e50da9de4397e65",
        "mtName": "Abby\u674e\u96c5",
        "jgId": "imiss",
        "jgName": "\u7231\u871c\u793e",
        "href": "http://d.duotuwang.com/2017/03/21/3661/",
        "count": 36,
        "start": 1,
        "hasMtTag": 1,
        "hasJgTag": 1,
        "mtCount": 4,
        "jgCount": 116
    },
    {
        "name": "[IMISS]\u7231\u871c\u793e VOL.151 Abby\u674e\u96c5",
        "src": "http://d.duotuwang.com/2017/02/10/2075/0.jpg",
        "mtId": "7e50da9de4397e65",
        "mtName": "Abby\u674e\u96c5",
        "jgId": "imiss",
        "jgName": "\u7231\u871c\u793e",
        "href": "http://d.duotuwang.com/2017/02/10/2075/",
        "count": 47,
        "start": 1,
        "hasMtTag": 1,
        "hasJgTag": 1,
        "mtCount": 4,
        "jgCount": 116
    },
    {
        "name": "[HuaYan]\u82b1\u306e\u989c VOL.022 Abby\u674e\u96c5",
        "src": "http://d.duotuwang.com/2017/01/19/2038/0.jpg",
        "mtId": "7e50da9de4397e65",
        "mtName": "Abby\u674e\u96c5",
        "jgId": "huayan",
        "jgName": "\u82b1\u306e\u989c",
        "href": "http://d.duotuwang.com/2017/01/19/2038/",
        "count": 50,
        "start": 1,
        "hasMtTag": 1,
        "hasJgTag": 1,
        "mtCount": 4,
        "jgCount": 13
    },
    {
        "name": "[MiStar]\u9b45\u598d\u793e VOL.144 Abby\u674e\u96c5",
        "src": "http://d.duotuwang.com/2016/12/29/1979/0.jpg",
        "mtId": "7e50da9de4397e65",
        "mtName": "Abby\u674e\u96c5",
        "jgId": "mistar",
        "jgName": "\u9b45\u598d\u793e",
        "href": "http://d.duotuwang.com/2016/12/29/1979/",
        "count": 45,
        "start": 1,
        "hasMtTag": 1,
        "hasJgTag": 1,
        "mtCount": 4,
        "jgCount": 55
    }
]