[
    {
        "name": "[YouMei]\u5c24\u7f8e \u6eaa\u6eaa \u5e78\u798f\u7279\u5199",
        "src": "http://d.duotuwang.com/2020/03/06/19971/0.jpg",
        "mtId": "a0f580cfb7492b86",
        "mtName": "\u6eaa\u6eaa",
        "jgId": "youmei",
        "jgName": "\u5c24\u7f8e\u7f51",
        "href": "http://d.duotuwang.com/2020/03/06/19971/",
        "count": 39,
        "start": 1,
        "hasMtTag": 1,
        "hasJgTag": 1,
        "mtCount": 1,
        "jgCount": 47
    },
    {
        "name": "[YouMei]\u5c24\u7f8e \u6eaa\u6eaa \u6df1\u591c\u8c03\u60c5",
        "src": "http://d.duotuwang.com/2020/02/24/19724/0.jpg",
        "mtId": "a0f580cfb7492b86",
        "mtName": "\u6eaa\u6eaa",
        "jgId": "youmei",
        "jgName": "\u5c24\u7f8e\u7f51",
        "href": "http://d.duotuwang.com/2020/02/24/19724/",
        "count": 31,
        "start": 1,
        "hasMtTag": 1,
        "hasJgTag": 1,
        "mtCount": 1,
        "jgCount": 47
    },
    {
        "name": "[YouMei]\u5c24\u7f8e \u6eaa\u6eaa \u6668\u95f4\u5973\u795e",
        "src": "http://d.duotuwang.com/2020/02/14/19657/0.jpg",
        "mtId": "a0f580cfb7492b86",
        "mtName": "\u6eaa\u6eaa",
        "jgId": "youmei",
        "jgName": "\u5c24\u7f8e\u7f51",
        "href": "http://d.duotuwang.com/2020/02/14/19657/",
        "count": 25,
        "start": 1,
        "hasMtTag": 1,
        "hasJgTag": 1,
        "mtCount": 1,
        "jgCount": 47
    }
]