[
    {
        "name": "[YALAYI]\u96c5\u62c9\u4f0a Y904 \u8bd7\u548f \u604b\u7231\u65e5\u5e38",
        "src": "http://d.duotuwang.com/2022/03/02/29044/0.jpg",
        "mtId": "37c4ebcf81fb563b",
        "mtName": "\u8bd7\u548f",
        "jgId": "yalayi",
        "jgName": "\u96c5\u62c9\u4f0a",
        "href": "http://d.duotuwang.com/2022/03/02/29044/",
        "count": 40,
        "start": 1,
        "hasMtTag": 1,
        "hasJgTag": 1,
        "mtCount": 2,
        "jgCount": 156
    },
    {
        "name": "[YALAYI]\u96c5\u62c9\u4f0a Y900 \u8bd7\u548f \u5973\u53cb\u6765\u63a2\u73ed",
        "src": "http://d.duotuwang.com/2022/02/22/28687/0.jpg",
        "mtId": "37c4ebcf81fb563b",
        "mtName": "\u8bd7\u548f",
        "jgId": "yalayi",
        "jgName": "\u96c5\u62c9\u4f0a",
        "href": "http://d.duotuwang.com/2022/02/22/28687/",
        "count": 40,
        "start": 1,
        "hasMtTag": 1,
        "hasJgTag": 1,
        "mtCount": 2,
        "jgCount": 156
    },
    {
        "name": "[YALAYI]\u96c5\u62c9\u4f0a Y894 \u8bd7\u548f \u65b0\u7684\u4e00\u5e74",
        "src": "http://d.duotuwang.com/2022/01/28/28558/0.jpg",
        "mtId": "37c4ebcf81fb563b",
        "mtName": "\u8bd7\u548f",
        "jgId": "yalayi",
        "jgName": "\u96c5\u62c9\u4f0a",
        "href": "http://d.duotuwang.com/2022/01/28/28558/",
        "count": 40,
        "start": 1,
        "hasMtTag": 1,
        "hasJgTag": 1,
        "mtCount": 2,
        "jgCount": 156
    },
    {
        "name": "[YALAYI]\u96c5\u62c9\u4f0a Y888 \u8bd7\u548f \u6709\u4e00\u70b9\u751f\u6c14",
        "src": "http://d.duotuwang.com/2022/01/21/28354/0.jpg",
        "mtId": "37c4ebcf81fb563b",
        "mtName": "\u8bd7\u548f",
        "jgId": "yalayi",
        "jgName": "\u96c5\u62c9\u4f0a",
        "href": "http://d.duotuwang.com/2022/01/21/28354/",
        "count": 41,
        "start": 1,
        "hasMtTag": 1,
        "hasJgTag": 1,
        "mtCount": 2,
        "jgCount": 156
    },
    {
        "name": "[YALAYI]\u96c5\u62c9\u4f0a Y884 \u8bd7\u548f \u6700\u6d6a\u6f2b\u7684\u4e8b",
        "src": "http://d.duotuwang.com/2022/01/13/28273/0.jpg",
        "mtId": "37c4ebcf81fb563b",
        "mtName": "\u8bd7\u548f",
        "jgId": "yalayi",
        "jgName": "\u96c5\u62c9\u4f0a",
        "href": "http://d.duotuwang.com/2022/01/13/28273/",
        "count": 42,
        "start": 1,
        "hasMtTag": 1,
        "hasJgTag": 1,
        "mtCount": 2,
        "jgCount": 156
    },
    {
        "name": "[YALAYI]\u96c5\u62c9\u4f0a Y844 \u8bd7\u548f \u7ea2\u989c",
        "src": "http://d.duotuwang.com/2021/09/28/26777/0.jpg",
        "mtId": "37c4ebcf81fb563b",
        "mtName": "\u8bd7\u548f",
        "jgId": "yalayi",
        "jgName": "\u96c5\u62c9\u4f0a",
        "href": "http://d.duotuwang.com/2021/09/28/26777/",
        "count": 40,
        "start": 1,
        "hasMtTag": 1,
        "hasJgTag": 1,
        "mtCount": 2,
        "jgCount": 156
    }
]