[
    {
        "name": "[XIUREN]\u79c0\u4eba\u7f51 No.2557 \u7cef\u7f8e\u5b50Mini 2/2",
        "src": "http://d.duotuwang.com/2020/09/14/22155/0.jpg",
        "mtId": "f4543e3a7d545391",
        "mtName": "\u7cef\u7f8e\u5b50Mini",
        "jgId": "xiuren",
        "jgName": "\u79c0\u4eba\u7f51",
        "href": "http://d.duotuwang.com/2020/09/14/22155/",
        "count": 53,
        "start": 54,
        "hasMtTag": 1,
        "hasJgTag": 1,
        "mtCount": 19,
        "jgCount": 750
    },
    {
        "name": "[XIUREN]\u79c0\u4eba\u7f51 No.2557 \u7cef\u7f8e\u5b50Mini 1/2",
        "src": "http://d.duotuwang.com/2020/09/14/22130/0.jpg",
        "mtId": "f4543e3a7d545391",
        "mtName": "\u7cef\u7f8e\u5b50Mini",
        "jgId": "xiuren",
        "jgName": "\u79c0\u4eba\u7f51",
        "href": "http://d.duotuwang.com/2020/09/14/22130/",
        "count": 53,
        "start": 1,
        "hasMtTag": 1,
        "hasJgTag": 1,
        "mtCount": 19,
        "jgCount": 750
    },
    {
        "name": "[XIUREN]\u79c0\u4eba\u7f51 No.2521 \u7cef\u7f8e\u5b50Mini",
        "src": "http://d.duotuwang.com/2020/09/03/22036/0.jpg",
        "mtId": "f4543e3a7d545391",
        "mtName": "\u7cef\u7f8e\u5b50Mini",
        "jgId": "xiuren",
        "jgName": "\u79c0\u4eba\u7f51",
        "href": "http://d.duotuwang.com/2020/09/03/22036/",
        "count": 50,
        "start": 1,
        "hasMtTag": 1,
        "hasJgTag": 1,
        "mtCount": 19,
        "jgCount": 750
    },
    {
        "name": "[XIUREN]\u79c0\u4eba\u7f51 No.2517 \u7cef\u7f8e\u5b50Mini 2/2",
        "src": "http://d.duotuwang.com/2020/09/02/21899/0.jpg",
        "mtId": "f4543e3a7d545391",
        "mtName": "\u7cef\u7f8e\u5b50Mini",
        "jgId": "xiuren",
        "jgName": "\u79c0\u4eba\u7f51",
        "href": "http://d.duotuwang.com/2020/09/02/21899/",
        "count": 65,
        "start": 61,
        "hasMtTag": 1,
        "hasJgTag": 1,
        "mtCount": 19,
        "jgCount": 750
    },
    {
        "name": "[XIUREN]\u79c0\u4eba\u7f51 No.2517 \u7cef\u7f8e\u5b50Mini 1/2",
        "src": "http://d.duotuwang.com/2020/09/02/21878/0.jpg",
        "mtId": "f4543e3a7d545391",
        "mtName": "\u7cef\u7f8e\u5b50Mini",
        "jgId": "xiuren",
        "jgName": "\u79c0\u4eba\u7f51",
        "href": "http://d.duotuwang.com/2020/09/02/21878/",
        "count": 60,
        "start": 1,
        "hasMtTag": 1,
        "hasJgTag": 1,
        "mtCount": 19,
        "jgCount": 750
    },
    {
        "name": "[XIUREN]\u79c0\u4eba\u7f51 No.2496 \u7cef\u7f8e\u5b50Mini",
        "src": "http://d.duotuwang.com/2020/08/27/21857/0.jpg",
        "mtId": "f4543e3a7d545391",
        "mtName": "\u7cef\u7f8e\u5b50Mini",
        "jgId": "xiuren",
        "jgName": "\u79c0\u4eba\u7f51",
        "href": "http://d.duotuwang.com/2020/08/27/21857/",
        "count": 58,
        "start": 1,
        "hasMtTag": 1,
        "hasJgTag": 1,
        "mtCount": 19,
        "jgCount": 750
    }
]