[
    {
        "name": "[SaintPhotoLife] Yuna - Yuna's Wild 1/6",
        "src": "http://d.duotuwang.com/2020/05/26/29885/0.jpg",
        "mtId": "338cf684b6927d79",
        "mtName": "SaintPhotoLife",
        "href": "http://d.duotuwang.com/2020/05/26/29885/",
        "count": 34,
        "start": 1,
        "hasMtTag": 1,
        "hasJgTag": 0,
        "mtCount": 7
    },
    {
        "name": "[SaintPhotoLife] Bitnara VOL.1",
        "src": "http://d.duotuwang.com/2020/05/01/25594/0.jpg",
        "mtId": "338cf684b6927d79",
        "mtName": "SaintPhotoLife",
        "href": "http://d.duotuwang.com/2020/05/01/25594/",
        "count": 64,
        "start": 1,
        "hasMtTag": 1,
        "hasJgTag": 0,
        "mtCount": 7
    },
    {
        "name": "[SaintPhotoLife] Zzyuri Vol.5 - See Through",
        "src": "http://d.duotuwang.com/2020/04/23/30667/0.jpg",
        "mtId": "338cf684b6927d79",
        "mtName": "SaintPhotolife",
        "href": "http://d.duotuwang.com/2020/04/23/30667/",
        "count": 64,
        "start": 1,
        "hasMtTag": 1,
        "hasJgTag": 0,
        "mtCount": 7
    },
    {
        "name": "[SaintPhotoLife] Yuna - Growing Up Vol.3",
        "src": "http://d.duotuwang.com/2019/12/30/27910/0.jpg",
        "mtId": "338cf684b6927d79",
        "mtName": "SaintPhotoLife",
        "href": "http://d.duotuwang.com/2019/12/30/27910/",
        "count": 49,
        "start": 1,
        "hasMtTag": 1,
        "hasJgTag": 0,
        "mtCount": 7
    },
    {
        "name": "[SaintPhotoLife] Yuna - Growing Up Vol.2",
        "src": "http://d.duotuwang.com/2019/12/30/27909/0.jpg",
        "mtId": "338cf684b6927d79",
        "mtName": "SaintPhotoLife",
        "href": "http://d.duotuwang.com/2019/12/30/27909/",
        "count": 62,
        "start": 1,
        "hasMtTag": 1,
        "hasJgTag": 0,
        "mtCount": 7
    },
    {
        "name": "[SaintPhotoLife] Yuna - Growing Up Vol.1",
        "src": "http://d.duotuwang.com/2019/12/30/27908/0.jpg",
        "mtId": "338cf684b6927d79",
        "mtName": "SaintPhotoLife",
        "href": "http://d.duotuwang.com/2019/12/30/27908/",
        "count": 75,
        "start": 1,
        "hasMtTag": 1,
        "hasJgTag": 0,
        "mtCount": 7
    }
]