[
    {
        "name": "[ARTGRAVIA] VOL.111 \u732b\u4e5d\u9171Sakura 2/2",
        "src": "http://d.duotuwang.com/2019/12/03/28210/0.jpg",
        "mtId": "504c2863980ae1a1",
        "mtName": "\u732b\u4e5d\u9171Sakura",
        "href": "http://d.duotuwang.com/2019/12/03/28210/",
        "count": 28,
        "start": 34,
        "hasMtTag": 1,
        "hasJgTag": 0,
        "mtCount": 3
    },
    {
        "name": "[ARTGRAVIA] VOL.111 \u732b\u4e5d\u9171Sakura 1/2",
        "src": "http://d.duotuwang.com/2019/12/03/28209/0.jpg",
        "mtId": "504c2863980ae1a1",
        "mtName": "\u732b\u4e5d\u9171Sakura",
        "href": "http://d.duotuwang.com/2019/12/03/28209/",
        "count": 33,
        "start": 1,
        "hasMtTag": 1,
        "hasJgTag": 0,
        "mtCount": 3
    },
    {
        "name": "[ARTGRAVIA] VOL.071 \u732b\u4e5d\u9171Sakura 2/2",
        "src": "http://d.duotuwang.com/2019/05/24/29061/0.jpg",
        "mtId": "504c2863980ae1a1",
        "mtName": "\u732b\u4e5d\u9171Sakura",
        "href": "http://d.duotuwang.com/2019/05/24/29061/",
        "count": 24,
        "start": 1,
        "hasMtTag": 1,
        "hasJgTag": 0,
        "mtCount": 3
    },
    {
        "name": "[ARTGRAVIA] VOL.071 \u732b\u4e5d\u9171Sakura 1/2",
        "src": "http://d.duotuwang.com/2019/05/24/29060/0.jpg",
        "mtId": "504c2863980ae1a1",
        "mtName": "\u732b\u4e5d\u9171Sakura",
        "href": "http://d.duotuwang.com/2019/05/24/29060/",
        "count": 36,
        "start": 1,
        "hasMtTag": 1,
        "hasJgTag": 0,
        "mtCount": 3
    },
    {
        "name": "[BoLoLi]\u6ce2\u841d\u793e VOL.119 \u732b\u4e5d\u9171Sakura",
        "src": "http://d.duotuwang.com/2018/06/12/9133/0.jpg",
        "mtId": "504c2863980ae1a1",
        "mtName": "\u732b\u4e5d\u9171Sakura",
        "jgId": "bololi",
        "jgName": "\u6ce2\u841d\u793e",
        "href": "http://d.duotuwang.com/2018/06/12/9133/",
        "count": 41,
        "start": 1,
        "hasMtTag": 1,
        "hasJgTag": 1,
        "mtCount": 3,
        "jgCount": 40
    },
    {
        "name": "[BoLoli]\u6ce2\u841d\u793e VOL.115 \u732b\u4e5d\u9171Sakura",
        "src": "http://d.duotuwang.com/2018/04/20/8636/0.jpg",
        "mtId": "504c2863980ae1a1",
        "mtName": "\u732b\u4e5d\u9171Sakura",
        "jgId": "bololi",
        "jgName": "\u6ce2\u841d\u793e",
        "href": "http://d.duotuwang.com/2018/04/20/8636/",
        "count": 41,
        "start": 1,
        "hasMtTag": 1,
        "hasJgTag": 1,
        "mtCount": 3,
        "jgCount": 40
    }
]