[
    {
        "name": "[korean realgraphic] No.65",
        "src": "http://d.duotuwang.com/2021/09/22/31341/0.jpg",
        "mtId": "bc7239c12921d0c7",
        "mtName": "koreanrealgraphic",
        "href": "http://d.duotuwang.com/2021/09/22/31341/",
        "count": 36,
        "start": 1,
        "hasMtTag": 1,
        "hasJgTag": 0,
        "mtCount": 1
    },
    {
        "name": "[korean realgraphic] W-No.18",
        "src": "http://d.duotuwang.com/2020/02/26/29994/0.jpg",
        "href": "http://d.duotuwang.com/2020/02/26/29994/",
        "count": 56,
        "start": 1,
        "hasMtTag": 0,
        "hasJgTag": 0
    }
]