[
    {
        "name": "[toutiaogirls]\u5934\u6761\u5973\u795e 2019-03-06  \u7f8e\u4f0a \u8d24\u60e0\u7f8e\u5c11\u5973",
        "src": "http://d.duotuwang.com/2019/03/06/11082/0.jpg",
        "mtId": "f83c444fab8c8473",
        "mtName": "\u7f8e\u4f0a",
        "jgId": "toutiaogirls",
        "jgName": "\u5934\u6761\u5973\u795e",
        "href": "http://d.duotuwang.com/2019/03/06/11082/",
        "count": 8,
        "start": 1,
        "hasMtTag": 1,
        "hasJgTag": 1,
        "mtCount": 1,
        "jgCount": 133
    },
    {
        "name": "[toutiaogirls]\u5934\u6761\u5973\u795e 2019-02-24 \u7f8e\u4f0a \u6b7b\u5e93\u6c34\u7684\u79d8\u5bc6\u8bf1\u60d1",
        "src": "http://d.duotuwang.com/2019/02/24/17519/0.jpg",
        "mtId": "f83c444fab8c8473",
        "mtName": "\u7f8e\u4f0a",
        "jgId": "toutiaogirls",
        "jgName": "\u5934\u6761\u5973\u795e",
        "href": "http://d.duotuwang.com/2019/02/24/17519/",
        "count": 28,
        "start": 1,
        "hasMtTag": 1,
        "hasJgTag": 1,
        "mtCount": 1,
        "jgCount": 133
    },
    {
        "name": "[toutiaogirls]\u5934\u6761\u5973\u795e 2019-02-24 \u7f8e\u4f0a \u6b7b\u5e93\u6c34\u7684\u79d8\u5bc6\u8bf1\u60d1",
        "src": "http://d.duotuwang.com/2019/02/24/10819/0.jpg",
        "mtId": "f83c444fab8c8473",
        "mtName": "\u7f8e\u4f0a",
        "jgId": "toutiaogirls",
        "jgName": "\u5934\u6761\u5973\u795e",
        "href": "http://d.duotuwang.com/2019/02/24/10819/",
        "count": 28,
        "start": 1,
        "hasMtTag": 1,
        "hasJgTag": 1,
        "mtCount": 1,
        "jgCount": 133
    }
]