[
    {
        "name": "[MiStar]\u9b45\u598d\u793e VOL.167 \u571f\u80a5\u5706\u77ee\u632b\u7a77",
        "src": "http://d.duotuwang.com/2017/05/08/3985/0.jpg",
        "mtId": "2fd18d00d5f9689f",
        "mtName": "\u571f\u80a5\u5706\u77ee\u632b\u7a77",
        "jgId": "mistar",
        "jgName": "\u9b45\u598d\u793e",
        "href": "http://d.duotuwang.com/2017/05/08/3985/",
        "count": 42,
        "start": 1,
        "hasMtTag": 1,
        "hasJgTag": 1,
        "mtCount": 23,
        "jgCount": 55
    },
    {
        "name": "[MiStar]\u9b45\u598d\u793e VOL.166 \u674e\u6615\u7399",
        "src": "http://d.duotuwang.com/2017/05/05/3984/0.jpg",
        "mtId": "52be7689faf89191",
        "mtName": "\u674e\u6615\u7399",
        "jgId": "mistar",
        "jgName": "\u9b45\u598d\u793e",
        "href": "http://d.duotuwang.com/2017/05/05/3984/",
        "count": 60,
        "start": 1,
        "hasMtTag": 1,
        "hasJgTag": 1,
        "mtCount": 1,
        "jgCount": 55
    },
    {
        "name": "[MiStar]\u9b45\u598d\u793e VOL.165 \u51ef\u7af9BuiBui",
        "src": "http://d.duotuwang.com/2017/04/21/3748/0.jpg",
        "mtId": "1aaa50d9fb5e31ce",
        "mtName": "\u51ef\u7af9BuiBui",
        "jgId": "mistar",
        "jgName": "\u9b45\u598d\u793e",
        "href": "http://d.duotuwang.com/2017/04/21/3748/",
        "count": 40,
        "start": 1,
        "hasMtTag": 1,
        "hasJgTag": 1,
        "mtCount": 9,
        "jgCount": 55
    },
    {
        "name": "[MiStar]\u9b45\u598d\u793e VOL.164 \u4e01\u7b71\u5357",
        "src": "http://d.duotuwang.com/2017/04/19/3753/0.jpg",
        "mtId": "fb5e1d8fd1e6d14d",
        "mtName": "\u4e01\u7b71\u5357",
        "jgId": "mistar",
        "jgName": "\u9b45\u598d\u793e",
        "href": "http://d.duotuwang.com/2017/04/19/3753/",
        "count": 45,
        "start": 1,
        "hasMtTag": 1,
        "hasJgTag": 1,
        "mtCount": 3,
        "jgCount": 55
    },
    {
        "name": "[MiStar]\u9b45\u598d\u793e VOL.163 Jenny\u4f73\u59ae",
        "src": "http://d.duotuwang.com/2017/04/16/3724/0.jpg",
        "mtId": "7c7b2d52754d9151",
        "mtName": "Jenny\u4f73\u59ae",
        "jgId": "mistar",
        "jgName": "\u9b45\u598d\u793e",
        "href": "http://d.duotuwang.com/2017/04/16/3724/",
        "count": 50,
        "start": 1,
        "hasMtTag": 1,
        "hasJgTag": 1,
        "mtCount": 1,
        "jgCount": 55
    },
    {
        "name": "[MiStar]\u9b45\u598d\u793e VOL.162 \u8d75\u5c0f\u7c73Kitty",
        "src": "http://d.duotuwang.com/2017/04/14/3725/0.jpg",
        "mtId": "584f16e805c0ecc3",
        "mtName": "\u8d75\u5c0f\u7c73Kitty",
        "jgId": "mistar",
        "jgName": "\u9b45\u598d\u793e",
        "href": "http://d.duotuwang.com/2017/04/14/3725/",
        "count": 40,
        "start": 1,
        "hasMtTag": 1,
        "hasJgTag": 1,
        "mtCount": 7,
        "jgCount": 55
    }
]