[
    {
        "name": "[MiStar]\u9b45\u598d\u793e VOL.161 \u6b46\u989c",
        "src": "http://d.duotuwang.com/2017/04/10/3734/0.jpg",
        "mtId": "fd0f86c78778b83d",
        "mtName": "\u6b46\u989c",
        "jgId": "mistar",
        "jgName": "\u9b45\u598d\u793e",
        "href": "http://d.duotuwang.com/2017/04/10/3734/",
        "count": 50,
        "start": 1,
        "hasMtTag": 1,
        "hasJgTag": 1,
        "mtCount": 1,
        "jgCount": 55
    },
    {
        "name": "[MiStar]\u9b45\u598d\u793e VOL.160 FoxYini\u5b5f\u72d0\u72f8",
        "src": "http://d.duotuwang.com/2017/03/31/3710/0.jpg",
        "mtId": "5ee0e185d3cabf77",
        "mtName": "FoxYini\u5b5f\u72d0\u72f8",
        "jgId": "mistar",
        "jgName": "\u9b45\u598d\u793e",
        "href": "http://d.duotuwang.com/2017/03/31/3710/",
        "count": 45,
        "start": 1,
        "hasMtTag": 1,
        "hasJgTag": 1,
        "mtCount": 9,
        "jgCount": 55
    },
    {
        "name": "[MiStar]\u9b45\u598d\u793e VOL.159 \u6768\u6668\u6668sugar",
        "src": "http://d.duotuwang.com/2017/03/27/3688/0.jpg",
        "mtId": "48bada5e7225ec9f",
        "mtName": "\u6768\u6668\u6668sugar",
        "jgId": "mistar",
        "jgName": "\u9b45\u598d\u793e",
        "href": "http://d.duotuwang.com/2017/03/27/3688/",
        "count": 50,
        "start": 1,
        "hasMtTag": 1,
        "hasJgTag": 1,
        "mtCount": 89,
        "jgCount": 55
    },
    {
        "name": "[MiStar]\u9b45\u598d\u793e VOL.158 \u8309\u8389Molly",
        "src": "http://d.duotuwang.com/2017/03/10/3643/0.jpg",
        "mtId": "70164728b8e04c5d",
        "mtName": "\u8309\u8389Molly",
        "jgId": "mistar",
        "jgName": "\u9b45\u598d\u793e",
        "href": "http://d.duotuwang.com/2017/03/10/3643/",
        "count": 40,
        "start": 1,
        "hasMtTag": 1,
        "hasJgTag": 1,
        "mtCount": 1,
        "jgCount": 55
    },
    {
        "name": "[MiStar]\u9b45\u598d\u793e VOL.157 \u51ef\u7af9BuiBui",
        "src": "http://d.duotuwang.com/2017/03/09/3647/0.jpg",
        "mtId": "1aaa50d9fb5e31ce",
        "mtName": "\u51ef\u7af9BuiBui",
        "jgId": "mistar",
        "jgName": "\u9b45\u598d\u793e",
        "href": "http://d.duotuwang.com/2017/03/09/3647/",
        "count": 45,
        "start": 1,
        "hasMtTag": 1,
        "hasJgTag": 1,
        "mtCount": 9,
        "jgCount": 55
    },
    {
        "name": "[MiStar]\u9b45\u598d\u793e VOL.156 \u66fe\u6c34",
        "src": "http://d.duotuwang.com/2017/03/07/3655/0.jpg",
        "mtId": "27f36197a43f499f",
        "mtName": "\u66fe\u6c34",
        "jgId": "mistar",
        "jgName": "\u9b45\u598d\u793e",
        "href": "http://d.duotuwang.com/2017/03/07/3655/",
        "count": 55,
        "start": 1,
        "hasMtTag": 1,
        "hasJgTag": 1,
        "mtCount": 1,
        "jgCount": 55
    }
]