[
    {
        "name": "[MiStar]\u9b45\u598d\u793e VOL.125 \u6c88\u4f73\u71b9",
        "src": "http://d.duotuwang.com/2016/10/14/1747/0.jpg",
        "mtId": "423b6afe638a75a0",
        "mtName": "\u6c88\u4f73\u71b9",
        "jgId": "mistar",
        "jgName": "\u9b45\u598d\u793e",
        "href": "http://d.duotuwang.com/2016/10/14/1747/",
        "count": 50,
        "start": 1,
        "hasMtTag": 1,
        "hasJgTag": 1,
        "mtCount": 4,
        "jgCount": 55
    },
    {
        "name": "[MiStar]\u9b45\u598d\u793e VOL.124 sugar\u5c0f\u751c\u5fc3CC",
        "src": "http://d.duotuwang.com/2016/10/11/1751/0.jpg",
        "mtId": "48bada5e7225ec9f",
        "mtName": "sugar\u5c0f\u751c\u5fc3CC",
        "jgId": "mistar",
        "jgName": "\u9b45\u598d\u793e",
        "href": "http://d.duotuwang.com/2016/10/11/1751/",
        "count": 45,
        "start": 1,
        "hasMtTag": 1,
        "hasJgTag": 1,
        "mtCount": 89,
        "jgCount": 55
    },
    {
        "name": "[MiStar]\u9b45\u598d\u793e VOL.123 \u4e01\u7b71\u5357",
        "src": "http://d.duotuwang.com/2016/10/08/1725/0.jpg",
        "mtId": "fb5e1d8fd1e6d14d",
        "mtName": "\u4e01\u7b71\u5357",
        "jgId": "mistar",
        "jgName": "\u9b45\u598d\u793e",
        "href": "http://d.duotuwang.com/2016/10/08/1725/",
        "count": 50,
        "start": 1,
        "hasMtTag": 1,
        "hasJgTag": 1,
        "mtCount": 3,
        "jgCount": 55
    },
    {
        "name": "[MiStar]\u9b45\u598d\u793e VOL.122 \u6a21\u7279\u5408\u96c6",
        "src": "http://d.duotuwang.com/2016/10/04/1732/0.jpg",
        "jgId": "mistar",
        "jgName": "\u9b45\u598d\u793e",
        "href": "http://d.duotuwang.com/2016/10/04/1732/",
        "count": 60,
        "start": 1,
        "hasMtTag": 0,
        "hasJgTag": 1,
        "jgCount": 55
    },
    {
        "name": "[MiStar]\u9b45\u598d\u793e VOL.121 \u9673\u96c5\u6f2bVICKY",
        "src": "http://d.duotuwang.com/2016/09/29/1700/0.jpg",
        "mtId": "6bd2ad886173cf46",
        "mtName": "\u9673\u96c5\u6f2bVICKY",
        "jgId": "mistar",
        "jgName": "\u9b45\u598d\u793e",
        "href": "http://d.duotuwang.com/2016/09/29/1700/",
        "count": 50,
        "start": 1,
        "hasMtTag": 1,
        "hasJgTag": 1,
        "mtCount": 3,
        "jgCount": 55
    },
    {
        "name": "[MiStar]\u9b45\u598d\u793e VOL.120 \u8d75\u5c0f\u7c73Kitty",
        "src": "http://d.duotuwang.com/2016/09/26/1708/0.jpg",
        "mtId": "584f16e805c0ecc3",
        "mtName": "\u8d75\u5c0f\u7c73Kitty",
        "jgId": "mistar",
        "jgName": "\u9b45\u598d\u793e",
        "href": "http://d.duotuwang.com/2016/09/26/1708/",
        "count": 50,
        "start": 1,
        "hasMtTag": 1,
        "hasJgTag": 1,
        "mtCount": 7,
        "jgCount": 55
    }
]