[
    {
        "name": "[MiStar]\u9b45\u598d\u793e VOL.053 \u6768\u8bfa\u4f9d",
        "src": "http://d.duotuwang.com/2015/12/30/1187/0.jpg",
        "mtId": "3470fe1b9beb18b0",
        "mtName": "\u6768\u8bfa\u4f9d",
        "jgId": "mistar",
        "jgName": "\u9b45\u598d\u793e",
        "href": "http://d.duotuwang.com/2015/12/30/1187/",
        "count": 34,
        "start": 1,
        "hasMtTag": 1,
        "hasJgTag": 1,
        "mtCount": 1,
        "jgCount": 55
    },
    {
        "name": "[MiStar]\u9b45\u598d\u793e VOL.052 Mara\u9171",
        "src": "http://d.duotuwang.com/2015/12/28/1192/0.jpg",
        "mtId": "f6e522474dad9720",
        "mtName": "MARA\u91ac",
        "jgId": "mistar",
        "jgName": "\u9b45\u598d\u793e",
        "href": "http://d.duotuwang.com/2015/12/28/1192/",
        "count": 60,
        "start": 1,
        "hasMtTag": 1,
        "hasJgTag": 1,
        "mtCount": 3,
        "jgCount": 55
    },
    {
        "name": "[MiStar]\u9b45\u598d\u793e VOL.051 \u95f5\u59aeMily",
        "src": "http://d.duotuwang.com/2015/12/24/1158/0.jpg",
        "mtId": "72027ed8140c5527",
        "mtName": "\u95f5\u59aeMily",
        "jgId": "mistar",
        "jgName": "\u9b45\u598d\u793e",
        "href": "http://d.duotuwang.com/2015/12/24/1158/",
        "count": 50,
        "start": 1,
        "hasMtTag": 1,
        "hasJgTag": 1,
        "mtCount": 1,
        "jgCount": 55
    },
    {
        "name": "[MiStar]\u9b45\u598d\u793e VOL.050 \u5a1c\u9732Selena",
        "src": "http://d.duotuwang.com/2015/12/21/1168/0.jpg",
        "mtId": "8dbbd724a3a06b9e",
        "mtName": "\u5a1c\u9732Selena",
        "jgId": "mistar",
        "jgName": "\u9b45\u598d\u793e",
        "href": "http://d.duotuwang.com/2015/12/21/1168/",
        "count": 60,
        "start": 1,
        "hasMtTag": 1,
        "hasJgTag": 1,
        "mtCount": 9,
        "jgCount": 55
    },
    {
        "name": "[MiStar]\u9b45\u598d\u793e VOL.049 \u4e8e\u59ecUna",
        "src": "http://d.duotuwang.com/2015/12/18/1174/0.jpg",
        "mtId": "7ffb57b7b94a0e7f",
        "mtName": "\u4e8e\u59ecUna",
        "jgId": "mistar",
        "jgName": "\u9b45\u598d\u793e",
        "href": "http://d.duotuwang.com/2015/12/18/1174/",
        "count": 60,
        "start": 1,
        "hasMtTag": 1,
        "hasJgTag": 1,
        "mtCount": 7,
        "jgCount": 55
    },
    {
        "name": "[MiStar]\u9b45\u598d\u793e VOL.048 \u6c88\u4f73\u71b9",
        "src": "http://d.duotuwang.com/2015/12/06/1116/0.jpg",
        "mtId": "423b6afe638a75a0",
        "mtName": "\u6c88\u4f73\u71b9",
        "jgId": "mistar",
        "jgName": "\u9b45\u598d\u793e",
        "href": "http://d.duotuwang.com/2015/12/06/1116/",
        "count": 65,
        "start": 1,
        "hasMtTag": 1,
        "hasJgTag": 1,
        "mtCount": 4,
        "jgCount": 55
    }
]