[
    {
        "name": "[MiStar]\u9b45\u598d\u793e VOL.041 \u5609\u5609Tiffany-",
        "src": "http://d.duotuwang.com/2015/10/31/1057/0.jpg",
        "mtId": "5b0446f02a71bd83",
        "mtName": "\u5609\u5609Tiffany-",
        "jgId": "mistar",
        "jgName": "\u9b45\u598d\u793e",
        "href": "http://d.duotuwang.com/2015/10/31/1057/",
        "count": 50,
        "start": 1,
        "hasMtTag": 1,
        "hasJgTag": 1,
        "mtCount": 2,
        "jgCount": 55
    },
    {
        "name": "[MiStar]\u9b45\u598d\u793e VOL.040 Nicole\u59ae\u53ef",
        "src": "http://d.duotuwang.com/2015/10/27/1069/0.jpg",
        "mtId": "740443a710a3af55",
        "mtName": "Nicole\u59ae\u53ef",
        "jgId": "mistar",
        "jgName": "\u9b45\u598d\u793e",
        "href": "http://d.duotuwang.com/2015/10/27/1069/",
        "count": 60,
        "start": 1,
        "hasMtTag": 1,
        "hasJgTag": 1,
        "mtCount": 1,
        "jgCount": 55
    },
    {
        "name": "[MiStar]\u9b45\u598d\u793e VOL.039 \u6a21\u7279\u5408\u96c6",
        "src": "http://d.duotuwang.com/2015/10/15/1018/0.jpg",
        "jgId": "mistar",
        "jgName": "\u9b45\u598d\u793e",
        "href": "http://d.duotuwang.com/2015/10/15/1018/",
        "count": 50,
        "start": 1,
        "hasMtTag": 0,
        "hasJgTag": 1,
        "jgCount": 55
    },
    {
        "name": "[MiStar]\u9b45\u598d\u793e VOL.038 \u5609\u5609Tiffany-",
        "src": "http://d.duotuwang.com/2015/10/13/1026/0.jpg",
        "mtId": "5b0446f02a71bd83",
        "mtName": "\u5609\u5609Tiffany-",
        "jgId": "mistar",
        "jgName": "\u9b45\u598d\u793e",
        "href": "http://d.duotuwang.com/2015/10/13/1026/",
        "count": 60,
        "start": 1,
        "hasMtTag": 1,
        "hasJgTag": 1,
        "mtCount": 2,
        "jgCount": 55
    },
    {
        "name": "[MiStar]\u9b45\u598d\u793e VOL.037 \u9648\u6b23",
        "src": "http://d.duotuwang.com/2015/10/12/1029/0.jpg",
        "mtId": "4f2899adf1446d32",
        "mtName": "\u9648\u6b23",
        "jgId": "mistar",
        "jgName": "\u9b45\u598d\u793e",
        "href": "http://d.duotuwang.com/2015/10/12/1029/",
        "count": 60,
        "start": 1,
        "hasMtTag": 1,
        "hasJgTag": 1,
        "mtCount": 2,
        "jgCount": 55
    },
    {
        "name": "[MiStar]\u9b45\u598d\u793e VOL.036 \u5609\u5609Tiffany-",
        "src": "http://d.duotuwang.com/2015/10/07/1004/0.jpg",
        "mtId": "5b0446f02a71bd83",
        "mtName": "\u5609\u5609Tiffany-",
        "jgId": "mistar",
        "jgName": "\u9b45\u598d\u793e",
        "href": "http://d.duotuwang.com/2015/10/07/1004/",
        "count": 60,
        "start": 1,
        "hasMtTag": 1,
        "hasJgTag": 1,
        "mtCount": 2,
        "jgCount": 55
    }
]