[
    {
        "name": "[TGod]\u63a8\u5973\u795e 2016-05-31 \u4f0a\u4f0aEva",
        "src": "http://d.duotuwang.com/2016/05/31/2605/0.jpg",
        "mtId": "dca401b8fc18aa43",
        "mtName": "\u4f0a\u4f0a",
        "jgId": "tgod",
        "jgName": "\u63a8\u5973\u795e",
        "href": "http://d.duotuwang.com/2016/05/31/2605/",
        "count": 74,
        "start": 1,
        "hasMtTag": 1,
        "hasJgTag": 1,
        "mtCount": 1,
        "jgCount": 78
    },
    {
        "name": "[TGod]\u63a8\u5973\u795e 2014-12-17 \u4f0a\u4f0a",
        "src": "http://d.duotuwang.com/2014/12/17/2276/0.jpg",
        "mtId": "dca401b8fc18aa43",
        "mtName": "\u4f0a\u4f0a",
        "jgId": "tgod",
        "jgName": "\u63a8\u5973\u795e",
        "href": "http://d.duotuwang.com/2014/12/17/2276/",
        "count": 62,
        "start": 1,
        "hasMtTag": 1,
        "hasJgTag": 1,
        "mtCount": 1,
        "jgCount": 78
    }
]