[
    {
        "name": "[MFStar]\u6a21\u8303\u5b66\u9662 VOL.545 \u751c\u7b52\u6653\u5f64",
        "src": "http://d.duotuwang.com/2021/12/06/27666/0.jpg",
        "mtId": "2e5a0b54ad6937d1",
        "mtName": "\u751c\u7b52\u6653\u5f64",
        "jgId": "mfstar",
        "jgName": "\u6a21\u8303\u5b66\u9662",
        "href": "http://d.duotuwang.com/2021/12/06/27666/",
        "count": 56,
        "start": 1,
        "hasMtTag": 1,
        "hasJgTag": 1,
        "mtCount": 1,
        "jgCount": 94
    },
    {
        "name": "[MFStar]\u6a21\u8303\u5b66\u9662 VOL.543 \u751c\u7b52\u6653\u5f64",
        "src": "http://d.duotuwang.com/2021/11/29/27541/0.jpg",
        "mtId": "2e5a0b54ad6937d1",
        "mtName": "\u751c\u7b52\u6653\u5f64",
        "jgId": "mfstar",
        "jgName": "\u6a21\u8303\u5b66\u9662",
        "href": "http://d.duotuwang.com/2021/11/29/27541/",
        "count": 53,
        "start": 1,
        "hasMtTag": 1,
        "hasJgTag": 1,
        "mtCount": 1,
        "jgCount": 94
    }
]