[
    {
        "name": "[FEILIN]\u55f2\u56e1\u56e1 VOL.092 \u65bd\u5fc6\u4f73KITTY",
        "src": "http://d.duotuwang.com/2017/05/09/3807/0.jpg",
        "mtId": "39df2cf2f35511be",
        "mtName": "\u65bd\u5fc6\u4f73KITTY",
        "jgId": "feilin",
        "jgName": "\u55f2\u56e1\u56e1",
        "href": "http://d.duotuwang.com/2017/05/09/3807/",
        "count": 54,
        "start": 1,
        "hasMtTag": 1,
        "hasJgTag": 1,
        "mtCount": 2,
        "jgCount": 61
    },
    {
        "name": "[FEILIN]\u55f2\u56e1\u56e1 VOL.084 \u65bd\u5fc6\u4f73KITTY",
        "src": "http://d.duotuwang.com/2017/04/07/3699/0.jpg",
        "mtId": "39df2cf2f35511be",
        "mtName": "\u65bd\u5fc6\u4f73KITTY",
        "jgId": "feilin",
        "jgName": "\u55f2\u56e1\u56e1",
        "href": "http://d.duotuwang.com/2017/04/07/3699/",
        "count": 40,
        "start": 1,
        "hasMtTag": 1,
        "hasJgTag": 1,
        "mtCount": 2,
        "jgCount": 61
    },
    {
        "name": "[TGod]\u63a8\u5973\u795e 2016-06-13 \u65bd\u5fc6\u4f73Kitty",
        "src": "http://d.duotuwang.com/2016/06/13/2591/0.jpg",
        "mtId": "39df2cf2f35511be",
        "mtName": "\u65bd\u5fc6\u4f73Kitty",
        "jgId": "tgod",
        "jgName": "\u63a8\u5973\u795e",
        "href": "http://d.duotuwang.com/2016/06/13/2591/",
        "count": 40,
        "start": 1,
        "hasMtTag": 1,
        "hasJgTag": 1,
        "mtCount": 2,
        "jgCount": 78
    },
    {
        "name": "[TGod]\u63a8\u5973\u795e 2016-05-17 \u65bd\u5fc6\u4f73Kitty\u9171",
        "src": "http://d.duotuwang.com/2016/05/17/2588/0.jpg",
        "mtId": "39df2cf2f35511be",
        "mtName": "\u65bd\u5fc6\u4f73Kitty",
        "jgId": "tgod",
        "jgName": "\u63a8\u5973\u795e",
        "href": "http://d.duotuwang.com/2016/05/17/2588/",
        "count": 54,
        "start": 1,
        "hasMtTag": 1,
        "hasJgTag": 1,
        "mtCount": 2,
        "jgCount": 78
    },
    {
        "name": "[TGod]\u63a8\u5973\u795e 2016-04-25 \u65bd\u5fc6\u4f73Kitty",
        "src": "http://d.duotuwang.com/2016/04/25/2537/0.jpg",
        "mtId": "39df2cf2f35511be",
        "mtName": "\u65bd\u5fc6\u4f73Kitty",
        "jgId": "tgod",
        "jgName": "\u63a8\u5973\u795e",
        "href": "http://d.duotuwang.com/2016/04/25/2537/",
        "count": 42,
        "start": 1,
        "hasMtTag": 1,
        "hasJgTag": 1,
        "mtCount": 2,
        "jgCount": 78
    },
    {
        "name": "[TGod]\u63a8\u5973\u795e 2016-04-10 \u65bd\u5fc6\u4f73Kitty",
        "src": "http://d.duotuwang.com/2016/04/10/2552/0.jpg",
        "mtId": "39df2cf2f35511be",
        "mtName": "\u65bd\u5fc6\u4f73Kitty",
        "jgId": "tgod",
        "jgName": "\u63a8\u5973\u795e",
        "href": "http://d.duotuwang.com/2016/04/10/2552/",
        "count": 41,
        "start": 1,
        "hasMtTag": 1,
        "hasJgTag": 1,
        "mtCount": 2,
        "jgCount": 78
    }
]