[
    {
        "name": "[XIUREN]\u79c0\u4eba\u7f51 No.1038 \u767d\u751c",
        "src": "http://d.duotuwang.com/2018/06/07/9096/0.jpg",
        "mtId": "a4ebb348f9ef7db2",
        "mtName": "\u767d\u751c",
        "jgId": "xiuren",
        "jgName": "\u79c0\u4eba\u7f51",
        "href": "http://d.duotuwang.com/2018/06/07/9096/",
        "count": 46,
        "start": 1,
        "hasMtTag": 1,
        "hasJgTag": 1,
        "mtCount": 3,
        "jgCount": 750
    },
    {
        "name": "[XIUREN]\u79c0\u4eba\u7f51 No.931 \u767d\u751c",
        "src": "http://d.duotuwang.com/2018/02/08/8239/0.jpg",
        "mtId": "a4ebb348f9ef7db2",
        "mtName": "\u767d\u751c",
        "jgId": "xiuren",
        "jgName": "\u79c0\u4eba\u7f51",
        "href": "http://d.duotuwang.com/2018/02/08/8239/",
        "count": 51,
        "start": 1,
        "hasMtTag": 1,
        "hasJgTag": 1,
        "mtCount": 3,
        "jgCount": 750
    },
    {
        "name": "[toutiaogirls]\u5934\u6761\u5973\u795e 2017-12-22 \u767d\u751c",
        "src": "http://d.duotuwang.com/2017/12/22/6746/0.jpg",
        "mtId": "a4ebb348f9ef7db2",
        "mtName": "\u767d\u751c",
        "jgId": "toutiaogirls",
        "jgName": "\u5934\u6761\u5973\u795e",
        "href": "http://d.duotuwang.com/2017/12/22/6746/",
        "count": 40,
        "start": 1,
        "hasMtTag": 1,
        "hasJgTag": 1,
        "mtCount": 3,
        "jgCount": 133
    },
    {
        "name": "[XIUREN]\u79c0\u4eba\u7f51 No.876 \u767d\u751c",
        "src": "http://d.duotuwang.com/2017/12/21/6713/0.jpg",
        "mtId": "a4ebb348f9ef7db2",
        "mtName": "\u767d\u751c",
        "jgId": "xiuren",
        "jgName": "\u79c0\u4eba\u7f51",
        "href": "http://d.duotuwang.com/2017/12/21/6713/",
        "count": 49,
        "start": 1,
        "hasMtTag": 1,
        "hasJgTag": 1,
        "mtCount": 3,
        "jgCount": 750
    }
]