[
    {
        "name": "[UGirlsAPP]\u7231\u5c24\u7269 No.2272 \u8881\u5706 \u6625\u8272\u6b63\u597d",
        "src": "http://d.duotuwang.com/2022/02/04/28370/0.jpg",
        "mtId": "c914b45ba9339187",
        "mtName": "\u8881\u5706",
        "jgId": "ugirlsapp",
        "jgName": "\u7231\u5c24\u7269",
        "href": "http://d.duotuwang.com/2022/02/04/28370/",
        "count": 35,
        "start": 1,
        "hasMtTag": 1,
        "hasJgTag": 1,
        "mtCount": 1,
        "jgCount": 397
    },
    {
        "name": "[UGirlsAPP]\u7231\u5c24\u7269 No.2222 \u8881\u5706 \u6709\u6c27\u751c\u5fc3",
        "src": "http://d.duotuwang.com/2021/11/24/27366/0.jpg",
        "mtId": "c914b45ba9339187",
        "mtName": "\u8881\u5706",
        "jgId": "ugirlsapp",
        "jgName": "\u7231\u5c24\u7269",
        "href": "http://d.duotuwang.com/2021/11/24/27366/",
        "count": 35,
        "start": 1,
        "hasMtTag": 1,
        "hasJgTag": 1,
        "mtCount": 1,
        "jgCount": 397
    },
    {
        "name": "[UGirlsAPP]\u7231\u5c24\u7269 No.2203 \u8881\u5706 \u5c11\u5973\u7684\u6e29\u5ea6",
        "src": "http://d.duotuwang.com/2021/10/29/27079/0.jpg",
        "mtId": "c914b45ba9339187",
        "mtName": "\u8881\u5706",
        "jgId": "ugirlsapp",
        "jgName": "\u7231\u5c24\u7269",
        "href": "http://d.duotuwang.com/2021/10/29/27079/",
        "count": 35,
        "start": 1,
        "hasMtTag": 1,
        "hasJgTag": 1,
        "mtCount": 1,
        "jgCount": 397
    },
    {
        "name": "[UGirlsAPP]\u7231\u5c24\u7269 No.1770 \u8881\u5706 \u6625\u65e5\u671f\u5f85",
        "src": "http://d.duotuwang.com/2020/03/24/20056/0.jpg",
        "mtId": "c914b45ba9339187",
        "mtName": "\u8881\u5706",
        "jgId": "ugirlsapp",
        "jgName": "\u7231\u5c24\u7269",
        "href": "http://d.duotuwang.com/2020/03/24/20056/",
        "count": 35,
        "start": 1,
        "hasMtTag": 1,
        "hasJgTag": 1,
        "mtCount": 1,
        "jgCount": 397
    },
    {
        "name": "[UGirlsAPP]\u7231\u5c24\u7269 No.1628 \u8881\u5706 \u770b\u5f97\u89c1\u5b8c\u7f8e",
        "src": "http://d.duotuwang.com/2019/11/03/18448/0.jpg",
        "mtId": "c914b45ba9339187",
        "mtName": "\u8881\u5706",
        "jgId": "ugirlsapp",
        "jgName": "\u7231\u5c24\u7269",
        "href": "http://d.duotuwang.com/2019/11/03/18448/",
        "count": 35,
        "start": 1,
        "hasMtTag": 1,
        "hasJgTag": 1,
        "mtCount": 1,
        "jgCount": 397
    }
]