[
    {
        "name": "[XIUREN]\u79c0\u4eba\u7f51 No.2650 \u674e\u592b\u4eba",
        "src": "http://d.duotuwang.com/2020/10/14/22829/0.jpg",
        "mtId": "4bca6d81a8a21f07",
        "mtName": "\u674e\u592b\u4eba",
        "jgId": "xiuren",
        "jgName": "\u79c0\u4eba\u7f51",
        "href": "http://d.duotuwang.com/2020/10/14/22829/",
        "count": 58,
        "start": 1,
        "hasMtTag": 1,
        "hasJgTag": 1,
        "mtCount": 1,
        "jgCount": 750
    },
    {
        "name": "[XIUREN]\u79c0\u4eba\u7f51 No.2554 \u674e\u592b\u4eba",
        "src": "http://d.duotuwang.com/2020/09/14/22127/0.jpg",
        "mtId": "4bca6d81a8a21f07",
        "mtName": "\u674e\u592b\u4eba",
        "jgId": "xiuren",
        "jgName": "\u79c0\u4eba\u7f51",
        "href": "http://d.duotuwang.com/2020/09/14/22127/",
        "count": 55,
        "start": 1,
        "hasMtTag": 1,
        "hasJgTag": 1,
        "mtCount": 1,
        "jgCount": 750
    },
    {
        "name": "[HuaYang]\u82b1\u6f3eshow VOL.275 \u674e\u592b\u4eba",
        "src": "http://d.duotuwang.com/2020/08/20/21649/0.jpg",
        "mtId": "4bca6d81a8a21f07",
        "mtName": "\u674e\u592b\u4eba",
        "jgId": "huayang",
        "jgName": "\u82b1\u6f3eshow",
        "href": "http://d.duotuwang.com/2020/08/20/21649/",
        "count": 51,
        "start": 1,
        "hasMtTag": 1,
        "hasJgTag": 1,
        "mtCount": 1,
        "jgCount": 86
    },
    {
        "name": "[HuaYang]\u82b1\u6f3eshow VOL.271 \u674e\u592b\u4eba",
        "src": "http://d.duotuwang.com/2020/08/11/21486/0.jpg",
        "mtId": "4bca6d81a8a21f07",
        "mtName": "\u674e\u592b\u4eba",
        "jgId": "huayang",
        "jgName": "\u82b1\u6f3eshow",
        "href": "http://d.duotuwang.com/2020/08/11/21486/",
        "count": 47,
        "start": 1,
        "hasMtTag": 1,
        "hasJgTag": 1,
        "mtCount": 1,
        "jgCount": 86
    }
]