[
    {
        "name": "[XIUREN]\u79c0\u4eba\u7f51 No.3323 \u6768\u6668\u6668sugar",
        "src": "http://d.duotuwang.com/2021/04/20/24867/0.jpg",
        "mtId": "48bada5e7225ec9f",
        "mtName": "\u6768\u6668\u6668sugar",
        "jgId": "xiuren",
        "jgName": "\u79c0\u4eba\u7f51",
        "href": "http://d.duotuwang.com/2021/04/20/24867/",
        "count": 57,
        "start": 1,
        "hasMtTag": 1,
        "hasJgTag": 1,
        "mtCount": 89,
        "jgCount": 750
    },
    {
        "name": "[XIAOYU]\u8bed\u753b\u754c VOL.509 \u6768\u6668\u6668sugar",
        "src": "http://d.duotuwang.com/2021/04/15/24868/0.jpg",
        "mtId": "48bada5e7225ec9f",
        "mtName": "\u6768\u6668\u6668sugar",
        "jgId": "xiaoyu",
        "jgName": "\u8bed\u753b\u754c",
        "href": "http://d.duotuwang.com/2021/04/15/24868/",
        "count": 77,
        "start": 1,
        "hasMtTag": 1,
        "hasJgTag": 1,
        "mtCount": 89,
        "jgCount": 155
    },
    {
        "name": "[XIUREN]\u79c0\u4eba\u7f51 No.3299 \u6768\u6668\u6668sugar",
        "src": "http://d.duotuwang.com/2021/04/13/24760/0.jpg",
        "mtId": "48bada5e7225ec9f",
        "mtName": "\u6768\u6668\u6668sugar",
        "jgId": "xiuren",
        "jgName": "\u79c0\u4eba\u7f51",
        "href": "http://d.duotuwang.com/2021/04/13/24760/",
        "count": 62,
        "start": 1,
        "hasMtTag": 1,
        "hasJgTag": 1,
        "mtCount": 89,
        "jgCount": 750
    },
    {
        "name": "[XIAOYU]\u8bed\u753b\u754c VOL.505 \u6768\u6668\u6668sugar",
        "src": "http://d.duotuwang.com/2021/04/09/24773/0.jpg",
        "mtId": "48bada5e7225ec9f",
        "mtName": "\u6768\u6668\u6668sugar",
        "jgId": "xiaoyu",
        "jgName": "\u8bed\u753b\u754c",
        "href": "http://d.duotuwang.com/2021/04/09/24773/",
        "count": 72,
        "start": 1,
        "hasMtTag": 1,
        "hasJgTag": 1,
        "mtCount": 89,
        "jgCount": 155
    },
    {
        "name": "[XIUREN]\u79c0\u4eba\u7f51 No.3280 \u6768\u6668\u6668sugar",
        "src": "http://d.duotuwang.com/2021/04/07/24741/0.jpg",
        "mtId": "48bada5e7225ec9f",
        "mtName": "\u6768\u6668\u6668sugar",
        "jgId": "xiuren",
        "jgName": "\u79c0\u4eba\u7f51",
        "href": "http://d.duotuwang.com/2021/04/07/24741/",
        "count": 51,
        "start": 1,
        "hasMtTag": 1,
        "hasJgTag": 1,
        "mtCount": 89,
        "jgCount": 750
    },
    {
        "name": "[XIAOYU]\u8bed\u753b\u754c VOL.501 \u6768\u6668\u6668sugar",
        "src": "http://d.duotuwang.com/2021/04/01/24769/0.jpg",
        "mtId": "48bada5e7225ec9f",
        "mtName": "\u6768\u6668\u6668sugar",
        "jgId": "xiaoyu",
        "jgName": "\u8bed\u753b\u754c",
        "href": "http://d.duotuwang.com/2021/04/01/24769/",
        "count": 71,
        "start": 1,
        "hasMtTag": 1,
        "hasJgTag": 1,
        "mtCount": 89,
        "jgCount": 155
    }
]