[
    {
        "name": "[XIUREN]\u79c0\u4eba\u7f51 No.1662 \u6768\u6668\u6668sugar 1/2",
        "src": "http://d.duotuwang.com/2019/09/03/17844/0.jpg",
        "mtId": "48bada5e7225ec9f",
        "mtName": "\u6768\u6668\u6668sugar",
        "jgId": "xiuren",
        "jgName": "\u79c0\u4eba\u7f51",
        "href": "http://d.duotuwang.com/2019/09/03/17844/",
        "count": 46,
        "start": 1,
        "hasMtTag": 1,
        "hasJgTag": 1,
        "mtCount": 89,
        "jgCount": 750
    },
    {
        "name": "[XIAOYU]\u8bed\u753b\u754c VOL.143 \u6768\u6668\u6668sugar",
        "src": "http://d.duotuwang.com/2019/08/30/17793/0.jpg",
        "mtId": "48bada5e7225ec9f",
        "mtName": "\u6768\u6668\u6668sugar",
        "jgId": "xiaoyu",
        "jgName": "\u8bed\u753b\u754c",
        "href": "http://d.duotuwang.com/2019/08/30/17793/",
        "count": 55,
        "start": 1,
        "hasMtTag": 1,
        "hasJgTag": 1,
        "mtCount": 89,
        "jgCount": 155
    },
    {
        "name": "[XIUREN]\u79c0\u4eba\u7f51 No.1650 \u6768\u6668\u6668sugar",
        "src": "http://d.duotuwang.com/2019/08/27/17810/0.jpg",
        "mtId": "48bada5e7225ec9f",
        "mtName": "\u6768\u6668\u6668sugar",
        "jgId": "xiuren",
        "jgName": "\u79c0\u4eba\u7f51",
        "href": "http://d.duotuwang.com/2019/08/27/17810/",
        "count": 99,
        "start": 1,
        "hasMtTag": 1,
        "hasJgTag": 1,
        "mtCount": 89,
        "jgCount": 750
    },
    {
        "name": "[XIAOYU]\u8bed\u753b\u754c VOL.138 \u6768\u6668\u6668sugar",
        "src": "http://d.duotuwang.com/2019/08/23/17720/0.jpg",
        "mtId": "48bada5e7225ec9f",
        "mtName": "\u6768\u6668\u6668sugar",
        "jgId": "xiaoyu",
        "jgName": "\u8bed\u753b\u754c",
        "href": "http://d.duotuwang.com/2019/08/23/17720/",
        "count": 77,
        "start": 1,
        "hasMtTag": 1,
        "hasJgTag": 1,
        "mtCount": 89,
        "jgCount": 155
    },
    {
        "name": "[XIUREN]\u79c0\u4eba\u7f51 No.1633 \u6768\u6668\u6668sugar",
        "src": "http://d.duotuwang.com/2019/08/21/17738/0.jpg",
        "mtId": "48bada5e7225ec9f",
        "mtName": "\u6768\u6668\u6668sugar",
        "jgId": "xiuren",
        "jgName": "\u79c0\u4eba\u7f51",
        "href": "http://d.duotuwang.com/2019/08/21/17738/",
        "count": 72,
        "start": 1,
        "hasMtTag": 1,
        "hasJgTag": 1,
        "mtCount": 89,
        "jgCount": 750
    },
    {
        "name": "[XIAOYU]\u8bed\u753b\u754c VOL.134 \u6768\u6668\u6668sugar",
        "src": "http://d.duotuwang.com/2019/08/16/17717/0.jpg",
        "mtId": "48bada5e7225ec9f",
        "mtName": "\u6768\u6668\u6668sugar",
        "jgId": "xiaoyu",
        "jgName": "\u8bed\u753b\u754c",
        "href": "http://d.duotuwang.com/2019/08/16/17717/",
        "count": 62,
        "start": 1,
        "hasMtTag": 1,
        "hasJgTag": 1,
        "mtCount": 89,
        "jgCount": 155
    }
]