[
    {
        "name": "[MiiTao]\u871c\u6843\u793e VOL.013 \u6653\u96ef",
        "src": "http://d.duotuwang.com/2016/06/12/1463/0.jpg",
        "mtId": "d53972d9d8896768",
        "mtName": "\u6653\u96ef",
        "jgId": "miitao",
        "jgName": "\u871c\u6843\u793e",
        "href": "http://d.duotuwang.com/2016/06/12/1463/",
        "count": 63,
        "start": 1,
        "hasMtTag": 1,
        "hasJgTag": 1,
        "mtCount": 1,
        "jgCount": 25
    }
]