[
    {
        "id": "584926307",
        "title": "\u3010\u9648\u83ab\u6cab\u3011\u628a\u4f60\u4f4d\u7f6e\u53d1\u7ed9\u6211\uff0c\u770b\u770b\u6211\u7684\u5fc3\u53c8\u8dd1\u54ea\u53bb\u4e86--\u300aParty Train\u300b\u821e\u8e48",
        "src": "http://v-huya-img2.msstatic.com/screenshot/2139/584926307/99.jpg?x-oss-process=style/460x268&amp;amp;v=c940dfa56390be15e3ede4cbf0a507581633158355",
        "url": "http://videobd-platform.cdn.huya.com/1048585/1615255773/29014467/6851e18c57887136ce579a32c41d642c.m3u8?bitrate=2025&client=106&definition=1300&pid=1615255773&scene=vod&vid=584926307"
    },
    {
        "id": "584921681",
        "title": "\u3010\u9648\u83ab\u6cab\u3011\u4e00\u4e9b\u865a\u5ea6\u5149\u9634\u7684\u5c0f\u8bc1\u636e--\u300a\u4e00\u751f\u6240\u7231\u300b\u821e\u8e48",
        "src": "http://v-huya-img2.msstatic.com/screenshot/2139/584921681/99.jpg?x-oss-process=style/460x268&amp;amp;v=83d70d6b39aeb6d7767ad11ee3c35df21633157651",
        "url": "http://videobd-platform.cdn.huya.com/1048585/1615255773/29013751/2097c0e62655e93a6486e524db297f3f.m3u8?bitrate=2018&client=106&definition=1300&pid=1615255773&scene=vod&vid=584921681"
    },
    {
        "id": "584923037",
        "title": "\u3010\u9648\u83ab\u6cab\u3011\u5934\u8fd9\u4e48\u75bc\uff0c\u4e00\u5b9a\u6709\u4eba\u5728\u69a8\u6211\u7684\u667a\u6167",
        "src": "http://v-huya-img2.msstatic.com/screenshot/2139/584923037/99.jpg?x-oss-process=style/460x268&amp;amp;v=07a2a1a4bdefeb09c1459395005b34a11633157869",
        "url": "http://videotx-platform.cdn.huya.com/1048585/1615255773/29014005/840fdabafd0b4528544a1b03793f646a.m3u8?bitrate=2051&client=106&definition=1300&pid=1615255773&scene=vod&vid=584923037"
    },
    {
        "id": "584899109",
        "title": "\u3010\u9648\u83ab\u6cab\u3011\u4eca\u65e5\u5b9c \u770b\u6d77 \u62e5\u62b1 \u4e0e\u4f60\u76f8\u89c1\u3002--\u300aThat Isn t You\u300b\u821e\u8e48",
        "src": "http://v-huya-img2.msstatic.com/screenshot/2139/584899109/99.jpg?x-oss-process=style/460x268&amp;amp;v=acc7f639ad9bb0538306397190e235061633154075",
        "url": "http://videohw-platform.cdn.huya.com/1048585/1615255773/29011023/35f66c8c2e8c114089a656302b6ffe3b.m3u8?bitrate=1570&client=106&definition=1300&pid=1615255773&scene=vod&vid=584899109"
    },
    {
        "id": "584896291",
        "title": "\u3010\u9648\u83ab\u6cab\u3011\u4f60\u662f\u6211\u5be1\u6de1\u65e0\u5473\u9752\u6625\u91cc\u5f88\u7279\u522b\u7684\u5b58\u5728\u3002--\u300a\u9e3f\u96c1\u300b\u821e\u8e48",
        "src": "http://v-huya-img2.msstatic.com/screenshot/2139/584896291/99.jpg?x-oss-process=style/460x268&amp;amp;v=0d454440b5c512dd19135f85a51ce1c41633153566",
        "url": "http://videohw-platform.cdn.huya.com/1048585/1615255773/29010579/d85fd2ba6731a671cca4d255d03e2aa1.m3u8?bitrate=2052&client=106&definition=1300&pid=1615255773&scene=vod&vid=584896291"
    },
    {
        "id": "583974665",
        "title": "\u3010\u9648\u83ab\u6cab\u3011\u4e34\u8d70\u524d\uff0c\u518d\u4eb2\u6211\u4e00\u4e0b\u53ed--\u300a\u4e00\u751f\u6240\u7231\u300b\u821e\u8e48",
        "src": "http://v-huya-img2.msstatic.com/screenshot/2139/583974665/99.jpg?x-oss-process=style/460x268&amp;amp;v=38628fe838054166a327373c999cf7861632998571",
        "url": "http://videotx-platform.cdn.huya.com/1048585/1615255773/28907907/624ce26c4710974f6adcd341f7479729.m3u8?bitrate=2052&client=106&definition=1300&pid=1615255773&scene=vod&vid=583974665"
    },
    {
        "id": "583447197",
        "title": "\u3010\u9648\u83ab\u6cab\u3011\u8d81\u5929\u7a7a\u4e0d\u6ce8\u610f \u52ab\u6301\u70b9\u665a\u971e\u7ed9\u4f60--\u300a\u53e4\u9e21\u53e4\u9e21\u6015\u62c9\u6015\u62c9\u300b\u821e\u8e48",
        "src": "http://v-huya-img2.msstatic.com/screenshot/2139/583447197/99.jpg?x-oss-process=style/460x268&amp;amp;v=51adf0dd844c1a0748f7ae4c5e19ca1c1632907337",
        "url": "http://videotx-platform.cdn.huya.com/1048585/1615255773/28858045/968d25db83f1d94b73cf80bbf469b3ea.m3u8?bitrate=2027&client=106&definition=1300&pid=1615255773&scene=vod&vid=583447197"
    },
    {
        "id": "582406277",
        "title": "\u3010\u9648\u83ab\u6cab\u3011\u6211\u628a\u6e29\u67d4\u8bbe\u7f6e\u6210\u4e86\u4ec5\u4f60\u53ef\u89c1--\u300a\u6781\u4e50\u51c0\u571f\u300b\u821e\u8e48",
        "src": "http://v-huya-img2.msstatic.com/screenshot/2139/582406277/99.jpg?x-oss-process=style/460x268&amp;amp;v=4f58e4eee3e1590701bc8ed2c51f042d1632729305",
        "url": "http://videohw-platform.cdn.huya.com/1048585/1615255773/28758841/7cb4b5512548245203d054b13197d458.m3u8?bitrate=1997&client=106&definition=1300&pid=1615255773&scene=vod&vid=582406277"
    },
    {
        "id": "582397571",
        "title": "\u3010\u9648\u83ab\u6cab\u3011\u4e00\u53ea\u732a\u611f\u5230\u88ab\u5b64\u7acb \u4e8e\u662f\u53d8\u6210\u4e86\u6731\u53e4\u529b--\u300aBlackjack\u300b\u821e\u8e48",
        "src": "http://v-huya-img2.msstatic.com/screenshot/2139/582397571/99.jpg?x-oss-process=style/460x268&amp;amp;v=3697b4461db7b958aaa586cbe27e1ca71632727875",
        "url": "http://videobd-platform.cdn.huya.com/1048585/1615255773/28757895/7b58b65ca6356b3478776e9e6eeffa4c.m3u8?bitrate=1835&client=106&definition=1300&pid=1615255773&scene=vod&vid=582397571"
    },
    {
        "id": "581835075",
        "title": "\u3010\u9648\u83ab\u6cab\u3011\u6d6a\u6f2b\u81f3\u6b7b\u4e0d\u6e1d\uff0c\u6e29\u67d4\u7edd\u5bf9\u81e3\u670d\u3002 --\u300a\u897f\u5858\u6709\u96e8\u300b\u821e\u8e48",
        "src": "http://v-huya-img2.msstatic.com/screenshot/2138/581835075/99.jpg?x-oss-process=style/460x268&amp;amp;v=450b7e0b8d36860ee83f6565ade754f51632631647",
        "url": "http://videohw-platform.cdn.huya.com/1048585/1615255773/28708007/21ca47542a72e1b507252dee7d86e7e0.m3u8?bitrate=2053&client=106&definition=1300&pid=1615255773&scene=vod&vid=581835075"
    },
    {
        "id": "581345709",
        "title": "\u3010\u9648\u83ab\u6cab\u3011\u559c\u6b22\u4f60\uff0c\u662f\u4e00\u573a\u5c0f\u578b\u7684\u72af\u7f6a\u3002--\u300a\u865e\u516e\u53f9\u300b\u821e\u8e48",
        "src": "http://v-huya-img2.msstatic.com/screenshot/2138/581345709/99.jpg?x-oss-process=style/460x268&amp;amp;v=c6f390e6aab2a9f8eef2c4f1eecdbe761632554459",
        "url": "http://videohw-platform.cdn.huya.com/1048585/1615255773/28639707/148adbbb240f2e828ea62593599efd58.m3u8?bitrate=2038&client=106&definition=1300&pid=1615255773&scene=vod&vid=581345709"
    },
    {
        "id": "580862669",
        "title": "\u3010\u9648\u83ab\u6cab\u3011\u6211\u52aa\u529b\u966a\u4f60\u8d70\u90a3\u4e9b\u6ca1\u8d70\u8fc7\u7684\u8def--\u300aFire\u300b\u821e\u8e48",
        "src": "http://v-huya-img2.msstatic.com/screenshot/2138/580862669/99.jpg?x-oss-process=style/460x268&amp;amp;v=fc2e0596c68d6f073cc258cdbca72f3c1632474720",
        "url": "http://videobd-platform.cdn.huya.com/1048585/1615255773/28598753/39dde599b6eb75e413f9060381a712e8.m3u8?bitrate=1963&client=106&definition=1300&pid=1615255773&scene=vod&vid=580862669"
    },
    {
        "id": "580332921",
        "title": "\u3010\u9648\u83ab\u6cab\u3011\u4f60\u5230\u5e95\u662f\u4ec0\u4e48\u54c1\u79cd\u7684\u9c7c\uff0c\u600e\u4e48\u90a3\u4e48\u96be\u9493--\u300aPhut Hon\u300b\u821e\u8e48",
        "src": "http://v-huya-img2.msstatic.com/screenshot/2138/580332921/99.jpg?x-oss-process=style/460x268&amp;amp;v=87fafde27bd068e36dbc41dc8149448d1632387175",
        "url": "http://videohw-platform.cdn.huya.com/1048585/1615255773/28549543/1ee65884a2d9d72ddaf005c0e9f8b59c.m3u8?bitrate=2061&client=106&definition=1300&pid=1615255773&scene=vod&vid=580332921"
    },
    {
        "id": "579794541",
        "title": "\u3010\u9648\u83ab\u6cab\u3011\u5954\u6708\u5931\u8d25\u7ee7\u7eed\u7559\u5728\u4eba\u95f4--\u300aSexy Baliye\u300b\u821e\u8e48",
        "src": "http://v-huya-img2.msstatic.com/screenshot/2138/579794541/99.jpg?x-oss-process=style/460x268&amp;amp;v=8a2413de4ddbdf5a5078bfeb4fd571791632296656",
        "url": "http://videohw-platform.cdn.huya.com/1048585/1615255773/28500085/3ee192c522a50c6971f823d8076eb617.m3u8?bitrate=2045&client=106&definition=1300&pid=1615255773&scene=vod&vid=579794541"
    },
    {
        "id": "577643695",
        "title": "\u3010\u9648\u83ab\u6cab\u3011\u53c8\u5230\u4e86\u6211\u4e00\u5e74\u4e00\u5ea6\u4e0b\u51e1\u7684\u65e5\u5b50\u4e86~",
        "src": "http://v-huya-img2.msstatic.com/screenshot/2137/577643695/99.jpg?x-oss-process=style/460x268&amp;amp;v=468a17174124786410c491c86a0958471631946497",
        "url": "http://videotx-platform.cdn.huya.com/1048585/1615255773/28325215/2ef1859924c815ae79924b620bb2ff62.m3u8?bitrate=2035&client=106&definition=1300&pid=1615255773&scene=vod&vid=577643695"
    }
]