[
    {
        "name": "[XIUREN]\u79c0\u4eba\u7f51 No.5399 \u5341\u4e5d\u4e5d 2/2",
        "src": "http://d.duotuwang.com/2022/08/08/31213/0.jpg",
        "mtId": "f2662605d45fdb00",
        "mtName": "\u5341\u4e5d\u4e5d",
        "jgId": "xiuren",
        "jgName": "\u79c0\u4eba\u7f51",
        "href": "http://d.duotuwang.com/2022/08/08/31213/",
        "count": 35,
        "start": 1,
        "hasMtTag": 1,
        "hasJgTag": 1,
        "mtCount": 1,
        "jgCount": 750
    },
    {
        "name": "[XIUREN]\u79c0\u4eba\u7f51 No.5399 \u5341\u4e5d\u4e5d 1/2",
        "src": "http://d.duotuwang.com/2022/08/08/30892/0.jpg",
        "mtId": "f2662605d45fdb00",
        "mtName": "\u5341\u4e5d\u4e5d",
        "jgId": "xiuren",
        "jgName": "\u79c0\u4eba\u7f51",
        "href": "http://d.duotuwang.com/2022/08/08/30892/",
        "count": 82,
        "start": 1,
        "hasMtTag": 1,
        "hasJgTag": 1,
        "mtCount": 1,
        "jgCount": 750
    }
]