[
    {
        "name": "[YouMi]\u5c24\u871c 2021.11.28 \u6234\u8bfa\u6b23",
        "src": "http://d.duotuwang.com/2021/11/28/27648/0.jpg",
        "mtId": "2d31c2958aae3df1",
        "mtName": "\u6234\u8bfa\u6b23",
        "jgId": "youmiabc",
        "jgName": "\u5c24\u871c",
        "href": "http://d.duotuwang.com/2021/11/28/27648/",
        "count": 38,
        "start": 1,
        "hasMtTag": 1,
        "hasJgTag": 1,
        "mtCount": 1,
        "jgCount": 79
    },
    {
        "name": "[YouMi]\u5c24\u871c 2021.11.13 \u6234\u8bfa\u6b23",
        "src": "http://d.duotuwang.com/2021/11/13/27372/0.jpg",
        "mtId": "2d31c2958aae3df1",
        "mtName": "\u6234\u8bfa\u6b23",
        "jgId": "youmiabc",
        "jgName": "\u5c24\u871c",
        "href": "http://d.duotuwang.com/2021/11/13/27372/",
        "count": 27,
        "start": 1,
        "hasMtTag": 1,
        "hasJgTag": 1,
        "mtCount": 1,
        "jgCount": 79
    }
]