[
    {
        "name": "[YouMi]\u5c24\u871c 2021.12.29 \u6c90\u9752",
        "src": "http://d.duotuwang.com/2021/12/29/28050/0.jpg",
        "mtId": "521ef2e26d3ce6a7",
        "mtName": "\u6c90\u9752",
        "jgId": "youmiabc",
        "jgName": "\u5c24\u871c",
        "href": "http://d.duotuwang.com/2021/12/29/28050/",
        "count": 27,
        "start": 1,
        "hasMtTag": 1,
        "hasJgTag": 1,
        "mtCount": 1,
        "jgCount": 79
    },
    {
        "name": "[YouMi]\u5c24\u871c 2021.03.29 \u6c90\u9752",
        "src": "http://d.duotuwang.com/2021/03/29/24647/0.jpg",
        "mtId": "521ef2e26d3ce6a7",
        "mtName": "\u6c90\u9752",
        "jgId": "youmiabc",
        "jgName": "\u5c24\u871c",
        "href": "http://d.duotuwang.com/2021/03/29/24647/",
        "count": 48,
        "start": 1,
        "hasMtTag": 1,
        "hasJgTag": 1,
        "mtCount": 1,
        "jgCount": 79
    },
    {
        "name": "[YouWu]\u5c24\u7269\u9986 VOL.014 \u6c90\u9752",
        "src": "http://d.duotuwang.com/2016/06/20/1484/0.jpg",
        "mtId": "521ef2e26d3ce6a7",
        "mtName": "\u6c90\u9752",
        "jgId": "youwu",
        "jgName": "\u5c24\u7269\u9986",
        "href": "http://d.duotuwang.com/2016/06/20/1484/",
        "count": 52,
        "start": 1,
        "hasMtTag": 1,
        "hasJgTag": 1,
        "mtCount": 1,
        "jgCount": 29
    },
    {
        "name": "[YouWu]\u5c24\u7269\u9986 VOL.005 \u6c90\u9752",
        "src": "http://d.duotuwang.com/2016/04/29/1386/0.jpg",
        "mtId": "521ef2e26d3ce6a7",
        "mtName": "\u6c90\u9752",
        "jgId": "youwu",
        "jgName": "\u5c24\u7269\u9986",
        "href": "http://d.duotuwang.com/2016/04/29/1386/",
        "count": 53,
        "start": 1,
        "hasMtTag": 1,
        "hasJgTag": 1,
        "mtCount": 1,
        "jgCount": 29
    }
]