[
    {
        "id": "656722999",
        "title": "\u3010\u857e\u3011\u60f3\u4ece\u4f60\u90a3\u91cc\u5077\u4e00\u4efd\u53ef\u7231~",
        "src": "http://v-huya-img2.msstatic.com/screenshot/2206/656722999/99.jpg?x-oss-process=style/460x268&amp;amp;v=c834ffd91bf5a867a1eb28d3256449161644241062",
        "url": "http://videohw-platform.cdn.huya.com/1048585/1199572226562/35602795/0488307eb31614aa33d0b245b6ca7fe7.m3u8?bitrate=1925&client=106&definition=1300&pid=1199572226562&scene=vod&vid=656722999"
    },
    {
        "id": "656110027",
        "title": "\u3010\u857e\u3011\u4f60\u6765\u770b\u770b\u751c\u5417\uff1f",
        "src": "http://v-huya-img2.msstatic.com/screenshot/2205/656110027/99.jpg?x-oss-process=style/460x268&amp;amp;v=6c3fac6983397c0cdce5019911ec7b801644155195",
        "url": "http://videohw-platform.cdn.huya.com/1048585/1199572226562/35571919/21b865f41083888618d13d3906e3c705.m3u8?bitrate=2064&client=106&definition=1300&pid=1199572226562&scene=vod&vid=656110027"
    },
    {
        "id": "655527287",
        "title": "\u3010\u857e\u3011\u8ddf\u7740\u6211\u4e00\u8d77One Two Three\uff01",
        "src": "http://v-huya-img2.msstatic.com/screenshot/2205/655527287/99.jpg?x-oss-process=style/460x268&amp;amp;v=cd951f59eb1e79dd274490921b64fa871644070906",
        "url": "http://videohw-platform.cdn.huya.com/1048585/1199572226562/35543501/3e587772310f1dc92bff3c8bb4df427d.m3u8?bitrate=1972&client=106&definition=1300&pid=1199572226562&scene=vod&vid=655527287"
    },
    {
        "id": "654872561",
        "title": "\u3010\u857e\u3011\u4eca\u5929\u7684\u661f\u5149\uff0c\u6709\u70b9\u7f8e\u2764",
        "src": "http://v-huya-img2.msstatic.com/screenshot/2205/654872561/99.jpg?x-oss-process=style/460x268&amp;amp;v=8771d4f9f4df0f380d93480437c4c4571643977376",
        "url": "http://videohw-platform.cdn.huya.com/1048585/1199572226562/35510071/94a36587e99237f2f41507985b643e9e.m3u8?bitrate=1889&client=106&definition=1300&pid=1199572226562&scene=vod&vid=654872561"
    },
    {
        "id": "654222981",
        "title": "\u3010\u857e\u3011\u4eca\u5929\u7684\u5fc3\u60c5\u662f\u751c\u751c\u7684\u5927\u767d\u5154\u5976\u7cd6",
        "src": "http://v-huya-img2.msstatic.com/screenshot/2205/654222981/99.jpg?x-oss-process=style/460x268&amp;amp;v=5785025bfb751b13eec3c307e0ed28ff1643881245",
        "url": "http://videobd-platform.cdn.huya.com/1048585/1199572226562/35478633/fbf90cd5693257729932dbb66e00a817.m3u8?bitrate=1856&client=106&definition=1300&pid=1199572226562&scene=vod&vid=654222981"
    },
    {
        "id": "651505409",
        "title": "\u3010\u857e\u3011\u6e29\u6e29\u67d4\u67d4\u7684\u8ddf\u6211\u8bf4\u6211\u5c31\u90fd\u542c\u4f60\u7684~",
        "src": "http://v-huya-img2.msstatic.com/screenshot/2204/651505409/99.jpg?x-oss-process=style/460x268&amp;amp;v=6a883d9744ae268ced907b217ce0174d1643468928",
        "url": "http://videotx-platform.cdn.huya.com/1048585/1199572226562/35352233/1088f79947d6e976aea97c9dc4a6d1e2.m3u8?bitrate=1861&client=106&definition=1300&pid=1199572226562&scene=vod&vid=651505409"
    },
    {
        "id": "650244775",
        "title": "\u3010\u857e\u3011\u60f3\u505a\u4f60\u7684\u751c\u5fc3\u5b9d\u8d1d~",
        "src": "http://v-huya-img2.msstatic.com/screenshot/2204/650244775/99.jpg?x-oss-process=style/460x268&amp;amp;v=afa16e7e51026f528905689e6817dbd41643297903",
        "url": "http://videohw-platform.cdn.huya.com/1048585/1199572226562/35286851/0200aef2570d6c13b7aca7fbf8df15db.m3u8?bitrate=1941&client=106&definition=1300&pid=1199572226562&scene=vod&vid=650244775"
    },
    {
        "id": "648914721",
        "title": "\u3010\u857e\u3011\u8fd9\u91cc\u6709\u4e00\u70b9\u751c~",
        "src": "http://v-huya-img2.msstatic.com/screenshot/2204/648914721/99.jpg?x-oss-process=style/460x268&amp;amp;v=e019d6f3accddd8bf931b1194bd9029a1643124660",
        "url": "http://videotx-platform.cdn.huya.com/1048585/1199572226562/35212367/a868177a0172e9b9e92f9598345b3fb3.m3u8?bitrate=2088&client=106&definition=1300&pid=1199572226562&scene=vod&vid=648914721"
    },
    {
        "id": "648191043",
        "title": "\u3010\u857e\u3011\u8be5\u600e\u4e48\u544a\u8bc9\u4f60\u2764\u8981\u53ca\u65f6~",
        "src": "http://v-huya-img2.msstatic.com/screenshot/2204/648191043/99.jpg?x-oss-process=style/460x268&amp;amp;v=0a4ee074388616bffe0a173c20d770d51643034216",
        "url": "http://videotx-platform.cdn.huya.com/1048585/1199572226562/35173697/bfbe15d5d772508fd96a4598203179d9.m3u8?bitrate=1860&client=106&definition=1300&pid=1199572226562&scene=vod&vid=648191043"
    },
    {
        "id": "646788353",
        "title": "\u3010\u857e\u3011\u8fd9\u662f\u8c01\u5bb6\u7684\u5c0f\u53ef\u7231\uff1f",
        "src": "http://v-huya-img2.msstatic.com/screenshot/2203/646788353/99.jpg?x-oss-process=style/460x268&amp;amp;v=59787786ef65ed63e7f90f25c79ca7771642860894",
        "url": "http://videotx-platform.cdn.huya.com/1048585/1199572226562/35095855/6aa28d14c9dae40f377181fa00ade50c.m3u8?bitrate=2067&client=106&definition=1300&pid=1199572226562&scene=vod&vid=646788353"
    },
    {
        "id": "646129921",
        "title": "\u3010\u857e\u3011\u6709\u559c\u6b22\u8fd9\u9996\u6b4c\u7684\u5417\uff1f",
        "src": "http://v-huya-img2.msstatic.com/screenshot/2203/646129921/99.jpg?x-oss-process=style/460x268&amp;amp;v=c3ebfa78da8f30a0fd8f4578aacf425f1642779542",
        "url": "http://videobd-platform.cdn.huya.com/1048585/1199572226562/35066815/a253cd09f69fa82bdadf346df99781ef.m3u8?bitrate=2056&client=106&definition=1300&pid=1199572226562&scene=vod&vid=646129921"
    },
    {
        "id": "645336733",
        "title": "\u3010\u857e\u3011\u8fd9\u6837\u7684\u5973\u7279\u52a1\uff0c\u4f60\u7231\u4e48-",
        "src": "http://v-huya-img2.msstatic.com/screenshot/2203/645336733/99.jpg?x-oss-process=style/460x268&amp;amp;v=57b8f87429c5d16c96f31c5700d6f7ea1642688736",
        "url": "http://videotx-platform.cdn.huya.com/1048585/1199572226562/35009335/2947441fcc3d5860500185a8f2d06230.m3u8?bitrate=2004&client=106&definition=1300&pid=1199572226562&scene=vod&vid=645336733"
    },
    {
        "id": "644593135",
        "title": "\u6211\u53d1\u5e03\u4e86\u4e00\u4e2a\u65b0\u89c6\u9891\uff0c\u5feb\u6765\u56f4\u89c2\u5427\uff01",
        "src": "http://v-huya-img2.msstatic.com/screenshot/2203/644593135/99.jpg?x-oss-process=style/460x268&amp;amp;v=47122bc72076d8b3b18f2051260329f91642599993",
        "url": "http://videohw-platform.cdn.huya.com/1048585/1199572226562/34965451/48336542420bbc906fa8177dcc8eee09.m3u8?bitrate=1980&client=106&definition=1300&pid=1199572226562&scene=vod&vid=644593135"
    },
    {
        "id": "642085719",
        "title": "\u3010\u857e\u3011\u4f60\u77e5\u9053\u6211\u5728\u7b49\u4f60\u5417\uff1f",
        "src": "http://v-huya-img2.msstatic.com/screenshot/2202/642085719/99.jpg?x-oss-process=style/460x268&amp;amp;v=8d3d59cdb57f77a3af71c2a162a21ee21642306318",
        "url": "http://videohw-platform.cdn.huya.com/1048585/1199572226562/34836943/dc0aa1ec99f456de856690d6bb33e580.m3u8?bitrate=1974&client=106&definition=1300&pid=1199572226562&scene=vod&vid=642085719"
    },
    {
        "id": "639533521",
        "title": "\u3010\u857e\u3011\u5929\u8fd9\u4e48\u51b7\uff0c\u60f3\u542c\u53e5\u6696\u5fc3\u7684\u8bdd~",
        "src": "http://v-huya-img2.msstatic.com/screenshot/2202/639533521/99.jpg?x-oss-process=style/460x268&amp;amp;v=13953c2787e1e64c3715bc1d29160f091641998706",
        "url": "http://videotx-platform.cdn.huya.com/1048585/1199572226562/34711453/124a10c303ef624c708bba6fb3e40ac9.m3u8?bitrate=2063&client=106&definition=1300&pid=1199572226562&scene=vod&vid=639533521"
    }
]