[
    {
        "name": "[XINGYAN]\u661f\u989c\u793e VOL.092 \u4f0a\u9eceyili",
        "src": "http://d.duotuwang.com/2018/10/26/9849/0.jpg",
        "mtId": "19ac5f2674b8e80e",
        "mtName": "\u4f0a\u9eceyili",
        "jgId": "xingyan",
        "jgName": "\u661f\u989c\u793e",
        "href": "http://d.duotuwang.com/2018/10/26/9849/",
        "count": 38,
        "start": 1,
        "hasMtTag": 1,
        "hasJgTag": 1,
        "mtCount": 1,
        "jgCount": 25
    },
    {
        "name": "[XINGYAN]\u661f\u989c\u793e VOL.091 \u840c\u6c49\u836fbaby",
        "src": "http://d.duotuwang.com/2018/10/24/9857/0.jpg",
        "mtId": "830ea5862a484115",
        "mtName": "\u840c\u6c49\u836fbaby",
        "jgId": "xingyan",
        "jgName": "\u661f\u989c\u793e",
        "href": "http://d.duotuwang.com/2018/10/24/9857/",
        "count": 48,
        "start": 1,
        "hasMtTag": 1,
        "hasJgTag": 1,
        "mtCount": 17,
        "jgCount": 25
    },
    {
        "name": "[XINGYAN]\u661f\u989c\u793e VOL.090 \u5b89\u5b89Angel",
        "src": "http://d.duotuwang.com/2018/10/17/9823/0.jpg",
        "mtId": "abd5d2c9104aacf8",
        "mtName": "\u5b89\u5b89Angel",
        "jgId": "xingyan",
        "jgName": "\u661f\u989c\u793e",
        "href": "http://d.duotuwang.com/2018/10/17/9823/",
        "count": 40,
        "start": 1,
        "hasMtTag": 1,
        "hasJgTag": 1,
        "mtCount": 1,
        "jgCount": 25
    },
    {
        "name": "[XINGYAN]\u661f\u989c\u793e VOL.089 \u8d75\u99a8\u60a6",
        "src": "http://d.duotuwang.com/2018/10/15/9808/0.jpg",
        "mtId": "7a366236d30e5867",
        "mtName": "\u8d75\u99a8\u60a6",
        "jgId": "xingyan",
        "jgName": "\u661f\u989c\u793e",
        "href": "http://d.duotuwang.com/2018/10/15/9808/",
        "count": 37,
        "start": 1,
        "hasMtTag": 1,
        "hasJgTag": 1,
        "mtCount": 1,
        "jgCount": 25
    },
    {
        "name": "[XINGYAN]\u661f\u989c\u793e VOL.088 \u5b89\u5b89Angel",
        "src": "http://d.duotuwang.com/2018/10/10/9794/0.jpg",
        "mtId": "abd5d2c9104aacf8",
        "mtName": "\u5b89\u5b89Angel",
        "jgId": "xingyan",
        "jgName": "\u661f\u989c\u793e",
        "href": "http://d.duotuwang.com/2018/10/10/9794/",
        "count": 40,
        "start": 1,
        "hasMtTag": 1,
        "hasJgTag": 1,
        "mtCount": 1,
        "jgCount": 25
    },
    {
        "name": "[XINGYAN]\u661f\u989c\u793e VOL.087 \u5fc3\u598d\u5c0f\u516c\u4e3b",
        "src": "http://d.duotuwang.com/2018/09/28/9759/0.jpg",
        "mtId": "8179d941dcc5135a",
        "mtName": "\u5fc3\u598d\u516c\u4e3b",
        "jgId": "xingyan",
        "jgName": "\u661f\u989c\u793e",
        "href": "http://d.duotuwang.com/2018/09/28/9759/",
        "count": 50,
        "start": 1,
        "hasMtTag": 1,
        "hasJgTag": 1,
        "mtCount": 11,
        "jgCount": 25
    }
]