[
    {
        "name": "[XINGYAN]\u661f\u989c\u793e VOL.032 \u59da\u6c90\u8fea",
        "src": "http://d.duotuwang.com/2018/03/05/8435/0.jpg",
        "jgId": "xingyan",
        "jgName": "\u661f\u989c\u793e",
        "href": "http://d.duotuwang.com/2018/03/05/8435/",
        "count": 40,
        "start": 1,
        "hasMtTag": 0,
        "hasJgTag": 1,
        "jgCount": 25
    },
    {
        "name": "[XINGYAN]\u661f\u989c\u793e VOL.031 \u6069\u4e00",
        "src": "http://d.duotuwang.com/2018/03/02/8441/0.jpg",
        "mtId": "bb2872fbcc8a8245",
        "mtName": "\u6069\u4e00",
        "jgId": "xingyan",
        "jgName": "\u661f\u989c\u793e",
        "href": "http://d.duotuwang.com/2018/03/02/8441/",
        "count": 42,
        "start": 1,
        "hasMtTag": 1,
        "hasJgTag": 1,
        "mtCount": 2,
        "jgCount": 25
    },
    {
        "name": "[XINGYAN]\u661f\u989c\u793e VOL.030 \u6e29\u8482",
        "src": "http://d.duotuwang.com/2018/03/01/8402/0.jpg",
        "jgId": "xingyan",
        "jgName": "\u661f\u989c\u793e",
        "href": "http://d.duotuwang.com/2018/03/01/8402/",
        "count": 40,
        "start": 1,
        "hasMtTag": 0,
        "hasJgTag": 1,
        "jgCount": 25
    },
    {
        "name": "[XINGYAN]\u661f\u989c\u793e VOL.029 \u68a6\u751c",
        "src": "http://d.duotuwang.com/2018/02/26/8417/0.jpg",
        "mtId": "9a0addfe58093bc5",
        "mtName": "\u68a6\u751c",
        "jgId": "xingyan",
        "jgName": "\u661f\u989c\u793e",
        "href": "http://d.duotuwang.com/2018/02/26/8417/",
        "count": 40,
        "start": 1,
        "hasMtTag": 1,
        "hasJgTag": 1,
        "mtCount": 1,
        "jgCount": 25
    },
    {
        "name": "[XINGYAN]\u661f\u989c\u793e VOL.028 \u5eff\u5341",
        "src": "http://d.duotuwang.com/2018/02/13/8256/0.jpg",
        "mtId": "1aaa50d9fb5e31ce",
        "mtName": "\u5eff\u5341",
        "jgId": "xingyan",
        "jgName": "\u661f\u989c\u793e",
        "href": "http://d.duotuwang.com/2018/02/13/8256/",
        "count": 40,
        "start": 1,
        "hasMtTag": 1,
        "hasJgTag": 1,
        "mtCount": 9,
        "jgCount": 25
    },
    {
        "name": "[XINGYAN]\u661f\u989c\u793e VOL.027 \u767d\u4e00\u6657",
        "src": "http://d.duotuwang.com/2018/02/09/8235/0.jpg",
        "mtId": "b6ad3f499e6a56fc",
        "mtName": "\u767d\u4e00\u6657",
        "jgId": "xingyan",
        "jgName": "\u661f\u989c\u793e",
        "href": "http://d.duotuwang.com/2018/02/09/8235/",
        "count": 40,
        "start": 1,
        "hasMtTag": 1,
        "hasJgTag": 1,
        "mtCount": 3,
        "jgCount": 25
    }
]