[
    {
        "name": "[XINGYAN]\u661f\u989c\u793e VOL.020 \u9646\u6893\u742a",
        "src": "http://d.duotuwang.com/2018/01/23/8178/0.jpg",
        "mtId": "21a5ee6f34591fc7",
        "mtName": "\u9646\u6893\u742a",
        "jgId": "xingyan",
        "jgName": "\u661f\u989c\u793e",
        "href": "http://d.duotuwang.com/2018/01/23/8178/",
        "count": 49,
        "start": 1,
        "hasMtTag": 1,
        "hasJgTag": 1,
        "mtCount": 2,
        "jgCount": 25
    },
    {
        "name": "[XINGYAN]\u661f\u989c\u793e VOL.019 \u59da\u6c90\u8fea",
        "src": "http://d.duotuwang.com/2018/01/19/8188/0.jpg",
        "jgId": "xingyan",
        "jgName": "\u661f\u989c\u793e",
        "href": "http://d.duotuwang.com/2018/01/19/8188/",
        "count": 40,
        "start": 1,
        "hasMtTag": 0,
        "hasJgTag": 1,
        "jgCount": 25
    },
    {
        "name": "[XINGYAN]\u661f\u989c\u793e VOL.018 makiyo\u82cf\u6735\u6735",
        "src": "http://d.duotuwang.com/2018/01/18/8193/0.jpg",
        "jgId": "xingyan",
        "jgName": "\u661f\u989c\u793e",
        "href": "http://d.duotuwang.com/2018/01/18/8193/",
        "count": 44,
        "start": 1,
        "hasMtTag": 0,
        "hasJgTag": 1,
        "jgCount": 25
    },
    {
        "name": "[XINGYAN]\u661f\u989c\u793e VOL.017 \u6069\u4e00",
        "src": "http://d.duotuwang.com/2018/01/17/8156/0.jpg",
        "mtId": "bb2872fbcc8a8245",
        "mtName": "\u6069\u4e00",
        "jgId": "xingyan",
        "jgName": "\u661f\u989c\u793e",
        "href": "http://d.duotuwang.com/2018/01/17/8156/",
        "count": 43,
        "start": 1,
        "hasMtTag": 1,
        "hasJgTag": 1,
        "mtCount": 2,
        "jgCount": 25
    },
    {
        "name": "[XINGYAN]\u661f\u989c\u793e VOL.016 \u5eff\u5341",
        "src": "http://d.duotuwang.com/2018/01/15/8164/0.jpg",
        "mtId": "1aaa50d9fb5e31ce",
        "mtName": "\u5eff\u5341",
        "jgId": "xingyan",
        "jgName": "\u661f\u989c\u793e",
        "href": "http://d.duotuwang.com/2018/01/15/8164/",
        "count": 41,
        "start": 1,
        "hasMtTag": 1,
        "hasJgTag": 1,
        "mtCount": 9,
        "jgCount": 25
    },
    {
        "name": "[XINGYAN]\u661f\u989c\u793e VOL.015 \u5b59\u68a6\u7476V",
        "src": "http://d.duotuwang.com/2018/01/12/8170/0.jpg",
        "mtId": "555d525a22aa2df3",
        "mtName": "\u5b59\u68a6\u7476V",
        "jgId": "xingyan",
        "jgName": "\u661f\u989c\u793e",
        "href": "http://d.duotuwang.com/2018/01/12/8170/",
        "count": 50,
        "start": 1,
        "hasMtTag": 1,
        "hasJgTag": 1,
        "mtCount": 7,
        "jgCount": 25
    }
]