[
    {
        "name": "[HuaYang]\u82b1\u6f3eshow VOL.435 \u5c0f\u6d77\u81c0Rena",
        "src": "http://d.duotuwang.com/2021/08/05/26068/0.jpg",
        "mtId": "4bd8157768956e31",
        "mtName": "\u5c0f\u6d77\u81c0Rena",
        "jgId": "huayang",
        "jgName": "\u82b1\u6f3eshow",
        "href": "http://d.duotuwang.com/2021/08/05/26068/",
        "count": 44,
        "start": 1,
        "hasMtTag": 1,
        "hasJgTag": 1,
        "mtCount": 8,
        "jgCount": 86
    },
    {
        "name": "[HuaYang]\u82b1\u6f3eshow VOL.434 \u738b\u96e8\u7eaf",
        "src": "http://d.duotuwang.com/2021/08/04/26067/0.jpg",
        "mtId": "6a5d00e535915ee5",
        "mtName": "\u738b\u96e8\u7eaf",
        "jgId": "huayang",
        "jgName": "\u82b1\u6f3eshow",
        "href": "http://d.duotuwang.com/2021/08/04/26067/",
        "count": 50,
        "start": 1,
        "hasMtTag": 1,
        "hasJgTag": 1,
        "mtCount": 60,
        "jgCount": 86
    },
    {
        "name": "[HuaYang]\u82b1\u6f3eshow VOL.433 \u5141\u723e",
        "src": "http://d.duotuwang.com/2021/08/03/26066/0.jpg",
        "mtId": "abc6f05a1bc00c01",
        "mtName": "\u5141\u723e",
        "jgId": "huayang",
        "jgName": "\u82b1\u6f3eshow",
        "href": "http://d.duotuwang.com/2021/08/03/26066/",
        "count": 49,
        "start": 1,
        "hasMtTag": 1,
        "hasJgTag": 1,
        "mtCount": 18,
        "jgCount": 86
    },
    {
        "name": "[HuaYang]\u82b1\u6f3eshow VOL.432 \u738b\u96e8\u7eaf",
        "src": "http://d.duotuwang.com/2021/07/30/26065/0.jpg",
        "mtId": "6a5d00e535915ee5",
        "mtName": "\u738b\u96e8\u7eaf",
        "jgId": "huayang",
        "jgName": "\u82b1\u6f3eshow",
        "href": "http://d.duotuwang.com/2021/07/30/26065/",
        "count": 52,
        "start": 1,
        "hasMtTag": 1,
        "hasJgTag": 1,
        "mtCount": 60,
        "jgCount": 86
    },
    {
        "name": "[HuaYang]\u82b1\u6f3eshow VOL.431 \u7530\u51b0\u51b0",
        "src": "http://d.duotuwang.com/2021/07/28/25943/0.jpg",
        "mtId": "eca68a85ce6ec415",
        "mtName": "\u7530\u51b0\u51b0",
        "jgId": "huayang",
        "jgName": "\u82b1\u6f3eshow",
        "href": "http://d.duotuwang.com/2021/07/28/25943/",
        "count": 50,
        "start": 1,
        "hasMtTag": 1,
        "hasJgTag": 1,
        "mtCount": 10,
        "jgCount": 86
    },
    {
        "name": "[HuaYang]\u82b1\u6f3eshow VOL.430 \u73a5\u513f\u73a5er",
        "src": "http://d.duotuwang.com/2021/07/23/25942/0.jpg",
        "mtId": "b46b8da68451464e",
        "mtName": "\u73a5\u513f\u73a5er",
        "jgId": "huayang",
        "jgName": "\u82b1\u6f3eshow",
        "href": "http://d.duotuwang.com/2021/07/23/25942/",
        "count": 51,
        "start": 1,
        "hasMtTag": 1,
        "hasJgTag": 1,
        "mtCount": 10,
        "jgCount": 86
    }
]