[
    {
        "name": "[HuaYang]\u82b1\u6f3eshow VOL.332 \u5f90\u5b89\u5b89",
        "src": "http://d.duotuwang.com/2020/12/02/23368/0.jpg",
        "mtId": "ffe5e0d0bba79203",
        "mtName": "\u5f90\u5b89\u5b89",
        "jgId": "huayang",
        "jgName": "\u82b1\u6f3eshow",
        "href": "http://d.duotuwang.com/2020/12/02/23368/",
        "count": 51,
        "start": 1,
        "hasMtTag": 1,
        "hasJgTag": 1,
        "mtCount": 9,
        "jgCount": 86
    },
    {
        "name": "[HuaYang]\u82b1\u6f3eshow VOL.331 \u679c\u513fVictoria",
        "src": "http://d.duotuwang.com/2020/11/30/23367/0.jpg",
        "mtId": "fc1868c8a652655f",
        "mtName": "\u679c\u513fVictoria",
        "jgId": "huayang",
        "jgName": "\u82b1\u6f3eshow",
        "href": "http://d.duotuwang.com/2020/11/30/23367/",
        "count": 54,
        "start": 1,
        "hasMtTag": 1,
        "hasJgTag": 1,
        "mtCount": 29,
        "jgCount": 86
    },
    {
        "name": "[HuaYang]\u82b1\u6f3eshow VOL.330 \u738b\u96e8\u7eaf 1/2",
        "src": "http://d.duotuwang.com/2020/11/27/23309/0.jpg",
        "mtId": "6a5d00e535915ee5",
        "mtName": "\u738b\u96e8\u7eaf",
        "jgId": "huayang",
        "jgName": "\u82b1\u6f3eshow",
        "href": "http://d.duotuwang.com/2020/11/27/23309/",
        "count": 51,
        "start": 1,
        "hasMtTag": 1,
        "hasJgTag": 1,
        "mtCount": 60,
        "jgCount": 86
    },
    {
        "name": "[HuaYang]\u82b1\u6f3eshow VOL.330 \u738b\u96e8\u7eaf 2/2",
        "src": "http://d.duotuwang.com/2020/11/27/23346/0.jpg",
        "mtId": "6a5d00e535915ee5",
        "mtName": "\u738b\u96e8\u7eaf",
        "jgId": "huayang",
        "jgName": "\u82b1\u6f3eshow",
        "href": "http://d.duotuwang.com/2020/11/27/23346/",
        "count": 51,
        "start": 52,
        "hasMtTag": 1,
        "hasJgTag": 1,
        "mtCount": 60,
        "jgCount": 86
    },
    {
        "name": "[HuaYang]\u82b1\u6f3eshow VOL.329 Egg-\u5c24\u59ae\u4e1dEgg",
        "src": "http://d.duotuwang.com/2020/11/26/23308/0.jpg",
        "mtId": "ad6ceea13469d7db",
        "mtName": "Egg-\u5c24\u59ae\u4e1d",
        "jgId": "huayang",
        "jgName": "\u82b1\u6f3eshow",
        "href": "http://d.duotuwang.com/2020/11/26/23308/",
        "count": 51,
        "start": 1,
        "hasMtTag": 1,
        "hasJgTag": 1,
        "mtCount": 29,
        "jgCount": 86
    },
    {
        "name": "[HuaYang]\u82b1\u6f3eshow VOL.328 \u9648\u4e00\u6db5",
        "src": "http://d.duotuwang.com/2020/11/25/23307/0.jpg",
        "mtId": "6e41d7329ecf02e8",
        "mtName": "\u9648\u4e00\u6db5",
        "jgId": "huayang",
        "jgName": "\u82b1\u6f3eshow",
        "href": "http://d.duotuwang.com/2020/11/25/23307/",
        "count": 51,
        "start": 1,
        "hasMtTag": 1,
        "hasJgTag": 1,
        "mtCount": 2,
        "jgCount": 86
    }
]