[
    {
        "name": "[HuaYang]\u82b1\u6f3eshow VOL.267 \u59dd\u59dd\u59b9\u59b9",
        "src": "http://d.duotuwang.com/2020/08/04/21414/0.jpg",
        "mtId": "6897bd5c6c9cb22d",
        "mtName": "\u59dd\u59dd\u59b9\u59b9",
        "jgId": "huayang",
        "jgName": "\u82b1\u6f3eshow",
        "href": "http://d.duotuwang.com/2020/08/04/21414/",
        "count": 44,
        "start": 1,
        "hasMtTag": 1,
        "hasJgTag": 1,
        "mtCount": 2,
        "jgCount": 86
    },
    {
        "name": "[HuaYang]\u82b1\u6f3eshow VOL.266 Egg-\u5c24\u59ae\u4e1dEgg",
        "src": "http://d.duotuwang.com/2020/07/31/21413/0.jpg",
        "mtId": "ad6ceea13469d7db",
        "mtName": "Egg-\u5c24\u59ae\u4e1d",
        "jgId": "huayang",
        "jgName": "\u82b1\u6f3eshow",
        "href": "http://d.duotuwang.com/2020/07/31/21413/",
        "count": 64,
        "start": 1,
        "hasMtTag": 1,
        "hasJgTag": 1,
        "mtCount": 29,
        "jgCount": 86
    },
    {
        "name": "[HuaYang]\u82b1\u6f3eshow VOL.265 \u6731\u53ef\u513fFlower",
        "src": "http://d.duotuwang.com/2020/07/30/21412/0.jpg",
        "mtId": "6ded6be4a79e57ac",
        "mtName": "\u6731\u53ef\u513fFlower",
        "jgId": "huayang",
        "jgName": "\u82b1\u6f3eshow",
        "href": "http://d.duotuwang.com/2020/07/30/21412/",
        "count": 60,
        "start": 1,
        "hasMtTag": 1,
        "hasJgTag": 1,
        "mtCount": 38,
        "jgCount": 86
    },
    {
        "name": "[HuaYang]\u82b1\u6f3eshow VOL.264 \u738b\u96e8\u7eaf",
        "src": "http://d.duotuwang.com/2020/07/29/21411/0.jpg",
        "mtId": "6a5d00e535915ee5",
        "mtName": "\u738b\u96e8\u7eaf",
        "jgId": "huayang",
        "jgName": "\u82b1\u6f3eshow",
        "href": "http://d.duotuwang.com/2020/07/29/21411/",
        "count": 67,
        "start": 1,
        "hasMtTag": 1,
        "hasJgTag": 1,
        "mtCount": 60,
        "jgCount": 86
    },
    {
        "name": "[HuaYang]\u82b1\u6f3eshow VOL.263 \u6b27\u9633LuLu",
        "src": "http://d.duotuwang.com/2020/07/27/21326/0.jpg",
        "mtId": "e59c7fd1980124b1",
        "mtName": "\u6b27\u9633LuLu",
        "jgId": "huayang",
        "jgName": "\u82b1\u6f3eshow",
        "href": "http://d.duotuwang.com/2020/07/27/21326/",
        "count": 41,
        "start": 1,
        "hasMtTag": 1,
        "hasJgTag": 1,
        "mtCount": 1,
        "jgCount": 86
    },
    {
        "name": "[HuaYang]\u82b1\u6f3eshow VOL.262 \u5a1c\u9732Selena",
        "src": "http://d.duotuwang.com/2020/07/24/21325/0.jpg",
        "mtId": "8dbbd724a3a06b9e",
        "mtName": "\u5a1c\u9732Selena",
        "jgId": "huayang",
        "jgName": "\u82b1\u6f3eshow",
        "href": "http://d.duotuwang.com/2020/07/24/21325/",
        "count": 64,
        "start": 1,
        "hasMtTag": 1,
        "hasJgTag": 1,
        "mtCount": 9,
        "jgCount": 86
    }
]