[
    {
        "name": "[HuaYang]\u82b1\u6f3eshow VOL.155 \u68a6\u5fc3\u6708",
        "src": "http://d.duotuwang.com/2019/07/11/17126/0.jpg",
        "mtId": "845a90943c4d1633",
        "mtName": "\u68a6\u5fc3\u6708",
        "jgId": "huayang",
        "jgName": "\u82b1\u6f3eshow",
        "href": "http://d.duotuwang.com/2019/07/11/17126/",
        "count": 60,
        "start": 1,
        "hasMtTag": 1,
        "hasJgTag": 1,
        "mtCount": 35,
        "jgCount": 86
    },
    {
        "name": "[HuaYang]\u82b1\u6f3eshow VOL.154 \u7b71\u6167",
        "src": "http://d.duotuwang.com/2019/07/10/17134/0.jpg",
        "mtId": "c739b89a0b9c02a0",
        "mtName": "\u7b71\u6167",
        "jgId": "huayang",
        "jgName": "\u82b1\u6f3eshow",
        "href": "http://d.duotuwang.com/2019/07/10/17134/",
        "count": 43,
        "start": 1,
        "hasMtTag": 1,
        "hasJgTag": 1,
        "mtCount": 17,
        "jgCount": 86
    },
    {
        "name": "[HuaYang]\u82b1\u6f3eshow VOL.153 \u68a6\u5fc3\u6708",
        "src": "http://d.duotuwang.com/2019/07/05/17033/0.jpg",
        "mtId": "845a90943c4d1633",
        "mtName": "\u68a6\u5fc3\u6708",
        "jgId": "huayang",
        "jgName": "\u82b1\u6f3eshow",
        "href": "http://d.duotuwang.com/2019/07/05/17033/",
        "count": 81,
        "start": 1,
        "hasMtTag": 1,
        "hasJgTag": 1,
        "mtCount": 35,
        "jgCount": 86
    },
    {
        "name": "[HuaYang]\u82b1\u6f3eshow VOL.152 Emily\u987e\u5948\u5948\u9171",
        "src": "http://d.duotuwang.com/2019/07/04/17040/0.jpg",
        "mtId": "eaa19160eb9a4e36",
        "mtName": "Emily\u987e\u5948\u5948\u9171",
        "jgId": "huayang",
        "jgName": "\u82b1\u6f3eshow",
        "href": "http://d.duotuwang.com/2019/07/04/17040/",
        "count": 51,
        "start": 1,
        "hasMtTag": 1,
        "hasJgTag": 1,
        "mtCount": 22,
        "jgCount": 86
    },
    {
        "name": "[HuaYang]\u82b1\u6f3eshow VOL.151 \u5f20\u96e8\u840c",
        "src": "http://d.duotuwang.com/2019/07/03/17050/0.jpg",
        "mtId": "f3366c5dc0e9677b",
        "mtName": "\u5f20\u96e8\u840c",
        "jgId": "huayang",
        "jgName": "\u82b1\u6f3eshow",
        "href": "http://d.duotuwang.com/2019/07/03/17050/",
        "count": 40,
        "start": 1,
        "hasMtTag": 1,
        "hasJgTag": 1,
        "mtCount": 10,
        "jgCount": 86
    },
    {
        "name": "[HuaYang]\u82b1\u6f3eshow VOL.150 \u5468\u4e8e\u5e0cSandy",
        "src": "http://d.duotuwang.com/2019/06/21/16912/0.jpg",
        "mtId": "de6bdb42ece2255f",
        "mtName": "\u5468\u4e8e\u5e0c",
        "jgId": "huayang",
        "jgName": "\u82b1\u6f3eshow",
        "href": "http://d.duotuwang.com/2019/06/21/16912/",
        "count": 70,
        "start": 1,
        "hasMtTag": 1,
        "hasJgTag": 1,
        "mtCount": 59,
        "jgCount": 86
    }
]