[
    {
        "name": "[HuaYang]\u82b1\u6f3eshow VOL.131 \u6613\u9633Silvia",
        "src": "http://d.duotuwang.com/2019/04/17/16105/0.jpg",
        "mtId": "ed0ba549510c68da",
        "mtName": "\u6613\u9633",
        "jgId": "huayang",
        "jgName": "\u82b1\u6f3eshow",
        "href": "http://d.duotuwang.com/2019/04/17/16105/",
        "count": 44,
        "start": 1,
        "hasMtTag": 1,
        "hasJgTag": 1,
        "mtCount": 10,
        "jgCount": 86
    },
    {
        "name": "[HuaYang]\u82b1\u6f3eshow VOL.130 \u738b\u96e8\u7eaf",
        "src": "http://d.duotuwang.com/2019/04/12/16017/0.jpg",
        "mtId": "6a5d00e535915ee5",
        "mtName": "\u738b\u96e8\u7eaf",
        "jgId": "huayang",
        "jgName": "\u82b1\u6f3eshow",
        "href": "http://d.duotuwang.com/2019/04/12/16017/",
        "count": 46,
        "start": 1,
        "hasMtTag": 1,
        "hasJgTag": 1,
        "mtCount": 60,
        "jgCount": 86
    },
    {
        "name": "[HuaYang]\u82b1\u6f3eshow VOL.129 \u59b2\u5df1_Toxic",
        "src": "http://d.duotuwang.com/2019/04/11/16024/0.jpg",
        "mtId": "3c8b93e37672f106",
        "mtName": "\u59b2\u5df1_Toxic",
        "jgId": "huayang",
        "jgName": "\u82b1\u6f3eshow",
        "href": "http://d.duotuwang.com/2019/04/11/16024/",
        "count": 45,
        "start": 1,
        "hasMtTag": 1,
        "hasJgTag": 1,
        "mtCount": 21,
        "jgCount": 86
    },
    {
        "name": "[HuaYang]\u82b1\u6f3eshow VOL.128 \u6613\u9633Silvia",
        "src": "http://d.duotuwang.com/2019/04/04/15860/0.jpg",
        "mtId": "ed0ba549510c68da",
        "mtName": "\u6613\u9633",
        "jgId": "huayang",
        "jgName": "\u82b1\u6f3eshow",
        "href": "http://d.duotuwang.com/2019/04/04/15860/",
        "count": 47,
        "start": 1,
        "hasMtTag": 1,
        "hasJgTag": 1,
        "mtCount": 10,
        "jgCount": 86
    },
    {
        "name": "[HuaYang]\u82b1\u6f3eshow VOL.127 \u5468\u4e8e\u5e0cSandy",
        "src": "http://d.duotuwang.com/2019/04/03/15868/0.jpg",
        "mtId": "de6bdb42ece2255f",
        "mtName": "\u5468\u4e8e\u5e0c",
        "jgId": "huayang",
        "jgName": "\u82b1\u6f3eshow",
        "href": "http://d.duotuwang.com/2019/04/03/15868/",
        "count": 42,
        "start": 1,
        "hasMtTag": 1,
        "hasJgTag": 1,
        "mtCount": 59,
        "jgCount": 86
    },
    {
        "name": "[HuaYang]\u82b1\u6f3eshow VOL.126 SOLO-\u5c39\u83f2",
        "src": "http://d.duotuwang.com/2019/04/01/15876/0.jpg",
        "mtId": "eaa19160eb9a4e36",
        "mtName": "SOLO-\u5c39\u83f2",
        "jgId": "huayang",
        "jgName": "\u82b1\u6f3eshow",
        "href": "http://d.duotuwang.com/2019/04/01/15876/",
        "count": 40,
        "start": 1,
        "hasMtTag": 1,
        "hasJgTag": 1,
        "mtCount": 22,
        "jgCount": 86
    }
]