[
    {
        "name": "[HuaYang]\u82b1\u6f3eshow VOL.089 \u5468\u4e8e\u5e0c",
        "src": "http://d.duotuwang.com/2018/10/12/9781/0.jpg",
        "mtId": "de6bdb42ece2255f",
        "mtName": "\u5468\u4e8e\u5e0c",
        "jgId": "huayang",
        "jgName": "\u82b1\u6f3eshow",
        "href": "http://d.duotuwang.com/2018/10/12/9781/",
        "count": 42,
        "start": 1,
        "hasMtTag": 1,
        "hasJgTag": 1,
        "mtCount": 59,
        "jgCount": 86
    },
    {
        "name": "[HuaYang]\u82b1\u6f3eshow VOL.088 \u674e\u53ef\u53ef",
        "src": "http://d.duotuwang.com/2018/10/11/9787/0.jpg",
        "mtId": "96518f0e72ae0445",
        "mtName": "\u674e\u53ef\u53ef",
        "jgId": "huayang",
        "jgName": "\u82b1\u6f3eshow",
        "href": "http://d.duotuwang.com/2018/10/11/9787/",
        "count": 44,
        "start": 1,
        "hasMtTag": 1,
        "hasJgTag": 1,
        "mtCount": 5,
        "jgCount": 86
    },
    {
        "name": "[HuaYang]\u82b1\u6f3eshow VOL.087 \u9ec4\u697d\u7136",
        "src": "http://d.duotuwang.com/2018/09/30/9744/0.jpg",
        "mtId": "ed4d676610a0b9e3",
        "mtName": "\u9ec4\u697d\u7136",
        "jgId": "huayang",
        "jgName": "\u82b1\u6f3eshow",
        "href": "http://d.duotuwang.com/2018/09/30/9744/",
        "count": 100,
        "start": 1,
        "hasMtTag": 1,
        "hasJgTag": 1,
        "mtCount": 17,
        "jgCount": 86
    },
    {
        "name": "[HuaYang]\u82b1\u6f3eshow VOL.086 \u6613\u9633Silvia",
        "src": "http://d.duotuwang.com/2018/09/29/9749/0.jpg",
        "mtId": "ed0ba549510c68da",
        "mtName": "\u6613\u9633",
        "jgId": "huayang",
        "jgName": "\u82b1\u6f3eshow",
        "href": "http://d.duotuwang.com/2018/09/29/9749/",
        "count": 44,
        "start": 1,
        "hasMtTag": 1,
        "hasJgTag": 1,
        "mtCount": 10,
        "jgCount": 86
    },
    {
        "name": "[HuaYang]\u82b1\u6f3eshow VOL.085 \u6a21\u7279_\u537f\u537f",
        "src": "http://d.duotuwang.com/2018/09/26/9740/0.jpg",
        "mtId": "91f345cfdb81a7f6",
        "mtName": "\u6a21\u7279_\u537f\u537f",
        "jgId": "huayang",
        "jgName": "\u82b1\u6f3eshow",
        "href": "http://d.duotuwang.com/2018/09/26/9740/",
        "count": 45,
        "start": 1,
        "hasMtTag": 1,
        "hasJgTag": 1,
        "mtCount": 2,
        "jgCount": 86
    },
    {
        "name": "[HuaYang]\u82b1\u6f3eshow VOL.084 \u738b\u96e8\u7eaf",
        "src": "http://d.duotuwang.com/2018/09/22/9717/0.jpg",
        "mtId": "6a5d00e535915ee5",
        "mtName": "\u738b\u96e8\u7eaf",
        "jgId": "huayang",
        "jgName": "\u82b1\u6f3eshow",
        "href": "http://d.duotuwang.com/2018/09/22/9717/",
        "count": 50,
        "start": 1,
        "hasMtTag": 1,
        "hasJgTag": 1,
        "mtCount": 60,
        "jgCount": 86
    }
]