[
    {
        "name": "[XIUREN]\u79c0\u4eba\u7f51 No.2077 \u5948\u6c50\u9171nice",
        "src": "http://d.duotuwang.com/2020/03/19/19930/0.jpg",
        "mtId": "651a5c9d68fae57d",
        "mtName": "\u5948\u6c50\u9171nice",
        "jgId": "xiuren",
        "jgName": "\u79c0\u4eba\u7f51",
        "href": "http://d.duotuwang.com/2020/03/19/19930/",
        "count": 47,
        "start": 1,
        "hasMtTag": 1,
        "hasJgTag": 1,
        "mtCount": 1,
        "jgCount": 750
    }
]