[
    {
        "name": "[XIUREN]\u79c0\u4eba\u7f51 No.1832 \u6797\u6587\u6587yooki",
        "src": "http://d.duotuwang.com/2019/12/09/18877/0.jpg",
        "mtId": "4eba90c841ec7445",
        "mtName": "\u6797\u6587\u6587yooki",
        "jgId": "xiuren",
        "jgName": "\u79c0\u4eba\u7f51",
        "href": "http://d.duotuwang.com/2019/12/09/18877/",
        "count": 63,
        "start": 1,
        "hasMtTag": 1,
        "hasJgTag": 1,
        "mtCount": 5,
        "jgCount": 750
    }
]