[
    {
        "name": "[XIUREN]\u79c0\u4eba\u7f51 No.4541 \u6c50\u6c50baby 1/2",
        "src": "http://d.duotuwang.com/2022/01/30/28430/0.jpg",
        "mtId": "c5e50fb0a4ebbc43",
        "mtName": "\u6c50\u6c50baby",
        "jgId": "xiuren",
        "jgName": "\u79c0\u4eba\u7f51",
        "href": "http://d.duotuwang.com/2022/01/30/28430/",
        "count": 50,
        "start": 1,
        "hasMtTag": 1,
        "hasJgTag": 1,
        "mtCount": 10,
        "jgCount": 750
    },
    {
        "name": "[XIUREN]\u79c0\u4eba\u7f51 No.4411 \u6c50\u6c50baby",
        "src": "http://d.duotuwang.com/2021/12/31/28015/0.jpg",
        "mtId": "c5e50fb0a4ebbc43",
        "mtName": "\u6c50\u6c50baby",
        "jgId": "xiuren",
        "jgName": "\u79c0\u4eba\u7f51",
        "href": "http://d.duotuwang.com/2021/12/31/28015/",
        "count": 100,
        "start": 3,
        "hasMtTag": 1,
        "hasJgTag": 1,
        "mtCount": 10,
        "jgCount": 750
    },
    {
        "name": "[XIUREN]\u79c0\u4eba\u7f51 No.4380 \u6c50\u6c50baby",
        "src": "http://d.duotuwang.com/2021/12/24/27935/0.jpg",
        "mtId": "c5e50fb0a4ebbc43",
        "mtName": "\u6c50\u6c50baby",
        "jgId": "xiuren",
        "jgName": "\u79c0\u4eba\u7f51",
        "href": "http://d.duotuwang.com/2021/12/24/27935/",
        "count": 51,
        "start": 1,
        "hasMtTag": 1,
        "hasJgTag": 1,
        "mtCount": 10,
        "jgCount": 750
    },
    {
        "name": "[XIUREN]\u79c0\u4eba\u7f51 No.4350 \u5468\u6155\u6c50baby",
        "src": "http://d.duotuwang.com/2021/12/17/27827/0.jpg",
        "mtId": "c5e50fb0a4ebbc43",
        "mtName": "\u5468\u6155\u6c50fairy",
        "jgId": "xiuren",
        "jgName": "\u79c0\u4eba\u7f51",
        "href": "http://d.duotuwang.com/2021/12/17/27827/",
        "count": 67,
        "start": 1,
        "hasMtTag": 1,
        "hasJgTag": 1,
        "mtCount": 10,
        "jgCount": 750
    },
    {
        "name": "[XIUREN]\u79c0\u4eba\u7f51 No.4294 \u5468\u6155\u6c50baby",
        "src": "http://d.duotuwang.com/2021/12/03/27675/0.jpg",
        "mtId": "c5e50fb0a4ebbc43",
        "mtName": "\u5468\u6155\u6c50fairy",
        "jgId": "xiuren",
        "jgName": "\u79c0\u4eba\u7f51",
        "href": "http://d.duotuwang.com/2021/12/03/27675/",
        "count": 79,
        "start": 1,
        "hasMtTag": 1,
        "hasJgTag": 1,
        "mtCount": 10,
        "jgCount": 750
    },
    {
        "name": "[XIUREN]\u79c0\u4eba\u7f51 No.4271 \u5468\u6155\u6c50baby",
        "src": "http://d.duotuwang.com/2021/11/26/27556/0.jpg",
        "mtId": "c5e50fb0a4ebbc43",
        "mtName": "\u5468\u6155\u6c50fairy",
        "jgId": "xiuren",
        "jgName": "\u79c0\u4eba\u7f51",
        "href": "http://d.duotuwang.com/2021/11/26/27556/",
        "count": 68,
        "start": 1,
        "hasMtTag": 1,
        "hasJgTag": 1,
        "mtCount": 10,
        "jgCount": 750
    }
]