[
    {
        "name": "[XIUREN]\u79c0\u4eba\u7f51 No.3232 \u5468\u6155\u6c50baby",
        "src": "http://d.duotuwang.com/2021/03/23/24498/0.jpg",
        "mtId": "c5e50fb0a4ebbc43",
        "mtName": "\u5468\u6155\u6c50fairy",
        "jgId": "xiuren",
        "jgName": "\u79c0\u4eba\u7f51",
        "href": "http://d.duotuwang.com/2021/03/23/24498/",
        "count": 87,
        "start": 1,
        "hasMtTag": 1,
        "hasJgTag": 1,
        "mtCount": 10,
        "jgCount": 750
    },
    {
        "name": "[XIUREN]\u79c0\u4eba\u7f51 No.3199 \u5468\u6155\u6c50baby",
        "src": "http://d.duotuwang.com/2021/03/15/24465/0.jpg",
        "mtId": "c5e50fb0a4ebbc43",
        "mtName": "\u5468\u6155\u6c50fairy",
        "jgId": "xiuren",
        "jgName": "\u79c0\u4eba\u7f51",
        "href": "http://d.duotuwang.com/2021/03/15/24465/",
        "count": 56,
        "start": 1,
        "hasMtTag": 1,
        "hasJgTag": 1,
        "mtCount": 10,
        "jgCount": 750
    },
    {
        "name": "[XIUREN]\u79c0\u4eba\u7f51 No.3132 \u5468\u6155\u6c50baby",
        "src": "http://d.duotuwang.com/2021/02/24/24308/0.jpg",
        "mtId": "c5e50fb0a4ebbc43",
        "mtName": "\u5468\u6155\u6c50fairy",
        "jgId": "xiuren",
        "jgName": "\u79c0\u4eba\u7f51",
        "href": "http://d.duotuwang.com/2021/02/24/24308/",
        "count": 66,
        "start": 1,
        "hasMtTag": 1,
        "hasJgTag": 1,
        "mtCount": 10,
        "jgCount": 750
    },
    {
        "name": "[XIUREN]\u79c0\u4eba\u7f51 No.3053 \u5468\u6155\u6c50baby",
        "src": "http://d.duotuwang.com/2021/01/28/24058/0.jpg",
        "mtId": "c5e50fb0a4ebbc43",
        "mtName": "\u5468\u6155\u6c50fairy",
        "jgId": "xiuren",
        "jgName": "\u79c0\u4eba\u7f51",
        "href": "http://d.duotuwang.com/2021/01/28/24058/",
        "count": 86,
        "start": 1,
        "hasMtTag": 1,
        "hasJgTag": 1,
        "mtCount": 10,
        "jgCount": 750
    },
    {
        "name": "[XIUREN]\u79c0\u4eba\u7f51 No.2999 \u5468\u6155\u6c50baby",
        "src": "http://d.duotuwang.com/2021/01/13/23868/0.jpg",
        "mtId": "c5e50fb0a4ebbc43",
        "mtName": "\u5468\u6155\u6c50fairy",
        "jgId": "xiuren",
        "jgName": "\u79c0\u4eba\u7f51",
        "href": "http://d.duotuwang.com/2021/01/13/23868/",
        "count": 67,
        "start": 1,
        "hasMtTag": 1,
        "hasJgTag": 1,
        "mtCount": 10,
        "jgCount": 750
    },
    {
        "name": "[XIUREN]\u79c0\u4eba\u7f51 No.2929 \u5468\u6155\u6c50baby",
        "src": "http://d.duotuwang.com/2020/12/23/23630/0.jpg",
        "mtId": "c5e50fb0a4ebbc43",
        "mtName": "\u5468\u6155\u6c50fairy",
        "jgId": "xiuren",
        "jgName": "\u79c0\u4eba\u7f51",
        "href": "http://d.duotuwang.com/2020/12/23/23630/",
        "count": 55,
        "start": 1,
        "hasMtTag": 1,
        "hasJgTag": 1,
        "mtCount": 10,
        "jgCount": 750
    }
]