[
    {
        "name": "[XIUREN]\u79c0\u4eba\u7f51 No.207 \u9ea6\u742a\u7eeb\u51b0\u6fc0\u6dcb",
        "src": "http://d.duotuwang.com/2014/08/21/535/0.jpg",
        "mtId": "99e62c8d59753f93",
        "mtName": "\u9ea6\u742a\u7eeb\u51b0\u6fc0\u6dcb",
        "jgId": "xiuren",
        "jgName": "\u79c0\u4eba\u7f51",
        "href": "http://d.duotuwang.com/2014/08/21/535/",
        "count": 58,
        "start": 1,
        "hasMtTag": 1,
        "hasJgTag": 1,
        "mtCount": 1,
        "jgCount": 750
    }
]