[
    {
        "name": "[YOUMI]\u5c24\u871c\u835f VOL.126 \u59b2\u5df1_Toxic",
        "src": "http://d.duotuwang.com/2018/02/27/8412/0.jpg",
        "mtId": "3c8b93e37672f106",
        "mtName": "\u59b2\u5df1_Toxic",
        "jgId": "youmi",
        "jgName": "\u5c24\u871c\u835f",
        "href": "http://d.duotuwang.com/2018/02/27/8412/",
        "count": 50,
        "start": 1,
        "hasMtTag": 1,
        "hasJgTag": 1,
        "mtCount": 21,
        "jgCount": 143
    },
    {
        "name": "[YOUMI]\u5c24\u871c\u835f VOL.119 \u59b2\u5df1_Toxic",
        "src": "http://d.duotuwang.com/2018/02/07/8243/0.jpg",
        "mtId": "3c8b93e37672f106",
        "mtName": "\u59b2\u5df1_Toxic",
        "jgId": "youmi",
        "jgName": "\u5c24\u871c\u835f",
        "href": "http://d.duotuwang.com/2018/02/07/8243/",
        "count": 46,
        "start": 1,
        "hasMtTag": 1,
        "hasJgTag": 1,
        "mtCount": 21,
        "jgCount": 143
    },
    {
        "name": "[YOUMI]\u5c24\u871c\u835f VOL.094 \u59b2\u5df1_Toxic",
        "src": "http://d.duotuwang.com/2017/12/12/6699/0.jpg",
        "mtId": "3c8b93e37672f106",
        "mtName": "\u59b2\u5df1_Toxic",
        "jgId": "youmi",
        "jgName": "\u5c24\u871c\u835f",
        "href": "http://d.duotuwang.com/2017/12/12/6699/",
        "count": 53,
        "start": 1,
        "hasMtTag": 1,
        "hasJgTag": 1,
        "mtCount": 21,
        "jgCount": 143
    },
    {
        "name": "[YOUMI]\u5c24\u871c\u835f VOL.090 \u59b2\u5df1_Toxic",
        "src": "http://d.duotuwang.com/2017/11/29/6660/0.jpg",
        "mtId": "3c8b93e37672f106",
        "mtName": "\u59b2\u5df1_Toxic",
        "jgId": "youmi",
        "jgName": "\u5c24\u871c\u835f",
        "href": "http://d.duotuwang.com/2017/11/29/6660/",
        "count": 52,
        "start": 1,
        "hasMtTag": 1,
        "hasJgTag": 1,
        "mtCount": 21,
        "jgCount": 143
    },
    {
        "name": "[XIUREN]\u79c0\u4eba\u7f51 No.859 \u59b2\u5df1_Toxic",
        "src": "http://d.duotuwang.com/2017/11/29/6414/0.jpg",
        "mtId": "3c8b93e37672f106",
        "mtName": "\u59b2\u5df1_Toxic",
        "jgId": "xiuren",
        "jgName": "\u79c0\u4eba\u7f51",
        "href": "http://d.duotuwang.com/2017/11/29/6414/",
        "count": 53,
        "start": 1,
        "hasMtTag": 1,
        "hasJgTag": 1,
        "mtCount": 21,
        "jgCount": 750
    },
    {
        "name": "[YOUMI]\u5c24\u871c\u835f VOL.083 \u59b2\u5df1_Toxic",
        "src": "http://d.duotuwang.com/2017/11/11/6376/0.jpg",
        "mtId": "3c8b93e37672f106",
        "mtName": "\u59b2\u5df1_Toxic",
        "jgId": "youmi",
        "jgName": "\u5c24\u871c\u835f",
        "href": "http://d.duotuwang.com/2017/11/11/6376/",
        "count": 40,
        "start": 1,
        "hasMtTag": 1,
        "hasJgTag": 1,
        "mtCount": 21,
        "jgCount": 143
    }
]