[
    {
        "name": "[XIUREN]\u79c0\u4eba\u7f51 No.608 \u59b2\u5df1_Toxic",
        "src": "http://d.duotuwang.com/2016/10/05/1729/0.jpg",
        "mtId": "3c8b93e37672f106",
        "mtName": "\u59b2\u5df1_Toxic",
        "jgId": "xiuren",
        "jgName": "\u79c0\u4eba\u7f51",
        "href": "http://d.duotuwang.com/2016/10/05/1729/",
        "count": 49,
        "start": 1,
        "hasMtTag": 1,
        "hasJgTag": 1,
        "mtCount": 21,
        "jgCount": 750
    },
    {
        "name": "[TGod]\u63a8\u5973\u795e 2016-09-09 \u59b2\u5df1",
        "src": "http://d.duotuwang.com/2016/09/09/2665/0.jpg",
        "mtId": "3c8b93e37672f106",
        "mtName": "\u59b2\u5df1",
        "jgId": "tgod",
        "jgName": "\u63a8\u5973\u795e",
        "href": "http://d.duotuwang.com/2016/09/09/2665/",
        "count": 46,
        "start": 1,
        "hasMtTag": 1,
        "hasJgTag": 1,
        "mtCount": 21,
        "jgCount": 78
    },
    {
        "name": "[TGod]\u63a8\u5973\u795e 2016-06-10 \u67e0\u6aacc_lemon",
        "src": "http://d.duotuwang.com/2016/06/10/2594/0.jpg",
        "mtId": "3c8b93e37672f106",
        "mtName": "\u67e0\u6aacc_lemon",
        "jgId": "tgod",
        "jgName": "\u63a8\u5973\u795e",
        "href": "http://d.duotuwang.com/2016/06/10/2594/",
        "count": 52,
        "start": 1,
        "hasMtTag": 1,
        "hasJgTag": 1,
        "mtCount": 21,
        "jgCount": 78
    },
    {
        "name": "[TGod]\u63a8\u5973\u795e 2016-04-13 \u67e0\u6aacc_lemon",
        "src": "http://d.duotuwang.com/2016/04/13/2549/0.jpg",
        "mtId": "3c8b93e37672f106",
        "mtName": "\u67e0\u6aacc_lemon",
        "jgId": "tgod",
        "jgName": "\u63a8\u5973\u795e",
        "href": "http://d.duotuwang.com/2016/04/13/2549/",
        "count": 67,
        "start": 1,
        "hasMtTag": 1,
        "hasJgTag": 1,
        "mtCount": 21,
        "jgCount": 78
    }
]