[
    {
        "name": "[YOUMI]\u5c24\u871c\u835f VOL.462 \u59b2\u5df1_Toxic",
        "src": "http://d.duotuwang.com/2020/04/29/20408/0.jpg",
        "mtId": "3c8b93e37672f106",
        "mtName": "\u59b2\u5df1_Toxic",
        "jgId": "youmi",
        "jgName": "\u5c24\u871c\u835f",
        "href": "http://d.duotuwang.com/2020/04/29/20408/",
        "count": 46,
        "start": 1,
        "hasMtTag": 1,
        "hasJgTag": 1,
        "mtCount": 21,
        "jgCount": 143
    },
    {
        "name": "[YOUMI]\u5c24\u871c\u835f VOL.456 \u59b2\u5df1_Toxic",
        "src": "http://d.duotuwang.com/2020/04/20/20311/0.jpg",
        "mtId": "3c8b93e37672f106",
        "mtName": "\u59b2\u5df1_Toxic",
        "jgId": "youmi",
        "jgName": "\u5c24\u871c\u835f",
        "href": "http://d.duotuwang.com/2020/04/20/20311/",
        "count": 50,
        "start": 1,
        "hasMtTag": 1,
        "hasJgTag": 1,
        "mtCount": 21,
        "jgCount": 143
    },
    {
        "name": "[YOUMI]\u5c24\u871c\u835f VOL.454 \u59b2\u5df1_Toxic",
        "src": "http://d.duotuwang.com/2020/04/16/20296/0.jpg",
        "mtId": "3c8b93e37672f106",
        "mtName": "\u59b2\u5df1_Toxic",
        "jgId": "youmi",
        "jgName": "\u5c24\u871c\u835f",
        "href": "http://d.duotuwang.com/2020/04/16/20296/",
        "count": 93,
        "start": 1,
        "hasMtTag": 1,
        "hasJgTag": 1,
        "mtCount": 21,
        "jgCount": 143
    },
    {
        "name": "[YOUMI]\u5c24\u871c\u835f VOL.449 \u59b2\u5df1_Toxic",
        "src": "http://d.duotuwang.com/2020/04/08/20159/0.jpg",
        "mtId": "3c8b93e37672f106",
        "mtName": "\u59b2\u5df1_Toxic",
        "jgId": "youmi",
        "jgName": "\u5c24\u871c\u835f",
        "href": "http://d.duotuwang.com/2020/04/08/20159/",
        "count": 47,
        "start": 1,
        "hasMtTag": 1,
        "hasJgTag": 1,
        "mtCount": 21,
        "jgCount": 143
    },
    {
        "name": "[YOUMI]\u5c24\u871c\u835f VOL.444 \u59b2\u5df1_Toxic",
        "src": "http://d.duotuwang.com/2020/03/31/20103/0.jpg",
        "mtId": "3c8b93e37672f106",
        "mtName": "\u59b2\u5df1_Toxic",
        "jgId": "youmi",
        "jgName": "\u5c24\u871c\u835f",
        "href": "http://d.duotuwang.com/2020/03/31/20103/",
        "count": 58,
        "start": 1,
        "hasMtTag": 1,
        "hasJgTag": 1,
        "mtCount": 21,
        "jgCount": 143
    },
    {
        "name": "[XIUREN]\u79c0\u4eba\u7f51 No.2104 \u59b2\u5df1_Toxic",
        "src": "http://d.duotuwang.com/2020/03/26/20022/0.jpg",
        "mtId": "3c8b93e37672f106",
        "mtName": "\u59b2\u5df1_Toxic",
        "jgId": "xiuren",
        "jgName": "\u79c0\u4eba\u7f51",
        "href": "http://d.duotuwang.com/2020/03/26/20022/",
        "count": 44,
        "start": 1,
        "hasMtTag": 1,
        "hasJgTag": 1,
        "mtCount": 21,
        "jgCount": 750
    }
]