[
    {
        "name": "[XIUREN]\u79c0\u4eba\u7f51 No.754 \u7c73\u7231Demon",
        "src": "http://d.duotuwang.com/2017/05/15/3998/0.jpg",
        "mtId": "bedf423215ec799c",
        "mtName": "\u7c73\u7231Demon",
        "jgId": "xiuren",
        "jgName": "\u79c0\u4eba\u7f51",
        "href": "http://d.duotuwang.com/2017/05/15/3998/",
        "count": 50,
        "start": 1,
        "hasMtTag": 1,
        "hasJgTag": 1,
        "mtCount": 1,
        "jgCount": 750
    },
    {
        "name": "[XIUREN]\u79c0\u4eba\u7f51 No.744 \u7c73\u7231Demon",
        "src": "http://d.duotuwang.com/2017/04/26/3817/0.jpg",
        "mtId": "bedf423215ec799c",
        "mtName": "\u7c73\u7231Demon",
        "jgId": "xiuren",
        "jgName": "\u79c0\u4eba\u7f51",
        "href": "http://d.duotuwang.com/2017/04/26/3817/",
        "count": 61,
        "start": 1,
        "hasMtTag": 1,
        "hasJgTag": 1,
        "mtCount": 1,
        "jgCount": 750
    }
]