[
    {
        "name": "[UGirls]\u5c24\u679c\u7f51 U375 Mina",
        "src": "http://d.duotuwang.com/2018/06/13/9140/0.jpg",
        "jgId": "ugirls",
        "jgName": "\u5c24\u679c\u7f51",
        "href": "http://d.duotuwang.com/2018/06/13/9140/",
        "count": 65,
        "start": 1,
        "hasMtTag": 0,
        "hasJgTag": 1,
        "jgCount": 79
    },
    {
        "name": "[UGirls]\u5c24\u679c\u7f51 U374 \u5468\u4e8e\u5e0c",
        "src": "http://d.duotuwang.com/2018/06/08/9111/0.jpg",
        "mtId": "de6bdb42ece2255f",
        "mtName": "\u5468\u4e8e\u5e0c",
        "jgId": "ugirls",
        "jgName": "\u5c24\u679c\u7f51",
        "href": "http://d.duotuwang.com/2018/06/08/9111/",
        "count": 65,
        "start": 1,
        "hasMtTag": 1,
        "hasJgTag": 1,
        "mtCount": 59,
        "jgCount": 79
    },
    {
        "name": "[UGirls]\u5c24\u679c\u7f51 U373 \u675c\u82b1\u82b1",
        "src": "http://d.duotuwang.com/2018/06/06/9087/0.jpg",
        "mtId": "f9c4a855daaf23c4",
        "mtName": "\u675c\u82b1\u82b1",
        "jgId": "ugirls",
        "jgName": "\u5c24\u679c\u7f51",
        "href": "http://d.duotuwang.com/2018/06/06/9087/",
        "count": 65,
        "start": 1,
        "hasMtTag": 1,
        "hasJgTag": 1,
        "mtCount": 2,
        "jgCount": 79
    },
    {
        "name": "[UGirls]\u5c24\u679c\u7f51 U372 \u674e\u8389\u8389",
        "src": "http://d.duotuwang.com/2018/06/01/8892/0.jpg",
        "mtId": "35281e9daed23ddb",
        "mtName": "\u674e\u8389\u8389",
        "jgId": "ugirls",
        "jgName": "\u5c24\u679c\u7f51",
        "href": "http://d.duotuwang.com/2018/06/01/8892/",
        "count": 65,
        "start": 1,
        "hasMtTag": 1,
        "hasJgTag": 1,
        "mtCount": 1,
        "jgCount": 79
    },
    {
        "name": "[UGirls]\u5c24\u679c\u7f51 U371 \u9648\u4e00",
        "src": "http://d.duotuwang.com/2018/05/30/8893/0.jpg",
        "jgId": "ugirls",
        "jgName": "\u5c24\u679c\u7f51",
        "href": "http://d.duotuwang.com/2018/05/30/8893/",
        "count": 57,
        "start": 1,
        "hasMtTag": 0,
        "hasJgTag": 1,
        "jgCount": 79
    },
    {
        "name": "[UGirls]\u5c24\u679c\u7f51 U370 \u674e\u53ef",
        "src": "http://d.duotuwang.com/2018/05/25/8885/0.jpg",
        "jgId": "ugirls",
        "jgName": "\u5c24\u679c\u7f51",
        "href": "http://d.duotuwang.com/2018/05/25/8885/",
        "count": 65,
        "start": 1,
        "hasMtTag": 0,
        "hasJgTag": 1,
        "jgCount": 79
    }
]