[
    {
        "name": "[UGirls]\u5c24\u679c\u7f51 U346 \u674e\u6613\u7ae5",
        "src": "http://d.duotuwang.com/2018/02/28/8307/0.jpg",
        "jgId": "ugirls",
        "jgName": "\u5c24\u679c\u7f51",
        "href": "http://d.duotuwang.com/2018/02/28/8307/",
        "count": 65,
        "start": 1,
        "hasMtTag": 0,
        "hasJgTag": 1,
        "jgCount": 79
    },
    {
        "name": "[UGirls]\u5c24\u679c\u7f51 U345 \u97e9\u6069\u7199",
        "src": "http://d.duotuwang.com/2018/02/24/8294/0.jpg",
        "mtId": "70e29c37b06acf52",
        "mtName": "\u97e9\u6069\u7199",
        "jgId": "ugirls",
        "jgName": "\u5c24\u679c\u7f51",
        "href": "http://d.duotuwang.com/2018/02/24/8294/",
        "count": 65,
        "start": 1,
        "hasMtTag": 1,
        "hasJgTag": 1,
        "mtCount": 6,
        "jgCount": 79
    },
    {
        "name": "[UGirls]\u5c24\u679c\u7f51 U344 \u4e54\u4f9d\u7433",
        "src": "http://d.duotuwang.com/2018/02/11/8275/0.jpg",
        "jgId": "ugirls",
        "jgName": "\u5c24\u679c\u7f51",
        "href": "http://d.duotuwang.com/2018/02/11/8275/",
        "count": 65,
        "start": 1,
        "hasMtTag": 0,
        "hasJgTag": 1,
        "jgCount": 79
    },
    {
        "name": "[UGirls]\u5c24\u679c\u7f51 T031 \u5e74\u5e74\u5c24\u679c",
        "src": "http://d.duotuwang.com/2018/02/11/8276/0.jpg",
        "mtId": "e4d09316d8a9d330",
        "mtName": "\u5c0f\u742a",
        "jgId": "ugirls",
        "jgName": "\u5c24\u679c\u7f51",
        "href": "http://d.duotuwang.com/2018/02/11/8276/",
        "count": 65,
        "start": 1,
        "hasMtTag": 1,
        "hasJgTag": 1,
        "mtCount": 26,
        "jgCount": 79
    },
    {
        "name": "[UGirls]\u5c24\u679c\u7f51 T030 \u5355\u8eab\u60c5\u4eba\u8282",
        "src": "http://d.duotuwang.com/2018/02/10/8104/0.jpg",
        "mtId": "92316d0e0bb84801",
        "mtName": "\u6817\u5b50",
        "jgId": "ugirls",
        "jgName": "\u5c24\u679c\u7f51",
        "href": "http://d.duotuwang.com/2018/02/10/8104/",
        "count": 65,
        "start": 1,
        "hasMtTag": 1,
        "hasJgTag": 1,
        "mtCount": 5,
        "jgCount": 79
    },
    {
        "name": "[UGirls]\u5c24\u679c\u7f51 U343 \u666f\u601d\u6674",
        "src": "http://d.duotuwang.com/2018/02/09/8105/0.jpg",
        "jgId": "ugirls",
        "jgName": "\u5c24\u679c\u7f51",
        "href": "http://d.duotuwang.com/2018/02/09/8105/",
        "count": 65,
        "start": 1,
        "hasMtTag": 0,
        "hasJgTag": 1,
        "jgCount": 79
    }
]