[
    {
        "name": "[UGirls]\u5c24\u679c\u7f51 U416 \u6817\u5b50",
        "src": "http://d.duotuwang.com/2019/02/28/10785/0.jpg",
        "mtId": "92316d0e0bb84801",
        "mtName": "\u6817\u5b50",
        "jgId": "ugirls",
        "jgName": "\u5c24\u679c\u7f51",
        "href": "http://d.duotuwang.com/2019/02/28/10785/",
        "count": 65,
        "start": 1,
        "hasMtTag": 1,
        "hasJgTag": 1,
        "mtCount": 5,
        "jgCount": 79
    },
    {
        "name": "[UGirls]\u5c24\u679c\u7f51 U414 \u7a0b\u745c\u897f&\u5b59\u5609\u742a \u5c24\u4e50\u65f6\u523b",
        "src": "http://d.duotuwang.com/2019/02/14/10557/0.jpg",
        "mtId": "0dd544c545b6a224",
        "mtName": "\u7a0b\u745c\u897f",
        "jgId": "ugirls",
        "jgName": "\u5c24\u679c\u7f51",
        "href": "http://d.duotuwang.com/2019/02/14/10557/",
        "count": 65,
        "start": 1,
        "hasMtTag": 1,
        "hasJgTag": 1,
        "mtCount": 2,
        "jgCount": 79
    },
    {
        "name": "[UGirls]\u5c24\u679c\u7f51 U415 \u53ef\u6b23 \u7231\u795e\u4e0e\u60c5\u4eba",
        "src": "http://d.duotuwang.com/2019/02/14/10786/0.jpg",
        "jgId": "ugirls",
        "jgName": "\u5c24\u679c\u7f51",
        "href": "http://d.duotuwang.com/2019/02/14/10786/",
        "count": 65,
        "start": 1,
        "hasMtTag": 0,
        "hasJgTag": 1,
        "jgCount": 79
    },
    {
        "name": "[UGirls]\u5c24\u679c\u7f51 U413 \u6843\u5b50",
        "src": "http://d.duotuwang.com/2019/01/30/10414/0.jpg",
        "mtId": "e8bdd57dac229910",
        "mtName": "\u6843\u5b50",
        "jgId": "ugirls",
        "jgName": "\u5c24\u679c\u7f51",
        "href": "http://d.duotuwang.com/2019/01/30/10414/",
        "count": 65,
        "start": 1,
        "hasMtTag": 1,
        "hasJgTag": 1,
        "mtCount": 2,
        "jgCount": 79
    },
    {
        "name": "[UGirls]\u5c24\u679c\u7f51 U412 \u767d\u4e00\u6657",
        "src": "http://d.duotuwang.com/2019/01/24/10359/0.jpg",
        "mtId": "b6ad3f499e6a56fc",
        "mtName": "\u767d\u4e00\u6657",
        "jgId": "ugirls",
        "jgName": "\u5c24\u679c\u7f51",
        "href": "http://d.duotuwang.com/2019/01/24/10359/",
        "count": 65,
        "start": 1,
        "hasMtTag": 1,
        "hasJgTag": 1,
        "mtCount": 3,
        "jgCount": 79
    },
    {
        "name": "[UGirls]\u5c24\u679c\u7f51 T039 Let s Love",
        "src": "http://d.duotuwang.com/2019/01/17/10350/0.jpg",
        "mtId": "fd925a404fd7d11d",
        "mtName": "\u989c\u989c",
        "jgId": "ugirls",
        "jgName": "\u5c24\u679c\u7f51",
        "href": "http://d.duotuwang.com/2019/01/17/10350/",
        "count": 61,
        "start": 1,
        "hasMtTag": 1,
        "hasJgTag": 1,
        "mtCount": 1,
        "jgCount": 79
    }
]