[
    {
        "name": "[UGirls]\u5c24\u679c\u7f51 U170 Enjoy",
        "src": "http://d.duotuwang.com/2016/04/15/3179/0.jpg",
        "mtId": "e9be46a3f7c43d3a",
        "mtName": "Enjoy",
        "jgId": "ugirls",
        "jgName": "\u5c24\u679c\u7f51",
        "href": "http://d.duotuwang.com/2016/04/15/3179/",
        "count": 65,
        "start": 1,
        "hasMtTag": 1,
        "hasJgTag": 1,
        "mtCount": 1,
        "jgCount": 79
    },
    {
        "name": "[UGirls]\u5c24\u679c\u7f51 U169 \u7985\u673azankii",
        "src": "http://d.duotuwang.com/2016/04/13/3180/0.jpg",
        "mtId": "67b84c9243c74c01",
        "mtName": "\u7985\u53fdzankii",
        "jgId": "ugirls",
        "jgName": "\u5c24\u679c\u7f51",
        "href": "http://d.duotuwang.com/2016/04/13/3180/",
        "count": 65,
        "start": 1,
        "hasMtTag": 1,
        "hasJgTag": 1,
        "mtCount": 1,
        "jgCount": 79
    },
    {
        "name": "[UGirls]\u5c24\u679c\u7f51 U168 \u6768\u4f69",
        "src": "http://d.duotuwang.com/2016/04/08/3181/0.jpg",
        "mtId": "a38d910f57a8bd81",
        "mtName": "\u6768\u4f69",
        "jgId": "ugirls",
        "jgName": "\u5c24\u679c\u7f51",
        "href": "http://d.duotuwang.com/2016/04/08/3181/",
        "count": 66,
        "start": 1,
        "hasMtTag": 1,
        "hasJgTag": 1,
        "mtCount": 1,
        "jgCount": 79
    },
    {
        "name": "[UGirls]\u5c24\u679c\u7f51 U167 \u738b\u745e\u513f",
        "src": "http://d.duotuwang.com/2016/04/06/3182/0.jpg",
        "mtId": "881e65ab37cd17fa",
        "mtName": "\u738b\u745e\u513f",
        "jgId": "ugirls",
        "jgName": "\u5c24\u679c\u7f51",
        "href": "http://d.duotuwang.com/2016/04/06/3182/",
        "count": 66,
        "start": 1,
        "hasMtTag": 1,
        "hasJgTag": 1,
        "mtCount": 2,
        "jgCount": 79
    },
    {
        "name": "[UGirls]\u5c24\u679c\u7f51 U166 \u53f6\u5e0c",
        "src": "http://d.duotuwang.com/2016/04/01/3183/0.jpg",
        "mtId": "d3834c2bf8f9db0b",
        "mtName": "\u53f6\u5e0c",
        "jgId": "ugirls",
        "jgName": "\u5c24\u679c\u7f51",
        "href": "http://d.duotuwang.com/2016/04/01/3183/",
        "count": 65,
        "start": 1,
        "hasMtTag": 1,
        "hasJgTag": 1,
        "mtCount": 1,
        "jgCount": 79
    },
    {
        "name": "[UGirls]\u5c24\u679c\u7f51 U165 \u53f6\u8d6b\u90a3\u62c9\u4fe1\u60a6",
        "src": "http://d.duotuwang.com/2016/03/30/3184/0.jpg",
        "mtId": "b6b45d889b85b972",
        "mtName": "\u53f6\u8d6b\u90a3\u62c9\u4fe1\u60a6",
        "jgId": "ugirls",
        "jgName": "\u5c24\u679c\u7f51",
        "href": "http://d.duotuwang.com/2016/03/30/3184/",
        "count": 65,
        "start": 1,
        "hasMtTag": 1,
        "hasJgTag": 1,
        "mtCount": 1,
        "jgCount": 79
    }
]