[
    {
        "name": "[UGirls]\u5c24\u679c\u7f51 U133 vivi",
        "src": "http://d.duotuwang.com/2015/11/18/3140/0.jpg",
        "mtId": "f1d80b40a0160f0a",
        "mtName": "vivi",
        "jgId": "ugirls",
        "jgName": "\u5c24\u679c\u7f51",
        "href": "http://d.duotuwang.com/2015/11/18/3140/",
        "count": 65,
        "start": 1,
        "hasMtTag": 1,
        "hasJgTag": 1,
        "mtCount": 1,
        "jgCount": 79
    },
    {
        "name": "[UGirls]\u5c24\u679c\u7f51 U132 \u8bb8\u6587\u5a77",
        "src": "http://d.duotuwang.com/2015/11/13/3141/0.jpg",
        "mtId": "887296a82352fa26",
        "mtName": "\u8bb8\u6587\u5a77",
        "jgId": "ugirls",
        "jgName": "\u5c24\u679c\u7f51",
        "href": "http://d.duotuwang.com/2015/11/13/3141/",
        "count": 65,
        "start": 1,
        "hasMtTag": 1,
        "hasJgTag": 1,
        "mtCount": 2,
        "jgCount": 79
    },
    {
        "name": "[UGirls]\u5c24\u679c\u7f51 U131 \u66fc\u66fc \u9648\u96c5\u6f2b",
        "src": "http://d.duotuwang.com/2015/11/10/3142/0.jpg",
        "mtId": "6bd2ad886173cf46",
        "mtName": "\u9648\u96c5\u6f2b",
        "jgId": "ugirls",
        "jgName": "\u5c24\u679c\u7f51",
        "href": "http://d.duotuwang.com/2015/11/10/3142/",
        "count": 65,
        "start": 1,
        "hasMtTag": 1,
        "hasJgTag": 1,
        "mtCount": 3,
        "jgCount": 79
    },
    {
        "name": "[UGirls]\u5c24\u679c\u7f51 U130 \u738b\u96e8\u7eaf",
        "src": "http://d.duotuwang.com/2015/11/04/3143/0.jpg",
        "mtId": "6a5d00e535915ee5",
        "mtName": "\u738b\u96e8\u7eaf",
        "jgId": "ugirls",
        "jgName": "\u5c24\u679c\u7f51",
        "href": "http://d.duotuwang.com/2015/11/04/3143/",
        "count": 65,
        "start": 1,
        "hasMtTag": 1,
        "hasJgTag": 1,
        "mtCount": 60,
        "jgCount": 79
    },
    {
        "name": "[UGirls]\u5c24\u679c\u7f51 U129 \u9648\u5b9d\u62c9",
        "src": "http://d.duotuwang.com/2015/10/30/3144/0.jpg",
        "mtId": "6642538b20f89f26",
        "mtName": "\u9648\u5b9d\u62c9",
        "jgId": "ugirls",
        "jgName": "\u5c24\u679c\u7f51",
        "href": "http://d.duotuwang.com/2015/10/30/3144/",
        "count": 65,
        "start": 1,
        "hasMtTag": 1,
        "hasJgTag": 1,
        "mtCount": 2,
        "jgCount": 79
    },
    {
        "name": "[UGirls]\u5c24\u679c\u7f51 U128 \u738b\u745e\u513f",
        "src": "http://d.duotuwang.com/2015/10/28/3145/0.jpg",
        "mtId": "881e65ab37cd17fa",
        "mtName": "\u738b\u745e\u513f",
        "jgId": "ugirls",
        "jgName": "\u5c24\u679c\u7f51",
        "href": "http://d.duotuwang.com/2015/10/28/3145/",
        "count": 65,
        "start": 1,
        "hasMtTag": 1,
        "hasJgTag": 1,
        "mtCount": 2,
        "jgCount": 79
    }
]