[
    {
        "name": "[UGirls]\u5c24\u679c\u7f51 U105 \u7f8e\u7199",
        "src": "http://d.duotuwang.com/2015/07/24/3108/0.jpg",
        "mtId": "c3d00722ba50db02",
        "mtName": "\u7f8e\u7199",
        "jgId": "ugirls",
        "jgName": "\u5c24\u679c\u7f51",
        "href": "http://d.duotuwang.com/2015/07/24/3108/",
        "count": 65,
        "start": 1,
        "hasMtTag": 1,
        "hasJgTag": 1,
        "mtCount": 3,
        "jgCount": 79
    },
    {
        "name": "[UGirls]\u5c24\u679c\u7f51 U104 COCO",
        "src": "http://d.duotuwang.com/2015/07/22/3109/0.jpg",
        "mtId": "dfc960bdf3bb2c75",
        "mtName": "coco",
        "jgId": "ugirls",
        "jgName": "\u5c24\u679c\u7f51",
        "href": "http://d.duotuwang.com/2015/07/22/3109/",
        "count": 66,
        "start": 1,
        "hasMtTag": 1,
        "hasJgTag": 1,
        "mtCount": 1,
        "jgCount": 79
    },
    {
        "name": "[UGirls]\u5c24\u679c\u7f51 U103 \u9f50\u8d1d\u8d1d",
        "src": "http://d.duotuwang.com/2015/07/17/3110/0.jpg",
        "mtId": "dd7f2a07b692be31",
        "mtName": "\u9f50\u8d1d\u8d1d",
        "jgId": "ugirls",
        "jgName": "\u5c24\u679c\u7f51",
        "href": "http://d.duotuwang.com/2015/07/17/3110/",
        "count": 65,
        "start": 1,
        "hasMtTag": 1,
        "hasJgTag": 1,
        "mtCount": 1,
        "jgCount": 79
    },
    {
        "name": "[UGirls]\u5c24\u679c\u7f51 U102 \u7b11\u7b11",
        "src": "http://d.duotuwang.com/2015/07/15/3111/0.jpg",
        "mtId": "b9ba0a11832784e5",
        "mtName": "\u7b11\u7b11",
        "jgId": "ugirls",
        "jgName": "\u5c24\u679c\u7f51",
        "href": "http://d.duotuwang.com/2015/07/15/3111/",
        "count": 65,
        "start": 1,
        "hasMtTag": 1,
        "hasJgTag": 1,
        "mtCount": 2,
        "jgCount": 79
    },
    {
        "name": "[UGirls]\u5c24\u679c\u7f51 U101 \u738b\u8bed\u7eaf",
        "src": "http://d.duotuwang.com/2015/07/10/3112/0.jpg",
        "mtId": "6a5d00e535915ee5",
        "mtName": "\u738b\u96e8\u7eaf",
        "jgId": "ugirls",
        "jgName": "\u5c24\u679c\u7f51",
        "href": "http://d.duotuwang.com/2015/07/10/3112/",
        "count": 65,
        "start": 1,
        "hasMtTag": 1,
        "hasJgTag": 1,
        "mtCount": 60,
        "jgCount": 79
    },
    {
        "name": "[UGirls]\u5c24\u679c\u7f51 U100 Alin",
        "src": "http://d.duotuwang.com/2015/07/08/3113/0.jpg",
        "mtId": "f38ac5f4e754e965",
        "mtName": "Alin",
        "jgId": "ugirls",
        "jgName": "\u5c24\u679c\u7f51",
        "href": "http://d.duotuwang.com/2015/07/08/3113/",
        "count": 65,
        "start": 1,
        "hasMtTag": 1,
        "hasJgTag": 1,
        "mtCount": 1,
        "jgCount": 79
    }
]