[
    {
        "name": "[UGirls]\u5c24\u679c\u7f51 U077 \u5a1c\u4f9d\u7075\u513f",
        "src": "http://d.duotuwang.com/2015/04/10/3281/0.jpg",
        "mtId": "91d9c781fb3a24db",
        "mtName": "\u5a1c\u4f9d\u7075\u513f",
        "jgId": "ugirls",
        "jgName": "\u5c24\u679c\u7f51",
        "href": "http://d.duotuwang.com/2015/04/10/3281/",
        "count": 66,
        "start": 1,
        "hasMtTag": 1,
        "hasJgTag": 1,
        "mtCount": 5,
        "jgCount": 79
    },
    {
        "name": "[UGirls]\u5c24\u679c\u7f51 U076 \u68a6\u7476",
        "src": "http://d.duotuwang.com/2015/04/08/3077/0.jpg",
        "mtId": "a7df55e3f50628fb",
        "mtName": "\u68a6\u7476",
        "jgId": "ugirls",
        "jgName": "\u5c24\u679c\u7f51",
        "href": "http://d.duotuwang.com/2015/04/08/3077/",
        "count": 65,
        "start": 1,
        "hasMtTag": 1,
        "hasJgTag": 1,
        "mtCount": 1,
        "jgCount": 79
    },
    {
        "name": "[UGirls]\u5c24\u679c\u7f51 T008 \u767d\u8272\u60c5\u6b32",
        "src": "http://d.duotuwang.com/2015/04/03/3078/0.jpg",
        "mtId": "c3d00722ba50db02",
        "mtName": "\u7f8e\u7199",
        "jgId": "ugirls",
        "jgName": "\u5c24\u679c\u7f51",
        "href": "http://d.duotuwang.com/2015/04/03/3078/",
        "count": 67,
        "start": 1,
        "hasMtTag": 1,
        "hasJgTag": 1,
        "mtCount": 3,
        "jgCount": 79
    },
    {
        "name": "[UGirls]\u5c24\u679c\u7f51 U075 \u83ab\u96e8",
        "src": "http://d.duotuwang.com/2015/04/01/3079/0.jpg",
        "mtId": "2ba56978921ccfa4",
        "mtName": "\u83ab\u96e8",
        "jgId": "ugirls",
        "jgName": "\u5c24\u679c\u7f51",
        "href": "http://d.duotuwang.com/2015/04/01/3079/",
        "count": 63,
        "start": 1,
        "hasMtTag": 1,
        "hasJgTag": 1,
        "mtCount": 1,
        "jgCount": 79
    },
    {
        "name": "[UGirls]\u5c24\u679c\u7f51 U074 \u7814\u4f9d",
        "src": "http://d.duotuwang.com/2015/03/27/3080/0.jpg",
        "mtId": "2e5bd0ebf5f6809a",
        "mtName": "\u7814\u4f9d",
        "jgId": "ugirls",
        "jgName": "\u5c24\u679c\u7f51",
        "href": "http://d.duotuwang.com/2015/03/27/3080/",
        "count": 65,
        "start": 1,
        "hasMtTag": 1,
        "hasJgTag": 1,
        "mtCount": 1,
        "jgCount": 79
    },
    {
        "name": "[UGirls]\u5c24\u679c\u7f51 U073 \u738b\u745e\u513f",
        "src": "http://d.duotuwang.com/2015/03/25/3081/0.jpg",
        "mtId": "881e65ab37cd17fa",
        "mtName": "\u738b\u745e\u513f",
        "jgId": "ugirls",
        "jgName": "\u5c24\u679c\u7f51",
        "href": "http://d.duotuwang.com/2015/03/25/3081/",
        "count": 65,
        "start": 1,
        "hasMtTag": 1,
        "hasJgTag": 1,
        "mtCount": 2,
        "jgCount": 79
    }
]