[
    {
        "name": "[UGirls]\u5c24\u679c\u7f51 U053 \u5c0f\u53ef\u7231",
        "src": "http://d.duotuwang.com/2014/11/28/3065/0.jpg",
        "mtId": "df278a1a4dede662",
        "mtName": "\u5c0f\u53ef\u7231",
        "jgId": "ugirls",
        "jgName": "\u5c24\u679c\u7f51",
        "href": "http://d.duotuwang.com/2014/11/28/3065/",
        "count": 65,
        "start": 1,
        "hasMtTag": 1,
        "hasJgTag": 1,
        "mtCount": 1,
        "jgCount": 79
    },
    {
        "name": "[UGirls]\u5c24\u679c\u7f51 U052 \u6731\u8d62",
        "src": "http://d.duotuwang.com/2014/11/21/3066/0.jpg",
        "mtId": "87163f412cd52eaf",
        "mtName": "\u6731\u8d62",
        "jgId": "ugirls",
        "jgName": "\u5c24\u679c\u7f51",
        "href": "http://d.duotuwang.com/2014/11/21/3066/",
        "count": 35,
        "start": 1,
        "hasMtTag": 1,
        "hasJgTag": 1,
        "mtCount": 3,
        "jgCount": 79
    },
    {
        "name": "[UGirls]\u5c24\u679c\u7f51 F003 \u5b63\u8282",
        "src": "http://d.duotuwang.com/2014/11/07/3047/0.jpg",
        "mtId": "5d4f9e2e3ddfc4d2",
        "mtName": "\u5b63\u8282",
        "jgId": "ugirls",
        "jgName": "\u5c24\u679c\u7f51",
        "href": "http://d.duotuwang.com/2014/11/07/3047/",
        "count": 34,
        "start": 1,
        "hasMtTag": 1,
        "hasJgTag": 1,
        "mtCount": 1,
        "jgCount": 79
    },
    {
        "name": "[UGirls]\u5c24\u679c\u7f51 E051 \u91d1\u5b50\u7199",
        "src": "http://d.duotuwang.com/2014/10/31/3048/0.jpg",
        "mtId": "a65042b8f8912450",
        "mtName": "\u91d1\u5b50\u7199",
        "jgId": "ugirls",
        "jgName": "\u5c24\u679c\u7f51",
        "href": "http://d.duotuwang.com/2014/10/31/3048/",
        "count": 45,
        "start": 1,
        "hasMtTag": 1,
        "hasJgTag": 1,
        "mtCount": 2,
        "jgCount": 79
    },
    {
        "name": "[UGirls]\u5c24\u679c\u7f51 E050 Miko\u68a6\u9732",
        "src": "http://d.duotuwang.com/2014/10/29/3049/0.jpg",
        "mtId": "5864c434258103b6",
        "mtName": "Miko",
        "jgId": "ugirls",
        "jgName": "\u5c24\u679c\u7f51",
        "href": "http://d.duotuwang.com/2014/10/29/3049/",
        "count": 45,
        "start": 1,
        "hasMtTag": 1,
        "hasJgTag": 1,
        "mtCount": 2,
        "jgCount": 79
    },
    {
        "name": "[UGirls]\u5c24\u679c\u7f51 E049 \u7814\u4f9d",
        "src": "http://d.duotuwang.com/2014/10/24/3050/0.jpg",
        "mtId": "2e5bd0ebf5f6809a",
        "mtName": "\u7814\u4f9d",
        "jgId": "ugirls",
        "jgName": "\u5c24\u679c\u7f51",
        "href": "http://d.duotuwang.com/2014/10/24/3050/",
        "count": 36,
        "start": 1,
        "hasMtTag": 1,
        "hasJgTag": 1,
        "mtCount": 1,
        "jgCount": 79
    }
]