[
    {
        "name": "[UGirls]\u5c24\u679c\u7f51 E031 \u91d1\u5b50\u7199",
        "src": "http://d.duotuwang.com/2014/08/15/3027/0.jpg",
        "mtId": "a65042b8f8912450",
        "mtName": "\u91d1\u5b50\u7199",
        "jgId": "ugirls",
        "jgName": "\u5c24\u679c\u7f51",
        "href": "http://d.duotuwang.com/2014/08/15/3027/",
        "count": 33,
        "start": 1,
        "hasMtTag": 1,
        "hasJgTag": 1,
        "mtCount": 2,
        "jgCount": 79
    },
    {
        "name": "[UGirls]\u5c24\u679c\u7f51 E030 \u7fa4\u7fa4",
        "src": "http://d.duotuwang.com/2014/08/12/3028/0.jpg",
        "jgId": "ugirls",
        "jgName": "\u5c24\u679c\u7f51",
        "href": "http://d.duotuwang.com/2014/08/12/3028/",
        "count": 37,
        "start": 1,
        "hasMtTag": 0,
        "hasJgTag": 1,
        "jgCount": 79
    },
    {
        "name": "[UGirls]\u5c24\u679c\u7f51 E024 \u601d\u6db5",
        "src": "http://d.duotuwang.com/2014/08/08/3036/0.jpg",
        "jgId": "ugirls",
        "jgName": "\u5c24\u679c\u7f51",
        "href": "http://d.duotuwang.com/2014/08/08/3036/",
        "count": 74,
        "start": 1,
        "hasMtTag": 0,
        "hasJgTag": 1,
        "jgCount": 79
    },
    {
        "name": "[UGirls]\u5c24\u679c\u7f51 E029 \u5218\u7f8e\u8fb0",
        "src": "http://d.duotuwang.com/2014/08/05/3029/0.jpg",
        "mtId": "e036efe952c44ac7",
        "mtName": "\u5218\u7f8e\u8fb0",
        "jgId": "ugirls",
        "jgName": "\u5c24\u679c\u7f51",
        "href": "http://d.duotuwang.com/2014/08/05/3029/",
        "count": 35,
        "start": 1,
        "hasMtTag": 1,
        "hasJgTag": 1,
        "mtCount": 2,
        "jgCount": 79
    },
    {
        "name": "[UGirls]\u5c24\u679c\u7f51 E028 \u5c0f\u4e5d\u65e5\u65e5",
        "src": "http://d.duotuwang.com/2014/08/02/3030/0.jpg",
        "mtId": "e142e967ada37988",
        "mtName": "\u5c0f\u4e5d\u65e5\u65e5",
        "jgId": "ugirls",
        "jgName": "\u5c24\u679c\u7f51",
        "href": "http://d.duotuwang.com/2014/08/02/3030/",
        "count": 37,
        "start": 1,
        "hasMtTag": 1,
        "hasJgTag": 1,
        "mtCount": 1,
        "jgCount": 79
    },
    {
        "name": "[UGirls]\u5c24\u679c\u7f51 F001 Miko",
        "src": "http://d.duotuwang.com/2014/07/30/3031/0.jpg",
        "mtId": "5864c434258103b6",
        "mtName": "Miko",
        "jgId": "ugirls",
        "jgName": "\u5c24\u679c\u7f51",
        "href": "http://d.duotuwang.com/2014/07/30/3031/",
        "count": 35,
        "start": 1,
        "hasMtTag": 1,
        "hasJgTag": 1,
        "mtCount": 2,
        "jgCount": 79
    }
]