[
    {
        "name": "[BlueCake] HanJina Vol.04  - Maid Bunny",
        "src": "http://d.duotuwang.com/2021/08/11/30920/0.jpg",
        "mtId": "3db357fa0fdfaf2c",
        "mtName": "BlueCake",
        "href": "http://d.duotuwang.com/2021/08/11/30920/",
        "count": 73,
        "start": 1,
        "hasMtTag": 1,
        "hasJgTag": 0,
        "mtCount": 4
    }
]