[
    {
        "name": "[ARTGRAVIA] VOL.357 Maruemon 2/2",
        "src": "http://d.duotuwang.com/2021/11/27/29073/0.jpg",
        "mtId": "5a8e9e6eb477317d",
        "mtName": "Maruemon",
        "href": "http://d.duotuwang.com/2021/11/27/29073/",
        "count": 36,
        "start": 1,
        "hasMtTag": 1,
        "hasJgTag": 0,
        "mtCount": 4
    },
    {
        "name": "[ARTGRAVIA] VOL.357 Maruemon 1/2",
        "src": "http://d.duotuwang.com/2021/11/27/29072/0.jpg",
        "mtId": "5a8e9e6eb477317d",
        "mtName": "Maruemon",
        "href": "http://d.duotuwang.com/2021/11/27/29072/",
        "count": 49,
        "start": 1,
        "hasMtTag": 1,
        "hasJgTag": 0,
        "mtCount": 4
    },
    {
        "name": "[ARTGRAVIA] VOL.339 Maruemon 2/2",
        "src": "http://d.duotuwang.com/2021/11/08/29070/0.jpg",
        "mtId": "5a8e9e6eb477317d",
        "mtName": "Maruemon",
        "href": "http://d.duotuwang.com/2021/11/08/29070/",
        "count": 37,
        "start": 1,
        "hasMtTag": 1,
        "hasJgTag": 0,
        "mtCount": 4
    },
    {
        "name": "[ARTGRAVIA] VOL.339 Maruemon 1/2",
        "src": "http://d.duotuwang.com/2021/11/08/29069/0.jpg",
        "mtId": "5a8e9e6eb477317d",
        "mtName": "Maruemon",
        "href": "http://d.duotuwang.com/2021/11/08/29069/",
        "count": 49,
        "start": 1,
        "hasMtTag": 1,
        "hasJgTag": 0,
        "mtCount": 4
    },
    {
        "name": "[ARTGRAVIA] VOL.329 Maruemon 2/2",
        "src": "http://d.duotuwang.com/2021/10/05/29068/0.jpg",
        "mtId": "5a8e9e6eb477317d",
        "mtName": "Maruemon",
        "href": "http://d.duotuwang.com/2021/10/05/29068/",
        "count": 44,
        "start": 1,
        "hasMtTag": 1,
        "hasJgTag": 0,
        "mtCount": 4
    },
    {
        "name": "[ARTGRAVIA] VOL.329 Maruemon 1/2",
        "src": "http://d.duotuwang.com/2021/10/05/29067/0.jpg",
        "mtId": "5a8e9e6eb477317d",
        "mtName": "Maruemon",
        "href": "http://d.duotuwang.com/2021/10/05/29067/",
        "count": 42,
        "start": 1,
        "hasMtTag": 1,
        "hasJgTag": 0,
        "mtCount": 4
    }
]