[
    {
        "name": "[UGirls]\u5c24\u679c\u7f51 E009 \u82cf\u53ef\u53ef",
        "src": "http://d.duotuwang.com/2014/03/11/3014/0.jpg",
        "mtId": "cfe5289ac97bffe3",
        "mtName": "\u82cf\u53ef\u53ef",
        "jgId": "ugirls",
        "jgName": "\u5c24\u679c\u7f51",
        "href": "http://d.duotuwang.com/2014/03/11/3014/",
        "count": 63,
        "start": 1,
        "hasMtTag": 1,
        "hasJgTag": 1,
        "mtCount": 3,
        "jgCount": 79
    }
]