[
    {
        "name": "[MiiTao]\u871c\u6843\u793e VOL.136 \u5c0f\u9b54\u5973lily",
        "src": "http://d.duotuwang.com/2019/11/12/18588/0.jpg",
        "mtId": "85ac83a1cdc8c135",
        "mtName": "\u5c0f\u9b54\u5973lily",
        "jgId": "miitao",
        "jgName": "\u871c\u6843\u793e",
        "href": "http://d.duotuwang.com/2019/11/12/18588/",
        "count": 51,
        "start": 1,
        "hasMtTag": 1,
        "hasJgTag": 1,
        "mtCount": 1,
        "jgCount": 25
    }
]