[
    {
        "name": "[XIUREN]\u79c0\u4eba\u7f51 No.457 \u5609\u5609Tiffany-",
        "src": "http://d.duotuwang.com/2016/01/10/1214/0.jpg",
        "mtId": "5b0446f02a71bd83",
        "mtName": "\u5609\u5609Tiffany-",
        "jgId": "xiuren",
        "jgName": "\u79c0\u4eba\u7f51",
        "href": "http://d.duotuwang.com/2016/01/10/1214/",
        "count": 52,
        "start": 1,
        "hasMtTag": 1,
        "hasJgTag": 1,
        "mtCount": 2,
        "jgCount": 750
    },
    {
        "name": "[XIUREN]\u79c0\u4eba\u7f51 No.427 \u5609\u5609Tiffany-",
        "src": "http://d.duotuwang.com/2015/12/01/1126/0.jpg",
        "mtId": "5b0446f02a71bd83",
        "mtName": "\u5609\u5609Tiffany-",
        "jgId": "xiuren",
        "jgName": "\u79c0\u4eba\u7f51",
        "href": "http://d.duotuwang.com/2015/12/01/1126/",
        "count": 53,
        "start": 1,
        "hasMtTag": 1,
        "hasJgTag": 1,
        "mtCount": 2,
        "jgCount": 750
    },
    {
        "name": "[MiStar]\u9b45\u598d\u793e VOL.045 \u5609\u5609Tiffany-",
        "src": "http://d.duotuwang.com/2015/11/25/1099/0.jpg",
        "mtId": "5b0446f02a71bd83",
        "mtName": "\u5609\u5609Tiffany-",
        "jgId": "mistar",
        "jgName": "\u9b45\u598d\u793e",
        "href": "http://d.duotuwang.com/2015/11/25/1099/",
        "count": 50,
        "start": 1,
        "hasMtTag": 1,
        "hasJgTag": 1,
        "mtCount": 2,
        "jgCount": 55
    },
    {
        "name": "[MiStar]\u9b45\u598d\u793e VOL.041 \u5609\u5609Tiffany-",
        "src": "http://d.duotuwang.com/2015/10/31/1057/0.jpg",
        "mtId": "5b0446f02a71bd83",
        "mtName": "\u5609\u5609Tiffany-",
        "jgId": "mistar",
        "jgName": "\u9b45\u598d\u793e",
        "href": "http://d.duotuwang.com/2015/10/31/1057/",
        "count": 50,
        "start": 1,
        "hasMtTag": 1,
        "hasJgTag": 1,
        "mtCount": 2,
        "jgCount": 55
    },
    {
        "name": "[MiStar]\u9b45\u598d\u793e VOL.038 \u5609\u5609Tiffany-",
        "src": "http://d.duotuwang.com/2015/10/13/1026/0.jpg",
        "mtId": "5b0446f02a71bd83",
        "mtName": "\u5609\u5609Tiffany-",
        "jgId": "mistar",
        "jgName": "\u9b45\u598d\u793e",
        "href": "http://d.duotuwang.com/2015/10/13/1026/",
        "count": 60,
        "start": 1,
        "hasMtTag": 1,
        "hasJgTag": 1,
        "mtCount": 2,
        "jgCount": 55
    },
    {
        "name": "[MiStar]\u9b45\u598d\u793e VOL.036 \u5609\u5609Tiffany-",
        "src": "http://d.duotuwang.com/2015/10/07/1004/0.jpg",
        "mtId": "5b0446f02a71bd83",
        "mtName": "\u5609\u5609Tiffany-",
        "jgId": "mistar",
        "jgName": "\u9b45\u598d\u793e",
        "href": "http://d.duotuwang.com/2015/10/07/1004/",
        "count": 60,
        "start": 1,
        "hasMtTag": 1,
        "hasJgTag": 1,
        "mtCount": 2,
        "jgCount": 55
    }
]