[
    {
        "name": "[XIUREN]\u79c0\u4eba\u7f51 No.222 \u5468\u7f8e\u7f8erachel",
        "src": "http://d.duotuwang.com/2014/10/11/577/0.jpg",
        "mtId": "b7de670209218b12",
        "mtName": "\u5468\u7f8e\u7f8erachel",
        "jgId": "xiuren",
        "jgName": "\u79c0\u4eba\u7f51",
        "href": "http://d.duotuwang.com/2014/10/11/577/",
        "count": 64,
        "start": 1,
        "hasMtTag": 1,
        "hasJgTag": 1,
        "mtCount": 1,
        "jgCount": 750
    },
    {
        "name": "[XIUREN]\u79c0\u4eba\u7f51 No.112 \u5468\u7f8e\u7f8ealicia",
        "src": "http://d.duotuwang.com/2014/03/14/435/0.jpg",
        "mtId": "b7de670209218b12",
        "mtName": "\u5468\u7f8e\u7f8erachel",
        "jgId": "xiuren",
        "jgName": "\u79c0\u4eba\u7f51",
        "href": "http://d.duotuwang.com/2014/03/14/435/",
        "count": 45,
        "start": 1,
        "hasMtTag": 1,
        "hasJgTag": 1,
        "mtCount": 1,
        "jgCount": 750
    }
]