[
    {
        "name": "[FEILIN]\u55f2\u56e1\u56e1 VOL.047 \u5a1c\u4f9d\u7075\u513f",
        "src": "http://d.duotuwang.com/2016/07/13/1552/0.jpg",
        "mtId": "91d9c781fb3a24db",
        "mtName": "\u5a1c\u4f9d\u7075\u513f",
        "jgId": "feilin",
        "jgName": "\u55f2\u56e1\u56e1",
        "href": "http://d.duotuwang.com/2016/07/13/1552/",
        "count": 44,
        "start": 1,
        "hasMtTag": 1,
        "hasJgTag": 1,
        "mtCount": 5,
        "jgCount": 61
    },
    {
        "name": "[TGod]\u63a8\u5973\u795e 2015-10-09 \u5a1c\u4f9d\u7075\u513f",
        "src": "http://d.duotuwang.com/2015/10/09/2406/0.jpg",
        "mtId": "91d9c781fb3a24db",
        "mtName": "\u5a1c\u4f9d\u7075\u513f",
        "jgId": "tgod",
        "jgName": "\u63a8\u5973\u795e",
        "href": "http://d.duotuwang.com/2015/10/09/2406/",
        "count": 44,
        "start": 1,
        "hasMtTag": 1,
        "hasJgTag": 1,
        "mtCount": 5,
        "jgCount": 78
    },
    {
        "name": "[TGod]\u63a8\u5973\u795e 2015-09-21 \u5a1c\u4f9d\u7075\u513f",
        "src": "http://d.duotuwang.com/2015/09/21/2382/0.jpg",
        "mtId": "91d9c781fb3a24db",
        "mtName": "\u5a1c\u4f9d\u7075\u513f",
        "jgId": "tgod",
        "jgName": "\u63a8\u5973\u795e",
        "href": "http://d.duotuwang.com/2015/09/21/2382/",
        "count": 40,
        "start": 1,
        "hasMtTag": 1,
        "hasJgTag": 1,
        "mtCount": 5,
        "jgCount": 78
    },
    {
        "name": "[TGod]\u63a8\u5973\u795e 2015-09-19 \u5a1c\u4f9d\u7075\u513f",
        "src": "http://d.duotuwang.com/2015/09/19/2386/0.jpg",
        "mtId": "91d9c781fb3a24db",
        "mtName": "\u5a1c\u4f9d\u7075\u513f",
        "jgId": "tgod",
        "jgName": "\u63a8\u5973\u795e",
        "href": "http://d.duotuwang.com/2015/09/19/2386/",
        "count": 40,
        "start": 1,
        "hasMtTag": 1,
        "hasJgTag": 1,
        "mtCount": 5,
        "jgCount": 78
    },
    {
        "name": "[UGirlsAPP]\u7231\u5c24\u7269 NO.120 \u5a1c\u4f9d\u7075\u513f",
        "src": "http://d.duotuwang.com/2015/09/15/4475/0.jpg",
        "mtId": "91d9c781fb3a24db",
        "mtName": "\u5a1c\u4f9d\u7075\u513f",
        "jgId": "ugirlsapp",
        "jgName": "\u7231\u5c24\u7269",
        "href": "http://d.duotuwang.com/2015/09/15/4475/",
        "count": 40,
        "start": 1,
        "hasMtTag": 1,
        "hasJgTag": 1,
        "mtCount": 5,
        "jgCount": 397
    },
    {
        "name": "[UGirlsAPP]\u7231\u5c24\u7269 NO.027 \u5a1c\u4f9d\u7075\u513f",
        "src": "http://d.duotuwang.com/2015/06/14/4381/0.jpg",
        "mtId": "91d9c781fb3a24db",
        "mtName": "\u5a1c\u4f9d\u7075\u513f",
        "jgId": "ugirlsapp",
        "jgName": "\u7231\u5c24\u7269",
        "href": "http://d.duotuwang.com/2015/06/14/4381/",
        "count": 40,
        "start": 1,
        "hasMtTag": 1,
        "hasJgTag": 1,
        "mtCount": 5,
        "jgCount": 397
    }
]