[
    {
        "name": "[YOUMI]\u5c24\u871c\u835f VOL.601 Egg-\u5c24\u59ae\u4e1dEgg&\u738b\u96e8\u7eaf",
        "src": "http://d.duotuwang.com/2021/02/08/24009/0.jpg",
        "mtId": "ad6ceea13469d7db",
        "mtName": "Egg-\u5c24\u59ae\u4e1d",
        "jgId": "youmi",
        "jgName": "\u5c24\u871c\u835f",
        "href": "http://d.duotuwang.com/2021/02/08/24009/",
        "count": 85,
        "start": 1,
        "hasMtTag": 1,
        "hasJgTag": 1,
        "mtCount": 29,
        "jgCount": 143
    },
    {
        "name": "[HuaYang]\u82b1\u6f3eshow VOL.365 \u738b\u96e8\u7eaf",
        "src": "http://d.duotuwang.com/2021/02/07/24018/0.jpg",
        "mtId": "6a5d00e535915ee5",
        "mtName": "\u738b\u96e8\u7eaf",
        "jgId": "huayang",
        "jgName": "\u82b1\u6f3eshow",
        "href": "http://d.duotuwang.com/2021/02/07/24018/",
        "count": 82,
        "start": 1,
        "hasMtTag": 1,
        "hasJgTag": 1,
        "mtCount": 60,
        "jgCount": 86
    },
    {
        "name": "[YOUMI]\u5c24\u871c\u835f VOL.600 Egg-\u5c24\u59ae\u4e1dEgg&\u738b\u96e8\u7eaf",
        "src": "http://d.duotuwang.com/2021/02/07/24008/0.jpg",
        "mtId": "ad6ceea13469d7db",
        "mtName": "Egg-\u5c24\u59ae\u4e1d",
        "jgId": "youmi",
        "jgName": "\u5c24\u871c\u835f",
        "href": "http://d.duotuwang.com/2021/02/07/24008/",
        "count": 88,
        "start": 1,
        "hasMtTag": 1,
        "hasJgTag": 1,
        "mtCount": 29,
        "jgCount": 143
    },
    {
        "name": "[YOUMI]\u5c24\u871c\u835f VOL.597 \u738b\u96e8\u7eaf",
        "src": "http://d.duotuwang.com/2021/02/01/24005/0.jpg",
        "mtId": "6a5d00e535915ee5",
        "mtName": "\u738b\u96e8\u7eaf",
        "jgId": "youmi",
        "jgName": "\u5c24\u871c\u835f",
        "href": "http://d.duotuwang.com/2021/02/01/24005/",
        "count": 72,
        "start": 1,
        "hasMtTag": 1,
        "hasJgTag": 1,
        "mtCount": 60,
        "jgCount": 143
    },
    {
        "name": "[YOUMI]\u5c24\u871c\u835f VOL.593 \u738b\u96e8\u7eaf",
        "src": "http://d.duotuwang.com/2021/01/25/24001/0.jpg",
        "mtId": "6a5d00e535915ee5",
        "mtName": "\u738b\u96e8\u7eaf",
        "jgId": "youmi",
        "jgName": "\u5c24\u871c\u835f",
        "href": "http://d.duotuwang.com/2021/01/25/24001/",
        "count": 48,
        "start": 1,
        "hasMtTag": 1,
        "hasJgTag": 1,
        "mtCount": 60,
        "jgCount": 143
    },
    {
        "name": "[YOUMI]\u5c24\u871c\u835f VOL.592 \u738b\u96e8\u7eaf 2/2",
        "src": "http://d.duotuwang.com/2021/01/22/24127/0.jpg",
        "mtId": "6a5d00e535915ee5",
        "mtName": "\u738b\u96e8\u7eaf",
        "jgId": "youmi",
        "jgName": "\u5c24\u871c\u835f",
        "href": "http://d.duotuwang.com/2021/01/22/24127/",
        "count": 72,
        "start": 74,
        "hasMtTag": 1,
        "hasJgTag": 1,
        "mtCount": 60,
        "jgCount": 143
    }
]