[
    {
        "name": "[XIUREN]\u79c0\u4eba\u7f51 No.4742 \u738b\u96e8\u7eaf",
        "src": "http://d.duotuwang.com/2022/03/18/29110/0.jpg",
        "mtId": "6a5d00e535915ee5",
        "mtName": "\u738b\u96e8\u7eaf",
        "jgId": "xiuren",
        "jgName": "\u79c0\u4eba\u7f51",
        "href": "http://d.duotuwang.com/2022/03/18/29110/",
        "count": 50,
        "start": 1,
        "hasMtTag": 1,
        "hasJgTag": 1,
        "mtCount": 60,
        "jgCount": 750
    },
    {
        "name": "[XIUREN]\u79c0\u4eba\u7f51 No.4706 \u738b\u96e8\u7eaf",
        "src": "http://d.duotuwang.com/2022/03/11/28932/0.jpg",
        "mtId": "6a5d00e535915ee5",
        "mtName": "\u738b\u96e8\u7eaf",
        "jgId": "xiuren",
        "jgName": "\u79c0\u4eba\u7f51",
        "href": "http://d.duotuwang.com/2022/03/11/28932/",
        "count": 51,
        "start": 1,
        "hasMtTag": 1,
        "hasJgTag": 1,
        "mtCount": 60,
        "jgCount": 750
    },
    {
        "name": "[HuaYang]\u82b1\u6f3eshow VOL.489 \u738b\u96e8\u7eaf",
        "src": "http://d.duotuwang.com/2022/03/07/28801/0.jpg",
        "mtId": "6a5d00e535915ee5",
        "mtName": "\u738b\u96e8\u7eaf",
        "jgId": "huayang",
        "jgName": "\u82b1\u6f3eshow",
        "href": "http://d.duotuwang.com/2022/03/07/28801/",
        "count": 57,
        "start": 1,
        "hasMtTag": 1,
        "hasJgTag": 1,
        "mtCount": 60,
        "jgCount": 86
    },
    {
        "name": "[YOUMI]\u5c24\u871c\u835f VOL.760 \u738b\u96e8\u7eaf",
        "src": "http://d.duotuwang.com/2022/03/04/28887/0.jpg",
        "mtId": "6a5d00e535915ee5",
        "mtName": "\u738b\u96e8\u7eaf",
        "jgId": "youmi",
        "jgName": "\u5c24\u871c\u835f",
        "href": "http://d.duotuwang.com/2022/03/04/28887/",
        "count": 74,
        "start": 1,
        "hasMtTag": 1,
        "hasJgTag": 1,
        "mtCount": 60,
        "jgCount": 143
    },
    {
        "name": "[XIUREN]\u79c0\u4eba\u7f51 No.4653 \u738b\u96e8\u7eaf",
        "src": "http://d.duotuwang.com/2022/03/01/28727/0.jpg",
        "mtId": "6a5d00e535915ee5",
        "mtName": "\u738b\u96e8\u7eaf",
        "jgId": "xiuren",
        "jgName": "\u79c0\u4eba\u7f51",
        "href": "http://d.duotuwang.com/2022/03/01/28727/",
        "count": 50,
        "start": 1,
        "hasMtTag": 1,
        "hasJgTag": 1,
        "mtCount": 60,
        "jgCount": 750
    },
    {
        "name": "[XIUREN]\u79c0\u4eba\u7f51 No.4640 \u738b\u96e8\u7eaf",
        "src": "http://d.duotuwang.com/2022/02/25/28714/0.jpg",
        "mtId": "6a5d00e535915ee5",
        "mtName": "\u738b\u96e8\u7eaf",
        "jgId": "xiuren",
        "jgName": "\u79c0\u4eba\u7f51",
        "href": "http://d.duotuwang.com/2022/02/25/28714/",
        "count": 60,
        "start": 1,
        "hasMtTag": 1,
        "hasJgTag": 1,
        "mtCount": 60,
        "jgCount": 750
    }
]