[
    {
        "name": "[YALAYI]\u96c5\u62c9\u4f0a Y758 \u5f90\u5f90 \u8eab\u4f53\u5bc6\u7801",
        "src": "http://d.duotuwang.com/2021/01/27/23904/0.jpg",
        "mtId": "b347030cee72eb8f",
        "mtName": "\u5f90\u5f90",
        "jgId": "yalayi",
        "jgName": "\u96c5\u62c9\u4f0a",
        "href": "http://d.duotuwang.com/2021/01/27/23904/",
        "count": 31,
        "start": 1,
        "hasMtTag": 1,
        "hasJgTag": 1,
        "mtCount": 1,
        "jgCount": 156
    },
    {
        "name": "[YALAYI]\u96c5\u62c9\u4f0a Y726 \u5f90\u5f90 \u627e\u81ea\u5df1",
        "src": "http://d.duotuwang.com/2020/11/13/23053/0.jpg",
        "mtId": "b347030cee72eb8f",
        "mtName": "\u5f90\u5f90",
        "jgId": "yalayi",
        "jgName": "\u96c5\u62c9\u4f0a",
        "href": "http://d.duotuwang.com/2020/11/13/23053/",
        "count": 32,
        "start": 1,
        "hasMtTag": 1,
        "hasJgTag": 1,
        "mtCount": 1,
        "jgCount": 156
    }
]