[
    {
        "name": "[YALAYI]\u96c5\u62c9\u4f0a Y158 \u5361\u67d4 \u72ec\u767d",
        "src": "http://d.duotuwang.com/2019/04/16/16061/0.jpg",
        "mtId": "f71246b857709dc4",
        "mtName": "\u5361\u67d4",
        "jgId": "yalayi",
        "jgName": "\u96c5\u62c9\u4f0a",
        "href": "http://d.duotuwang.com/2019/04/16/16061/",
        "count": 46,
        "start": 1,
        "hasMtTag": 1,
        "hasJgTag": 1,
        "mtCount": 1,
        "jgCount": 156
    },
    {
        "name": "[YALAYI]\u96c5\u62c9\u4f0a Y029 \u5361\u67d4 \u7eaf\u7cb9\u4e4b\u5fc3",
        "src": "http://d.duotuwang.com/2019/01/02/15912/0.jpg",
        "mtId": "f71246b857709dc4",
        "mtName": "\u5361\u67d4",
        "jgId": "yalayi",
        "jgName": "\u96c5\u62c9\u4f0a",
        "href": "http://d.duotuwang.com/2019/01/02/15912/",
        "count": 42,
        "start": 1,
        "hasMtTag": 1,
        "hasJgTag": 1,
        "mtCount": 1,
        "jgCount": 156
    },
    {
        "name": "[YALAYI]\u96c5\u62c9\u4f0a Y027 \u5361\u67d4 \u6821\u56ed\u9082\u9005",
        "src": "http://d.duotuwang.com/2019/01/01/15913/0.jpg",
        "mtId": "f71246b857709dc4",
        "mtName": "\u5361\u67d4",
        "jgId": "yalayi",
        "jgName": "\u96c5\u62c9\u4f0a",
        "href": "http://d.duotuwang.com/2019/01/01/15913/",
        "count": 41,
        "start": 1,
        "hasMtTag": 1,
        "hasJgTag": 1,
        "mtCount": 1,
        "jgCount": 156
    },
    {
        "name": "[YALAYI]\u96c5\u62c9\u4f0a Y034 \u5361\u67d4 \u521d\u89c1",
        "src": "http://d.duotuwang.com/2018/12/27/15918/0.jpg",
        "mtId": "f71246b857709dc4",
        "mtName": "\u5361\u67d4",
        "jgId": "yalayi",
        "jgName": "\u96c5\u62c9\u4f0a",
        "href": "http://d.duotuwang.com/2018/12/27/15918/",
        "count": 48,
        "start": 1,
        "hasMtTag": 1,
        "hasJgTag": 1,
        "mtCount": 1,
        "jgCount": 156
    }
]