[
    {
        "name": "[YouMei]\u5c24\u7f8e \u7eef\u6708\u6a31-Cherry \u6a31\u6a31\u95f9\u5143\u5bb5",
        "src": "http://d.duotuwang.com/2020/02/08/19568/0.jpg",
        "mtId": "85e55daf35c53f9e",
        "mtName": "\u7eef\u6708\u6a31-Cherry",
        "jgId": "youmei",
        "jgName": "\u5c24\u7f8e\u7f51",
        "href": "http://d.duotuwang.com/2020/02/08/19568/",
        "count": 30,
        "start": 1,
        "hasMtTag": 1,
        "hasJgTag": 1,
        "mtCount": 26,
        "jgCount": 47
    },
    {
        "name": "[YouMei]\u5c24\u7f8e \u5f20\u831c\u8339 \u7231\u4f60\u6ca1\u5dee",
        "src": "http://d.duotuwang.com/2020/02/07/19567/0.jpg",
        "mtId": "08868402e320e6ca",
        "mtName": "\u5f20\u831c\u8339",
        "jgId": "youmei",
        "jgName": "\u5c24\u7f8e\u7f51",
        "href": "http://d.duotuwang.com/2020/02/07/19567/",
        "count": 41,
        "start": 1,
        "hasMtTag": 1,
        "hasJgTag": 1,
        "mtCount": 1,
        "jgCount": 47
    },
    {
        "name": "[YouMei]\u5c24\u7f8e \u832f\u82d3 \u6cbb\u6108\u7f8e\u59bb",
        "src": "http://d.duotuwang.com/2020/02/06/19566/0.jpg",
        "mtId": "7732b3a4fafa2a5d",
        "mtName": "\u832f\u82d3",
        "jgId": "youmei",
        "jgName": "\u5c24\u7f8e\u7f51",
        "href": "http://d.duotuwang.com/2020/02/06/19566/",
        "count": 40,
        "start": 1,
        "hasMtTag": 1,
        "hasJgTag": 1,
        "mtCount": 3,
        "jgCount": 47
    },
    {
        "name": "[YouMei]\u5c24\u7f8e \u56e2\u56e2 \u9ad8\u6311\u5a9a\u5a18",
        "src": "http://d.duotuwang.com/2020/02/05/19565/0.jpg",
        "mtId": "86d0ab4ed68ebfcb",
        "mtName": "\u56e2\u56e2",
        "jgId": "youmei",
        "jgName": "\u5c24\u7f8e\u7f51",
        "href": "http://d.duotuwang.com/2020/02/05/19565/",
        "count": 37,
        "start": 1,
        "hasMtTag": 1,
        "hasJgTag": 1,
        "mtCount": 2,
        "jgCount": 47
    },
    {
        "name": "[YouMei]\u5c24\u7f8e \u5927\u8431\u8431 \u5065\u8eab\u5973\u795e",
        "src": "http://d.duotuwang.com/2020/02/04/19564/0.jpg",
        "mtId": "ea98ba81b0f2453a",
        "mtName": "\u5927\u8431\u8431",
        "jgId": "youmei",
        "jgName": "\u5c24\u7f8e\u7f51",
        "href": "http://d.duotuwang.com/2020/02/04/19564/",
        "count": 29,
        "start": 1,
        "hasMtTag": 1,
        "hasJgTag": 1,
        "mtCount": 1,
        "jgCount": 47
    },
    {
        "name": "[YouMei]\u5c24\u7f8e \u5f20\u96e8\u840c \u6625\u5bb5\u4e00\u523b",
        "src": "http://d.duotuwang.com/2020/02/03/19563/0.jpg",
        "mtId": "f3366c5dc0e9677b",
        "mtName": "\u5f20\u96e8\u840c",
        "jgId": "youmei",
        "jgName": "\u5c24\u7f8e\u7f51",
        "href": "http://d.duotuwang.com/2020/02/03/19563/",
        "count": 35,
        "start": 1,
        "hasMtTag": 1,
        "hasJgTag": 1,
        "mtCount": 10,
        "jgCount": 47
    }
]