[
    {
        "name": "[YouMei]\u5c24\u7f8e \u6843\u5b50 \u591a\u6c41\u82b1\u5349",
        "src": "http://d.duotuwang.com/2019/09/25/18098/0.jpg",
        "mtId": "e8bdd57dac229910",
        "mtName": "\u6843\u5b50",
        "jgId": "youmei",
        "jgName": "\u5c24\u7f8e\u7f51",
        "href": "http://d.duotuwang.com/2019/09/25/18098/",
        "count": 43,
        "start": 1,
        "hasMtTag": 1,
        "hasJgTag": 1,
        "mtCount": 2,
        "jgCount": 47
    },
    {
        "name": "[YouMei]\u5c24\u7f8e \u738b\u8bed\u7eaf \u6444\u9b42\u5029\u5973",
        "src": "http://d.duotuwang.com/2019/09/22/18037/0.jpg",
        "mtId": "6a5d00e535915ee5",
        "mtName": "\u738b\u8bed\u7eaf",
        "jgId": "youmei",
        "jgName": "\u5c24\u7f8e\u7f51",
        "href": "http://d.duotuwang.com/2019/09/22/18037/",
        "count": 47,
        "start": 1,
        "hasMtTag": 1,
        "hasJgTag": 1,
        "mtCount": 60,
        "jgCount": 47
    },
    {
        "name": "[YouMei]\u5c24\u7f8e \u5c0f\u4ed9 \u7d2b\u8272\u8ff7\u60c5",
        "src": "http://d.duotuwang.com/2019/09/21/18036/0.jpg",
        "mtId": "33b6f661a7006fc9",
        "mtName": "\u5c0f\u4ed9",
        "jgId": "youmei",
        "jgName": "\u5c24\u7f8e\u7f51",
        "href": "http://d.duotuwang.com/2019/09/21/18036/",
        "count": 60,
        "start": 1,
        "hasMtTag": 1,
        "hasJgTag": 1,
        "mtCount": 3,
        "jgCount": 47
    },
    {
        "name": "[YouMei]\u5c24\u7f8e Jessica \u9ed1\u4e1d\u8ff7\u60c5",
        "src": "http://d.duotuwang.com/2019/09/20/18035/0.jpg",
        "mtId": "5098c81d4cdc5cb5",
        "mtName": "Jessica",
        "jgId": "youmei",
        "jgName": "\u5c24\u7f8e\u7f51",
        "href": "http://d.duotuwang.com/2019/09/20/18035/",
        "count": 60,
        "start": 1,
        "hasMtTag": 1,
        "hasJgTag": 1,
        "mtCount": 2,
        "jgCount": 47
    },
    {
        "name": "[YouMei]\u5c24\u7f8e \u9ec4\u91d1\u5b9d\u513f \u95ea\u5149\u5c11\u5973",
        "src": "http://d.duotuwang.com/2019/09/10/17941/0.jpg",
        "mtId": "992ee1065a1c61ac",
        "mtName": "\u9ec4\u91d1\u5b9d\u513f",
        "jgId": "youmei",
        "jgName": "\u5c24\u7f8e\u7f51",
        "href": "http://d.duotuwang.com/2019/09/10/17941/",
        "count": 29,
        "start": 1,
        "hasMtTag": 1,
        "hasJgTag": 1,
        "mtCount": 2,
        "jgCount": 47
    },
    {
        "name": "[YouMei]\u5c24\u7f8e No.102 \u54aa\u54aa \u73b2\u73d1\u5a07\u59bb",
        "src": "http://d.duotuwang.com/2019/01/08/11053/0.jpg",
        "jgId": "youmei",
        "jgName": "\u5c24\u7f8e\u7f51",
        "href": "http://d.duotuwang.com/2019/01/08/11053/",
        "count": 5,
        "start": 1,
        "hasMtTag": 0,
        "hasJgTag": 1,
        "jgCount": 47
    }
]