[
    {
        "name": "[YouMei]\u5c24\u7f8e No.080 \u9648\u5b87\u66e6 \u6c60\u8fb9\u7f8e\u4eba\u7f8e\u817f\u4fee\u957f\u96ea\u5cf0\u9971\u6ee1",
        "src": "http://d.duotuwang.com/2018/11/30/10536/0.jpg",
        "mtId": "e6191308df24ea26",
        "mtName": "\u9648\u5b87\u66e6",
        "jgId": "youmei",
        "jgName": "\u5c24\u7f8e\u7f51",
        "href": "http://d.duotuwang.com/2018/11/30/10536/",
        "count": 16,
        "start": 1,
        "hasMtTag": 1,
        "hasJgTag": 1,
        "mtCount": 10,
        "jgCount": 47
    },
    {
        "name": "[YouMei]\u5c24\u7f8e No.079 \u6613\u9633 \u719f\u5973\u7684\u7a81\u88ad \u9b54\u9b3c\u8eab\u6750\u6b32\u706b\u9ad8\u5347",
        "src": "http://d.duotuwang.com/2018/11/29/10535/0.jpg",
        "mtId": "ed0ba549510c68da",
        "mtName": "\u6613\u9633",
        "jgId": "youmei",
        "jgName": "\u5c24\u7f8e\u7f51",
        "href": "http://d.duotuwang.com/2018/11/29/10535/",
        "count": 20,
        "start": 1,
        "hasMtTag": 1,
        "hasJgTag": 1,
        "mtCount": 10,
        "jgCount": 47
    },
    {
        "name": "[YouMei]\u5c24\u7f8e No.88 \u5353\u5a05\u797a \u7cbe\u7075\u5c24\u7269",
        "src": "http://d.duotuwang.com/2018/11/27/11040/0.jpg",
        "mtId": "508d1bde3048cf28",
        "mtName": "\u5353\u5a05\u797a",
        "jgId": "youmei",
        "jgName": "\u5c24\u7f8e\u7f51",
        "href": "http://d.duotuwang.com/2018/11/27/11040/",
        "count": 5,
        "start": 1,
        "hasMtTag": 1,
        "hasJgTag": 1,
        "mtCount": 10,
        "jgCount": 47
    },
    {
        "name": "[YouMei]\u5c24\u7f8e No.078 \u5c0f\u4ed9 \u771f\u7a7a\u7f8e\u4eba\u719f\u5973\u5fa1\u59d0\u7684\u9b45\u529b",
        "src": "http://d.duotuwang.com/2018/11/27/10534/0.jpg",
        "mtId": "33b6f661a7006fc9",
        "mtName": "\u5c0f\u4ed9",
        "jgId": "youmei",
        "jgName": "\u5c24\u7f8e\u7f51",
        "href": "http://d.duotuwang.com/2018/11/27/10534/",
        "count": 19,
        "start": 1,
        "hasMtTag": 1,
        "hasJgTag": 1,
        "mtCount": 3,
        "jgCount": 47
    },
    {
        "name": "[YouMei]\u5c24\u7f8e No.077 SOLO-\u5c39\u83f2 \u591c\u82b3\u83f2 \u89c6\u89c9\u76db\u5bb4\u52fe\u4eba\u9b42\u9b44",
        "src": "http://d.duotuwang.com/2018/11/23/10533/0.jpg",
        "mtId": "eaa19160eb9a4e36",
        "mtName": "SOLO-\u5c39\u83f2",
        "jgId": "youmei",
        "jgName": "\u5c24\u7f8e\u7f51",
        "href": "http://d.duotuwang.com/2018/11/23/10533/",
        "count": 21,
        "start": 1,
        "hasMtTag": 1,
        "hasJgTag": 1,
        "mtCount": 22,
        "jgCount": 47
    },
    {
        "name": "[YouMei]\u5c24\u7f8e No.076 \u827a\u8f69 \u5fa1\u59d0\u8303\u857e\u4e1d\u857e\u4e1d\u6b27\u6d3e\u6027\u611f\u5c24\u7269",
        "src": "http://d.duotuwang.com/2018/11/22/10532/0.jpg",
        "mtId": "3b3a0a82d01cb68c",
        "mtName": "\u827a\u8f69",
        "jgId": "youmei",
        "jgName": "\u5c24\u7f8e\u7f51",
        "href": "http://d.duotuwang.com/2018/11/22/10532/",
        "count": 19,
        "start": 1,
        "hasMtTag": 1,
        "hasJgTag": 1,
        "mtCount": 6,
        "jgCount": 47
    }
]