[
    {
        "name": "[YouMei]\u5c24\u7f8e No.015 \u9ec4\u697d\u7136 \u6fb3\u6d32\u4ee3\u8868 \u81f4\u547d\u306e\u9ec4\u73ab\u7470",
        "src": "http://d.duotuwang.com/2018/06/13/10473/0.jpg",
        "mtId": "ed4d676610a0b9e3",
        "mtName": "\u9ec4\u697d\u7136",
        "jgId": "youmei",
        "jgName": "\u5c24\u7f8e\u7f51",
        "href": "http://d.duotuwang.com/2018/06/13/10473/",
        "count": 20,
        "start": 1,
        "hasMtTag": 1,
        "hasJgTag": 1,
        "mtCount": 17,
        "jgCount": 47
    },
    {
        "name": "[YouMei]\u5c24\u7f8e No.014 \u7231\u4e3d\u838e \u8db3\u7403\u5973\u5c06 \u6bd4\u5229\u65f6\u7eff\u8335\u573a\u72c2\u6b22",
        "src": "http://d.duotuwang.com/2018/06/13/10472/0.jpg",
        "jgId": "youmei",
        "jgName": "\u5c24\u7f8e\u7f51",
        "href": "http://d.duotuwang.com/2018/06/13/10472/",
        "count": 7,
        "start": 1,
        "hasMtTag": 0,
        "hasJgTag": 1,
        "jgCount": 47
    },
    {
        "name": "[YouMei]\u5c24\u7f8e No.013 \u55b5\u661f\u4eba\u9171 \u5927\u957f\u817f\u55b5\u5a07\u8273\u306e\u5c0f\u7403\u8ff7",
        "src": "http://d.duotuwang.com/2018/06/13/10471/0.jpg",
        "mtId": "0971b48a368bdae4",
        "mtName": "\u55b5\u661f\u4eba\u9171",
        "jgId": "youmei",
        "jgName": "\u5c24\u7f8e\u7f51",
        "href": "http://d.duotuwang.com/2018/06/13/10471/",
        "count": 17,
        "start": 1,
        "hasMtTag": 1,
        "hasJgTag": 1,
        "mtCount": 1,
        "jgCount": 47
    },
    {
        "name": "[YouMei]\u5c24\u7f8e No.012 \u56e2\u56e2 \u963f\u6839\u5ef7\u5b9d\u8d1d \u4e00\u573a\u96c4\u9e70\u4e4b\u604b",
        "src": "http://d.duotuwang.com/2018/06/12/10470/0.jpg",
        "mtId": "86d0ab4ed68ebfcb",
        "mtName": "\u56e2\u56e2",
        "jgId": "youmei",
        "jgName": "\u5c24\u7f8e\u7f51",
        "href": "http://d.duotuwang.com/2018/06/12/10470/",
        "count": 7,
        "start": 1,
        "hasMtTag": 1,
        "hasJgTag": 1,
        "mtCount": 2,
        "jgCount": 47
    },
    {
        "name": "[YouMei]\u5c24\u7f8e No.011 \u5c39\u83f2 \u82f1\u683c\u5170\u5b9d\u8d1d\u79c0 \u4e16\u754c\u676f\u597d\u201c\u7403\u201d",
        "src": "http://d.duotuwang.com/2018/06/12/10469/0.jpg",
        "mtId": "eaa19160eb9a4e36",
        "mtName": "SOLO-\u5c39\u83f2",
        "jgId": "youmei",
        "jgName": "\u5c24\u7f8e\u7f51",
        "href": "http://d.duotuwang.com/2018/06/12/10469/",
        "count": 14,
        "start": 1,
        "hasMtTag": 1,
        "hasJgTag": 1,
        "mtCount": 22,
        "jgCount": 47
    },
    {
        "name": "[YouMei]\u5c24\u7f8e No.010 \u6708\u97f3\u77b3 \u6708\u4e0b\u7f8e\u4eba \u59e3\u82e5\u79cb\u6708\u4e00\u7b11\u503e\u57ce",
        "src": "http://d.duotuwang.com/2018/06/05/10468/0.jpg",
        "mtId": "ad1cc72dcd927205",
        "mtName": "\u6708\u97f3\u77b3",
        "jgId": "youmei",
        "jgName": "\u5c24\u7f8e\u7f51",
        "href": "http://d.duotuwang.com/2018/06/05/10468/",
        "count": 19,
        "start": 1,
        "hasMtTag": 1,
        "hasJgTag": 1,
        "mtCount": 11,
        "jgCount": 47
    }
]