[
    {
        "name": "[YouMei]\u5c24\u7f8e \u9648\u5b87\u66e6 \u6843\u5fc3\u5a07\u59bb",
        "src": "http://d.duotuwang.com/2020/03/17/20060/0.jpg",
        "mtId": "e6191308df24ea26",
        "mtName": "\u9648\u5b87\u66e6",
        "jgId": "youmei",
        "jgName": "\u5c24\u7f8e\u7f51",
        "href": "http://d.duotuwang.com/2020/03/17/20060/",
        "count": 22,
        "start": 1,
        "hasMtTag": 1,
        "hasJgTag": 1,
        "mtCount": 10,
        "jgCount": 47
    },
    {
        "name": "[YouMei]\u5c24\u7f8e \u7476\u7476 \u60f9\u706b\u9a6c\u7532\u7ebf",
        "src": "http://d.duotuwang.com/2020/03/15/20059/0.jpg",
        "mtId": "2ab30ec6f76b5149",
        "mtName": "\u7476\u7476",
        "jgId": "youmei",
        "jgName": "\u5c24\u7f8e\u7f51",
        "href": "http://d.duotuwang.com/2020/03/15/20059/",
        "count": 32,
        "start": 1,
        "hasMtTag": 1,
        "hasJgTag": 1,
        "mtCount": 1,
        "jgCount": 47
    },
    {
        "name": "[YouMei]\u5c24\u7f8e \u674e\u591a\u591a \u96be\u6301\u60c5\u612b",
        "src": "http://d.duotuwang.com/2020/03/14/19976/0.jpg",
        "mtId": "982d3c4c85150f28",
        "mtName": "\u674e\u591a\u591a",
        "jgId": "youmei",
        "jgName": "\u5c24\u7f8e\u7f51",
        "href": "http://d.duotuwang.com/2020/03/14/19976/",
        "count": 42,
        "start": 1,
        "hasMtTag": 1,
        "hasJgTag": 1,
        "mtCount": 3,
        "jgCount": 47
    },
    {
        "name": "[YouMei]\u5c24\u7f8e \u4f55\u5609\u9896 \u4e00\u89c1\u503e\u5fc3",
        "src": "http://d.duotuwang.com/2020/03/12/19975/0.jpg",
        "mtId": "ddcc0f5bf2efada3",
        "mtName": "\u4f55\u5609\u9896",
        "jgId": "youmei",
        "jgName": "\u5c24\u7f8e\u7f51",
        "href": "http://d.duotuwang.com/2020/03/12/19975/",
        "count": 30,
        "start": 1,
        "hasMtTag": 1,
        "hasJgTag": 1,
        "mtCount": 14,
        "jgCount": 47
    },
    {
        "name": "[YouMei]\u5c24\u7f8e \u5c0f\u8bed \u6696\u623f\u5a07\u59bb",
        "src": "http://d.duotuwang.com/2020/03/10/19974/0.jpg",
        "mtId": "fc3af5e3e36c2fed",
        "mtName": "\u5c0f\u8bed",
        "jgId": "youmei",
        "jgName": "\u5c24\u7f8e\u7f51",
        "href": "http://d.duotuwang.com/2020/03/10/19974/",
        "count": 28,
        "start": 1,
        "hasMtTag": 1,
        "hasJgTag": 1,
        "mtCount": 2,
        "jgCount": 47
    },
    {
        "name": "[YouMei]\u5c24\u7f8e \u9648\u5b87\u66e6 \u55b5\u5973\u4ec6",
        "src": "http://d.duotuwang.com/2020/03/08/19973/0.jpg",
        "mtId": "e6191308df24ea26",
        "mtName": "\u9648\u5b87\u66e6",
        "jgId": "youmei",
        "jgName": "\u5c24\u7f8e\u7f51",
        "href": "http://d.duotuwang.com/2020/03/08/19973/",
        "count": 25,
        "start": 1,
        "hasMtTag": 1,
        "hasJgTag": 1,
        "mtCount": 10,
        "jgCount": 47
    }
]