[
    {
        "name": "[TGod]\u63a8\u5973\u795e 2016-02-26 \u96e8\u5a77Goddess",
        "src": "http://d.duotuwang.com/2016/02/26/2495/0.jpg",
        "mtId": "f5a08e84bd9742ee",
        "mtName": "\u96e8\u5a77Goddess",
        "jgId": "tgod",
        "jgName": "\u63a8\u5973\u795e",
        "href": "http://d.duotuwang.com/2016/02/26/2495/",
        "count": 41,
        "start": 1,
        "hasMtTag": 1,
        "hasJgTag": 1,
        "mtCount": 1,
        "jgCount": 78
    }
]