[
    {
        "name": "[FEILIN]\u55f2\u56e1\u56e1 VOL.038 \u53f2\u96efSwan",
        "src": "http://d.duotuwang.com/2016/05/09/1881/0.jpg",
        "mtId": "458530c84f8613d8",
        "mtName": "\u53f2\u96efSwan",
        "jgId": "feilin",
        "jgName": "\u55f2\u56e1\u56e1",
        "href": "http://d.duotuwang.com/2016/05/09/1881/",
        "count": 51,
        "start": 1,
        "hasMtTag": 1,
        "hasJgTag": 1,
        "mtCount": 1,
        "jgCount": 61
    },
    {
        "name": "[FEILIN]\u55f2\u56e1\u56e1 VOL.037 \u53f2\u96efSwan",
        "src": "http://d.duotuwang.com/2016/04/15/1880/0.jpg",
        "mtId": "458530c84f8613d8",
        "mtName": "\u53f2\u96efSwan",
        "jgId": "feilin",
        "jgName": "\u55f2\u56e1\u56e1",
        "href": "http://d.duotuwang.com/2016/04/15/1880/",
        "count": 41,
        "start": 1,
        "hasMtTag": 1,
        "hasJgTag": 1,
        "mtCount": 1,
        "jgCount": 61
    },
    {
        "name": "[FEILIN]\u55f2\u56e1\u56e1 VOL.029 \u53f2\u96efSwan",
        "src": "http://d.duotuwang.com/2016/03/03/1878/0.jpg",
        "mtId": "458530c84f8613d8",
        "mtName": "\u53f2\u96efSwan",
        "jgId": "feilin",
        "jgName": "\u55f2\u56e1\u56e1",
        "href": "http://d.duotuwang.com/2016/03/03/1878/",
        "count": 47,
        "start": 1,
        "hasMtTag": 1,
        "hasJgTag": 1,
        "mtCount": 1,
        "jgCount": 61
    },
    {
        "name": "[FEILIN]\u55f2\u56e1\u56e1 VOL.025 \u53f2\u96efSwan",
        "src": "http://d.duotuwang.com/2016/01/28/1877/0.jpg",
        "mtId": "458530c84f8613d8",
        "mtName": "\u53f2\u96efSwan",
        "jgId": "feilin",
        "jgName": "\u55f2\u56e1\u56e1",
        "href": "http://d.duotuwang.com/2016/01/28/1877/",
        "count": 58,
        "start": 1,
        "hasMtTag": 1,
        "hasJgTag": 1,
        "mtCount": 1,
        "jgCount": 61
    },
    {
        "name": "[FEILIN]\u55f2\u56e1\u56e1 VOL.016 \u53f2\u96efSwan",
        "src": "http://d.duotuwang.com/2015/11/30/1876/0.jpg",
        "mtId": "458530c84f8613d8",
        "mtName": "\u53f2\u96efSwan",
        "jgId": "feilin",
        "jgName": "\u55f2\u56e1\u56e1",
        "href": "http://d.duotuwang.com/2015/11/30/1876/",
        "count": 60,
        "start": 1,
        "hasMtTag": 1,
        "hasJgTag": 1,
        "mtCount": 1,
        "jgCount": 61
    }
]