[
    {
        "name": "[XIUREN]\u79c0\u4eba\u7f51 No.5153 \u5c0f\u86ee\u5996Yummy",
        "src": "http://d.duotuwang.com/2022/06/16/30248/0.jpg",
        "mtId": "2dc510fc19dd00b7",
        "mtName": "\u5c0f\u86ee\u5996Yummy",
        "jgId": "xiuren",
        "jgName": "\u79c0\u4eba\u7f51",
        "href": "http://d.duotuwang.com/2022/06/16/30248/",
        "count": 65,
        "start": 1,
        "hasMtTag": 1,
        "hasJgTag": 1,
        "mtCount": 8,
        "jgCount": 750
    },
    {
        "name": "[XIUREN]\u79c0\u4eba\u7f51 No.5094 \u5c0f\u86ee\u5996Yummy",
        "src": "http://d.duotuwang.com/2022/06/01/30052/0.jpg",
        "mtId": "2dc510fc19dd00b7",
        "mtName": "\u5c0f\u86ee\u5996Yummy",
        "jgId": "xiuren",
        "jgName": "\u79c0\u4eba\u7f51",
        "href": "http://d.duotuwang.com/2022/06/01/30052/",
        "count": 80,
        "start": 1,
        "hasMtTag": 1,
        "hasJgTag": 1,
        "mtCount": 8,
        "jgCount": 750
    },
    {
        "name": "[FEILIN]\u55f2\u56e1\u56e1 VOL.446 \u5c0f\u86ee\u5996Yummy",
        "src": "http://d.duotuwang.com/2022/05/30/30016/0.jpg",
        "mtId": "2dc510fc19dd00b7",
        "mtName": "\u5c0f\u86ee\u5996Yummy",
        "jgId": "feilin",
        "jgName": "\u55f2\u56e1\u56e1",
        "href": "http://d.duotuwang.com/2022/05/30/30016/",
        "count": 89,
        "start": 1,
        "hasMtTag": 1,
        "hasJgTag": 1,
        "mtCount": 8,
        "jgCount": 61
    },
    {
        "name": "[FEILIN]\u55f2\u56e1\u56e1 VOL.442 \u5c0f\u86ee\u5996Yummy",
        "src": "http://d.duotuwang.com/2022/05/04/29629/0.jpg",
        "mtId": "2dc510fc19dd00b7",
        "mtName": "\u5c0f\u86ee\u5996Yummy",
        "jgId": "feilin",
        "jgName": "\u55f2\u56e1\u56e1",
        "href": "http://d.duotuwang.com/2022/05/04/29629/",
        "count": 89,
        "start": 1,
        "hasMtTag": 1,
        "hasJgTag": 1,
        "mtCount": 8,
        "jgCount": 61
    },
    {
        "name": "[XIUREN]\u79c0\u4eba\u7f51 No.4939 \u5c0f\u86ee\u5996Yummy",
        "src": "http://d.duotuwang.com/2022/04/28/29640/0.jpg",
        "mtId": "2dc510fc19dd00b7",
        "mtName": "\u5c0f\u86ee\u5996Yummy",
        "jgId": "xiuren",
        "jgName": "\u79c0\u4eba\u7f51",
        "href": "http://d.duotuwang.com/2022/04/28/29640/",
        "count": 74,
        "start": 1,
        "hasMtTag": 1,
        "hasJgTag": 1,
        "mtCount": 8,
        "jgCount": 750
    },
    {
        "name": "[XIUREN]\u79c0\u4eba\u7f51 No.4918 \u5c0f\u86ee\u5996Yummy",
        "src": "http://d.duotuwang.com/2022/04/25/29531/0.jpg",
        "mtId": "2dc510fc19dd00b7",
        "mtName": "\u5c0f\u86ee\u5996Yummy",
        "jgId": "xiuren",
        "jgName": "\u79c0\u4eba\u7f51",
        "href": "http://d.duotuwang.com/2022/04/25/29531/",
        "count": 52,
        "start": 1,
        "hasMtTag": 1,
        "hasJgTag": 1,
        "mtCount": 8,
        "jgCount": 750
    }
]