[
    {
        "name": "[XIUREN]\u79c0\u4eba\u7f51 No.2073 luvian\u672c\u80fd",
        "src": "http://d.duotuwang.com/2020/03/18/19937/0.jpg",
        "mtId": "3d328f09629342c4",
        "mtName": "luvian\u672c\u80fd",
        "jgId": "xiuren",
        "jgName": "\u79c0\u4eba\u7f51",
        "href": "http://d.duotuwang.com/2020/03/18/19937/",
        "count": 51,
        "start": 1,
        "hasMtTag": 1,
        "hasJgTag": 1,
        "mtCount": 6,
        "jgCount": 750
    },
    {
        "name": "[XIUREN]\u79c0\u4eba\u7f51 No.1966 luvian\u672c\u80fd",
        "src": "http://d.duotuwang.com/2020/01/23/19415/0.jpg",
        "mtId": "3d328f09629342c4",
        "mtName": "luvian\u672c\u80fd",
        "jgId": "xiuren",
        "jgName": "\u79c0\u4eba\u7f51",
        "href": "http://d.duotuwang.com/2020/01/23/19415/",
        "count": 43,
        "start": 1,
        "hasMtTag": 1,
        "hasJgTag": 1,
        "mtCount": 6,
        "jgCount": 750
    },
    {
        "name": "[XIUREN]\u79c0\u4eba\u7f51 No.1930 luvian\u672c\u80fd",
        "src": "http://d.duotuwang.com/2020/01/14/19282/0.jpg",
        "mtId": "3d328f09629342c4",
        "mtName": "luvian\u672c\u80fd",
        "jgId": "xiuren",
        "jgName": "\u79c0\u4eba\u7f51",
        "href": "http://d.duotuwang.com/2020/01/14/19282/",
        "count": 48,
        "start": 1,
        "hasMtTag": 1,
        "hasJgTag": 1,
        "mtCount": 6,
        "jgCount": 750
    },
    {
        "name": "[IMISS]\u7231\u871c\u793e VOL.398 luvian\u672c\u80fd",
        "src": "http://d.duotuwang.com/2019/11/12/18585/0.jpg",
        "mtId": "3d328f09629342c4",
        "mtName": "luvian\u672c\u80fd",
        "jgId": "imiss",
        "jgName": "\u7231\u871c\u793e",
        "href": "http://d.duotuwang.com/2019/11/12/18585/",
        "count": 51,
        "start": 1,
        "hasMtTag": 1,
        "hasJgTag": 1,
        "mtCount": 6,
        "jgCount": 116
    },
    {
        "name": "[IMISS]\u7231\u871c\u793e VOL.392 luvian\u672c\u80fd",
        "src": "http://d.duotuwang.com/2019/10/28/18405/0.jpg",
        "mtId": "3d328f09629342c4",
        "mtName": "luvian\u672c\u80fd",
        "jgId": "imiss",
        "jgName": "\u7231\u871c\u793e",
        "href": "http://d.duotuwang.com/2019/10/28/18405/",
        "count": 50,
        "start": 1,
        "hasMtTag": 1,
        "hasJgTag": 1,
        "mtCount": 6,
        "jgCount": 116
    },
    {
        "name": "[IMISS]\u7231\u871c\u793e VOL.385 luvian\u672c\u80fd",
        "src": "http://d.duotuwang.com/2019/10/17/18286/0.jpg",
        "mtId": "3d328f09629342c4",
        "mtName": "luvian\u672c\u80fd",
        "jgId": "imiss",
        "jgName": "\u7231\u871c\u793e",
        "href": "http://d.duotuwang.com/2019/10/17/18286/",
        "count": 54,
        "start": 1,
        "hasMtTag": 1,
        "hasJgTag": 1,
        "mtCount": 6,
        "jgCount": 116
    }
]