[
    {
        "name": "[MFStar]\u6a21\u8303\u5b66\u9662 VOL.562 \u97e9\u597d\u751c",
        "src": "http://d.duotuwang.com/2022/03/21/29096/0.jpg",
        "mtId": "f2ae8f14e642fcdb",
        "mtName": "\u97e9\u597d\u751c",
        "jgId": "mfstar",
        "jgName": "\u6a21\u8303\u5b66\u9662",
        "href": "http://d.duotuwang.com/2022/03/21/29096/",
        "count": 59,
        "start": 1,
        "hasMtTag": 1,
        "hasJgTag": 1,
        "mtCount": 1,
        "jgCount": 94
    },
    {
        "name": "[MFStar]\u6a21\u8303\u5b66\u9662 VOL.559 \u97e9\u597d\u751c",
        "src": "http://d.duotuwang.com/2022/03/14/28918/0.jpg",
        "mtId": "f2ae8f14e642fcdb",
        "mtName": "\u97e9\u597d\u751c",
        "jgId": "mfstar",
        "jgName": "\u6a21\u8303\u5b66\u9662",
        "href": "http://d.duotuwang.com/2022/03/14/28918/",
        "count": 61,
        "start": 1,
        "hasMtTag": 1,
        "hasJgTag": 1,
        "mtCount": 1,
        "jgCount": 94
    },
    {
        "name": "[MFStar]\u6a21\u8303\u5b66\u9662 VOL.556 \u97e9\u597d\u751c",
        "src": "http://d.duotuwang.com/2022/03/07/28805/0.jpg",
        "mtId": "f2ae8f14e642fcdb",
        "mtName": "\u97e9\u597d\u751c",
        "jgId": "mfstar",
        "jgName": "\u6a21\u8303\u5b66\u9662",
        "href": "http://d.duotuwang.com/2022/03/07/28805/",
        "count": 58,
        "start": 1,
        "hasMtTag": 1,
        "hasJgTag": 1,
        "mtCount": 1,
        "jgCount": 94
    }
]