[
    {
        "name": "[UGirlsAPP]\u7231\u5c24\u7269 NO.085 \u5b63\u8282",
        "src": "http://d.duotuwang.com/2015/08/11/4419/0.jpg",
        "mtId": "5d4f9e2e3ddfc4d2",
        "mtName": "\u5b63\u8282",
        "jgId": "ugirlsapp",
        "jgName": "\u7231\u5c24\u7269",
        "href": "http://d.duotuwang.com/2015/08/11/4419/",
        "count": 40,
        "start": 1,
        "hasMtTag": 1,
        "hasJgTag": 1,
        "mtCount": 1,
        "jgCount": 397
    },
    {
        "name": "[UGirls]\u5c24\u679c\u7f51 F003 \u5b63\u8282",
        "src": "http://d.duotuwang.com/2014/11/07/3047/0.jpg",
        "mtId": "5d4f9e2e3ddfc4d2",
        "mtName": "\u5b63\u8282",
        "jgId": "ugirls",
        "jgName": "\u5c24\u679c\u7f51",
        "href": "http://d.duotuwang.com/2014/11/07/3047/",
        "count": 34,
        "start": 1,
        "hasMtTag": 1,
        "hasJgTag": 1,
        "mtCount": 1,
        "jgCount": 79
    }
]