[
    {
        "id": "40876",
        "title": "\u5931\u63a7\u73a9\u5bb6",
        "src": "https://pic.monidai.com/img/upload/vod/2021-09-24/202109241632464730.jpg",
        "url": "https://v5.szjal.cn/20210924/29fxH46I/index.m3u8"
    },
    {
        "id": "41592",
        "title": "\u65f6\u6808\u4e2d\u7684\u6307\u9488",
        "src": "http://pic.ku-img.com/upload/vod/20211015-1/5c23511b139b4aa3ef52bdafcce2fd01.jpg",
        "url": "https://v4.cdtlas.com/20211015/UnJGAliU/index.m3u8"
    },
    {
        "id": "42311",
        "title": "\u5c1a\u6c14\u4e0e\u5341\u73af\u4f20\u5947",
        "src": "http://sd-pic.com/upload/vod/20211110-1/d546c4e31e6dcdc059c82380c841058a.jpg",
        "url": "https://new.iskcd.com/20211124/af7bcZkO/index.m3u8"
    },
    {
        "id": "37930",
        "title": "\u79fb\u5c45\u8005",
        "src": "http://pic.ku-img.com/upload/vod/20211112-1/9bffe702157151971a8125efa916127c.jpg",
        "url": "https://v.v1kd.com/20211111/0c09NiGK/index.m3u8"
    },
    {
        "id": "103587",
        "title": "\u5bc2\u9759\u4e4b\u57302",
        "src": "http://sd-pic.com/upload/vod/20211124-1/f6292e68a06f5e2728ef29e6a84ec8c8.jpg",
        "url": "https://pps.sd-play.com/20211123/b0SovtQZ/index.m3u8"
    },
    {
        "id": "56520",
        "title": "\u65f6\u95f4\u5e7b\u5883",
        "src": "http://sd-pic.com/upload/vod/20211125-1/1dcbd7f30488f4b21e73cfcc9ca5847d.jpg",
        "url": "https://new.iskcd.com/20210902/kNPJ22Ew/index.m3u8"
    },
    {
        "id": "37409",
        "title": "\u660e\u65e5\u4e4b\u6218",
        "src": "http://sd-pic.com/upload/vod/20211125-1/65479b7d71dc7c18402b3872dd2bbc46.jpg",
        "url": "https://pps.sd-play.com/20211125/lyVjWgoQ/index.m3u8"
    },
    {
        "id": "2536",
        "title": "\u6c27\u6c14",
        "src": "http://pic.ku-img.com/upload/vod/20211204-1/24558825c2cbade0b6580bbaa117b8b2.jpg",
        "url": "https://cdn.zoubuting.com/20210624/6eQjfUwj/index.m3u8"
    }
]