[
    {
        "name": "[XIUREN]\u79c0\u4eba\u7f51 No.128 \u6218\u59dd\u7fbdZina",
        "src": "http://d.duotuwang.com/2014/04/18/447/0.jpg",
        "mtId": "b069fa87f260c38e",
        "mtName": "\u6218\u59dd\u7fbdZina",
        "jgId": "xiuren",
        "jgName": "\u79c0\u4eba\u7f51",
        "href": "http://d.duotuwang.com/2014/04/18/447/",
        "count": 56,
        "start": 1,
        "hasMtTag": 1,
        "hasJgTag": 1,
        "mtCount": 3,
        "jgCount": 750
    },
    {
        "name": "[XIUREN]\u79c0\u4eba\u7f51 No.111 \u6218\u59dd\u7fbdZina",
        "src": "http://d.duotuwang.com/2014/03/13/434/0.jpg",
        "mtId": "b069fa87f260c38e",
        "mtName": "\u6218\u59dd\u7fbdZina",
        "jgId": "xiuren",
        "jgName": "\u79c0\u4eba\u7f51",
        "href": "http://d.duotuwang.com/2014/03/13/434/",
        "count": 65,
        "start": 1,
        "hasMtTag": 1,
        "hasJgTag": 1,
        "mtCount": 3,
        "jgCount": 750
    },
    {
        "name": "[XIUREN]\u79c0\u4eba\u7f51 No.103 \u6218\u59dd\u7fbdZina",
        "src": "http://d.duotuwang.com/2014/02/14/426/0.jpg",
        "mtId": "b069fa87f260c38e",
        "mtName": "\u6218\u59dd\u7fbdZina",
        "jgId": "xiuren",
        "jgName": "\u79c0\u4eba\u7f51",
        "href": "http://d.duotuwang.com/2014/02/14/426/",
        "count": 65,
        "start": 1,
        "hasMtTag": 1,
        "hasJgTag": 1,
        "mtCount": 3,
        "jgCount": 750
    }
]