[
    {
        "name": "[DJAWA Photo] Son Ye-Eun - Bikini Vacation #1 2/3",
        "src": "http://d.duotuwang.com/2021/06/10/27355/0.jpg",
        "mtId": "eea797bd4f94853d",
        "mtName": "DJAWAPhoto",
        "href": "http://d.duotuwang.com/2021/06/10/27355/",
        "count": 28,
        "start": 43,
        "hasMtTag": 1,
        "hasJgTag": 0,
        "mtCount": 40
    },
    {
        "name": "[DJAWA Photo] Son Ye-Eun - Bikini Vacation #1 1/3",
        "src": "http://d.duotuwang.com/2021/06/10/27354/0.jpg",
        "mtId": "eea797bd4f94853d",
        "mtName": "DJAWAPhoto",
        "href": "http://d.duotuwang.com/2021/06/10/27354/",
        "count": 42,
        "start": 1,
        "hasMtTag": 1,
        "hasJgTag": 0,
        "mtCount": 40
    },
    {
        "name": "[DJAWA Photo] Zia - Azure Horizons + S.Ver",
        "src": "http://d.duotuwang.com/2021/06/09/30136/0.jpg",
        "mtId": "eea797bd4f94853d",
        "mtName": "DJAWAPhoto",
        "href": "http://d.duotuwang.com/2021/06/09/30136/",
        "count": 54,
        "start": 1,
        "hasMtTag": 1,
        "hasJgTag": 0,
        "mtCount": 40
    },
    {
        "name": "[DJAWA Photo] Maruemon  & Mimmi  - Maid Mansion 2/2",
        "src": "http://d.duotuwang.com/2021/06/09/30135/0.jpg",
        "mtId": "eea797bd4f94853d",
        "mtName": "DJAWAPhoto",
        "href": "http://d.duotuwang.com/2021/06/09/30135/",
        "count": 53,
        "start": 67,
        "hasMtTag": 1,
        "hasJgTag": 0,
        "mtCount": 40
    },
    {
        "name": "[DJAWA Photo] Maruemon  & Mimmi  - Maid Mansion 1/2",
        "src": "http://d.duotuwang.com/2021/06/09/30134/0.jpg",
        "mtId": "eea797bd4f94853d",
        "mtName": "DJAWAPhoto",
        "href": "http://d.duotuwang.com/2021/06/09/30134/",
        "count": 66,
        "start": 1,
        "hasMtTag": 1,
        "hasJgTag": 0,
        "mtCount": 40
    },
    {
        "name": "[DJAWA Photo] Jeong Jenny  - Schwarz und Wei Katzenm\u00e4dchen",
        "src": "http://d.duotuwang.com/2021/06/09/30133/0.jpg",
        "mtId": "eea797bd4f94853d",
        "mtName": "DJAWAPhoto",
        "href": "http://d.duotuwang.com/2021/06/09/30133/",
        "count": 33,
        "start": 1,
        "hasMtTag": 1,
        "hasJgTag": 0,
        "mtCount": 40
    }
]