[
    {
        "name": "[DJAWA Photo] Song Hana - Ribboned Only",
        "src": "http://d.duotuwang.com/2021/05/25/28640/0.jpg",
        "mtId": "eea797bd4f94853d",
        "mtName": "DJAWAPhoto",
        "href": "http://d.duotuwang.com/2021/05/25/28640/",
        "count": 62,
        "start": 1,
        "hasMtTag": 1,
        "hasJgTag": 0,
        "mtCount": 40
    },
    {
        "name": "[DJAWA Photo] Sonson - Knotting Class",
        "src": "http://d.duotuwang.com/2021/05/12/29757/0.jpg",
        "mtId": "eea797bd4f94853d",
        "mtName": "DJAWAPhoto",
        "href": "http://d.duotuwang.com/2021/05/12/29757/",
        "count": 82,
        "start": 1,
        "hasMtTag": 1,
        "hasJgTag": 0,
        "mtCount": 40
    },
    {
        "name": "[DJAWA Photo] Bambi - Christmas Special 2021 + S.Ver",
        "src": "http://d.duotuwang.com/2021/05/12/29754/0.jpg",
        "mtId": "eea797bd4f94853d",
        "mtName": "DJAWAPhoto",
        "href": "http://d.duotuwang.com/2021/05/12/29754/",
        "count": 81,
        "start": 1,
        "hasMtTag": 1,
        "hasJgTag": 0,
        "mtCount": 40
    },
    {
        "name": "[DJAWA Photo] Bambi - Sheer Pink",
        "src": "http://d.duotuwang.com/2021/05/12/29753/0.jpg",
        "mtId": "eea797bd4f94853d",
        "mtName": "DJAWAPhoto",
        "href": "http://d.duotuwang.com/2021/05/12/29753/",
        "count": 27,
        "start": 1,
        "hasMtTag": 1,
        "hasJgTag": 0,
        "mtCount": 40
    },
    {
        "name": "[DJAWA Photo] Bambi - God Mother Heket ( Destiny Child )",
        "src": "http://d.duotuwang.com/2021/05/12/29752/0.jpg",
        "mtId": "eea797bd4f94853d",
        "mtName": "DJAWAPhoto",
        "href": "http://d.duotuwang.com/2021/05/12/29752/",
        "count": 50,
        "start": 1,
        "hasMtTag": 1,
        "hasJgTag": 0,
        "mtCount": 40
    },
    {
        "name": "[DJAWA Photo] Sonson - Pizza Girl",
        "src": "http://d.duotuwang.com/2021/05/12/29751/0.jpg",
        "mtId": "eea797bd4f94853d",
        "mtName": "DJAWAPhoto",
        "href": "http://d.duotuwang.com/2021/05/12/29751/",
        "count": 79,
        "start": 1,
        "hasMtTag": 1,
        "hasJgTag": 0,
        "mtCount": 40
    }
]