[
    {
        "name": "[DJAWA Photo] Pia - Darling in the FranXX Code 002 Vol.2 2/2",
        "src": "http://d.duotuwang.com/2021/05/10/27001/0.jpg",
        "mtId": "eea797bd4f94853d",
        "mtName": "DJAWAPhoto",
        "href": "http://d.duotuwang.com/2021/05/10/27001/",
        "count": 49,
        "start": 63,
        "hasMtTag": 1,
        "hasJgTag": 0,
        "mtCount": 40
    },
    {
        "name": "[DJAWA Photo] Pia - Darling in the FranXX Code 002 Vol.2 1/2",
        "src": "http://d.duotuwang.com/2021/05/10/27000/0.jpg",
        "mtId": "eea797bd4f94853d",
        "mtName": "DJAWAPhoto",
        "href": "http://d.duotuwang.com/2021/05/10/27000/",
        "count": 62,
        "start": 1,
        "hasMtTag": 1,
        "hasJgTag": 0,
        "mtCount": 40
    },
    {
        "name": "[DJAWA Photo] Bambi - Destiny Child Rita (Paradise Exiled)",
        "src": "http://d.duotuwang.com/2021/05/09/26435/0.jpg",
        "mtId": "eea797bd4f94853d",
        "mtName": "DJAWAPhoto",
        "href": "http://d.duotuwang.com/2021/05/09/26435/",
        "count": 81,
        "start": 1,
        "hasMtTag": 1,
        "hasJgTag": 0,
        "mtCount": 40
    },
    {
        "name": "[DJAWA Photo] Bambi - Queen of Passion",
        "src": "http://d.duotuwang.com/2021/05/06/29601/0.jpg",
        "mtId": "eea797bd4f94853d",
        "mtName": "DJAWAPhoto",
        "href": "http://d.duotuwang.com/2021/05/06/29601/",
        "count": 89,
        "start": 1,
        "hasMtTag": 1,
        "hasJgTag": 0,
        "mtCount": 40
    },
    {
        "name": "[DJAWA Photo] Son Ye-Eun - Romantic Winter Glamping 2/2",
        "src": "http://d.duotuwang.com/2021/04/27/29565/0.jpg",
        "mtId": "eea797bd4f94853d",
        "mtName": "DJAWAPhoto",
        "href": "http://d.duotuwang.com/2021/04/27/29565/",
        "count": 45,
        "start": 1,
        "hasMtTag": 1,
        "hasJgTag": 0,
        "mtCount": 40
    },
    {
        "name": "[DJAWA Photo] Son Ye-Eun - Romantic Winter Glamping 1/2",
        "src": "http://d.duotuwang.com/2021/04/27/29564/0.jpg",
        "mtId": "eea797bd4f94853d",
        "mtName": "DJAWAPhoto",
        "href": "http://d.duotuwang.com/2021/04/27/29564/",
        "count": 53,
        "start": 1,
        "hasMtTag": 1,
        "hasJgTag": 0,
        "mtCount": 40
    }
]