[
    {
        "name": "[DJAWA Photo] Hanari - Red Orange & Cool Mint",
        "src": "http://d.duotuwang.com/2019/11/11/27757/0.jpg",
        "mtId": "eea797bd4f94853d",
        "mtName": "DJAWAPhoto",
        "href": "http://d.duotuwang.com/2019/11/11/27757/",
        "count": 49,
        "start": 1,
        "hasMtTag": 1,
        "hasJgTag": 0,
        "mtCount": 40
    },
    {
        "name": "[DJAWA Photo] Sonson & Mozzi - Swimming Lessons #5",
        "src": "http://d.duotuwang.com/2019/10/06/25483/0.jpg",
        "mtId": "eea797bd4f94853d",
        "mtName": "DJAWAPhoto",
        "href": "http://d.duotuwang.com/2019/10/06/25483/",
        "count": 64,
        "start": 1,
        "hasMtTag": 1,
        "hasJgTag": 0,
        "mtCount": 40
    },
    {
        "name": "[DJAWA Photo] Mimmi \u2013 Cyberpunk Girl",
        "src": "http://d.duotuwang.com/2019/10/02/27760/0.jpg",
        "mtId": "eea797bd4f94853d",
        "mtName": "DJAWAPhoto",
        "href": "http://d.duotuwang.com/2019/10/02/27760/",
        "count": 40,
        "start": 1,
        "hasMtTag": 1,
        "hasJgTag": 0,
        "mtCount": 40
    },
    {
        "name": "[DJAWA Photo] \u59dc\u4ec1\u537f - Eromanga Sensei",
        "src": "http://d.duotuwang.com/2019/09/16/25757/0.jpg",
        "mtId": "eea797bd4f94853d",
        "mtName": "DJAWAPhoto",
        "href": "http://d.duotuwang.com/2019/09/16/25757/",
        "count": 40,
        "start": 1,
        "hasMtTag": 1,
        "hasJgTag": 0,
        "mtCount": 40
    },
    {
        "name": "[DJAWA Photo] Pian - Cat girl does not take classes",
        "src": "http://d.duotuwang.com/2019/09/11/27238/0.jpg",
        "mtId": "eea797bd4f94853d",
        "mtName": "DJAWAPhoto",
        "href": "http://d.duotuwang.com/2019/09/11/27238/",
        "count": 22,
        "start": 1,
        "hasMtTag": 1,
        "hasJgTag": 0,
        "mtCount": 40
    },
    {
        "name": "[DJAWA Photo] Bomi - Bomistry #3",
        "src": "http://d.duotuwang.com/2018/12/30/26330/0.jpg",
        "mtId": "eea797bd4f94853d",
        "mtName": "DJAWAPhoto",
        "href": "http://d.duotuwang.com/2018/12/30/26330/",
        "count": 58,
        "start": 1,
        "hasMtTag": 1,
        "hasJgTag": 0,
        "mtCount": 40
    }
]