[
    {
        "name": "[DJAWA Photo] Son Ye-Eun - Strawberry Girl",
        "src": "http://d.duotuwang.com/2021/09/22/31352/0.jpg",
        "mtId": "eea797bd4f94853d",
        "mtName": "DJAWAPhoto",
        "href": "http://d.duotuwang.com/2021/09/22/31352/",
        "count": 78,
        "start": 1,
        "hasMtTag": 1,
        "hasJgTag": 0,
        "mtCount": 40
    },
    {
        "name": "[DJAWA Photo] Son Ye-Eun - Retro Gaming Girl 2/2",
        "src": "http://d.duotuwang.com/2021/09/22/31351/0.jpg",
        "mtId": "eea797bd4f94853d",
        "mtName": "DJAWAPhoto",
        "href": "http://d.duotuwang.com/2021/09/22/31351/",
        "count": 51,
        "start": 1,
        "hasMtTag": 1,
        "hasJgTag": 0,
        "mtCount": 40
    },
    {
        "name": "[DJAWA Photo] Son Ye-Eun - Retro Gaming Girl 1/2",
        "src": "http://d.duotuwang.com/2021/09/22/31350/0.jpg",
        "mtId": "eea797bd4f94853d",
        "mtName": "DJAWAPhoto",
        "href": "http://d.duotuwang.com/2021/09/22/31350/",
        "count": 44,
        "start": 1,
        "hasMtTag": 1,
        "hasJgTag": 0,
        "mtCount": 40
    },
    {
        "name": "[DJAWA Photo] Son Ye-Eun - Knotting Class",
        "src": "http://d.duotuwang.com/2021/09/22/31349/0.jpg",
        "mtId": "eea797bd4f94853d",
        "mtName": "DJAWAPhoto",
        "href": "http://d.duotuwang.com/2021/09/22/31349/",
        "count": 83,
        "start": 1,
        "hasMtTag": 1,
        "hasJgTag": 0,
        "mtCount": 40
    },
    {
        "name": "[DJAWA Photo] Koby \u2013 The Curvy Spider Girl",
        "src": "http://d.duotuwang.com/2021/09/22/31348/0.jpg",
        "mtId": "eea797bd4f94853d",
        "mtName": "DJAWAPhoto",
        "href": "http://d.duotuwang.com/2021/09/22/31348/",
        "count": 47,
        "start": 1,
        "hasMtTag": 1,
        "hasJgTag": 0,
        "mtCount": 40
    },
    {
        "name": "[DJAWA Photo] Bambi - The cat I picked up turned into a girl 3/3",
        "src": "http://d.duotuwang.com/2021/09/08/29080/0.jpg",
        "mtId": "eea797bd4f94853d",
        "mtName": "DJAWAPhoto",
        "href": "http://d.duotuwang.com/2021/09/08/29080/",
        "count": 88,
        "start": 1,
        "hasMtTag": 1,
        "hasJgTag": 0,
        "mtCount": 40
    }
]