[
    {
        "name": "[XIUREN]\u79c0\u4eba\u7f51 No.5302 \u5948\u6c90\u5b50",
        "src": "http://d.duotuwang.com/2022/07/20/30637/0.jpg",
        "mtId": "82b929f61117c6f6",
        "mtName": "\u5948\u6c90\u5b50",
        "jgId": "xiuren",
        "jgName": "\u79c0\u4eba\u7f51",
        "href": "http://d.duotuwang.com/2022/07/20/30637/",
        "count": 46,
        "start": 1,
        "hasMtTag": 1,
        "hasJgTag": 1,
        "mtCount": 4,
        "jgCount": 750
    },
    {
        "name": "[XIUREN]\u79c0\u4eba\u7f51 No.5222 \u5948\u6c90\u5b50",
        "src": "http://d.duotuwang.com/2022/07/04/30445/0.jpg",
        "mtId": "82b929f61117c6f6",
        "mtName": "\u5948\u6c90\u5b50",
        "jgId": "xiuren",
        "jgName": "\u79c0\u4eba\u7f51",
        "href": "http://d.duotuwang.com/2022/07/04/30445/",
        "count": 47,
        "start": 1,
        "hasMtTag": 1,
        "hasJgTag": 1,
        "mtCount": 4,
        "jgCount": 750
    },
    {
        "name": "[XIUREN]\u79c0\u4eba\u7f51 No.5019 \u5948\u6c90\u5b50",
        "src": "http://d.duotuwang.com/2022/05/17/29898/0.jpg",
        "mtId": "82b929f61117c6f6",
        "mtName": "\u5948\u6c90\u5b50",
        "jgId": "xiuren",
        "jgName": "\u79c0\u4eba\u7f51",
        "href": "http://d.duotuwang.com/2022/05/17/29898/",
        "count": 52,
        "start": 1,
        "hasMtTag": 1,
        "hasJgTag": 1,
        "mtCount": 4,
        "jgCount": 750
    },
    {
        "name": "[XIUREN]\u79c0\u4eba\u7f51 No.4987 \u5948\u6c90\u5b50",
        "src": "http://d.duotuwang.com/2022/05/10/29723/0.jpg",
        "mtId": "82b929f61117c6f6",
        "mtName": "\u5948\u6c90\u5b50",
        "jgId": "xiuren",
        "jgName": "\u79c0\u4eba\u7f51",
        "href": "http://d.duotuwang.com/2022/05/10/29723/",
        "count": 69,
        "start": 1,
        "hasMtTag": 1,
        "hasJgTag": 1,
        "mtCount": 4,
        "jgCount": 750
    },
    {
        "name": "[XIUREN]\u79c0\u4eba\u7f51 No.4895 \u5948\u6c90\u5b50",
        "src": "http://d.duotuwang.com/2022/04/20/29508/0.jpg",
        "mtId": "82b929f61117c6f6",
        "mtName": "\u5948\u6c90\u5b50",
        "jgId": "xiuren",
        "jgName": "\u79c0\u4eba\u7f51",
        "href": "http://d.duotuwang.com/2022/04/20/29508/",
        "count": 63,
        "start": 1,
        "hasMtTag": 1,
        "hasJgTag": 1,
        "mtCount": 4,
        "jgCount": 750
    },
    {
        "name": "[XIUREN]\u79c0\u4eba\u7f51 No.4866 \u5948\u6c90\u5b50",
        "src": "http://d.duotuwang.com/2022/04/14/29477/0.jpg",
        "mtId": "82b929f61117c6f6",
        "mtName": "\u5948\u6c90\u5b50",
        "jgId": "xiuren",
        "jgName": "\u79c0\u4eba\u7f51",
        "href": "http://d.duotuwang.com/2022/04/14/29477/",
        "count": 53,
        "start": 1,
        "hasMtTag": 1,
        "hasJgTag": 1,
        "mtCount": 4,
        "jgCount": 750
    }
]