[
    {
        "name": "[MiStar]\u9b45\u598d\u793e VOL.324 \u9648\u601d\u742aArt",
        "src": "http://d.duotuwang.com/2020/04/17/20295/0.jpg",
        "mtId": "ea3b2d75cff2e318",
        "mtName": "\u9648\u601d\u742aArt",
        "jgId": "mistar",
        "jgName": "\u9b45\u598d\u793e",
        "href": "http://d.duotuwang.com/2020/04/17/20295/",
        "count": 43,
        "start": 1,
        "hasMtTag": 1,
        "hasJgTag": 1,
        "mtCount": 4,
        "jgCount": 55
    },
    {
        "name": "[UGirlsAPP]\u7231\u5c24\u7269 No.1643 \u7231\u5230\u5634\u89d2\u4e0a\u626c \u840c\u742a\u742a&\u9648\u601d\u742a&\u5c0f\u9ed1&\u82cf\u6cab&\u68a6\u59ae&\u82b7\u5983\u513f&\u7c73\u7c73",
        "src": "http://d.duotuwang.com/2019/11/18/18678/0.jpg",
        "mtId": "66729276e15617cd",
        "mtName": "\u840c\u742a\u742a",
        "jgId": "ugirlsapp",
        "jgName": "\u7231\u5c24\u7269",
        "href": "http://d.duotuwang.com/2019/11/18/18678/",
        "count": 35,
        "start": 1,
        "hasMtTag": 1,
        "hasJgTag": 1,
        "mtCount": 7,
        "jgCount": 397
    },
    {
        "name": "[IMISS]\u7231\u871c\u793e VOL.345 \u9648\u601d\u742aArt",
        "src": "http://d.duotuwang.com/2019/06/04/16767/0.jpg",
        "mtId": "ea3b2d75cff2e318",
        "mtName": "\u9648\u601d\u742aArt",
        "jgId": "imiss",
        "jgName": "\u7231\u871c\u793e",
        "href": "http://d.duotuwang.com/2019/06/04/16767/",
        "count": 37,
        "start": 1,
        "hasMtTag": 1,
        "hasJgTag": 1,
        "mtCount": 4,
        "jgCount": 116
    },
    {
        "name": "[IMISS]\u7231\u871c\u793e VOL.340 \u9648\u601d\u742aArt",
        "src": "http://d.duotuwang.com/2019/04/30/16251/0.jpg",
        "mtId": "ea3b2d75cff2e318",
        "mtName": "\u9648\u601d\u742aArt",
        "jgId": "imiss",
        "jgName": "\u7231\u871c\u793e",
        "href": "http://d.duotuwang.com/2019/04/30/16251/",
        "count": 38,
        "start": 1,
        "hasMtTag": 1,
        "hasJgTag": 1,
        "mtCount": 4,
        "jgCount": 116
    },
    {
        "name": "[IMISS]\u7231\u871c\u793e VOL.313 \u9648\u601d\u742aArt",
        "src": "http://d.duotuwang.com/2018/12/12/10165/0.jpg",
        "mtId": "ea3b2d75cff2e318",
        "mtName": "\u9648\u601d\u742aArt",
        "jgId": "imiss",
        "jgName": "\u7231\u871c\u793e",
        "href": "http://d.duotuwang.com/2018/12/12/10165/",
        "count": 36,
        "start": 1,
        "hasMtTag": 1,
        "hasJgTag": 1,
        "mtCount": 4,
        "jgCount": 116
    },
    {
        "name": "[UGirlsAPP]\u7231\u5c24\u7269 No.1260 Angela\u695a\u695a&\u9648\u601d\u742a \u6027\u611f\u4e00\u5413",
        "src": "http://d.duotuwang.com/2018/10/31/9891/0.jpg",
        "mtId": "ea3b2d75cff2e318",
        "mtName": "\u9648\u601d\u742a",
        "jgId": "ugirlsapp",
        "jgName": "\u7231\u5c24\u7269",
        "href": "http://d.duotuwang.com/2018/10/31/9891/",
        "count": 35,
        "start": 1,
        "hasMtTag": 1,
        "hasJgTag": 1,
        "mtCount": 4,
        "jgCount": 397
    }
]