[
    {
        "name": "[UGirlsAPP]\u7231\u5c24\u7269 No.2356 \u6a58\u5b50 \u6a58\u5b50\u719f\u4e86",
        "src": "http://d.duotuwang.com/2022/06/27/30500/0.jpg",
        "mtId": "eed9cd709ae5ce17",
        "mtName": "\u6a58\u5b50",
        "jgId": "ugirlsapp",
        "jgName": "\u7231\u5c24\u7269",
        "href": "http://d.duotuwang.com/2022/06/27/30500/",
        "count": 35,
        "start": 1,
        "hasMtTag": 1,
        "hasJgTag": 1,
        "mtCount": 2,
        "jgCount": 397
    },
    {
        "name": "[UGirlsAPP]\u7231\u5c24\u7269 No.2184 \u6a58\u5b50 \u7eaf\u6b32\u98ce\u5c11\u5973",
        "src": "http://d.duotuwang.com/2021/10/01/26845/0.jpg",
        "mtId": "eed9cd709ae5ce17",
        "mtName": "\u6a58\u5b50",
        "jgId": "ugirlsapp",
        "jgName": "\u7231\u5c24\u7269",
        "href": "http://d.duotuwang.com/2021/10/01/26845/",
        "count": 35,
        "start": 1,
        "hasMtTag": 1,
        "hasJgTag": 1,
        "mtCount": 2,
        "jgCount": 397
    },
    {
        "name": "[YALAYI]\u96c5\u62c9\u4f0a Y768 \u6a58\u5b50 \u591c\u6b63\u957f",
        "src": "http://d.duotuwang.com/2021/02/26/24375/0.jpg",
        "mtId": "eed9cd709ae5ce17",
        "mtName": "\u6a58\u5b50",
        "jgId": "yalayi",
        "jgName": "\u96c5\u62c9\u4f0a",
        "href": "http://d.duotuwang.com/2021/02/26/24375/",
        "count": 37,
        "start": 1,
        "hasMtTag": 1,
        "hasJgTag": 1,
        "mtCount": 2,
        "jgCount": 156
    },
    {
        "name": "[YALAYI]\u96c5\u62c9\u4f0a Y762 \u6a58\u5b50 \u6682\u65f6\u7684\u82b1\u513f",
        "src": "http://d.duotuwang.com/2021/02/05/23970/0.jpg",
        "mtId": "eed9cd709ae5ce17",
        "mtName": "\u6a58\u5b50",
        "jgId": "yalayi",
        "jgName": "\u96c5\u62c9\u4f0a",
        "href": "http://d.duotuwang.com/2021/02/05/23970/",
        "count": 41,
        "start": 1,
        "hasMtTag": 1,
        "hasJgTag": 1,
        "mtCount": 2,
        "jgCount": 156
    },
    {
        "name": "[UGirlsAPP]\u7231\u5c24\u7269 No.1887 \u6a58\u5b50 \u9752\u6625\u5b88\u5219",
        "src": "http://d.duotuwang.com/2020/08/14/21475/0.jpg",
        "mtId": "eed9cd709ae5ce17",
        "mtName": "\u6a58\u5b50",
        "jgId": "ugirlsapp",
        "jgName": "\u7231\u5c24\u7269",
        "href": "http://d.duotuwang.com/2020/08/14/21475/",
        "count": 35,
        "start": 1,
        "hasMtTag": 1,
        "hasJgTag": 1,
        "mtCount": 2,
        "jgCount": 397
    },
    {
        "name": "[UGirlsAPP]\u7231\u5c24\u7269 No.1706 \u6a58\u5b50 \u6e05\u65b0\u7684\u5c0f\u5973\u5b69",
        "src": "http://d.duotuwang.com/2020/01/20/19428/0.jpg",
        "mtId": "eed9cd709ae5ce17",
        "mtName": "\u6a58\u5b50",
        "jgId": "ugirlsapp",
        "jgName": "\u7231\u5c24\u7269",
        "href": "http://d.duotuwang.com/2020/01/20/19428/",
        "count": 35,
        "start": 1,
        "hasMtTag": 1,
        "hasJgTag": 1,
        "mtCount": 2,
        "jgCount": 397
    }
]