[
    {
        "name": "[MiStar]\u9b45\u598d\u793e VOL.315 \u9c8d\u59aeboonie",
        "src": "http://d.duotuwang.com/2019/12/10/18898/0.jpg",
        "mtId": "7d8f4178d01ca298",
        "mtName": "\u9c8d\u59aeboonie",
        "jgId": "mistar",
        "jgName": "\u9b45\u598d\u793e",
        "href": "http://d.duotuwang.com/2019/12/10/18898/",
        "count": 40,
        "start": 1,
        "hasMtTag": 1,
        "hasJgTag": 1,
        "mtCount": 1,
        "jgCount": 55
    },
    {
        "name": "[MFStar]\u6a21\u8303\u5b66\u9662 VOL.227 \u9c8d\u59aeboonie",
        "src": "http://d.duotuwang.com/2019/11/07/18498/0.jpg",
        "mtId": "7d8f4178d01ca298",
        "mtName": "\u9c8d\u59aeboonie",
        "jgId": "mfstar",
        "jgName": "\u6a21\u8303\u5b66\u9662",
        "href": "http://d.duotuwang.com/2019/11/07/18498/",
        "count": 35,
        "start": 1,
        "hasMtTag": 1,
        "hasJgTag": 1,
        "mtCount": 1,
        "jgCount": 94
    }
]