[
    {
        "name": "[IMISS]\u7231\u871c\u793e VOL.332 \u9165\u5c0f\u767d",
        "src": "http://d.duotuwang.com/2019/03/20/14586/0.jpg",
        "mtId": "fe1ae6bd00d9eb33",
        "mtName": "\u9165\u5c0f\u767d",
        "jgId": "imiss",
        "jgName": "\u7231\u871c\u793e",
        "href": "http://d.duotuwang.com/2019/03/20/14586/",
        "count": 39,
        "start": 1,
        "hasMtTag": 1,
        "hasJgTag": 1,
        "mtCount": 1,
        "jgCount": 116
    },
    {
        "name": "[IMISS]\u7231\u871c\u793e VOL.297 \u9165\u5c0f\u767d",
        "src": "http://d.duotuwang.com/2018/10/11/9788/0.jpg",
        "mtId": "fe1ae6bd00d9eb33",
        "mtName": "\u9165\u5c0f\u767d",
        "jgId": "imiss",
        "jgName": "\u7231\u871c\u793e",
        "href": "http://d.duotuwang.com/2018/10/11/9788/",
        "count": 44,
        "start": 1,
        "hasMtTag": 1,
        "hasJgTag": 1,
        "mtCount": 1,
        "jgCount": 116
    }
]