[
    {
        "name": "Assistant",
        "src": "http://d.duotuwang.com/2021/04/27/29574/0.jpg",
        "mtId": "04b9ceff6715d2b9",
        "mtName": "Assistant",
        "href": "http://d.duotuwang.com/2021/04/27/29574/",
        "count": 64,
        "start": 1,
        "hasMtTag": 1,
        "hasJgTag": 0,
        "mtCount": 1
    }
]