[
    {
        "name": "[XIUREN]\u79c0\u4eba\u7f51 No.617 BOBO_xk",
        "src": "http://d.duotuwang.com/2016/10/14/1745/0.jpg",
        "mtId": "9ec2e6d1d5afb272",
        "mtName": "BOBO_xk",
        "jgId": "xiuren",
        "jgName": "\u79c0\u4eba\u7f51",
        "href": "http://d.duotuwang.com/2016/10/14/1745/",
        "count": 49,
        "start": 1,
        "hasMtTag": 1,
        "hasJgTag": 1,
        "mtCount": 1,
        "jgCount": 750
    }
]