[
    {
        "name": "[YOUMI]\u5c24\u871c\u835f VOL.758 \u827e\u9759\u9999",
        "src": "http://d.duotuwang.com/2022/03/01/28742/0.jpg",
        "mtId": "10d2870a1d7cd583",
        "mtName": "\u827e\u9759\u9999",
        "jgId": "youmi",
        "jgName": "\u5c24\u871c\u835f",
        "href": "http://d.duotuwang.com/2022/03/01/28742/",
        "count": 48,
        "start": 1,
        "hasMtTag": 1,
        "hasJgTag": 1,
        "mtCount": 9,
        "jgCount": 143
    },
    {
        "name": "[YOUMI]\u5c24\u871c\u835f VOL.756 \u827e\u9759\u9999",
        "src": "http://d.duotuwang.com/2022/02/24/28740/0.jpg",
        "mtId": "10d2870a1d7cd583",
        "mtName": "\u827e\u9759\u9999",
        "jgId": "youmi",
        "jgName": "\u5c24\u871c\u835f",
        "href": "http://d.duotuwang.com/2022/02/24/28740/",
        "count": 47,
        "start": 1,
        "hasMtTag": 1,
        "hasJgTag": 1,
        "mtCount": 9,
        "jgCount": 143
    },
    {
        "name": "[XIUREN]\u79c0\u4eba\u7f51 No.4613 \u827e\u9759\u9999",
        "src": "http://d.duotuwang.com/2022/02/21/28590/0.jpg",
        "mtId": "10d2870a1d7cd583",
        "mtName": "\u827e\u9759\u9999",
        "jgId": "xiuren",
        "jgName": "\u79c0\u4eba\u7f51",
        "href": "http://d.duotuwang.com/2022/02/21/28590/",
        "count": 40,
        "start": 1,
        "hasMtTag": 1,
        "hasJgTag": 1,
        "mtCount": 9,
        "jgCount": 750
    },
    {
        "name": "[HuaYang]\u82b1\u6f3eshow VOL.482 \u827e\u9759\u9999",
        "src": "http://d.duotuwang.com/2022/02/14/28457/0.jpg",
        "mtId": "10d2870a1d7cd583",
        "mtName": "\u827e\u9759\u9999",
        "jgId": "huayang",
        "jgName": "\u82b1\u6f3eshow",
        "href": "http://d.duotuwang.com/2022/02/14/28457/",
        "count": 51,
        "start": 1,
        "hasMtTag": 1,
        "hasJgTag": 1,
        "mtCount": 9,
        "jgCount": 86
    },
    {
        "name": "[YOUMI]\u5c24\u871c\u835f VOL.750 \u827e\u9759\u9999",
        "src": "http://d.duotuwang.com/2022/02/10/28473/0.jpg",
        "mtId": "10d2870a1d7cd583",
        "mtName": "\u827e\u9759\u9999",
        "jgId": "youmi",
        "jgName": "\u5c24\u871c\u835f",
        "href": "http://d.duotuwang.com/2022/02/10/28473/",
        "count": 46,
        "start": 1,
        "hasMtTag": 1,
        "hasJgTag": 1,
        "mtCount": 9,
        "jgCount": 143
    },
    {
        "name": "[XIUREN]\u79c0\u4eba\u7f51 No.4478 \u827e\u9759\u9999",
        "src": "http://d.duotuwang.com/2022/01/18/28196/0.jpg",
        "mtId": "10d2870a1d7cd583",
        "mtName": "\u827e\u9759\u9999",
        "jgId": "xiuren",
        "jgName": "\u79c0\u4eba\u7f51",
        "href": "http://d.duotuwang.com/2022/01/18/28196/",
        "count": 50,
        "start": 1,
        "hasMtTag": 1,
        "hasJgTag": 1,
        "mtCount": 9,
        "jgCount": 750
    }
]