[
    {
        "name": "[YOUMI]\u5c24\u871c\u835f VOL.727 \u827e\u9759\u9999",
        "src": "http://d.duotuwang.com/2021/12/08/27699/0.jpg",
        "mtId": "10d2870a1d7cd583",
        "mtName": "\u827e\u9759\u9999",
        "jgId": "youmi",
        "jgName": "\u5c24\u871c\u835f",
        "href": "http://d.duotuwang.com/2021/12/08/27699/",
        "count": 44,
        "start": 1,
        "hasMtTag": 1,
        "hasJgTag": 1,
        "mtCount": 9,
        "jgCount": 143
    },
    {
        "name": "[XIUREN]\u79c0\u4eba\u7f51 No.4288 \u827e\u9759\u9999",
        "src": "http://d.duotuwang.com/2021/12/01/27669/0.jpg",
        "mtId": "10d2870a1d7cd583",
        "mtName": "\u827e\u9759\u9999",
        "jgId": "xiuren",
        "jgName": "\u79c0\u4eba\u7f51",
        "href": "http://d.duotuwang.com/2021/12/01/27669/",
        "count": 44,
        "start": 1,
        "hasMtTag": 1,
        "hasJgTag": 1,
        "mtCount": 9,
        "jgCount": 750
    },
    {
        "name": "[HuaYang]\u82b1\u6f3eshow VOL.470 \u827e\u9759\u9999",
        "src": "http://d.duotuwang.com/2021/11/29/27538/0.jpg",
        "mtId": "10d2870a1d7cd583",
        "mtName": "\u827e\u9759\u9999",
        "jgId": "huayang",
        "jgName": "\u82b1\u6f3eshow",
        "href": "http://d.duotuwang.com/2021/11/29/27538/",
        "count": 49,
        "start": 1,
        "hasMtTag": 1,
        "hasJgTag": 1,
        "mtCount": 9,
        "jgCount": 86
    },
    {
        "name": "[YOUMI]\u5c24\u871c\u835f VOL.721 \u827e\u9759\u9999",
        "src": "http://d.duotuwang.com/2021/11/23/27474/0.jpg",
        "mtId": "10d2870a1d7cd583",
        "mtName": "\u827e\u9759\u9999",
        "jgId": "youmi",
        "jgName": "\u5c24\u871c\u835f",
        "href": "http://d.duotuwang.com/2021/11/23/27474/",
        "count": 50,
        "start": 1,
        "hasMtTag": 1,
        "hasJgTag": 1,
        "mtCount": 9,
        "jgCount": 143
    },
    {
        "name": "[HuaYang]\u82b1\u6f3eshow VOL.465 \u827e\u9759\u9999",
        "src": "http://d.duotuwang.com/2021/11/17/27267/0.jpg",
        "mtId": "10d2870a1d7cd583",
        "mtName": "\u827e\u9759\u9999",
        "jgId": "huayang",
        "jgName": "\u82b1\u6f3eshow",
        "href": "http://d.duotuwang.com/2021/11/17/27267/",
        "count": 42,
        "start": 1,
        "hasMtTag": 1,
        "hasJgTag": 1,
        "mtCount": 9,
        "jgCount": 86
    },
    {
        "name": "[XIUREN]\u79c0\u4eba\u7f51 No.4201 \u827e\u9759\u9999",
        "src": "http://d.duotuwang.com/2021/11/11/27410/0.jpg",
        "mtId": "10d2870a1d7cd583",
        "mtName": "\u827e\u9759\u9999",
        "jgId": "xiuren",
        "jgName": "\u79c0\u4eba\u7f51",
        "href": "http://d.duotuwang.com/2021/11/11/27410/",
        "count": 44,
        "start": 1,
        "hasMtTag": 1,
        "hasJgTag": 1,
        "mtCount": 9,
        "jgCount": 750
    }
]