[
    {
        "name": "[CANDY]\u7cd6\u679c\u753b\u62a5 VOL.007 \u6218\u59dd\u7fbdZina",
        "src": "http://d.duotuwang.com/2017/01/09/2031/0.jpg",
        "mtId": "b069fa87f260c38e",
        "mtName": "\u6218\u59dd\u7fbdZina",
        "jgId": "candy",
        "jgName": "\u7cd6\u679c\u753b\u62a5",
        "href": "http://d.duotuwang.com/2017/01/09/2031/",
        "count": 54,
        "start": 1,
        "hasMtTag": 1,
        "hasJgTag": 1,
        "mtCount": 3,
        "jgCount": 15
    },
    {
        "name": "[CANDY]\u7cd6\u679c\u753b\u62a5 VOL.006 FoxYini\u5b5f\u72d0\u72f8",
        "src": "http://d.duotuwang.com/2017/01/04/2004/0.jpg",
        "mtId": "5ee0e185d3cabf77",
        "mtName": "FoxYini\u5b5f\u72d0\u72f8",
        "jgId": "candy",
        "jgName": "\u7cd6\u679c\u753b\u62a5",
        "href": "http://d.duotuwang.com/2017/01/04/2004/",
        "count": 53,
        "start": 1,
        "hasMtTag": 1,
        "hasJgTag": 1,
        "mtCount": 9,
        "jgCount": 15
    },
    {
        "name": "[CANDY]\u7cd6\u679c\u753b\u62a5 VOL.005 \u6a21\u7279\u5408\u96c6",
        "src": "http://d.duotuwang.com/2016/12/21/1955/0.jpg",
        "jgId": "candy",
        "jgName": "\u7cd6\u679c\u753b\u62a5",
        "href": "http://d.duotuwang.com/2016/12/21/1955/",
        "count": 38,
        "start": 1,
        "hasMtTag": 0,
        "hasJgTag": 1,
        "jgCount": 15
    },
    {
        "name": "[CANDY]\u7cd6\u679c\u753b\u62a5 VOL.004 \u7433\u7433ailin",
        "src": "http://d.duotuwang.com/2016/12/20/1958/0.jpg",
        "mtId": "68cef523a35aff27",
        "mtName": "\u7433\u7433ailin",
        "jgId": "candy",
        "jgName": "\u7cd6\u679c\u753b\u62a5",
        "href": "http://d.duotuwang.com/2016/12/20/1958/",
        "count": 50,
        "start": 1,
        "hasMtTag": 1,
        "hasJgTag": 1,
        "mtCount": 4,
        "jgCount": 15
    },
    {
        "name": "[CANDY]\u7cd6\u679c\u753b\u62a5 VOL.003 \u6218\u59dd\u7fbdZina",
        "src": "http://d.duotuwang.com/2016/12/14/1971/0.jpg",
        "mtId": "b069fa87f260c38e",
        "mtName": "\u6218\u59dd\u7fbdZina",
        "jgId": "candy",
        "jgName": "\u7cd6\u679c\u753b\u62a5",
        "href": "http://d.duotuwang.com/2016/12/14/1971/",
        "count": 66,
        "start": 1,
        "hasMtTag": 1,
        "hasJgTag": 1,
        "mtCount": 3,
        "jgCount": 15
    },
    {
        "name": "[CANDY]\u7cd6\u679c\u753b\u62a5 VOL.002 \u8c22\u82b7\u99a8Sindy",
        "src": "http://d.duotuwang.com/2016/12/09/1942/0.jpg",
        "mtId": "c380654937426211",
        "mtName": "\u8c22\u82b7\u99a8Sindy",
        "jgId": "candy",
        "jgName": "\u7cd6\u679c\u753b\u62a5",
        "href": "http://d.duotuwang.com/2016/12/09/1942/",
        "count": 56,
        "start": 1,
        "hasMtTag": 1,
        "hasJgTag": 1,
        "mtCount": 5,
        "jgCount": 15
    }
]