[
    {
        "name": "[UGirlsAPP]\u7231\u5c24\u7269 No.2315 \u4f55\u5468\u5468 \u6f47\u6d12\u7231",
        "src": "http://d.duotuwang.com/2022/04/06/29250/0.jpg",
        "mtId": "12333c2b78b63a31",
        "mtName": "\u4f55\u5468\u5468",
        "jgId": "ugirlsapp",
        "jgName": "\u7231\u5c24\u7269",
        "href": "http://d.duotuwang.com/2022/04/06/29250/",
        "count": 35,
        "start": 1,
        "hasMtTag": 1,
        "hasJgTag": 1,
        "mtCount": 1,
        "jgCount": 397
    },
    {
        "name": " [UGirlsAPP]\u7231\u5c24\u7269 No.2080 \u6b32\u76d6\u8ff7\u7269 \u4f55\u5468\u5468&\u97e9\u5b89\u742a&\u91d1\u4ee5\u6657&\u7ae5\u5029&\u5c0f\u67d4&\u5b89\u59ae&\u5f90\u8431\u8431",
        "src": "http://d.duotuwang.com/2021/05/05/25055/0.jpg",
        "mtId": "e2f8016089f2cc79",
        "mtName": "\u5c0f\u67d4",
        "jgId": "ugirlsapp",
        "jgName": "\u7231\u5c24\u7269",
        "href": "http://d.duotuwang.com/2021/05/05/25055/",
        "count": 34,
        "start": 1,
        "hasMtTag": 1,
        "hasJgTag": 1,
        "mtCount": 1,
        "jgCount": 397
    },
    {
        "name": "[UGirlsAPP]\u7231\u5c24\u7269 No.1335 \u4f55\u5468\u5468 \u4f55\u4e0d\u6f47\u6d12",
        "src": "http://d.duotuwang.com/2019/01/14/10302/0.jpg",
        "jgId": "ugirlsapp",
        "jgName": "\u7231\u5c24\u7269",
        "href": "http://d.duotuwang.com/2019/01/14/10302/",
        "count": 35,
        "start": 1,
        "hasMtTag": 0,
        "hasJgTag": 1,
        "jgCount": 397
    },
    {
        "name": "[UGirls]\u5c24\u679c\u7f51 U365 \u4f55\u5468\u5468",
        "src": "http://d.duotuwang.com/2018/05/09/8782/0.jpg",
        "jgId": "ugirls",
        "jgName": "\u5c24\u679c\u7f51",
        "href": "http://d.duotuwang.com/2018/05/09/8782/",
        "count": 65,
        "start": 1,
        "hasMtTag": 0,
        "hasJgTag": 1,
        "jgCount": 79
    },
    {
        "name": "[UGirlsAPP]\u7231\u5c24\u7269 No.1079 \u4f55\u5468\u5468",
        "src": "http://d.duotuwang.com/2018/05/03/8701/0.jpg",
        "jgId": "ugirlsapp",
        "jgName": "\u7231\u5c24\u7269",
        "href": "http://d.duotuwang.com/2018/05/03/8701/",
        "count": 35,
        "start": 1,
        "hasMtTag": 0,
        "hasJgTag": 1,
        "jgCount": 397
    }
]