[
    {
        "name": "[UGirls]\u5c24\u679c\u7f51 T006 \u5f20\u6829\u83f2 \u6625\u8282\u589e\u520a",
        "src": "http://d.duotuwang.com/2015/02/20/3068/0.jpg",
        "mtId": "99b30382c76d0f89",
        "mtName": "\u5f20\u6829\u83f2",
        "jgId": "ugirls",
        "jgName": "\u5c24\u679c\u7f51",
        "href": "http://d.duotuwang.com/2015/02/20/3068/",
        "count": 59,
        "start": 1,
        "hasMtTag": 1,
        "hasJgTag": 1,
        "mtCount": 2,
        "jgCount": 79
    },
    {
        "name": "[UGirls]\u5c24\u679c\u7f51 U066 \u5f20\u6829\u83f2",
        "src": "http://d.duotuwang.com/2015/02/06/3070/0.jpg",
        "mtId": "99b30382c76d0f89",
        "mtName": "\u5f20\u6829\u83f2",
        "jgId": "ugirls",
        "jgName": "\u5c24\u679c\u7f51",
        "href": "http://d.duotuwang.com/2015/02/06/3070/",
        "count": 67,
        "start": 1,
        "hasMtTag": 1,
        "hasJgTag": 1,
        "mtCount": 2,
        "jgCount": 79
    },
    {
        "name": "[UGirls]\u5c24\u679c\u7f51 E048 \u5f20\u6829\u83f2",
        "src": "http://d.duotuwang.com/2014/10/21/3051/0.jpg",
        "mtId": "99b30382c76d0f89",
        "mtName": "\u5f20\u6829\u83f2",
        "jgId": "ugirls",
        "jgName": "\u5c24\u679c\u7f51",
        "href": "http://d.duotuwang.com/2014/10/21/3051/",
        "count": 35,
        "start": 1,
        "hasMtTag": 1,
        "hasJgTag": 1,
        "mtCount": 2,
        "jgCount": 79
    }
]