[
    {
        "name": "[DKGirl]DK\u5fa1\u5973\u90ce VOL.051 \u4ed3\u4e95\u4f18\u9999",
        "src": "http://d.duotuwang.com/2017/12/22/6709/0.jpg",
        "mtId": "3734ba1c3fb8c9ed",
        "mtName": "\u4ed3\u4e95\u4f18\u9999",
        "jgId": "dkgirl",
        "jgName": "DK\u5fa1\u5973\u90ce",
        "href": "http://d.duotuwang.com/2017/12/22/6709/",
        "count": 57,
        "start": 1,
        "hasMtTag": 1,
        "hasJgTag": 1,
        "mtCount": 9,
        "jgCount": 20
    },
    {
        "name": "[DKGirl]DK\u5fa1\u5973\u90ce VOL.050 \u68a6\u5029",
        "src": "http://d.duotuwang.com/2017/12/19/6682/0.jpg",
        "mtId": "715abc8945b1f512",
        "mtName": "\u68a6\u5029",
        "jgId": "dkgirl",
        "jgName": "DK\u5fa1\u5973\u90ce",
        "href": "http://d.duotuwang.com/2017/12/19/6682/",
        "count": 52,
        "start": 1,
        "hasMtTag": 1,
        "hasJgTag": 1,
        "mtCount": 1,
        "jgCount": 20
    },
    {
        "name": "[DKGirl]DK\u5fa1\u5973\u90ce VOL.049 \u6a21\u7279\u5408\u96c6",
        "src": "http://d.duotuwang.com/2017/12/08/6669/0.jpg",
        "jgId": "dkgirl",
        "jgName": "DK\u5fa1\u5973\u90ce",
        "href": "http://d.duotuwang.com/2017/12/08/6669/",
        "count": 51,
        "start": 1,
        "hasMtTag": 0,
        "hasJgTag": 1,
        "jgCount": 20
    },
    {
        "name": "[DKGirl]DK\u5fa1\u5973\u90ce VOL.048 \u96ea\u5343\u5bfb",
        "src": "http://d.duotuwang.com/2017/12/01/6656/0.jpg",
        "mtId": "8efc6394c13dbd28",
        "mtName": "\u96ea\u5343\u5bfb",
        "jgId": "dkgirl",
        "jgName": "DK\u5fa1\u5973\u90ce",
        "href": "http://d.duotuwang.com/2017/12/01/6656/",
        "count": 48,
        "start": 1,
        "hasMtTag": 1,
        "hasJgTag": 1,
        "mtCount": 4,
        "jgCount": 20
    },
    {
        "name": "[DKGirl]DK\u5fa1\u5973\u90ce VOL.047 \u6885\u54e5",
        "src": "http://d.duotuwang.com/2017/11/27/6421/0.jpg",
        "mtId": "671c51735b38bac6",
        "mtName": "\u6885\u54e5",
        "jgId": "dkgirl",
        "jgName": "DK\u5fa1\u5973\u90ce",
        "href": "http://d.duotuwang.com/2017/11/27/6421/",
        "count": 55,
        "start": 1,
        "hasMtTag": 1,
        "hasJgTag": 1,
        "mtCount": 1,
        "jgCount": 20
    },
    {
        "name": "[DKGirl]DK\u5fa1\u5973\u90ce VOL.046 \u4ed3\u4e95\u4f18\u9999",
        "src": "http://d.duotuwang.com/2017/11/17/6403/0.jpg",
        "mtId": "3734ba1c3fb8c9ed",
        "mtName": "\u4ed3\u4e95\u4f18\u9999",
        "jgId": "dkgirl",
        "jgName": "DK\u5fa1\u5973\u90ce",
        "href": "http://d.duotuwang.com/2017/11/17/6403/",
        "count": 56,
        "start": 1,
        "hasMtTag": 1,
        "hasJgTag": 1,
        "mtCount": 9,
        "jgCount": 20
    }
]