[
    {
        "name": "[DKGirl]DK\u5fa1\u5973\u90ce VOL.021 \u5b89\u5a1c\u91d1",
        "src": "http://d.duotuwang.com/2017/04/25/3740/0.jpg",
        "mtId": "97e9610013e55c3b",
        "mtName": "\u5b89\u5a1c\u91d1",
        "jgId": "dkgirl",
        "jgName": "DK\u5fa1\u5973\u90ce",
        "href": "http://d.duotuwang.com/2017/04/25/3740/",
        "count": 55,
        "start": 1,
        "hasMtTag": 1,
        "hasJgTag": 1,
        "mtCount": 1,
        "jgCount": 20
    },
    {
        "name": "[DKGirl]DK\u5fa1\u5973\u90ce VOL.020 \u590f\u5c0f\u79cb\u79cb\u79cb",
        "src": "http://d.duotuwang.com/2017/04/20/3752/0.jpg",
        "mtId": "2db3bbd39f3dcb2c",
        "mtName": "\u590f\u5c0f\u79cb\u79cb\u79cb",
        "jgId": "dkgirl",
        "jgName": "DK\u5fa1\u5973\u90ce",
        "href": "http://d.duotuwang.com/2017/04/20/3752/",
        "count": 61,
        "start": 1,
        "hasMtTag": 1,
        "hasJgTag": 1,
        "mtCount": 5,
        "jgCount": 20
    },
    {
        "name": "[DKGirl]DK\u5fa1\u5973\u90ce VOL.019 \u53f6\u4f73\u9890",
        "src": "http://d.duotuwang.com/2017/04/05/3703/0.jpg",
        "mtId": "411069916cbfbc6d",
        "mtName": "\u53f6\u4f73\u9890",
        "jgId": "dkgirl",
        "jgName": "DK\u5fa1\u5973\u90ce",
        "href": "http://d.duotuwang.com/2017/04/05/3703/",
        "count": 57,
        "start": 1,
        "hasMtTag": 1,
        "hasJgTag": 1,
        "mtCount": 3,
        "jgCount": 20
    },
    {
        "name": "[DKGirl]DK\u5fa1\u5973\u90ce VOL.018 \u8521\u4e50\u513f",
        "src": "http://d.duotuwang.com/2017/03/29/3681/0.jpg",
        "mtId": "227f25e05eec944e",
        "mtName": "\u8521\u4e50\u513f",
        "jgId": "dkgirl",
        "jgName": "DK\u5fa1\u5973\u90ce",
        "href": "http://d.duotuwang.com/2017/03/29/3681/",
        "count": 57,
        "start": 1,
        "hasMtTag": 1,
        "hasJgTag": 1,
        "mtCount": 1,
        "jgCount": 20
    },
    {
        "name": "[DKGirl]DK\u5fa1\u5973\u90ce VOL.017 \u5c91\u96e8\u6865",
        "src": "http://d.duotuwang.com/2017/03/23/3695/0.jpg",
        "mtId": "0f7e6de5b1cceee3",
        "mtName": "\u5c91\u96e8\u6865",
        "jgId": "dkgirl",
        "jgName": "DK\u5fa1\u5973\u90ce",
        "href": "http://d.duotuwang.com/2017/03/23/3695/",
        "count": 60,
        "start": 1,
        "hasMtTag": 1,
        "hasJgTag": 1,
        "mtCount": 1,
        "jgCount": 20
    },
    {
        "name": "[DKGirl]DK\u5fa1\u5973\u90ce VOL.016 \u738b\u6cab\u513fSaSa",
        "src": "http://d.duotuwang.com/2017/03/17/3667/0.jpg",
        "mtId": "20af7070fc053a79",
        "mtName": "\u738b\u6cab\u513fSaSa",
        "jgId": "dkgirl",
        "jgName": "DK\u5fa1\u5973\u90ce",
        "href": "http://d.duotuwang.com/2017/03/17/3667/",
        "count": 51,
        "start": 1,
        "hasMtTag": 1,
        "hasJgTag": 1,
        "mtCount": 1,
        "jgCount": 20
    }
]