[
    {
        "name": "[YOUMI]\u5c24\u871c\u835f VOL.099 \u7a46\u83f2\u83f2",
        "src": "http://d.duotuwang.com/2017/12/26/6737/0.jpg",
        "mtId": "b7e7cc5e417f9b4b",
        "mtName": "\u7a46\u83f2\u83f2",
        "jgId": "youmi",
        "jgName": "\u5c24\u871c\u835f",
        "href": "http://d.duotuwang.com/2017/12/26/6737/",
        "count": 41,
        "start": 1,
        "hasMtTag": 1,
        "hasJgTag": 1,
        "mtCount": 6,
        "jgCount": 143
    },
    {
        "name": "[QingDouKe]\u9752\u8c46\u5ba2 2017-10-02 \u7a46\u83f2\u83f2",
        "src": "http://d.duotuwang.com/2017/10/02/6067/0.jpg",
        "mtId": "b7e7cc5e417f9b4b",
        "mtName": "\u7a46\u83f2\u83f2",
        "jgId": "qingdouke",
        "jgName": "\u9752\u8c46\u5ba2",
        "href": "http://d.duotuwang.com/2017/10/02/6067/",
        "count": 49,
        "start": 1,
        "hasMtTag": 1,
        "hasJgTag": 1,
        "mtCount": 6,
        "jgCount": 23
    },
    {
        "name": "[UGirlsAPP]\u7231\u5c24\u7269 No.865 \u7a46\u83f2\u83f2",
        "src": "http://d.duotuwang.com/2017/09/29/6061/0.jpg",
        "mtId": "b7e7cc5e417f9b4b",
        "mtName": "\u7a46\u83f2\u83f2",
        "jgId": "ugirlsapp",
        "jgName": "\u7231\u5c24\u7269",
        "href": "http://d.duotuwang.com/2017/09/29/6061/",
        "count": 40,
        "start": 1,
        "hasMtTag": 1,
        "hasJgTag": 1,
        "mtCount": 6,
        "jgCount": 397
    },
    {
        "name": "[UGirls]\u5c24\u679c\u7f51 U309 \u7a46\u83f2\u83f2",
        "src": "http://d.duotuwang.com/2017/09/29/6170/0.jpg",
        "mtId": "b7e7cc5e417f9b4b",
        "mtName": "\u7a46\u83f2\u83f2",
        "jgId": "ugirls",
        "jgName": "\u5c24\u679c\u7f51",
        "href": "http://d.duotuwang.com/2017/09/29/6170/",
        "count": 63,
        "start": 1,
        "hasMtTag": 1,
        "hasJgTag": 1,
        "mtCount": 6,
        "jgCount": 79
    },
    {
        "name": "[HuaYang]\u82b1\u6f3eshow VOL.007 \u7a46\u83f2\u83f2",
        "src": "http://d.duotuwang.com/2017/09/25/6098/0.jpg",
        "mtId": "b7e7cc5e417f9b4b",
        "mtName": "\u7a46\u83f2\u83f2",
        "jgId": "huayang",
        "jgName": "\u82b1\u6f3eshow",
        "href": "http://d.duotuwang.com/2017/09/25/6098/",
        "count": 40,
        "start": 1,
        "hasMtTag": 1,
        "hasJgTag": 1,
        "mtCount": 6,
        "jgCount": 86
    },
    {
        "name": "[QingDouKe]\u9752\u8c46\u5ba2 2017-08-03 \u7a46\u83f2\u83f2",
        "src": "http://d.duotuwang.com/2017/08/03/5357/0.jpg",
        "mtId": "b7e7cc5e417f9b4b",
        "mtName": "\u7a46\u83f2\u83f2",
        "jgId": "qingdouke",
        "jgName": "\u9752\u8c46\u5ba2",
        "href": "http://d.duotuwang.com/2017/08/03/5357/",
        "count": 52,
        "start": 1,
        "hasMtTag": 1,
        "hasJgTag": 1,
        "mtCount": 6,
        "jgCount": 23
    }
]