[
    {
        "name": "[UGirlsAPP]\u7231\u5c24\u7269 No.743 \u7a46\u83f2\u83f2&Mikka&\u6768\u6668\u6668&\u7231\u83f2&\u5f20\u99a5\u68cb&\u767d\u7199\u840c&\u4f55\u695a\u695a \u4e2d\u8d85\u4e03\u7f8e\u4e0b\u5929\u5c71",
        "src": "http://d.duotuwang.com/2017/06/01/5092/0.jpg",
        "mtId": "b7e7cc5e417f9b4b",
        "mtName": "\u7a46\u83f2\u83f2",
        "jgId": "ugirlsapp",
        "jgName": "\u7231\u5c24\u7269",
        "href": "http://d.duotuwang.com/2017/06/01/5092/",
        "count": 40,
        "start": 1,
        "hasMtTag": 1,
        "hasJgTag": 1,
        "mtCount": 6,
        "jgCount": 397
    },
    {
        "name": "[UGirls]\u5c24\u679c\u7f51 U258 \u7a46\u83f2\u83f2",
        "src": "http://d.duotuwang.com/2017/03/22/3767/0.jpg",
        "mtId": "b7e7cc5e417f9b4b",
        "mtName": "\u7a46\u83f2\u83f2",
        "jgId": "ugirls",
        "jgName": "\u5c24\u679c\u7f51",
        "href": "http://d.duotuwang.com/2017/03/22/3767/",
        "count": 70,
        "start": 1,
        "hasMtTag": 1,
        "hasJgTag": 1,
        "mtCount": 6,
        "jgCount": 79
    },
    {
        "name": "[toutiaogirls]\u5934\u6761\u5973\u795e 2017-02-12 \u7a46\u83f2\u83f2",
        "src": "http://d.duotuwang.com/2017/02/12/3602/0.jpg",
        "mtId": "b7e7cc5e417f9b4b",
        "mtName": "\u7a46\u83f2\u83f2",
        "jgId": "toutiaogirls",
        "jgName": "\u5934\u6761\u5973\u795e",
        "href": "http://d.duotuwang.com/2017/02/12/3602/",
        "count": 16,
        "start": 1,
        "hasMtTag": 1,
        "hasJgTag": 1,
        "mtCount": 6,
        "jgCount": 133
    },
    {
        "name": "[UGirlsAPP]\u7231\u5c24\u7269 No.622 \u7a46\u83f2\u83f2",
        "src": "http://d.duotuwang.com/2017/01/22/4975/0.jpg",
        "mtId": "b7e7cc5e417f9b4b",
        "mtName": "\u7a46\u83f2\u83f2",
        "jgId": "ugirlsapp",
        "jgName": "\u7231\u5c24\u7269",
        "href": "http://d.duotuwang.com/2017/01/22/4975/",
        "count": 40,
        "start": 1,
        "hasMtTag": 1,
        "hasJgTag": 1,
        "mtCount": 6,
        "jgCount": 397
    },
    {
        "name": "[toutiaogirls]\u5934\u6761\u5973\u795e 2017-01-12 \u7a46\u83f2\u83f2",
        "src": "http://d.duotuwang.com/2017/01/12/3496/0.jpg",
        "mtId": "b7e7cc5e417f9b4b",
        "mtName": "\u7a46\u83f2\u83f2",
        "jgId": "toutiaogirls",
        "jgName": "\u5934\u6761\u5973\u795e",
        "href": "http://d.duotuwang.com/2017/01/12/3496/",
        "count": 23,
        "start": 1,
        "hasMtTag": 1,
        "hasJgTag": 1,
        "mtCount": 6,
        "jgCount": 133
    },
    {
        "name": "[toutiaogirls]\u5934\u6761\u5973\u795e 2017-01-04 \u7a46\u83f2\u83f2",
        "src": "http://d.duotuwang.com/2017/01/04/3504/0.jpg",
        "mtId": "b7e7cc5e417f9b4b",
        "mtName": "\u7a46\u83f2\u83f2",
        "jgId": "toutiaogirls",
        "jgName": "\u5934\u6761\u5973\u795e",
        "href": "http://d.duotuwang.com/2017/01/04/3504/",
        "count": 15,
        "start": 1,
        "hasMtTag": 1,
        "hasJgTag": 1,
        "mtCount": 6,
        "jgCount": 133
    }
]