[
    {
        "name": "[MFStar]\u6a21\u8303\u5b66\u9662 VOL.075 \u4f73\u4f73JiaJia",
        "src": "http://d.duotuwang.com/2016/10/26/1764/0.jpg",
        "mtId": "63fff3645d1cdfa5",
        "mtName": "\u4f73\u4f73JiaJia",
        "jgId": "mfstar",
        "jgName": "\u6a21\u8303\u5b66\u9662",
        "href": "http://d.duotuwang.com/2016/10/26/1764/",
        "count": 52,
        "start": 1,
        "hasMtTag": 1,
        "hasJgTag": 1,
        "mtCount": 2,
        "jgCount": 94
    },
    {
        "name": "[MFStar]\u6a21\u8303\u5b66\u9662 VOL.060 \u4f73\u4f73JiaJia",
        "src": "http://d.duotuwang.com/2016/07/01/1534/0.jpg",
        "mtId": "63fff3645d1cdfa5",
        "mtName": "\u4f73\u4f73JiaJia",
        "jgId": "mfstar",
        "jgName": "\u6a21\u8303\u5b66\u9662",
        "href": "http://d.duotuwang.com/2016/07/01/1534/",
        "count": 56,
        "start": 1,
        "hasMtTag": 1,
        "hasJgTag": 1,
        "mtCount": 2,
        "jgCount": 94
    }
]