[
    {
        "name": "[XIAOYU]\u8bed\u753b\u754c VOL.444 \u5468\u601d\u4e54Betty",
        "src": "http://d.duotuwang.com/2021/01/05/23714/0.jpg",
        "mtId": "6bff679139f29cb3",
        "mtName": "\u5468\u601d\u4e54Betty",
        "jgId": "xiaoyu",
        "jgName": "\u8bed\u753b\u754c",
        "href": "http://d.duotuwang.com/2021/01/05/23714/",
        "count": 70,
        "start": 1,
        "hasMtTag": 1,
        "hasJgTag": 1,
        "mtCount": 2,
        "jgCount": 155
    },
    {
        "name": "[XIAOYU]\u8bed\u753b\u754c VOL.405 \u5468\u601d\u4e54Betty",
        "src": "http://d.duotuwang.com/2020/11/10/23080/0.jpg",
        "mtId": "6bff679139f29cb3",
        "mtName": "\u5468\u601d\u4e54Betty",
        "jgId": "xiaoyu",
        "jgName": "\u8bed\u753b\u754c",
        "href": "http://d.duotuwang.com/2020/11/10/23080/",
        "count": 66,
        "start": 1,
        "hasMtTag": 1,
        "hasJgTag": 1,
        "mtCount": 2,
        "jgCount": 155
    },
    {
        "name": "[XIAOYU]\u8bed\u753b\u754c VOL.378 \u5468\u601d\u4e54Betty",
        "src": "http://d.duotuwang.com/2020/09/27/22667/0.jpg",
        "mtId": "6bff679139f29cb3",
        "mtName": "\u5468\u601d\u4e54Betty",
        "jgId": "xiaoyu",
        "jgName": "\u8bed\u753b\u754c",
        "href": "http://d.duotuwang.com/2020/09/27/22667/",
        "count": 50,
        "start": 1,
        "hasMtTag": 1,
        "hasJgTag": 1,
        "mtCount": 2,
        "jgCount": 155
    },
    {
        "name": "[XIAOYU]\u8bed\u753b\u754c VOL.312 \u5468\u601d\u4e54Betty",
        "src": "http://d.duotuwang.com/2020/05/19/20652/0.jpg",
        "mtId": "6bff679139f29cb3",
        "mtName": "\u5468\u601d\u4e54Betty",
        "jgId": "xiaoyu",
        "jgName": "\u8bed\u753b\u754c",
        "href": "http://d.duotuwang.com/2020/05/19/20652/",
        "count": 70,
        "start": 1,
        "hasMtTag": 1,
        "hasJgTag": 1,
        "mtCount": 2,
        "jgCount": 155
    },
    {
        "name": "[XIAOYU]\u8bed\u753b\u754c VOL.307 \u5468\u601d\u4e54Betty",
        "src": "http://d.duotuwang.com/2020/05/12/20562/0.jpg",
        "mtId": "6bff679139f29cb3",
        "mtName": "\u5468\u601d\u4e54Betty",
        "jgId": "xiaoyu",
        "jgName": "\u8bed\u753b\u754c",
        "href": "http://d.duotuwang.com/2020/05/12/20562/",
        "count": 100,
        "start": 1,
        "hasMtTag": 1,
        "hasJgTag": 1,
        "mtCount": 2,
        "jgCount": 155
    },
    {
        "name": "[XIAOYU]\u8bed\u753b\u754c VOL.299 \u5468\u601d\u4e54Betty",
        "src": "http://d.duotuwang.com/2020/04/29/20413/0.jpg",
        "mtId": "6bff679139f29cb3",
        "mtName": "\u5468\u601d\u4e54Betty",
        "jgId": "xiaoyu",
        "jgName": "\u8bed\u753b\u754c",
        "href": "http://d.duotuwang.com/2020/04/29/20413/",
        "count": 60,
        "start": 1,
        "hasMtTag": 1,
        "hasJgTag": 1,
        "mtCount": 2,
        "jgCount": 155
    }
]