[
    {
        "name": "[YouMi]\u5c24\u871c \u5170\u5170 \u971e\u59ff\u6708\u97f5",
        "src": "http://d.duotuwang.com/2020/09/17/22144/0.jpg",
        "mtId": "edcda6e103feb7c6",
        "mtName": "\u5170\u5170",
        "jgId": "youmiabc",
        "jgName": "\u5c24\u871c",
        "href": "http://d.duotuwang.com/2020/09/17/22144/",
        "count": 21,
        "start": 1,
        "hasMtTag": 1,
        "hasJgTag": 1,
        "mtCount": 1,
        "jgCount": 79
    },
    {
        "name": "[YouMi]\u5c24\u871c \u5170\u5170 \u8f7b\u67d4\u6de1\u7231",
        "src": "http://d.duotuwang.com/2020/09/11/22063/0.jpg",
        "mtId": "edcda6e103feb7c6",
        "mtName": "\u5170\u5170",
        "jgId": "youmiabc",
        "jgName": "\u5c24\u871c",
        "href": "http://d.duotuwang.com/2020/09/11/22063/",
        "count": 27,
        "start": 1,
        "hasMtTag": 1,
        "hasJgTag": 1,
        "mtCount": 1,
        "jgCount": 79
    },
    {
        "name": "[YALAYI]\u96c5\u62c9\u4f0a Y041 \u5170\u5170 \u82b1\u7cfb\u5c11\u5973",
        "src": "http://d.duotuwang.com/2018/08/06/16186/0.jpg",
        "mtId": "edcda6e103feb7c6",
        "mtName": "\u5170\u5170",
        "jgId": "yalayi",
        "jgName": "\u96c5\u62c9\u4f0a",
        "href": "http://d.duotuwang.com/2018/08/06/16186/",
        "count": 41,
        "start": 1,
        "hasMtTag": 1,
        "hasJgTag": 1,
        "mtCount": 1,
        "jgCount": 156
    }
]