[
    {
        "name": "[UXING]\u4f18\u661f\u9986 VOL.009 \u7d2b\u6f46cynthia",
        "src": "http://d.duotuwang.com/2015/05/12/1899/0.jpg",
        "mtId": "08f49e9b43bcec42",
        "mtName": "\u7d2b\u6f46cynthia",
        "jgId": "uxing",
        "jgName": "\u4f18\u661f\u9986",
        "href": "http://d.duotuwang.com/2015/05/12/1899/",
        "count": 70,
        "start": 1,
        "hasMtTag": 1,
        "hasJgTag": 1,
        "mtCount": 1,
        "jgCount": 10
    }
]