[
    {
        "name": "[TGod]\u63a8\u5973\u795e 2016-07-28 susu",
        "src": "http://d.duotuwang.com/2016/07/28/2653/0.jpg",
        "mtId": "3938abf17e7587f8",
        "mtName": "susu",
        "jgId": "tgod",
        "jgName": "\u63a8\u5973\u795e",
        "href": "http://d.duotuwang.com/2016/07/28/2653/",
        "count": 41,
        "start": 1,
        "hasMtTag": 1,
        "hasJgTag": 1,
        "mtCount": 1,
        "jgCount": 78
    }
]