[
    {
        "name": "[YALAYI]\u96c5\u62c9\u4f0a Y735 \u751c\u9171\u5416 \u5c31\u60f3\u8d56\u7740\u4f60",
        "src": "http://d.duotuwang.com/2020/12/04/23466/0.jpg",
        "mtId": "977e712550093a68",
        "mtName": "\u751c\u9171\u5416",
        "jgId": "yalayi",
        "jgName": "\u96c5\u62c9\u4f0a",
        "href": "http://d.duotuwang.com/2020/12/04/23466/",
        "count": 31,
        "start": 1,
        "hasMtTag": 1,
        "hasJgTag": 1,
        "mtCount": 1,
        "jgCount": 156
    },
    {
        "name": "[YALAYI]\u96c5\u62c9\u4f0a Y647 \u751c\u9171\u5416 \u8377\u5c14\u8499",
        "src": "http://d.duotuwang.com/2020/05/26/20718/0.jpg",
        "mtId": "977e712550093a68",
        "mtName": "\u751c\u9171\u5416",
        "jgId": "yalayi",
        "jgName": "\u96c5\u62c9\u4f0a",
        "href": "http://d.duotuwang.com/2020/05/26/20718/",
        "count": 41,
        "start": 1,
        "hasMtTag": 1,
        "hasJgTag": 1,
        "mtCount": 1,
        "jgCount": 156
    },
    {
        "name": "[YALAYI]\u96c5\u62c9\u4f0a Y617 \u751c\u9171\u5416 \u4eca\u665a\u7a7f\u4e86\u5973\u4ec6\u88c5",
        "src": "http://d.duotuwang.com/2020/04/26/20384/0.jpg",
        "mtId": "977e712550093a68",
        "mtName": "\u751c\u9171\u5416",
        "jgId": "yalayi",
        "jgName": "\u96c5\u62c9\u4f0a",
        "href": "http://d.duotuwang.com/2020/04/26/20384/",
        "count": 48,
        "start": 1,
        "hasMtTag": 1,
        "hasJgTag": 1,
        "mtCount": 1,
        "jgCount": 156
    }
]