[
    {
        "name": "[TGod]\u63a8\u5973\u795e 2016-10-14 \u840c\u742a\u742aIrene",
        "src": "http://d.duotuwang.com/2016/10/14/2686/0.jpg",
        "mtId": "66729276e15617cd",
        "mtName": "\u840c\u742a\u742aIrene",
        "jgId": "tgod",
        "jgName": "\u63a8\u5973\u795e",
        "href": "http://d.duotuwang.com/2016/10/14/2686/",
        "count": 60,
        "start": 1,
        "hasMtTag": 1,
        "hasJgTag": 1,
        "mtCount": 7,
        "jgCount": 78
    },
    {
        "name": "[TGod]\u63a8\u5973\u795e 2016-10-12 k8\u50b2\u5a07\u840c\u840c",
        "src": "http://d.duotuwang.com/2016/10/12/2688/0.jpg",
        "mtId": "211e912dfdb41ee3",
        "mtName": "k8\u50b2\u5a07\u840c\u840c",
        "jgId": "tgod",
        "jgName": "\u63a8\u5973\u795e",
        "href": "http://d.duotuwang.com/2016/10/12/2688/",
        "count": 68,
        "start": 1,
        "hasMtTag": 1,
        "hasJgTag": 1,
        "mtCount": 10,
        "jgCount": 78
    },
    {
        "name": "[TGod]\u63a8\u5973\u795e 2016-09-26 \u7eee\u68a6Cherish",
        "src": "http://d.duotuwang.com/2016/09/26/2689/0.jpg",
        "mtId": "f812456685441996",
        "mtName": "\u7eee\u68a6Cherish",
        "jgId": "tgod",
        "jgName": "\u63a8\u5973\u795e",
        "href": "http://d.duotuwang.com/2016/09/26/2689/",
        "count": 50,
        "start": 1,
        "hasMtTag": 1,
        "hasJgTag": 1,
        "mtCount": 2,
        "jgCount": 78
    },
    {
        "name": "[TGod]\u63a8\u5973\u795e 2016-09-25 \u5c24\u7f8eYumi",
        "src": "http://d.duotuwang.com/2016/09/25/2690/0.jpg",
        "mtId": "309b83a821c74a83",
        "mtName": "\u5c24\u7f8eYumi",
        "jgId": "tgod",
        "jgName": "\u63a8\u5973\u795e",
        "href": "http://d.duotuwang.com/2016/09/25/2690/",
        "count": 53,
        "start": 1,
        "hasMtTag": 1,
        "hasJgTag": 1,
        "mtCount": 6,
        "jgCount": 78
    },
    {
        "name": "[TGod]\u63a8\u5973\u795e 2016-09-24 \u6b46\u5c0f\u5154chobits",
        "src": "http://d.duotuwang.com/2016/09/24/2691/0.jpg",
        "mtId": "3615c255ae1c6f3b",
        "mtName": "\u6b46\u5c0f\u5154chobits",
        "jgId": "tgod",
        "jgName": "\u63a8\u5973\u795e",
        "href": "http://d.duotuwang.com/2016/09/24/2691/",
        "count": 50,
        "start": 1,
        "hasMtTag": 1,
        "hasJgTag": 1,
        "mtCount": 5,
        "jgCount": 78
    },
    {
        "name": "[TGod]\u63a8\u5973\u795e 2016-09-22 k8\u50b2\u5a07\u840c\u840c",
        "src": "http://d.duotuwang.com/2016/09/22/2692/0.jpg",
        "mtId": "211e912dfdb41ee3",
        "mtName": "k8\u50b2\u5a07\u840c\u840c",
        "jgId": "tgod",
        "jgName": "\u63a8\u5973\u795e",
        "href": "http://d.duotuwang.com/2016/09/22/2692/",
        "count": 46,
        "start": 1,
        "hasMtTag": 1,
        "hasJgTag": 1,
        "mtCount": 10,
        "jgCount": 78
    }
]