[
    {
        "name": "[TGod]\u63a8\u5973\u795e 2016-06-07 Yumi\u5c24\u7f8e",
        "src": "http://d.duotuwang.com/2016/06/07/2597/0.jpg",
        "mtId": "309b83a821c74a83",
        "mtName": "Yumi\u5c24\u7f8e",
        "jgId": "tgod",
        "jgName": "\u63a8\u5973\u795e",
        "href": "http://d.duotuwang.com/2016/06/07/2597/",
        "count": 43,
        "start": 1,
        "hasMtTag": 1,
        "hasJgTag": 1,
        "mtCount": 6,
        "jgCount": 78
    },
    {
        "name": "[TGod]\u63a8\u5973\u795e 2016-06-06 \u7eee\u68a6Cherish",
        "src": "http://d.duotuwang.com/2016/06/06/2598/0.jpg",
        "mtId": "f812456685441996",
        "mtName": "\u7eee\u68a6Cherish",
        "jgId": "tgod",
        "jgName": "\u63a8\u5973\u795e",
        "href": "http://d.duotuwang.com/2016/06/06/2598/",
        "count": 44,
        "start": 1,
        "hasMtTag": 1,
        "hasJgTag": 1,
        "mtCount": 2,
        "jgCount": 78
    },
    {
        "name": "[TGod]\u63a8\u5973\u795e 2016-06-05 Yumi\u5c24\u7f8e",
        "src": "http://d.duotuwang.com/2016/06/05/2599/0.jpg",
        "mtId": "309b83a821c74a83",
        "mtName": "Yumi\u5c24\u7f8e",
        "jgId": "tgod",
        "jgName": "\u63a8\u5973\u795e",
        "href": "http://d.duotuwang.com/2016/06/05/2599/",
        "count": 46,
        "start": 1,
        "hasMtTag": 1,
        "hasJgTag": 1,
        "mtCount": 6,
        "jgCount": 78
    },
    {
        "name": "[TGod]\u63a8\u5973\u795e 2016-06-04 \u6893\u8431Crystal",
        "src": "http://d.duotuwang.com/2016/06/04/2600/0.jpg",
        "mtId": "590ed1b17c53030f",
        "mtName": "\u6893\u8431Crystal",
        "jgId": "tgod",
        "jgName": "\u63a8\u5973\u795e",
        "href": "http://d.duotuwang.com/2016/06/04/2600/",
        "count": 47,
        "start": 1,
        "hasMtTag": 1,
        "hasJgTag": 1,
        "mtCount": 4,
        "jgCount": 78
    },
    {
        "name": "[TGod]\u63a8\u5973\u795e 2016-06-03 \u53ef\u4e50Vicky",
        "src": "http://d.duotuwang.com/2016/06/03/2601/0.jpg",
        "mtId": "e9a893c6944bfd79",
        "mtName": "\u53ef\u4e50Vicky",
        "jgId": "tgod",
        "jgName": "\u63a8\u5973\u795e",
        "href": "http://d.duotuwang.com/2016/06/03/2601/",
        "count": 40,
        "start": 1,
        "hasMtTag": 1,
        "hasJgTag": 1,
        "mtCount": 7,
        "jgCount": 78
    },
    {
        "name": "[TGod]\u63a8\u5973\u795e 2016-06-02 \u5a55\u897f\u513fjessie",
        "src": "http://d.duotuwang.com/2016/06/02/2602/0.jpg",
        "mtId": "460bdbfd53544d72",
        "mtName": "\u5a55\u897f\u513fjessie",
        "jgId": "tgod",
        "jgName": "\u63a8\u5973\u795e",
        "href": "http://d.duotuwang.com/2016/06/02/2602/",
        "count": 43,
        "start": 1,
        "hasMtTag": 1,
        "hasJgTag": 1,
        "mtCount": 4,
        "jgCount": 78
    }
]