[
    {
        "name": "[TGod]\u63a8\u5973\u795e 2016-04-13 \u67e0\u6aacc_lemon",
        "src": "http://d.duotuwang.com/2016/04/13/2549/0.jpg",
        "mtId": "3c8b93e37672f106",
        "mtName": "\u67e0\u6aacc_lemon",
        "jgId": "tgod",
        "jgName": "\u63a8\u5973\u795e",
        "href": "http://d.duotuwang.com/2016/04/13/2549/",
        "count": 67,
        "start": 1,
        "hasMtTag": 1,
        "hasJgTag": 1,
        "mtCount": 21,
        "jgCount": 78
    },
    {
        "name": "[TGod]\u63a8\u5973\u795e 2016-04-12 \u53f6\u4f73\u9890",
        "src": "http://d.duotuwang.com/2016/04/12/2550/0.jpg",
        "mtId": "411069916cbfbc6d",
        "mtName": "\u53f6\u4f73\u9890",
        "jgId": "tgod",
        "jgName": "\u63a8\u5973\u795e",
        "href": "http://d.duotuwang.com/2016/04/12/2550/",
        "count": 46,
        "start": 1,
        "hasMtTag": 1,
        "hasJgTag": 1,
        "mtCount": 3,
        "jgCount": 78
    },
    {
        "name": "[TGod]\u63a8\u5973\u795e 2016-04-11 \u4f0d\u6708yuer",
        "src": "http://d.duotuwang.com/2016/04/11/2551/0.jpg",
        "mtId": "663d7e922146aac6",
        "mtName": "\u4f0d\u6708yuer",
        "jgId": "tgod",
        "jgName": "\u63a8\u5973\u795e",
        "href": "http://d.duotuwang.com/2016/04/11/2551/",
        "count": 51,
        "start": 1,
        "hasMtTag": 1,
        "hasJgTag": 1,
        "mtCount": 3,
        "jgCount": 78
    },
    {
        "name": "[TGod]\u63a8\u5973\u795e 2016-04-10 \u65bd\u5fc6\u4f73Kitty",
        "src": "http://d.duotuwang.com/2016/04/10/2552/0.jpg",
        "mtId": "39df2cf2f35511be",
        "mtName": "\u65bd\u5fc6\u4f73Kitty",
        "jgId": "tgod",
        "jgName": "\u63a8\u5973\u795e",
        "href": "http://d.duotuwang.com/2016/04/10/2552/",
        "count": 41,
        "start": 1,
        "hasMtTag": 1,
        "hasJgTag": 1,
        "mtCount": 2,
        "jgCount": 78
    },
    {
        "name": "[TGod]\u63a8\u5973\u795e 2016-04-09 \u53ef\u4e50Vicky",
        "src": "http://d.duotuwang.com/2016/04/09/2517/0.jpg",
        "mtId": "e9a893c6944bfd79",
        "mtName": "\u53ef\u4e50Vicky",
        "jgId": "tgod",
        "jgName": "\u63a8\u5973\u795e",
        "href": "http://d.duotuwang.com/2016/04/09/2517/",
        "count": 42,
        "start": 1,
        "hasMtTag": 1,
        "hasJgTag": 1,
        "mtCount": 7,
        "jgCount": 78
    },
    {
        "name": "[TGod]\u63a8\u5973\u795e 2016-04-08 \u4e8e\u59ecYUna",
        "src": "http://d.duotuwang.com/2016/04/08/2518/0.jpg",
        "mtId": "7ffb57b7b94a0e7f",
        "mtName": "\u4e8e\u59ecUna",
        "jgId": "tgod",
        "jgName": "\u63a8\u5973\u795e",
        "href": "http://d.duotuwang.com/2016/04/08/2518/",
        "count": 61,
        "start": 1,
        "hasMtTag": 1,
        "hasJgTag": 1,
        "mtCount": 7,
        "jgCount": 78
    }
]