[
    {
        "name": "[TGod]\u63a8\u5973\u795e 2016-09-04 \u853b\u853b",
        "src": "http://d.duotuwang.com/2016/09/04/2669/0.jpg",
        "mtId": "7d18b5aa30aa60c0",
        "mtName": "\u853b\u853b",
        "jgId": "tgod",
        "jgName": "\u63a8\u5973\u795e",
        "href": "http://d.duotuwang.com/2016/09/04/2669/",
        "count": 35,
        "start": 1,
        "hasMtTag": 1,
        "hasJgTag": 1,
        "mtCount": 1,
        "jgCount": 78
    },
    {
        "name": "[TGod]\u63a8\u5973\u795e 2016-08-31 \u840c\u5b9d\u513f",
        "src": "http://d.duotuwang.com/2016/08/31/2670/0.jpg",
        "mtId": "6f92d32f68ca21a2",
        "mtName": "\u840c\u5b9d\u513fBoA",
        "jgId": "tgod",
        "jgName": "\u63a8\u5973\u795e",
        "href": "http://d.duotuwang.com/2016/08/31/2670/",
        "count": 40,
        "start": 1,
        "hasMtTag": 1,
        "hasJgTag": 1,
        "mtCount": 3,
        "jgCount": 78
    },
    {
        "name": "[TGod]\u63a8\u5973\u795e 2016-08-28 \u7a0b\u5f64\u989c",
        "src": "http://d.duotuwang.com/2016/08/28/2671/0.jpg",
        "mtId": "558383a4ac013ea2",
        "mtName": "\u7a0b\u5f64\u989c",
        "jgId": "tgod",
        "jgName": "\u63a8\u5973\u795e",
        "href": "http://d.duotuwang.com/2016/08/28/2671/",
        "count": 41,
        "start": 1,
        "hasMtTag": 1,
        "hasJgTag": 1,
        "mtCount": 2,
        "jgCount": 78
    },
    {
        "name": "[TGod]\u63a8\u5973\u795e 2016-08-25 \u7eee\u68a6Cherish",
        "src": "http://d.duotuwang.com/2016/08/25/2672/0.jpg",
        "mtId": "f812456685441996",
        "mtName": "\u7eee\u68a6Cherish",
        "jgId": "tgod",
        "jgName": "\u63a8\u5973\u795e",
        "href": "http://d.duotuwang.com/2016/08/25/2672/",
        "count": 44,
        "start": 1,
        "hasMtTag": 1,
        "hasJgTag": 1,
        "mtCount": 2,
        "jgCount": 78
    },
    {
        "name": "[TGod]\u63a8\u5973\u795e 2016-08-21 lynne\u9ece\u8309",
        "src": "http://d.duotuwang.com/2016/08/21/2673/0.jpg",
        "mtId": "37d3843a3f3b4c66",
        "mtName": "lynne\u9ece\u8309",
        "jgId": "tgod",
        "jgName": "\u63a8\u5973\u795e",
        "href": "http://d.duotuwang.com/2016/08/21/2673/",
        "count": 32,
        "start": 1,
        "hasMtTag": 1,
        "hasJgTag": 1,
        "mtCount": 1,
        "jgCount": 78
    },
    {
        "name": "[TGod]\u63a8\u5973\u795e 2016-08-21 k8\u50b2\u5a07\u840c\u840c",
        "src": "http://d.duotuwang.com/2016/08/21/2674/0.jpg",
        "mtId": "211e912dfdb41ee3",
        "mtName": "k8\u50b2\u5a07\u840c\u840c",
        "jgId": "tgod",
        "jgName": "\u63a8\u5973\u795e",
        "href": "http://d.duotuwang.com/2016/08/21/2674/",
        "count": 51,
        "start": 1,
        "hasMtTag": 1,
        "hasJgTag": 1,
        "mtCount": 10,
        "jgCount": 78
    }
]