[
    {
        "name": "[TGod]\u63a8\u5973\u795e 2015-02-05 \u5a1c\u4f9d\u7075\u513f",
        "src": "http://d.duotuwang.com/2015/02/05/2318/0.jpg",
        "mtId": "91d9c781fb3a24db",
        "mtName": "\u5a1c\u4f9d\u7075\u513f",
        "jgId": "tgod",
        "jgName": "\u63a8\u5973\u795e",
        "href": "http://d.duotuwang.com/2015/02/05/2318/",
        "count": 50,
        "start": 1,
        "hasMtTag": 1,
        "hasJgTag": 1,
        "mtCount": 5,
        "jgCount": 78
    },
    {
        "name": "[TGod]\u63a8\u5973\u795e 2015-02-03 \u6768\u4e0a\u8431",
        "src": "http://d.duotuwang.com/2015/02/03/2283/0.jpg",
        "mtId": "9c0a32425a56f9b3",
        "mtName": "\u6768\u4e0a\u8431",
        "jgId": "tgod",
        "jgName": "\u63a8\u5973\u795e",
        "href": "http://d.duotuwang.com/2015/02/03/2283/",
        "count": 50,
        "start": 1,
        "hasMtTag": 1,
        "hasJgTag": 1,
        "mtCount": 2,
        "jgCount": 78
    },
    {
        "name": "[TGod]\u63a8\u5973\u795e 2015-02-02 \u6653\u5f64",
        "src": "http://d.duotuwang.com/2015/02/02/2284/0.jpg",
        "mtId": "701cc7f11edb45f4",
        "mtName": "\u6653\u5f64",
        "jgId": "tgod",
        "jgName": "\u63a8\u5973\u795e",
        "href": "http://d.duotuwang.com/2015/02/02/2284/",
        "count": 51,
        "start": 1,
        "hasMtTag": 1,
        "hasJgTag": 1,
        "mtCount": 1,
        "jgCount": 78
    },
    {
        "name": "[TGod]\u63a8\u5973\u795e 2015-01-29 \u5a1c\u4f9d\u7075\u513f",
        "src": "http://d.duotuwang.com/2015/01/29/2286/0.jpg",
        "mtId": "91d9c781fb3a24db",
        "mtName": "\u5a1c\u4f9d\u7075\u513f",
        "jgId": "tgod",
        "jgName": "\u63a8\u5973\u795e",
        "href": "http://d.duotuwang.com/2015/01/29/2286/",
        "count": 41,
        "start": 1,
        "hasMtTag": 1,
        "hasJgTag": 1,
        "mtCount": 5,
        "jgCount": 78
    },
    {
        "name": "[TGod]\u63a8\u5973\u795e 2015-01-29 \u561f\u561fbear",
        "src": "http://d.duotuwang.com/2015/01/29/2287/0.jpg",
        "mtId": "8e7abdec8fee5fe8",
        "mtName": "\u561f\u561fbear",
        "jgId": "tgod",
        "jgName": "\u63a8\u5973\u795e",
        "href": "http://d.duotuwang.com/2015/01/29/2287/",
        "count": 20,
        "start": 1,
        "hasMtTag": 1,
        "hasJgTag": 1,
        "mtCount": 1,
        "jgCount": 78
    },
    {
        "name": "[TGod]\u63a8\u5973\u795e 2015-01-24 \u6653\u827efafa",
        "src": "http://d.duotuwang.com/2015/01/24/2288/0.jpg",
        "mtId": "0af9131f97beff82",
        "mtName": "\u6653\u827efafa",
        "jgId": "tgod",
        "jgName": "\u63a8\u5973\u795e",
        "href": "http://d.duotuwang.com/2015/01/24/2288/",
        "count": 71,
        "start": 1,
        "hasMtTag": 1,
        "hasJgTag": 1,
        "mtCount": 1,
        "jgCount": 78
    }
]