[
    {
        "name": "[TGod]\u63a8\u5973\u795e 2014-09-15 Rosa\u5c0f\u732b\u54aa",
        "src": "http://d.duotuwang.com/2014/09/15/2223/0.jpg",
        "mtId": "952543dc9a99fb2d",
        "mtName": "Rosa\u5c0f\u732b\u54aa",
        "jgId": "tgod",
        "jgName": "\u63a8\u5973\u795e",
        "href": "http://d.duotuwang.com/2014/09/15/2223/",
        "count": 79,
        "start": 1,
        "hasMtTag": 1,
        "hasJgTag": 1,
        "mtCount": 1,
        "jgCount": 78
    },
    {
        "name": "[TGod]\u63a8\u5973\u795e 2014-09-15 \u7f8e\u5b9dMerry",
        "src": "http://d.duotuwang.com/2014/09/15/2224/0.jpg",
        "mtId": "3ae244a7497cebb1",
        "mtName": "\u7f8e\u5b9dMerry",
        "jgId": "tgod",
        "jgName": "\u63a8\u5973\u795e",
        "href": "http://d.duotuwang.com/2014/09/15/2224/",
        "count": 9,
        "start": 1,
        "hasMtTag": 1,
        "hasJgTag": 1,
        "mtCount": 2,
        "jgCount": 78
    },
    {
        "name": "[TGod]\u63a8\u5973\u795e 2014-09-09 \u7eee\u91cc\u5609Ula",
        "src": "http://d.duotuwang.com/2014/09/09/2225/0.jpg",
        "mtId": "4ebc33c7dadc04af",
        "mtName": "\u7eee\u91cc\u5609Ula",
        "jgId": "tgod",
        "jgName": "\u63a8\u5973\u795e",
        "href": "http://d.duotuwang.com/2014/09/09/2225/",
        "count": 76,
        "start": 1,
        "hasMtTag": 1,
        "hasJgTag": 1,
        "mtCount": 27,
        "jgCount": 78
    },
    {
        "name": "[TGod]\u63a8\u5973\u795e 2014-08-30 \u9738\u6c14\u6b23\u6b23\u7237",
        "src": "http://d.duotuwang.com/2014/08/30/2205/0.jpg",
        "mtId": "f71e63fc4c10a8de",
        "mtName": "\u9738\u6c14\u6b23\u6b23\u7237",
        "jgId": "tgod",
        "jgName": "\u63a8\u5973\u795e",
        "href": "http://d.duotuwang.com/2014/08/30/2205/",
        "count": 79,
        "start": 1,
        "hasMtTag": 1,
        "hasJgTag": 1,
        "mtCount": 1,
        "jgCount": 78
    },
    {
        "name": "[TGod]\u63a8\u5973\u795e 2014-08-30 \u96ef\u96ef",
        "src": "http://d.duotuwang.com/2014/08/30/2226/0.jpg",
        "mtId": "11406428990130a3",
        "mtName": "\u96ef\u96ef",
        "jgId": "tgod",
        "jgName": "\u63a8\u5973\u795e",
        "href": "http://d.duotuwang.com/2014/08/30/2226/",
        "count": 58,
        "start": 1,
        "hasMtTag": 1,
        "hasJgTag": 1,
        "mtCount": 1,
        "jgCount": 78
    },
    {
        "name": "[TGod]\u63a8\u5973\u795e 2014-08-30 \u5357\u6e58Baby",
        "src": "http://d.duotuwang.com/2014/08/30/2227/0.jpg",
        "mtId": "62712181fe9202c0",
        "mtName": "\u5357\u6e58Baby",
        "jgId": "tgod",
        "jgName": "\u63a8\u5973\u795e",
        "href": "http://d.duotuwang.com/2014/08/30/2227/",
        "count": 54,
        "start": 1,
        "hasMtTag": 1,
        "hasJgTag": 1,
        "mtCount": 2,
        "jgCount": 78
    }
]