[
    {
        "name": "[TGod]\u63a8\u5973\u795e 2016-07-23 sing",
        "src": "http://d.duotuwang.com/2016/07/23/2657/0.jpg",
        "mtId": "4bb302d0761ee299",
        "mtName": "sing",
        "jgId": "tgod",
        "jgName": "\u63a8\u5973\u795e",
        "href": "http://d.duotuwang.com/2016/07/23/2657/",
        "count": 50,
        "start": 1,
        "hasMtTag": 1,
        "hasJgTag": 1,
        "mtCount": 1,
        "jgCount": 78
    },
    {
        "name": "[TGod]\u63a8\u5973\u795e 2016-07-22 \u73cd\u59ae\u82b1",
        "src": "http://d.duotuwang.com/2016/07/22/2658/0.jpg",
        "mtId": "4fc2a3b8e14a64b5",
        "mtName": "\u73cd\u59ae\u82b1",
        "jgId": "tgod",
        "jgName": "\u63a8\u5973\u795e",
        "href": "http://d.duotuwang.com/2016/07/22/2658/",
        "count": 40,
        "start": 1,
        "hasMtTag": 1,
        "hasJgTag": 1,
        "mtCount": 1,
        "jgCount": 78
    },
    {
        "name": "[TGod]\u63a8\u5973\u795e 2016-07-22 \u53ef\u4e50Vicky",
        "src": "http://d.duotuwang.com/2016/07/22/2659/0.jpg",
        "mtId": "e9a893c6944bfd79",
        "mtName": "\u53ef\u4e50Vicky",
        "jgId": "tgod",
        "jgName": "\u63a8\u5973\u795e",
        "href": "http://d.duotuwang.com/2016/07/22/2659/",
        "count": 43,
        "start": 1,
        "hasMtTag": 1,
        "hasJgTag": 1,
        "mtCount": 7,
        "jgCount": 78
    },
    {
        "name": "[TGod]\u63a8\u5973\u795e 2016-07-21 \u8393ya",
        "src": "http://d.duotuwang.com/2016/07/21/2660/0.jpg",
        "mtId": "48a6de81683db830",
        "mtName": "\u8393ya",
        "jgId": "tgod",
        "jgName": "\u63a8\u5973\u795e",
        "href": "http://d.duotuwang.com/2016/07/21/2660/",
        "count": 40,
        "start": 1,
        "hasMtTag": 1,
        "hasJgTag": 1,
        "mtCount": 1,
        "jgCount": 78
    },
    {
        "name": "[TGod]\u63a8\u5973\u795e 2016-07-20 \u5b50\u6021",
        "src": "http://d.duotuwang.com/2016/07/20/2625/0.jpg",
        "mtId": "2088364ae3874b91",
        "mtName": "\u5b50\u6021",
        "jgId": "tgod",
        "jgName": "\u63a8\u5973\u795e",
        "href": "http://d.duotuwang.com/2016/07/20/2625/",
        "count": 50,
        "start": 1,
        "hasMtTag": 1,
        "hasJgTag": 1,
        "mtCount": 1,
        "jgCount": 78
    },
    {
        "name": "[TGod]\u63a8\u5973\u795e 2016-07-19 Yumi\u5c24\u7f8e",
        "src": "http://d.duotuwang.com/2016/07/19/2626/0.jpg",
        "mtId": "309b83a821c74a83",
        "mtName": "Yumi\u5c24\u7f8e",
        "jgId": "tgod",
        "jgName": "\u63a8\u5973\u795e",
        "href": "http://d.duotuwang.com/2016/07/19/2626/",
        "count": 44,
        "start": 1,
        "hasMtTag": 1,
        "hasJgTag": 1,
        "mtCount": 6,
        "jgCount": 78
    }
]