[
    {
        "id": "620548149",
        "title": "\u3010\u89e3\u538b\u3011\u6069\u4e03/\u9e45\u6bdb\u68d2/\u5237\u5b50/ \u638f\u8033\u58f0",
        "src": "http://v-huya-img2.msstatic.com/screenshot/2149/620548149/99.jpg?x-oss-process=style/460x268&amp;amp;v=a436dba3c36465aaea66e219f49aa60f1639125266",
        "url": "http://videohw-platform.cdn.huya.com/1048585/89025392/32734825/88e90e207d179d0c345f1242e9a83e0e.m3u8?bitrate=1527&client=106&definition=1300&pid=89025392&scene=vod&vid=620548149"
    },
    {
        "id": "619617817",
        "title": "\u3010\u89e3\u538b\u3011\u6069\u4e03/\u82a6\u835f\u80f6~",
        "src": "http://v-huya-img2.msstatic.com/screenshot/2149/619617817/99.jpg?x-oss-process=style/460x268&amp;amp;v=a6dc22978ed003ce7c46651fb54b28ef1639113463",
        "url": "http://huya-w20.huya.com/2149/619617817/1300/90e0f38045ef61dee8f800655f3510b8.m3u8?bitrate=1193&client=93&definition=1300&pid=89025392&scene=vod&vid=619617817"
    },
    {
        "id": "620017685",
        "title": "\u3010\u6069\u4e03\u3011\u624b\u52bf\u97f3\u4e50~",
        "src": "http://v-huya-img2.msstatic.com/screenshot/2149/620017685/99.jpg?x-oss-process=style/460x268&amp;amp;v=01d237e5071f3f173fa6d2a921220d8c1639038545",
        "url": "http://videotx-platform.cdn.huya.com/1048585/89025392/32689933/3bb6c3dc65d5472cca0b78288f3d99ab.m3u8?bitrate=2040&client=106&definition=1300&pid=89025392&scene=vod&vid=620017685"
    },
    {
        "id": "619469767",
        "title": "\u3010\u89e3\u538b\u3011\u6069\u4e03/\u6d17\u5934/\u96f7\u5207",
        "src": "http://v-huya-img2.msstatic.com/screenshot/2149/619469767/99.jpg?x-oss-process=style/460x268&amp;amp;v=aa1ef3a1111976a327465e06e44ceecf1638945516",
        "url": "http://videobd-platform.cdn.huya.com/1048585/89025392/32640535/b488da5ed94d0cfa41bd197d00c7bf80.m3u8?bitrate=1790&client=106&definition=1300&pid=89025392&scene=vod&vid=619469767"
    },
    {
        "id": "619536697",
        "title": "\u3010\u89e3\u538b\u3011\u6069\u4e03/\u6076\u9f99\u5486\u54ee",
        "src": "http://v-huya-img2.msstatic.com/screenshot/2149/619536697/99.jpg?x-oss-process=style/460x268&amp;amp;v=b8ef4943c75ab688e72ac389a529b84c1638955239",
        "url": "http://videohw-platform.cdn.huya.com/1048585/89025392/32646863/93ca07199c226ced323896e5f8e22df6.m3u8?bitrate=2090&client=106&definition=1300&pid=89025392&scene=vod&vid=619536697"
    },
    {
        "id": "618987327",
        "title": "\u3010\u89e3\u538b\u3011\u6069\u4e03/\u82a6\u835f\u80f6/\u6572\u51fb",
        "src": "http://v-huya-img2.msstatic.com/screenshot/2149/618987327/99.jpg?x-oss-process=style/460x268&amp;amp;v=7f78200da8f83553a27dd26ba77c0a6d1638934775",
        "url": "http://huya-w21.huya.com/2149/618987327/1300/31320f1f496ecb36abf83e78c9914b1b.m3u8?bitrate=1149&client=93&definition=1300&pid=89025392&scene=vod&vid=618987327"
    },
    {
        "id": "619137913",
        "title": "\u3010\u89e3\u538b\u3011\u6069\u4e03/\u6c34\u6676\u94b5~",
        "src": "http://v-huya-img2.msstatic.com/screenshot/2149/619137913/99.jpg?x-oss-process=style/460x268&amp;amp;v=927f0efbf0cb72196c7127dc360d332d1638884372",
        "url": "http://videobd-platform.cdn.huya.com/1048585/89025392/32612687/35a5c2b7937848c34378587ac92d95da.m3u8?bitrate=707&client=106&definition=1300&pid=89025392&scene=vod&vid=619137913"
    },
    {
        "id": "618455413",
        "title": "\u3010\u6069\u4e03\u3011\u5fc3\u7406\u6d4b\u8bd5",
        "src": "http://v-huya-img2.msstatic.com/screenshot/2149/618455413/99.jpg?x-oss-process=style/460x268&amp;amp;v=9b91ece44e1231aba8cb24795d96663c1638773742",
        "url": "http://videohw-platform.cdn.huya.com/1048585/89025392/32551335/ca219a4a8bc8026c0089e3e5ae8b4186.m3u8?bitrate=1206&client=106&definition=1300&pid=89025392&scene=vod&vid=618455413"
    },
    {
        "id": "618396765",
        "title": "\u3010\u89e3\u538b\u3011\u6069\u4e03/\u6d17\u5934/\u96f7\u5207",
        "src": "http://v-huya-img2.msstatic.com/screenshot/2149/618396765/99.jpg?x-oss-process=style/460x268&amp;amp;v=d6d3545fcc3955498e52fbc77e5c7c901638762094",
        "url": "http://videohw-platform.cdn.huya.com/1048585/89025392/32545871/3227a26e10cf58efe900b7dbe20f2904.m3u8?bitrate=1817&client=106&definition=1300&pid=89025392&scene=vod&vid=618396765"
    },
    {
        "id": "617509761",
        "title": "\u6211\u53d1\u5e03\u4e86\u4e00\u4e2a\u65b0\u89c6\u9891\uff0c\u5feb\u6765\u56f4\u89c2\u5427\uff01",
        "src": "http://v-huya-img2.msstatic.com/screenshot/2148/617509761/99.jpg?x-oss-process=style/460x268&amp;amp;v=c0a208c3388b5200ddb41e842a97beb61638612037",
        "url": "http://videotx-platform.cdn.huya.com/1048585/89025392/32470805/8dacc2d147e32d06e75ee9dae98f8318.m3u8?bitrate=1273&client=106&definition=1300&pid=89025392&scene=vod&vid=617509761"
    },
    {
        "id": "616592715",
        "title": "\u3010\u54c4\u7761\u3011\u6069\u4e03/\u82a6\u835f\u80f6",
        "src": "http://v-huya-img2.msstatic.com/screenshot/2148/616592715/99.jpg?x-oss-process=style/460x268&amp;amp;amp;amp;v=f7c4e662067ab1cd703963d04beda6221638452703",
        "url": "http://videobd-platform.cdn.huya.com/1048585/89025392/32389229/df30dc59d8b982cf82df5686c0a32d46.m3u8?bitrate=1181&client=106&definition=1300&pid=89025392&scene=vod&vid=616592715"
    },
    {
        "id": "616444911",
        "title": "\u3010\u89e3\u538b\u3011\u6069\u4e03/\u8f7b\u8bed/ \u6572\u51fb/ \u5343\u9e1f",
        "src": "http://v-huya-img2.msstatic.com/screenshot/2148/616444911/99.jpg?x-oss-process=style/460x268&amp;amp;v=5a809123a5b9deab085b5026ea7d8b4d1638433844",
        "url": "http://videobd-platform.cdn.huya.com/1048585/89025392/32376391/91f0c2848af10083df7000933710e6c8.m3u8?bitrate=1264&client=106&definition=1300&pid=89025392&scene=vod&vid=616444911"
    },
    {
        "id": "616018287",
        "title": "\u3010\u89e3\u538b\u3011\u6069\u4e03/\u624b\u52bf\u97f3\u4e50~",
        "src": "http://v-huya-img2.msstatic.com/screenshot/2148/616018287/99.jpg?x-oss-process=style/460x268&amp;amp;v=5454f8e4dd11b878c92c3958910c6b0e1638360857",
        "url": "http://videotx-platform.cdn.huya.com/1048585/89025392/32336069/d1cf8244dc666ebeef96b7d11b0d191e.m3u8?bitrate=2077&client=106&definition=1300&pid=89025392&scene=vod&vid=616018287"
    },
    {
        "id": "615552465",
        "title": "\u3010\u54c4\u7761\u3011\u6069\u4e03/\u5fc3\u7075\u6307\u5bfc",
        "src": "http://v-huya-img2.msstatic.com/screenshot/2148/615552465/99.jpg?x-oss-process=style/460x268&amp;amp;amp;amp;v=a7d2d7d2ee6df3cc67f132d855d4ed3d1638280628",
        "url": "http://videobd-platform.cdn.huya.com/1048585/89025392/32277159/7ae8b1a8e85b6943c63b33f01e3f8ffa.m3u8?bitrate=1616&client=106&definition=1300&pid=89025392&scene=vod&vid=615552465"
    },
    {
        "id": "615864621",
        "title": "\u4e03\u9171\u60e9\u7f5a\u6e38\u620f \u7b11\u5230\u6a21\u7cca",
        "src": "http://v-huya-img2.msstatic.com/screenshot/2148/615864621/99.jpg?x-oss-process=style/460x268&amp;amp;v=df41519cd1e13c32a3724be6090e5f431638338851",
        "url": "http://videohw-platform.cdn.huya.com/1048585/89025392/32319075/5d19db77327fdc0fab91df596b331080.m3u8?bitrate=1908&client=106&definition=1300&pid=89025392&scene=vod&vid=615864621"
    }
]