[
    {
        "id": "662360421",
        "title": "\u3010\u89e3\u538b\u3011\u6069\u4e03/\u8f7b\u8bed/\u6572\u51fb",
        "src": "http://v-huya-img2.msstatic.com/screenshot/2207/662360421/99.jpg?x-oss-process=style/460x268&amp;amp;v=2b466dc43aa89459d88910d9ae74e7fe1644991652",
        "url": "http://videohw-platform.cdn.huya.com/1048585/89025392/35919427/127540d009616d2ed7934b55850d1919.m3u8?bitrate=1332&client=106&definition=1300&pid=89025392&scene=vod&vid=662360421"
    },
    {
        "id": "662347541",
        "title": "\u3010\u89e3\u538b\u3011\u6069\u4e03/\u624b\u52bf\u97f3\u4e50",
        "src": "http://v-huya-img2.msstatic.com/screenshot/2207/662347541/99.jpg?x-oss-process=style/460x268&amp;amp;v=a877b2092c759b1454af3ece3a79110b1644990039",
        "url": "http://videohw-platform.cdn.huya.com/1048585/89025392/35918551/58ac09d3d254b16a0196990dd8f8d038.m3u8?bitrate=2022&client=106&definition=1300&pid=89025392&scene=vod&vid=662347541"
    },
    {
        "id": "661149965",
        "title": "\u3010\u89e3\u538b\u3011\u6069\u4e03/\u51b7\u95e8\u89e6\u53d1\u97f3",
        "src": "http://v-huya-img2.msstatic.com/screenshot/2207/661149965/99.jpg?x-oss-process=style/460x268&amp;amp;v=a8e4b188a04d44c465c12491639029c21644832498",
        "url": "http://videotx-platform.cdn.huya.com/1048585/89025392/35851389/de53422baafb0d94aae5c0d270b3d448.m3u8?bitrate=1435&client=106&definition=1300&pid=89025392&scene=vod&vid=661149965"
    },
    {
        "id": "661923745",
        "title": "\u3010\u89e3\u538b\u3011\u6069\u4e03/\u5fc3\u7075\u6307\u5bfc~",
        "src": "http://v-huya-img2.msstatic.com/screenshot/2207/661923745/99.jpg?x-oss-process=style/460x268&amp;amp;v=bac5e2d8627797a91efac101048981bb1644929597",
        "url": "http://videohw-platform.cdn.huya.com/1048585/89025392/35896417/9e428a5529cea4354704ddfd7ab139e1.m3u8?bitrate=1864&client=106&definition=1300&pid=89025392&scene=vod&vid=661923745"
    },
    {
        "id": "661062879",
        "title": "\u3010\u89e3\u538b\u3011\u6069\u4e03/\u8033\u70db",
        "src": "http://v-huya-img2.msstatic.com/screenshot/2207/661062879/99.jpg?x-oss-process=style/460x268&amp;amp;v=e940edfd92d74112bf310c7970fae9721644820435",
        "url": "http://videotx-platform.cdn.huya.com/1048585/89025392/35846139/7922a541eae2aa27a6d3dd71b7688cc6.m3u8?bitrate=1026&client=106&definition=1300&pid=89025392&scene=vod&vid=661062879"
    },
    {
        "id": "661098537",
        "title": "\u3010\u89e3\u538b\u3011\u6069\u4e03/\u82a6\u835f\u80f6",
        "src": "http://v-huya-img2.msstatic.com/screenshot/2207/661098537/99.jpg?x-oss-process=style/460x268&amp;amp;v=52d4adfc0ccc9188680488ad239b55a21644825694",
        "url": "http://videohw-platform.cdn.huya.com/1048585/89025392/35847935/acca9915b0e338cfc8415316a383e694.m3u8?bitrate=1283&client=106&definition=1300&pid=89025392&scene=vod&vid=661098537"
    },
    {
        "id": "659161881",
        "title": "\u3010\u89e3\u538b\u3011\u6069\u4e03/\u6d17\u5934/\u96f7\u5207",
        "src": "http://v-huya-img2.msstatic.com/screenshot/2206/659161881/99.jpg?x-oss-process=style/460x268&amp;amp;v=20d07e07d94cd9ae8e3d34a1ed9ba1301644572583",
        "url": "http://videohw-platform.cdn.huya.com/1048585/89025392/35736247/ad4bc4698c871d367a676d15cfac9ea3.m3u8?bitrate=1422&client=106&definition=1300&pid=89025392&scene=vod&vid=659161881"
    },
    {
        "id": "659125885",
        "title": "\u3010\u89e3\u538b\u3011\u6069\u4e03/\u638f\u8033\u6735~",
        "src": "http://v-huya-img2.msstatic.com/screenshot/2206/659125885/99.jpg?x-oss-process=style/460x268&amp;amp;v=11f6f6b1f9ff9da7bf81611dd540c50d1644565326",
        "url": "http://videobd-platform.cdn.huya.com/1048585/89025392/35733891/3af3ff14b275ae360d5e555f03537a69.m3u8?bitrate=1143&client=106&definition=1300&pid=89025392&scene=vod&vid=659125885"
    },
    {
        "id": "659131161",
        "title": "\u3010\u89e3\u538b\u3011\u6069\u4e03/\u5343\u9e1f/\u7729\u6655\u56fe",
        "src": "http://v-huya-img2.msstatic.com/screenshot/2206/659131161/99.jpg?x-oss-process=style/460x268&amp;amp;v=1dd7e56e5862b4f263b1b25fac5c7a7c1644565973",
        "url": "http://videotx-platform.cdn.huya.com/1048585/89025392/35734161/c0712c379294f118e985d585f674f103.m3u8?bitrate=1168&client=106&definition=1300&pid=89025392&scene=vod&vid=659131161"
    },
    {
        "id": "659053325",
        "title": "\u3010\u89e3\u538b\u3011\u6069\u4e03/\u8f7b\u8bed~",
        "src": "http://v-huya-img2.msstatic.com/screenshot/2206/659053325/99.jpg?x-oss-process=style/460x268&amp;amp;v=380966e1c2d1dafe5a23e18b95aace561644558640",
        "url": "http://videotx-platform.cdn.huya.com/1048585/89025392/35729335/51838455a60cc91898b6aab2a167b9d9.m3u8?bitrate=973&client=106&definition=1300&pid=89025392&scene=vod&vid=659053325"
    },
    {
        "id": "658569153",
        "title": "\u3010\u89e3\u538b\u3011\u6069\u4e03/\u6076\u9f99\u5486\u54ee~",
        "src": "http://v-huya-img2.msstatic.com/screenshot/2206/658569153/99.jpg?x-oss-process=style/460x268&amp;amp;v=ab9c58688927809c05d4652d98b4143e1644489800",
        "url": "http://videohw-platform.cdn.huya.com/1048585/89025392/35703745/e8d1b1afab60c9eba35738692d7142b2.m3u8?bitrate=2088&client=106&definition=1300&pid=89025392&scene=vod&vid=658569153"
    },
    {
        "id": "658441617",
        "title": "\u3010\u89e3\u538b\u3011\u6069\u4e03/\u5fc3\u7075\u6307\u5bfc~",
        "src": "http://v-huya-img2.msstatic.com/screenshot/2206/658441617/99.jpg?x-oss-process=style/460x268&amp;amp;v=8aeaef235c4daec0bd81b25190fe72751644475949",
        "url": "http://videotx-platform.cdn.huya.com/1048585/89025392/35697143/26cd277c24bc490950cbd348532b67fb.m3u8?bitrate=1878&client=106&definition=1300&pid=89025392&scene=vod&vid=658441617"
    },
    {
        "id": "657856195",
        "title": "\u3010\u89e3\u538b\u3011\u6069\u4e03/\u624b\u52bf\u97f3\u4e50~",
        "src": "http://v-huya-img2.msstatic.com/screenshot/2206/657856195/99.jpg?x-oss-process=style/460x268&amp;amp;v=2163c61950fd11bd4daa7af64a2425291644398948",
        "url": "http://videobd-platform.cdn.huya.com/1048585/89025392/35665831/1a9321619470316def8528e8013f3b57.m3u8?bitrate=2005&client=106&definition=1300&pid=89025392&scene=vod&vid=657856195"
    },
    {
        "id": "657180511",
        "title": "\u3010\u89e3\u538b\u3011\u6069\u4e03/\u82a6\u835f\u80f6",
        "src": "http://v-huya-img2.msstatic.com/screenshot/2206/657180511/99.jpg?x-oss-process=style/460x268&amp;amp;v=6b8bb540473ee52983391690bed8577d1644309343",
        "url": "http://videobd-platform.cdn.huya.com/1048585/89025392/35624945/cea0eba7a661459b3a532afea3659d4d.m3u8?bitrate=1464&client=106&definition=1300&pid=89025392&scene=vod&vid=657180511"
    },
    {
        "id": "657129929",
        "title": "\u3010\u89e3\u538b\u3011\u6069\u4e03/\u6572\u51fb\u97f3",
        "src": "http://v-huya-img2.msstatic.com/screenshot/2206/657129929/99.jpg?x-oss-process=style/460x268&amp;amp;v=9b0cc73c0392d99c634936a7ef379e051644302540",
        "url": "http://videotx-platform.cdn.huya.com/1048585/89025392/35622479/f194aaab00e77a69d46b54e3b6c023cf.m3u8?bitrate=1284&client=106&definition=1300&pid=89025392&scene=vod&vid=657129929"
    }
]