[
    {
        "name": "[XIUREN]\u79c0\u4eba\u7f51 No.2810 \u9646\u8431\u8431",
        "src": "http://d.duotuwang.com/2020/11/20/23265/0.jpg",
        "mtId": "15c3767f8a07de21",
        "mtName": "\u9646\u8431\u8431",
        "jgId": "xiuren",
        "jgName": "\u79c0\u4eba\u7f51",
        "href": "http://d.duotuwang.com/2020/11/20/23265/",
        "count": 55,
        "start": 1,
        "hasMtTag": 1,
        "hasJgTag": 1,
        "mtCount": 25,
        "jgCount": 750
    },
    {
        "name": "[XIUREN]\u79c0\u4eba\u7f51 No.2750 \u9646\u8431\u8431",
        "src": "http://d.duotuwang.com/2020/11/06/23112/0.jpg",
        "mtId": "15c3767f8a07de21",
        "mtName": "\u9646\u8431\u8431",
        "jgId": "xiuren",
        "jgName": "\u79c0\u4eba\u7f51",
        "href": "http://d.duotuwang.com/2020/11/06/23112/",
        "count": 76,
        "start": 1,
        "hasMtTag": 1,
        "hasJgTag": 1,
        "mtCount": 25,
        "jgCount": 750
    },
    {
        "name": "[XIUREN]\u79c0\u4eba\u7f51 No.2705 \u9646\u8431\u8431",
        "src": "http://d.duotuwang.com/2020/10/27/22940/0.jpg",
        "mtId": "15c3767f8a07de21",
        "mtName": "\u9646\u8431\u8431",
        "jgId": "xiuren",
        "jgName": "\u79c0\u4eba\u7f51",
        "href": "http://d.duotuwang.com/2020/10/27/22940/",
        "count": 78,
        "start": 1,
        "hasMtTag": 1,
        "hasJgTag": 1,
        "mtCount": 25,
        "jgCount": 750
    },
    {
        "name": "[XIUREN]\u79c0\u4eba\u7f51 No.2694 \u9646\u8431\u8431",
        "src": "http://d.duotuwang.com/2020/10/23/22929/0.jpg",
        "mtId": "15c3767f8a07de21",
        "mtName": "\u9646\u8431\u8431",
        "jgId": "xiuren",
        "jgName": "\u79c0\u4eba\u7f51",
        "href": "http://d.duotuwang.com/2020/10/23/22929/",
        "count": 74,
        "start": 1,
        "hasMtTag": 1,
        "hasJgTag": 1,
        "mtCount": 25,
        "jgCount": 750
    },
    {
        "name": "[XIUREN]\u79c0\u4eba\u7f51 No.2665 \u9646\u8431\u8431&\u9648\u5c0f\u55b5",
        "src": "http://d.duotuwang.com/2020/10/16/22844/0.jpg",
        "mtId": "15c3767f8a07de21",
        "mtName": "\u9646\u8431\u8431",
        "jgId": "xiuren",
        "jgName": "\u79c0\u4eba\u7f51",
        "href": "http://d.duotuwang.com/2020/10/16/22844/",
        "count": 63,
        "start": 1,
        "hasMtTag": 1,
        "hasJgTag": 1,
        "mtCount": 25,
        "jgCount": 750
    },
    {
        "name": "[XIUREN]\u79c0\u4eba\u7f51 No.2647 \u9646\u8431\u8431",
        "src": "http://d.duotuwang.com/2020/10/13/22761/0.jpg",
        "mtId": "15c3767f8a07de21",
        "mtName": "\u9646\u8431\u8431",
        "jgId": "xiuren",
        "jgName": "\u79c0\u4eba\u7f51",
        "href": "http://d.duotuwang.com/2020/10/13/22761/",
        "count": 95,
        "start": 1,
        "hasMtTag": 1,
        "hasJgTag": 1,
        "mtCount": 25,
        "jgCount": 750
    }
]