[
    {
        "id": "465840471",
        "title": "\u996d\u62cd\u7f8e\u5973\u821e\u8e48 BIRTHDAY",
        "src": "http://v-huya-img.huya.com/2108/465840471/99-460x268.jpg?v=41015f382f4d5838c4bbcf92746139661614137872",
        "url": "http://huya-w10.huya.com/2108/465840471/1300/4d39d22c7db721a4ad35bd9acf236ce6.m3u8?bitrate=1316&client=70&definition=1300&pid=1199520110371&scene=vod&vid=465840471"
    },
    {
        "id": "465294283",
        "title": "\u996d\u62cd\u7f8e\u5973\u821e\u8e48",
        "src": "http://v-huya-img.huya.com/2108/465294283/99-460x268.jpg?v=1b643425c09d7f32a1dc7aab266af3041614042851",
        "url": "http://huya-w21.huya.com/2108/465294283/1300/9d36fef3b7e6323e93b9d9bae622e8a6.m3u8?bitrate=1315&client=70&definition=1300&pid=1199520110371&scene=vod&vid=465294283"
    },
    {
        "id": "462966513",
        "title": "\u996d\u62cd\u7f8e\u5973\u821e\u8e48 Oh! My Mistake",
        "src": "http://v-huya-img.huya.com/2107/462966513/99-460x268.jpg?v=35fa9feb7f9e495c4093e29bf446d2f61613646440",
        "url": "http://huya-w10.huya.com/2107/462966513/1300/3575a83dab0970bab8f9ad9c170fcb75.m3u8?bitrate=1311&client=70&definition=1300&pid=1199520110371&scene=vod&vid=462966513"
    },
    {
        "id": "462327887",
        "title": "\u996d\u62cd\u7f8e\u5973\u821e\u8e48  Kill This Love",
        "src": "http://v-huya-img.huya.com/2107/462327887/99-460x268.jpg?v=961d50903481a0ff13b077de14b970571613534070",
        "url": "http://huya-w10.huya.com/2107/462327887/1300/2c9ec060343b74633d181cad87bd743d.m3u8?bitrate=1325&client=70&definition=1300&pid=1199520110371&scene=vod&vid=462327887"
    },
    {
        "id": "456616059",
        "title": "\u6210\u4eba\u793c",
        "src": "http://v-huya-img.huya.com/2105/456616059/99-460x268.jpg?v=38b5f3333987b64d560e4f7131507a3e1612530532",
        "url": "http://huya-w20.huya.com/2105/456616059/350/6a90d6b66a8019ff806900430b8975aa.m3u8?bitrate=315&client=70&definition=350&pid=1199520110371&scene=vod&vid=456616059"
    },
    {
        "id": "456606595",
        "title": "\u5fcd\u4e0d\u4f4f\u55b7\u9f3b\u8840Waveya\u8d85\u64a9\u9ad8\u8ddf\u7ffb\u8df3",
        "src": "http://v-huya-img.huya.com/2105/456606595/99-460x268.jpg?v=c834900cc1a3dee790ab587885a7cbad1612529179",
        "url": "http://huya-w20.huya.com/2105/456606595/1300/9f5ebda9af2fd06ccbcba827c3e95fb4.m3u8?bitrate=1212&client=70&definition=1300&pid=1199520110371&scene=vod&vid=456606595"
    },
    {
        "id": "457167983",
        "title": "\u6210\u4eba\u793c",
        "src": "http://v-huya-img.huya.com/2105/457167983/99-460x268.jpg?v=7f1ea544d69305849b9fc9e81bbc3e411612618896",
        "url": "http://huya-w10.huya.com/2105/457167983/1300/24f18704f406263d2e73497c00aa2242.m3u8?bitrate=1220&client=70&definition=1300&pid=1199520110371&scene=vod&vid=457167983"
    },
    {
        "id": "456604567",
        "title": "\u5143\u6c14\u59b9\u7eb8KittyMeow\u9ad8\u8ddf\u7ffb\u8df3CLC\u65b0\u6b4cBlack Dress",
        "src": "http://v-huya-img.huya.com/2105/456604567/99-460x268.jpg?v=e8edeab88be01226513b395aaf129f671612528934",
        "url": "http://huya-w21.huya.com/2105/456604567/1300/0b4ac11739f120493ff46b47e23b2aa9.m3u8?bitrate=1005&client=70&definition=1300&pid=1199520110371&scene=vod&vid=456604567"
    },
    {
        "id": "449273517",
        "title": "\u7f8e\u5973\u821e\u8e48 sting",
        "src": "http://v-huya-img.huya.com/2103/449273517/99-460x268.jpg?v=8f979cb8dd6207cd7ed50ef480ee39751611383429",
        "url": "http://huya-w10.huya.com/2103/449273517/1300/24ae7428ef77be6289ffd8ddb00aa538.m3u8?bitrate=1307&client=70&definition=1300&pid=1199520110371&scene=vod&vid=449273517"
    },
    {
        "id": "448855063",
        "title": "\u6740 \u4f24 \u529b \u6781 \u5f3a Roly Poly\u6d17\u8111\u795e\u66f2\u7ecf\u5178\u91cd\u73b0\uff01",
        "src": "http://v-huya-img.huya.com/2103/448855063/99-460x268.jpg?v=cd5df3acc3d6ec17eee57fcf23c7c5521611316233",
        "url": "http://huya-w10.huya.com/2103/448855063/1300/6c673c39502ab4396580cd23e625bb03.m3u8?bitrate=1316&client=70&definition=1300&pid=1199520110371&scene=vod&vid=448855063"
    },
    {
        "id": "448762261",
        "title": "\u8fd9\u5b9d\u8d1d\u770b\u4e86\u8c01\u4e0d\u8ff7\u7cca\uff01",
        "src": "http://v-huya-img.huya.com/2103/448762261/99-460x268.jpg?v=6522a55c5218f7760cd1014317cdf20f1611303471",
        "url": "http://huya-w10.huya.com/2103/448762261/1300/61ab2070c436270fc1002e01073e4d00.m3u8?bitrate=1307&client=70&definition=1300&pid=1199520110371&scene=vod&vid=448762261"
    },
    {
        "id": "445595375",
        "title": "\u7f8e\u5973\u5c0f\u59d0\u59d0\u821e\u8e48 \u300a\u4e00\u676f\u6e29\u6696\u300b",
        "src": "http://v-huya-img.huya.com/2102/445595375/99-460x268.jpg?v=57d5c97bb521d1a9e35d121e72525ec51610800904",
        "url": "http://huya-w10.huya.com/2102/445595375/1300/8d9b8fb4bcaec08e38556017a5c7d14a.m3u8?bitrate=1317&client=70&definition=1300&pid=1199520110371&scene=vod&vid=445595375"
    },
    {
        "id": "436884735",
        "title": "\u996d\u62cd\u7f8e\u5973\u821e\u8e48 FullMoon",
        "src": "http://v-huya-img.huya.com/2053/436884735/99-460x268.jpg?v=06ccfbb0d77d2222f609354df64e95ac1609334980",
        "url": "http://huya-w20.huya.com/2053/436884735/1300/d8231b110bac8b4362746c646b021962.m3u8?bitrate=1311&client=70&definition=1300&pid=1199520110371&scene=vod&vid=436884735"
    },
    {
        "id": "436875253",
        "title": "\u996d\u62cd\u7f8e\u5973\u821e\u8e48 Black Dress",
        "src": "http://v-huya-img.huya.com/2053/436875253/99-460x268.jpg?v=e0e857f79f46e76b297b5f6cddd302aa1609333582",
        "url": "http://huya-w21.huya.com/2053/436875253/1300/bff8b8b31b2f8b58beed4d82d89e7104.m3u8?bitrate=1309&client=70&definition=1300&pid=1199520110371&scene=vod&vid=436875253"
    },
    {
        "id": "435149883",
        "title": "\u3010Wiggle Wiggle\u3011\u5df4\u897f\u957f\u817f\u5c0f\u59d0\u59d0\u8df3\u6d3b\u529b\u8e66\u8fea\u821e\uff01",
        "src": "http://v-huya-img.huya.com/2052/435149883/99-460x268.jpg?v=843d7b879120f1e1e2840c34dc5f546b1609023267",
        "url": "http://huya-w20.huya.com/2052/435149883/1300/2b81340a729ef7e7f6515dddcc7c1254.m3u8?bitrate=1154&client=70&definition=1300&pid=1199520110371&scene=vod&vid=435149883"
    }
]