[
    {
        "name": "[YouMi]\u5c24\u871c \u8d39\u82e5\u62c9 \u5c24\u7269\u5973\u7687\u8c6a\u60c5\u5de8\u4e73",
        "src": "http://d.duotuwang.com/2020/12/20/23566/0.jpg",
        "mtId": "a27cd44bfff4f5c9",
        "mtName": "\u8d39\u82e5\u62c9",
        "jgId": "youmiabc",
        "jgName": "\u5c24\u871c",
        "href": "http://d.duotuwang.com/2020/12/20/23566/",
        "count": 21,
        "start": 1,
        "hasMtTag": 1,
        "hasJgTag": 1,
        "mtCount": 3,
        "jgCount": 79
    },
    {
        "name": "[YouMi]\u5c24\u871c \u8d39\u82e5\u62c9 \u65f6\u5149\u4e4b\u6625\u8272",
        "src": "http://d.duotuwang.com/2020/11/18/23173/0.jpg",
        "mtId": "a27cd44bfff4f5c9",
        "mtName": "\u8d39\u82e5\u62c9",
        "jgId": "youmiabc",
        "jgName": "\u5c24\u871c",
        "href": "http://d.duotuwang.com/2020/11/18/23173/",
        "count": 43,
        "start": 1,
        "hasMtTag": 1,
        "hasJgTag": 1,
        "mtCount": 3,
        "jgCount": 79
    },
    {
        "name": "[YouMi]\u5c24\u871c \u8d39\u82e5\u62c9 \u76f8\u601d\u6ee1\u6ea2",
        "src": "http://d.duotuwang.com/2020/11/07/23025/0.jpg",
        "mtId": "a27cd44bfff4f5c9",
        "mtName": "\u8d39\u82e5\u62c9",
        "jgId": "youmiabc",
        "jgName": "\u5c24\u871c",
        "href": "http://d.duotuwang.com/2020/11/07/23025/",
        "count": 39,
        "start": 1,
        "hasMtTag": 1,
        "hasJgTag": 1,
        "mtCount": 3,
        "jgCount": 79
    },
    {
        "name": "[YouMei]\u5c24\u7f8e \u8d39\u82e5\u62c9 \u6e05\u6668\u7684\u68a6",
        "src": "http://d.duotuwang.com/2020/03/07/19972/0.jpg",
        "mtId": "a27cd44bfff4f5c9",
        "mtName": "\u8d39\u82e5\u62c9",
        "jgId": "youmei",
        "jgName": "\u5c24\u7f8e\u7f51",
        "href": "http://d.duotuwang.com/2020/03/07/19972/",
        "count": 23,
        "start": 1,
        "hasMtTag": 1,
        "hasJgTag": 1,
        "mtCount": 3,
        "jgCount": 47
    },
    {
        "name": "[YouMei]\u5c24\u7f8e \u8d39\u82e5\u62c9 \u76f4\u51fb\u5fc3\u810f",
        "src": "http://d.duotuwang.com/2020/03/01/19968/0.jpg",
        "mtId": "a27cd44bfff4f5c9",
        "mtName": "\u8d39\u82e5\u62c9",
        "jgId": "youmei",
        "jgName": "\u5c24\u7f8e\u7f51",
        "href": "http://d.duotuwang.com/2020/03/01/19968/",
        "count": 24,
        "start": 1,
        "hasMtTag": 1,
        "hasJgTag": 1,
        "mtCount": 3,
        "jgCount": 47
    },
    {
        "name": "[YouMei]\u5c24\u7f8e \u8d39\u82e5\u62c9 \u4e73\u795e\u6765\u4e34",
        "src": "http://d.duotuwang.com/2020/02/22/19722/0.jpg",
        "mtId": "a27cd44bfff4f5c9",
        "mtName": "\u8d39\u82e5\u62c9",
        "jgId": "youmei",
        "jgName": "\u5c24\u7f8e\u7f51",
        "href": "http://d.duotuwang.com/2020/02/22/19722/",
        "count": 36,
        "start": 1,
        "hasMtTag": 1,
        "hasJgTag": 1,
        "mtCount": 3,
        "jgCount": 47
    }
]