[
    {
        "name": "[YouWu]\u5c24\u7269\u9986 VOL.113 \u5b5f\u72d0\u72f8FoxYini",
        "src": "http://d.duotuwang.com/2018/08/27/9582/0.jpg",
        "mtId": "5ee0e185d3cabf77",
        "mtName": "FoxYini\u5b5f\u72d0\u72f8",
        "jgId": "youwu",
        "jgName": "\u5c24\u7269\u9986",
        "href": "http://d.duotuwang.com/2018/08/27/9582/",
        "count": 42,
        "start": 1,
        "hasMtTag": 1,
        "hasJgTag": 1,
        "mtCount": 9,
        "jgCount": 29
    },
    {
        "name": "[XIUREN]\u79c0\u4eba\u7f51 No.1120 \u5b5f\u72d0\u72f8FoxYini",
        "src": "http://d.duotuwang.com/2018/08/14/9520/0.jpg",
        "mtId": "5ee0e185d3cabf77",
        "mtName": "FoxYini\u5b5f\u72d0\u72f8",
        "jgId": "xiuren",
        "jgName": "\u79c0\u4eba\u7f51",
        "href": "http://d.duotuwang.com/2018/08/14/9520/",
        "count": 52,
        "start": 1,
        "hasMtTag": 1,
        "hasJgTag": 1,
        "mtCount": 9,
        "jgCount": 750
    },
    {
        "name": "[YouWu]\u5c24\u7269\u9986 VOL.106 \u5b5f\u72d0\u72f8FoxYini",
        "src": "http://d.duotuwang.com/2018/07/31/9426/0.jpg",
        "mtId": "5ee0e185d3cabf77",
        "mtName": "FoxYini\u5b5f\u72d0\u72f8",
        "jgId": "youwu",
        "jgName": "\u5c24\u7269\u9986",
        "href": "http://d.duotuwang.com/2018/07/31/9426/",
        "count": 45,
        "start": 1,
        "hasMtTag": 1,
        "hasJgTag": 1,
        "mtCount": 9,
        "jgCount": 29
    },
    {
        "name": "[XIUREN]\u79c0\u4eba\u7f51 No.1096 \u5b5f\u72d0\u72f8FoxYini",
        "src": "http://d.duotuwang.com/2018/07/25/9394/0.jpg",
        "mtId": "5ee0e185d3cabf77",
        "mtName": "\u5b5f\u72d0\u72f8",
        "jgId": "xiuren",
        "jgName": "\u79c0\u4eba\u7f51",
        "href": "http://d.duotuwang.com/2018/07/25/9394/",
        "count": 31,
        "start": 1,
        "hasMtTag": 1,
        "hasJgTag": 1,
        "mtCount": 9,
        "jgCount": 750
    },
    {
        "name": "[YouWu]\u5c24\u7269\u9986 VOL.103 \u5b5f\u72d0\u72f8FoxYini",
        "src": "http://d.duotuwang.com/2018/07/17/9338/0.jpg",
        "mtId": "5ee0e185d3cabf77",
        "mtName": "\u5b5f\u72d0\u72f8",
        "jgId": "youwu",
        "jgName": "\u5c24\u7269\u9986",
        "href": "http://d.duotuwang.com/2018/07/17/9338/",
        "count": 40,
        "start": 1,
        "hasMtTag": 1,
        "hasJgTag": 1,
        "mtCount": 9,
        "jgCount": 29
    },
    {
        "name": "[CANDY]\u7cd6\u679c\u753b\u62a5 VOL.048 FoxYini\u5b5f\u72d0\u72f8",
        "src": "http://d.duotuwang.com/2017/12/27/6733/0.jpg",
        "mtId": "5ee0e185d3cabf77",
        "mtName": "FoxYini\u5b5f\u72d0\u72f8",
        "jgId": "candy",
        "jgName": "\u7cd6\u679c\u753b\u62a5",
        "href": "http://d.duotuwang.com/2017/12/27/6733/",
        "count": 42,
        "start": 1,
        "hasMtTag": 1,
        "hasJgTag": 1,
        "mtCount": 9,
        "jgCount": 15
    }
]