[
    {
        "name": "[UGirls]\u5c24\u679c\u7f51 U152 \u7530\u7199\u73a5",
        "src": "http://d.duotuwang.com/2016/01/30/3160/0.jpg",
        "mtId": "ecae5d73deb3791c",
        "mtName": "\u7530\u7199\u73a5",
        "jgId": "ugirls",
        "jgName": "\u5c24\u679c\u7f51",
        "href": "http://d.duotuwang.com/2016/01/30/3160/",
        "count": 64,
        "start": 1,
        "hasMtTag": 1,
        "hasJgTag": 1,
        "mtCount": 1,
        "jgCount": 79
    }
]