[
    {
        "name": "[ARTGRAVIA] VOL.422 Kang In-kyung",
        "src": "http://d.duotuwang.com/2022/05/28/30750/0.jpg",
        "mtId": "50fbb2e20587aea8",
        "mtName": "KangInkyung",
        "href": "http://d.duotuwang.com/2022/05/28/30750/",
        "count": 83,
        "start": 1,
        "hasMtTag": 1,
        "hasJgTag": 0,
        "mtCount": 12
    },
    {
        "name": "[ARTGRAVIA] VOL.407 Kang In-kyung 2/2",
        "src": "http://d.duotuwang.com/2022/04/01/30117/0.jpg",
        "mtId": "50fbb2e20587aea8",
        "mtName": "KangInkyung",
        "href": "http://d.duotuwang.com/2022/04/01/30117/",
        "count": 31,
        "start": 1,
        "hasMtTag": 1,
        "hasJgTag": 0,
        "mtCount": 12
    },
    {
        "name": "[ARTGRAVIA] VOL.407 Kang In-kyung 1/2",
        "src": "http://d.duotuwang.com/2022/04/01/30116/0.jpg",
        "mtId": "50fbb2e20587aea8",
        "mtName": "KangInkyung",
        "href": "http://d.duotuwang.com/2022/04/01/30116/",
        "count": 93,
        "start": 1,
        "hasMtTag": 1,
        "hasJgTag": 0,
        "mtCount": 12
    },
    {
        "name": "[ARTGRAVIA] VOL.406 Kang In-kyung",
        "src": "http://d.duotuwang.com/2022/03/30/30281/0.jpg",
        "mtId": "50fbb2e20587aea8",
        "mtName": "KangInkyung",
        "href": "http://d.duotuwang.com/2022/03/30/30281/",
        "count": 94,
        "start": 1,
        "hasMtTag": 1,
        "hasJgTag": 0,
        "mtCount": 12
    },
    {
        "name": "[ARTGRAVIA] VOL.401 Kang In-kyung",
        "src": "http://d.duotuwang.com/2022/03/20/29750/0.jpg",
        "mtId": "50fbb2e20587aea8",
        "mtName": "KangInkyung",
        "href": "http://d.duotuwang.com/2022/03/20/29750/",
        "count": 62,
        "start": 1,
        "hasMtTag": 1,
        "hasJgTag": 0,
        "mtCount": 12
    },
    {
        "name": "[ARTGRAVIA] VOL.394 Kang In-kyung",
        "src": "http://d.duotuwang.com/2022/03/03/29748/0.jpg",
        "mtId": "50fbb2e20587aea8",
        "mtName": "KangInkyung",
        "href": "http://d.duotuwang.com/2022/03/03/29748/",
        "count": 37,
        "start": 1,
        "hasMtTag": 1,
        "hasJgTag": 0,
        "mtCount": 12
    }
]