[
    {
        "name": "[YouMei]\u5c24\u7f8e \u5927\u8431\u8431 \u5065\u8eab\u5973\u795e",
        "src": "http://d.duotuwang.com/2020/02/04/19564/0.jpg",
        "mtId": "ea98ba81b0f2453a",
        "mtName": "\u5927\u8431\u8431",
        "jgId": "youmei",
        "jgName": "\u5c24\u7f8e\u7f51",
        "href": "http://d.duotuwang.com/2020/02/04/19564/",
        "count": 29,
        "start": 1,
        "hasMtTag": 1,
        "hasJgTag": 1,
        "mtCount": 1,
        "jgCount": 47
    },
    {
        "name": "[YouMei]\u5c24\u7f8e \u5927\u8431\u8431 \u6fc0\u60c5\u72c2\u60f3",
        "src": "http://d.duotuwang.com/2019/12/18/19067/0.jpg",
        "mtId": "ea98ba81b0f2453a",
        "mtName": "\u5927\u8431\u8431",
        "jgId": "youmei",
        "jgName": "\u5c24\u7f8e\u7f51",
        "href": "http://d.duotuwang.com/2019/12/18/19067/",
        "count": 30,
        "start": 1,
        "hasMtTag": 1,
        "hasJgTag": 1,
        "mtCount": 1,
        "jgCount": 47
    },
    {
        "name": "[YouMei]\u5c24\u7f8e \u5927\u8431\u8431 \u9650\u91cf\u871c\u6843",
        "src": "http://d.duotuwang.com/2019/11/28/18852/0.jpg",
        "mtId": "ea98ba81b0f2453a",
        "mtName": "\u5927\u8431\u8431",
        "jgId": "youmei",
        "jgName": "\u5c24\u7f8e\u7f51",
        "href": "http://d.duotuwang.com/2019/11/28/18852/",
        "count": 51,
        "start": 1,
        "hasMtTag": 1,
        "hasJgTag": 1,
        "mtCount": 1,
        "jgCount": 47
    },
    {
        "name": "[YouMei]\u5c24\u7f8e No.028 \u5927\u8431\u8431 \u7403\u573a\u7ae5\u8bdd\u5927\u5145\u6ee1\u9b45\u529b\u7684\u516c\u4e3b",
        "src": "http://d.duotuwang.com/2018/06/26/10485/0.jpg",
        "mtId": "ea98ba81b0f2453a",
        "mtName": "\u5927\u8431\u8431",
        "jgId": "youmei",
        "jgName": "\u5c24\u7f8e\u7f51",
        "href": "http://d.duotuwang.com/2018/06/26/10485/",
        "count": 19,
        "start": 1,
        "hasMtTag": 1,
        "hasJgTag": 1,
        "mtCount": 1,
        "jgCount": 47
    }
]