[
    {
        "name": "[XIUREN]\u79c0\u4eba\u7f51 No.2278 \u5c0f\u5ba3fancy",
        "src": "http://d.duotuwang.com/2020/07/01/21019/0.jpg",
        "mtId": "90f99d4bcd9a33d0",
        "mtName": "\u5c0f\u5ba3fancy",
        "jgId": "xiuren",
        "jgName": "\u79c0\u4eba\u7f51",
        "href": "http://d.duotuwang.com/2020/07/01/21019/",
        "count": 47,
        "start": 1,
        "hasMtTag": 1,
        "hasJgTag": 1,
        "mtCount": 2,
        "jgCount": 750
    },
    {
        "name": "[MyGirl]\u7f8e\u5a9b\u9986 VOL.436 \u5c0f\u5ba3fancy",
        "src": "http://d.duotuwang.com/2020/04/30/20462/0.jpg",
        "mtId": "90f99d4bcd9a33d0",
        "mtName": "\u5c0f\u5ba3fancy",
        "jgId": "mygirl",
        "jgName": "\u7f8e\u5a9b\u9986",
        "href": "http://d.duotuwang.com/2020/04/30/20462/",
        "count": 70,
        "start": 1,
        "hasMtTag": 1,
        "hasJgTag": 1,
        "mtCount": 2,
        "jgCount": 110
    },
    {
        "name": "[MFStar]\u6a21\u8303\u5b66\u9662 VOL.308 \u5c0f\u5ba3fancy",
        "src": "http://d.duotuwang.com/2020/04/14/20256/0.jpg",
        "mtId": "90f99d4bcd9a33d0",
        "mtName": "\u5c0f\u5ba3fancy",
        "jgId": "mfstar",
        "jgName": "\u6a21\u8303\u5b66\u9662",
        "href": "http://d.duotuwang.com/2020/04/14/20256/",
        "count": 38,
        "start": 1,
        "hasMtTag": 1,
        "hasJgTag": 1,
        "mtCount": 2,
        "jgCount": 94
    }
]