[
    {
        "name": "[XIUREN]\u79c0\u4eba\u7f51 No.4916 \u679c\u513fVictoria",
        "src": "http://d.duotuwang.com/2022/04/25/29529/0.jpg",
        "mtId": "fc1868c8a652655f",
        "mtName": "\u679c\u513fVictoria",
        "jgId": "xiuren",
        "jgName": "\u79c0\u4eba\u7f51",
        "href": "http://d.duotuwang.com/2022/04/25/29529/",
        "count": 48,
        "start": 1,
        "hasMtTag": 1,
        "hasJgTag": 1,
        "mtCount": 29,
        "jgCount": 750
    },
    {
        "name": "[UGirlsAPP]\u7231\u5c24\u7269 No.2320 \u679c\u513fVictoria",
        "src": "http://d.duotuwang.com/2022/04/22/29622/0.jpg",
        "mtId": "fc1868c8a652655f",
        "mtName": "\u679c\u513fVictoria",
        "jgId": "ugirlsapp",
        "jgName": "\u7231\u5c24\u7269",
        "href": "http://d.duotuwang.com/2022/04/22/29622/",
        "count": 35,
        "start": 1,
        "hasMtTag": 1,
        "hasJgTag": 1,
        "mtCount": 29,
        "jgCount": 397
    },
    {
        "name": "[XIUREN]\u79c0\u4eba\u7f51 No.4886 \u679c\u513fVictoria",
        "src": "http://d.duotuwang.com/2022/04/19/29499/0.jpg",
        "mtId": "fc1868c8a652655f",
        "mtName": "\u679c\u513fVictoria",
        "jgId": "xiuren",
        "jgName": "\u79c0\u4eba\u7f51",
        "href": "http://d.duotuwang.com/2022/04/19/29499/",
        "count": 53,
        "start": 1,
        "hasMtTag": 1,
        "hasJgTag": 1,
        "mtCount": 29,
        "jgCount": 750
    },
    {
        "name": "[XIUREN]\u79c0\u4eba\u7f51 No.4882 \u679c\u513fVictoria",
        "src": "http://d.duotuwang.com/2022/04/18/29495/0.jpg",
        "mtId": "fc1868c8a652655f",
        "mtName": "\u679c\u513fVictoria",
        "jgId": "xiuren",
        "jgName": "\u79c0\u4eba\u7f51",
        "href": "http://d.duotuwang.com/2022/04/18/29495/",
        "count": 51,
        "start": 1,
        "hasMtTag": 1,
        "hasJgTag": 1,
        "mtCount": 29,
        "jgCount": 750
    },
    {
        "name": "[XIUREN]\u79c0\u4eba\u7f51 No.4853 \u679c\u513fVictoria",
        "src": "http://d.duotuwang.com/2022/04/12/29363/0.jpg",
        "mtId": "fc1868c8a652655f",
        "mtName": "\u679c\u513fVictoria",
        "jgId": "xiuren",
        "jgName": "\u79c0\u4eba\u7f51",
        "href": "http://d.duotuwang.com/2022/04/12/29363/",
        "count": 40,
        "start": 1,
        "hasMtTag": 1,
        "hasJgTag": 1,
        "mtCount": 29,
        "jgCount": 750
    },
    {
        "name": "[XIUREN]\u79c0\u4eba\u7f51 No.4810 \u679c\u513fVictoria",
        "src": "http://d.duotuwang.com/2022/04/01/29287/0.jpg",
        "mtId": "fc1868c8a652655f",
        "mtName": "\u679c\u513fVictoria",
        "jgId": "xiuren",
        "jgName": "\u79c0\u4eba\u7f51",
        "href": "http://d.duotuwang.com/2022/04/01/29287/",
        "count": 65,
        "start": 1,
        "hasMtTag": 1,
        "hasJgTag": 1,
        "mtCount": 29,
        "jgCount": 750
    }
]