[
    {
        "name": "[HuaYang]\u82b1\u6f3eshow VOL.474 \u679c\u513fVictoria",
        "src": "http://d.duotuwang.com/2021/12/08/27665/0.jpg",
        "mtId": "fc1868c8a652655f",
        "mtName": "\u679c\u513fVictoria",
        "jgId": "huayang",
        "jgName": "\u82b1\u6f3eshow",
        "href": "http://d.duotuwang.com/2021/12/08/27665/",
        "count": 43,
        "start": 1,
        "hasMtTag": 1,
        "hasJgTag": 1,
        "mtCount": 29,
        "jgCount": 86
    },
    {
        "name": "[XIUREN]\u79c0\u4eba\u7f51 No.4306 \u679c\u513fVictoria",
        "src": "http://d.duotuwang.com/2021/12/07/27687/0.jpg",
        "mtId": "fc1868c8a652655f",
        "mtName": "\u679c\u513fVictoria",
        "jgId": "xiuren",
        "jgName": "\u79c0\u4eba\u7f51",
        "href": "http://d.duotuwang.com/2021/12/07/27687/",
        "count": 66,
        "start": 1,
        "hasMtTag": 1,
        "hasJgTag": 1,
        "mtCount": 29,
        "jgCount": 750
    },
    {
        "name": "[XIUREN]\u79c0\u4eba\u7f51 No.4277 \u679c\u513fVictoria",
        "src": "http://d.duotuwang.com/2021/11/29/27562/0.jpg",
        "mtId": "fc1868c8a652655f",
        "mtName": "\u679c\u513fVictoria",
        "jgId": "xiuren",
        "jgName": "\u79c0\u4eba\u7f51",
        "href": "http://d.duotuwang.com/2021/11/29/27562/",
        "count": 48,
        "start": 1,
        "hasMtTag": 1,
        "hasJgTag": 1,
        "mtCount": 29,
        "jgCount": 750
    },
    {
        "name": "[XIUREN]\u79c0\u4eba\u7f51 No.4267 \u679c\u513fVictoria",
        "src": "http://d.duotuwang.com/2021/11/25/27552/0.jpg",
        "mtId": "fc1868c8a652655f",
        "mtName": "\u679c\u513fVictoria",
        "jgId": "xiuren",
        "jgName": "\u79c0\u4eba\u7f51",
        "href": "http://d.duotuwang.com/2021/11/25/27552/",
        "count": 60,
        "start": 1,
        "hasMtTag": 1,
        "hasJgTag": 1,
        "mtCount": 29,
        "jgCount": 750
    },
    {
        "name": "[XIUREN]\u79c0\u4eba\u7f51 No.4249 \u679c\u513fVictoria",
        "src": "http://d.duotuwang.com/2021/11/22/27458/0.jpg",
        "mtId": "fc1868c8a652655f",
        "mtName": "\u679c\u513fVictoria",
        "jgId": "xiuren",
        "jgName": "\u79c0\u4eba\u7f51",
        "href": "http://d.duotuwang.com/2021/11/22/27458/",
        "count": 40,
        "start": 1,
        "hasMtTag": 1,
        "hasJgTag": 1,
        "mtCount": 29,
        "jgCount": 750
    },
    {
        "name": "[YOUMI]\u5c24\u871c\u835f VOL.718 \u679c\u513fVictoria",
        "src": "http://d.duotuwang.com/2021/11/15/27291/0.jpg",
        "mtId": "fc1868c8a652655f",
        "mtName": "\u679c\u513fVictoria",
        "jgId": "youmi",
        "jgName": "\u5c24\u871c\u835f",
        "href": "http://d.duotuwang.com/2021/11/15/27291/",
        "count": 45,
        "start": 1,
        "hasMtTag": 1,
        "hasJgTag": 1,
        "mtCount": 29,
        "jgCount": 143
    }
]