[
    {
        "name": "[IMISS]\u7231\u871c\u793e VOL.640 \u5c0f\u72d0\u72f8Kathryn",
        "src": "http://d.duotuwang.com/2021/11/08/27268/0.jpg",
        "mtId": "1af99fe3a3315233",
        "mtName": "\u5c0f\u72d0\u72f8Kathryn",
        "jgId": "imiss",
        "jgName": "\u7231\u871c\u793e",
        "href": "http://d.duotuwang.com/2021/11/08/27268/",
        "count": 61,
        "start": 1,
        "hasMtTag": 1,
        "hasJgTag": 1,
        "mtCount": 9,
        "jgCount": 116
    },
    {
        "name": "[IMISS]\u7231\u871c\u793e VOL.638 \u5c0f\u72d0\u72f8Kathryn",
        "src": "http://d.duotuwang.com/2021/10/13/26871/0.jpg",
        "mtId": "1af99fe3a3315233",
        "mtName": "\u5c0f\u72d0\u72f8Kathryn",
        "jgId": "imiss",
        "jgName": "\u7231\u871c\u793e",
        "href": "http://d.duotuwang.com/2021/10/13/26871/",
        "count": 64,
        "start": 1,
        "hasMtTag": 1,
        "hasJgTag": 1,
        "mtCount": 9,
        "jgCount": 116
    },
    {
        "name": "[IMISS]\u7231\u871c\u793e VOL.633 \u5c0f\u72d0\u72f8Kathryn",
        "src": "http://d.duotuwang.com/2021/09/22/26709/0.jpg",
        "mtId": "1af99fe3a3315233",
        "mtName": "\u5c0f\u72d0\u72f8Kathryn",
        "jgId": "imiss",
        "jgName": "\u7231\u871c\u793e",
        "href": "http://d.duotuwang.com/2021/09/22/26709/",
        "count": 49,
        "start": 1,
        "hasMtTag": 1,
        "hasJgTag": 1,
        "mtCount": 9,
        "jgCount": 116
    },
    {
        "name": "[IMISS]\u7231\u871c\u793e VOL.598 \u5c0f\u72d0\u72f8Kathryn",
        "src": "http://d.duotuwang.com/2021/06/02/25144/0.jpg",
        "mtId": "1af99fe3a3315233",
        "mtName": "\u5c0f\u72d0\u72f8Kathryn",
        "jgId": "imiss",
        "jgName": "\u7231\u871c\u793e",
        "href": "http://d.duotuwang.com/2021/06/02/25144/",
        "count": 68,
        "start": 1,
        "hasMtTag": 1,
        "hasJgTag": 1,
        "mtCount": 9,
        "jgCount": 116
    },
    {
        "name": "[CANDY]\u7f51\u7ea2\u9986 VOL.084 \u5c0f\u72d0\u72f8Kathryn",
        "src": "http://d.duotuwang.com/2021/05/11/24942/0.jpg",
        "mtId": "1af99fe3a3315233",
        "mtName": "\u5c0f\u72d0\u72f8Kathryn",
        "jgId": "candy",
        "jgName": "\u7cd6\u679c\u753b\u62a5",
        "href": "http://d.duotuwang.com/2021/05/11/24942/",
        "count": 58,
        "start": 1,
        "hasMtTag": 1,
        "hasJgTag": 1,
        "mtCount": 9,
        "jgCount": 15
    },
    {
        "name": "[IMISS]\u7231\u871c\u793e VOL.589 \u5c0f\u72d0\u72f8Kathryn",
        "src": "http://d.duotuwang.com/2021/05/08/24953/0.jpg",
        "mtId": "1af99fe3a3315233",
        "mtName": "\u5c0f\u72d0\u72f8Kathryn",
        "jgId": "imiss",
        "jgName": "\u7231\u871c\u793e",
        "href": "http://d.duotuwang.com/2021/05/08/24953/",
        "count": 42,
        "start": 1,
        "hasMtTag": 1,
        "hasJgTag": 1,
        "mtCount": 9,
        "jgCount": 116
    }
]