[
    {
        "name": "[XIAOYU]\u8bed\u753b\u754c VOL.784 \u6797\u4e50\u4e00",
        "src": "http://d.duotuwang.com/2022/05/24/29951/0.jpg",
        "mtId": "600bcd316870a0b5",
        "mtName": "\u6797\u4e50\u4e00",
        "jgId": "xiaoyu",
        "jgName": "\u8bed\u753b\u754c",
        "href": "http://d.duotuwang.com/2022/05/24/29951/",
        "count": 85,
        "start": 1,
        "hasMtTag": 1,
        "hasJgTag": 1,
        "mtCount": 3,
        "jgCount": 155
    }
]