[
    {
        "id": "663221071",
        "title": "\u4f60\u4e00\u822c\u4ec0\u4e48\u65f6\u5019\u7761\u89c9\uff1f\u3010\u957f\u817f\u516e\u516e\u3011",
        "src": "http://v-huya-img2.msstatic.com/screenshot/2207/663221071/99.jpg?x-oss-process=style/460x268&amp;amp;v=cdd67808b764dd7624f95eb41f08705d1645097627",
        "url": "http://videobd-platform.cdn.huya.com/1048585/1199547095279/35966633/de0b02a87883165b0ed2af9bc4a61251.m3u8?bitrate=2111&client=106&definition=1300&pid=1199547095279&scene=vod&vid=663221071"
    },
    {
        "id": "662987337",
        "title": "\u7537\u751f\u8d77\u5e8a\u7b2c\u4e00\u4ef6\u4e8b\u662f\u505a\u4ec0\u4e48\uff1f\u3010\u957f\u817f\u516e\u516e\u3011",
        "src": "http://v-huya-img2.msstatic.com/screenshot/2207/662987337/99.jpg?x-oss-process=style/460x268&amp;amp;v=e4c1d64496fbbf1d2816cbad7a1a9e751645069840",
        "url": "http://videohw-platform.cdn.huya.com/1048585/1199547095279/35952755/141086be353b315905835dc3c8fa55ce.m3u8?bitrate=2113&client=106&definition=1300&pid=1199547095279&scene=vod&vid=662987337"
    },
    {
        "id": "662381295",
        "title": "\u54e5\u51e0\u4e2a\u53c8\u6765\u5b66\u7a7f\u642d\u4e86\uff1f\u3010\u957f\u817f\u516e\u516e\u3011",
        "src": "http://v-huya-img2.msstatic.com/screenshot/2207/662381295/99.jpg?x-oss-process=style/460x268&amp;amp;v=5162fd2b3a96cf93695c217dcacc332c1644993789",
        "url": "http://videohw-platform.cdn.huya.com/1048585/1199547095279/35920227/d5611a45bf27ce3a231be26710882387.m3u8?bitrate=2105&client=106&definition=1300&pid=1199547095279&scene=vod&vid=662381295"
    },
    {
        "id": "661720577",
        "title": "\u6253\u51fa\u201clsj\u201d\u5c31\u77e5\u9053\u4f60\u4f1a\u4e0d\u4f1a\u5f00\u8f66\u4e86\u3010\u957f\u817f\u516e\u516e\u3011",
        "src": "http://v-huya-img2.msstatic.com/screenshot/2207/661720577/99.jpg?x-oss-process=style/460x268&amp;amp;v=bbdd90d519a1402e023cf57dc4a8dea71644906302",
        "url": "http://videotx-platform.cdn.huya.com/1048585/1199547095279/35882427/0e2b39c82936fea52b2bd4720e2fb5a1.m3u8?bitrate=2130&client=106&definition=1300&pid=1199547095279&scene=vod&vid=661720577"
    },
    {
        "id": "661199623",
        "title": "\u636e\u8bf4\u9ad8\u51b7\u7684\u4eba\u6253\u51fa\u201cgt\u201d\u662f\u6539\u5929\u3010\u957f\u817f\u516e\u516e\u3011",
        "src": "http://v-huya-img2.msstatic.com/screenshot/2207/661199623/99.jpg?x-oss-process=style/460x268&amp;amp;v=3923ee1d91a6177d31e0fd3f0d4f243c1644836995",
        "url": "http://videohw-platform.cdn.huya.com/1048585/1199547095279/35854197/6e2b67473e794cc1289919e65bd44c3d.m3u8?bitrate=2116&client=106&definition=1300&pid=1199547095279&scene=vod&vid=661199623"
    },
    {
        "id": "661109903",
        "title": "\u6211\u53d1\u5e03\u4e86\u4e00\u4e2a\u65b0\u89c6\u9891\uff0c\u5feb\u6765\u770b\u770b\u5427~",
        "src": "http://v-huya-img2.msstatic.com/screenshot/2207/661109903/99.jpg?x-oss-process=style/460x268&amp;amp;v=a22c8cbc0b5f49af9724b226df7b00e11644843095",
        "url": "http://videobd-platform.cdn.huya.com/1048585/1199547095279/35848437/2a9b2e9c15793846d179ecf3653b3af0.m3u8?bitrate=2120&client=106&definition=1300&pid=1199547095279&scene=vod&vid=661109903"
    },
    {
        "id": "658685981",
        "title": "\u600e\u4e48\u8fd8\u4e0d\u8fdb\u6765\uff1f\u3010\u957f\u817f\u516e\u516e\u3011",
        "src": "http://v-huya-img2.msstatic.com/screenshot/2206/658685981/99.jpg?x-oss-process=style/460x268&amp;amp;v=f19a1a91bfeb3797b4f362621fcdac441644501141",
        "url": "http://videohw-platform.cdn.huya.com/1048585/1199547095279/35712015/ff00da2624f3c0dcdc2a9205e3166a0d.m3u8?bitrate=2118&client=106&definition=1300&pid=1199547095279&scene=vod&vid=658685981"
    },
    {
        "id": "658678655",
        "title": "\u6765\u5f00\u6469\u6258\u5566\u3010\u957f\u817f\u516e\u516e\u3011",
        "src": "http://v-huya-img2.msstatic.com/screenshot/2206/658678655/99.jpg?x-oss-process=style/460x268&amp;amp;v=183deb8c89aa1613bc49a478db34237e1644500413",
        "url": "http://videohw-platform.cdn.huya.com/1048585/1199547095279/35711299/fd8da84cb319016b5ea97946695601f4.m3u8?bitrate=2136&client=106&definition=1300&pid=1199547095279&scene=vod&vid=658678655"
    },
    {
        "id": "658669817",
        "title": "\u6bcf\u4e2a\u4eba\u8eab\u4e0a\u90fd\u6709\u5473\u9053 \u4f60\u662f\u4ec0\u4e48\u5473\u7684\uff1f\u3010\u957f\u817f\u516e\u516e\u3011",
        "src": "http://v-huya-img2.msstatic.com/screenshot/2206/658669817/99.jpg?x-oss-process=style/460x268&amp;amp;v=ffead69df84ad428dc594e5ae48c876b1644499611",
        "url": "http://videobd-platform.cdn.huya.com/1048585/1199547095279/35710631/3b3cc7136603073636e923da1af5bce1.m3u8?bitrate=2144&client=106&definition=1300&pid=1199547095279&scene=vod&vid=658669817"
    },
    {
        "id": "658647239",
        "title": "\u6253\u51fa\u201ccj\u201d \u4f1a\u66b4\u9732\u4f60\u5e73\u5e38\u559c\u6b22\u4ec0\u4e48\u3010\u957f\u817f\u516e\u516e\u3011",
        "src": "http://v-huya-img2.msstatic.com/screenshot/2206/658647239/99.jpg?x-oss-process=style/460x268&amp;amp;v=8a586755a4db688ae83b4c18d39fa2ff1644497804",
        "url": "http://videohw-platform.cdn.huya.com/1048585/1199547095279/35708823/4a56a89b6d0d7ed14d3b2ce4aae88fb1.m3u8?bitrate=2113&client=106&definition=1300&pid=1199547095279&scene=vod&vid=658647239"
    },
    {
        "id": "658636161",
        "title": "\u6211\u5e94\u8be5\u8e29\u7740\u62cd\u5b50\u8df3   \u8fd8\u662f\u8e29\u7740\u4f60\u7684\u5fc3\u8df3\u5462\uff1f\u3010\u957f\u817f\u516e\u516e\u3011",
        "src": "http://v-huya-img2.msstatic.com/screenshot/2206/658636161/99.jpg?x-oss-process=style/460x268&amp;amp;v=f45f0c6feb5e677ce68471d0172bc9f11644496603",
        "url": "http://videohw-platform.cdn.huya.com/1048585/1199547095279/35707897/0863047e4f35ad97ad8009c37b6a6a96.m3u8?bitrate=2118&client=106&definition=1300&pid=1199547095279&scene=vod&vid=658636161"
    },
    {
        "id": "657288695",
        "title": "\u542c\u8bf499%\u7537\u751f\u6253\u51fa\u201cmn\u201d\u90fd\u662f\u7f8e\u5973\u3010\u957f\u817f\u516e\u516e\u3011",
        "src": "http://v-huya-img2.msstatic.com/screenshot/2206/657288695/99.jpg?x-oss-process=style/460x268&amp;amp;v=2dff658ab51661b3889e570b0d759ca01644320928",
        "url": "http://videobd-platform.cdn.huya.com/1048585/1199547095279/35633807/abe9f45b567e3e22c36c95910852647f.m3u8?bitrate=2130&client=106&definition=1300&pid=1199547095279&scene=vod&vid=657288695"
    },
    {
        "id": "657763941",
        "title": "\u4f60\u76f8\u4fe1\u4e00\u89c1\u949f\u60c5\u5417\uff1f\u3010\u957f\u817f\u516e\u516e\u3011",
        "src": "http://v-huya-img2.msstatic.com/screenshot/2206/657763941/99.jpg?x-oss-process=style/460x268&amp;amp;v=754cea2c62e7080f53191649b70488ae1644387542",
        "url": "http://videotx-platform.cdn.huya.com/1048585/1199547095279/35660383/8d0699568b518952e0ced9e2e67a851e.m3u8?bitrate=2110&client=106&definition=1300&pid=1199547095279&scene=vod&vid=657763941"
    },
    {
        "id": "657060747",
        "title": "\u70ed\u821e\u4e2d\u3010\u957f\u817f\u516e\u516e\u3011",
        "src": "http://v-huya-img2.msstatic.com/screenshot/2206/657060747/99.jpg?x-oss-process=style/460x268&amp;amp;v=054cb570ef77ed1475602abce689a1131644292087",
        "url": "http://videohw-platform.cdn.huya.com/1048585/1199547095279/35617961/7417ce5fb0721bf695fbedf7d96d4de0.m3u8?bitrate=2115&client=106&definition=1300&pid=1199547095279&scene=vod&vid=657060747"
    },
    {
        "id": "656432581",
        "title": "\u60f3\u505a\u4f60\u7684\u5c0f\u732b\u3010\u957f\u817f\u516e\u516e\u3011",
        "src": "http://v-huya-img2.msstatic.com/screenshot/2206/656432581/99.jpg?x-oss-process=style/460x268&amp;amp;v=2328eef99b9ea736fec39b1566a37f511644205335",
        "url": "http://videohw-platform.cdn.huya.com/1048585/1199547095279/35585725/21a371177d25c6d84c7c69ba13c1e483.m3u8?bitrate=2120&client=106&definition=1300&pid=1199547095279&scene=vod&vid=656432581"
    }
]