[
    {
        "name": "[DJAWA Photo] Zzyuri \u2013 Loose and Tight Refreshing Blue + S.Ver",
        "src": "http://d.duotuwang.com/2021/06/30/30332/0.jpg",
        "mtId": "eea797bd4f94853d",
        "mtName": "DJAWAPhoto",
        "href": "http://d.duotuwang.com/2021/06/30/30332/",
        "count": 81,
        "start": 1,
        "hasMtTag": 1,
        "hasJgTag": 0,
        "mtCount": 40
    },
    {
        "name": "[SaintPhotoLife] Zzyuri - Happy Birthday",
        "src": "http://d.duotuwang.com/2021/06/23/30301/0.jpg",
        "mtId": "338cf684b6927d79",
        "mtName": "SaintPhotolife",
        "href": "http://d.duotuwang.com/2021/06/23/30301/",
        "count": 41,
        "start": 1,
        "hasMtTag": 1,
        "hasJgTag": 0,
        "mtCount": 7
    },
    {
        "name": "[SaintPhotoLife] Zzyuri - Office Returns",
        "src": "http://d.duotuwang.com/2020/06/15/29891/0.jpg",
        "mtId": "338cf684b6927d79",
        "mtName": "SaintPhotolife",
        "href": "http://d.duotuwang.com/2020/06/15/29891/",
        "count": 65,
        "start": 1,
        "hasMtTag": 1,
        "hasJgTag": 0,
        "mtCount": 7
    },
    {
        "name": "[SaintPhotoLife] Zzyuri Vol.5 - See Through",
        "src": "http://d.duotuwang.com/2020/04/23/30667/0.jpg",
        "mtId": "338cf684b6927d79",
        "mtName": "SaintPhotolife",
        "href": "http://d.duotuwang.com/2020/04/23/30667/",
        "count": 64,
        "start": 1,
        "hasMtTag": 1,
        "hasJgTag": 0,
        "mtCount": 7
    },
    {
        "name": "[DJAWA Photo] Zzyuri - Alluring White",
        "src": "http://d.duotuwang.com/2019/12/12/29413/0.jpg",
        "mtId": "eea797bd4f94853d",
        "mtName": "DJAWAPhoto",
        "href": "http://d.duotuwang.com/2019/12/12/29413/",
        "count": 43,
        "start": 1,
        "hasMtTag": 1,
        "hasJgTag": 0,
        "mtCount": 40
    }
]