[
    {
        "name": "[TGod]\u63a8\u5973\u795e 2016-09-11 \u5c55\u5982",
        "src": "http://d.duotuwang.com/2016/09/11/2663/0.jpg",
        "mtId": "24b98923f62409db",
        "mtName": "\u5c55\u5982",
        "jgId": "tgod",
        "jgName": "\u63a8\u5973\u795e",
        "href": "http://d.duotuwang.com/2016/09/11/2663/",
        "count": 77,
        "start": 1,
        "hasMtTag": 1,
        "hasJgTag": 1,
        "mtCount": 1,
        "jgCount": 78
    },
    {
        "name": "[TGod]\u63a8\u5973\u795e 2016-06-26 \u5c55\u5982",
        "src": "http://d.duotuwang.com/2016/06/26/2613/0.jpg",
        "mtId": "24b98923f62409db",
        "mtName": "\u5c55\u5982",
        "jgId": "tgod",
        "jgName": "\u63a8\u5973\u795e",
        "href": "http://d.duotuwang.com/2016/06/26/2613/",
        "count": 53,
        "start": 1,
        "hasMtTag": 1,
        "hasJgTag": 1,
        "mtCount": 1,
        "jgCount": 78
    }
]