[
    {
        "name": "[XIUREN]\u79c0\u4eba\u7f51 No.3044 \u6587\u9759\u513f",
        "src": "http://d.duotuwang.com/2021/01/26/24049/0.jpg",
        "mtId": "1d1e86da30f2deea",
        "mtName": "\u6587\u9759\u513f",
        "jgId": "xiuren",
        "jgName": "\u79c0\u4eba\u7f51",
        "href": "http://d.duotuwang.com/2021/01/26/24049/",
        "count": 57,
        "start": 1,
        "hasMtTag": 1,
        "hasJgTag": 1,
        "mtCount": 3,
        "jgCount": 750
    },
    {
        "name": "[XIUREN]\u79c0\u4eba\u7f51 No.2945 \u6587\u9759\u513f",
        "src": "http://d.duotuwang.com/2020/12/28/23646/0.jpg",
        "mtId": "1d1e86da30f2deea",
        "mtName": "\u6587\u9759\u513f",
        "jgId": "xiuren",
        "jgName": "\u79c0\u4eba\u7f51",
        "href": "http://d.duotuwang.com/2020/12/28/23646/",
        "count": 55,
        "start": 1,
        "hasMtTag": 1,
        "hasJgTag": 1,
        "mtCount": 3,
        "jgCount": 750
    },
    {
        "name": "[XIUREN]\u79c0\u4eba\u7f51 No.2842 \u6587\u9759\u513f",
        "src": "http://d.duotuwang.com/2020/12/01/23379/0.jpg",
        "mtId": "1d1e86da30f2deea",
        "mtName": "\u6587\u9759\u513f",
        "jgId": "xiuren",
        "jgName": "\u79c0\u4eba\u7f51",
        "href": "http://d.duotuwang.com/2020/12/01/23379/",
        "count": 60,
        "start": 1,
        "hasMtTag": 1,
        "hasJgTag": 1,
        "mtCount": 3,
        "jgCount": 750
    },
    {
        "name": "[YouMi]\u5c24\u871c \u6587\u9759\u513f \u50ac\u60c5\u821e\u5973",
        "src": "http://d.duotuwang.com/2020/10/06/22700/0.jpg",
        "mtId": "1d1e86da30f2deea",
        "mtName": "\u6587\u9759\u513f",
        "jgId": "youmiabc",
        "jgName": "\u5c24\u871c",
        "href": "http://d.duotuwang.com/2020/10/06/22700/",
        "count": 67,
        "start": 1,
        "hasMtTag": 1,
        "hasJgTag": 1,
        "mtCount": 3,
        "jgCount": 79
    },
    {
        "name": "[YouMi]\u5c24\u871c \u6587\u9759\u513f \u795e\u79d8\u9886\u57df",
        "src": "http://d.duotuwang.com/2020/09/19/22146/0.jpg",
        "mtId": "1d1e86da30f2deea",
        "mtName": "\u6587\u9759\u513f",
        "jgId": "youmiabc",
        "jgName": "\u5c24\u871c",
        "href": "http://d.duotuwang.com/2020/09/19/22146/",
        "count": 32,
        "start": 1,
        "hasMtTag": 1,
        "hasJgTag": 1,
        "mtCount": 3,
        "jgCount": 79
    },
    {
        "name": "[UGirlsAPP]\u7231\u5c24\u7269 No.1858 \u6587\u9759\u513f \u60f3\u8981\u9759\u9759",
        "src": "http://d.duotuwang.com/2020/07/04/20975/0.jpg",
        "mtId": "1d1e86da30f2deea",
        "mtName": "\u6587\u9759\u513f",
        "jgId": "ugirlsapp",
        "jgName": "\u7231\u5c24\u7269",
        "href": "http://d.duotuwang.com/2020/07/04/20975/",
        "count": 35,
        "start": 1,
        "hasMtTag": 1,
        "hasJgTag": 1,
        "mtCount": 3,
        "jgCount": 397
    }
]