[
    {
        "name": "[toutiaogirls]\u5934\u6761\u5973\u795e 2016-04-22 \u6587\u96ea",
        "src": "http://d.duotuwang.com/2016/04/22/3294/0.jpg",
        "mtId": "05fdd9880e9d8dd5",
        "mtName": "\u6587\u96ea",
        "jgId": "toutiaogirls",
        "jgName": "\u5934\u6761\u5973\u795e",
        "href": "http://d.duotuwang.com/2016/04/22/3294/",
        "count": 14,
        "start": 1,
        "hasMtTag": 1,
        "hasJgTag": 1,
        "mtCount": 2,
        "jgCount": 133
    },
    {
        "name": "[toutiaogirls]\u5934\u6761\u5973\u795e 2016-04-16 \u6587\u96ea",
        "src": "http://d.duotuwang.com/2016/04/16/3299/0.jpg",
        "mtId": "05fdd9880e9d8dd5",
        "mtName": "\u6587\u96ea",
        "jgId": "toutiaogirls",
        "jgName": "\u5934\u6761\u5973\u795e",
        "href": "http://d.duotuwang.com/2016/04/16/3299/",
        "count": 41,
        "start": 1,
        "hasMtTag": 1,
        "hasJgTag": 1,
        "mtCount": 2,
        "jgCount": 133
    }
]