[
    {
        "name": "[XIUREN]\u79c0\u4eba\u7f51 No.796 \u96e8\u5915cy",
        "src": "http://d.duotuwang.com/2017/08/08/5456/0.jpg",
        "mtId": "24c5be5316edee90",
        "mtName": "\u96e8\u5915cy",
        "jgId": "xiuren",
        "jgName": "\u79c0\u4eba\u7f51",
        "href": "http://d.duotuwang.com/2017/08/08/5456/",
        "count": 47,
        "start": 1,
        "hasMtTag": 1,
        "hasJgTag": 1,
        "mtCount": 1,
        "jgCount": 750
    },
    {
        "name": "[XIUREN]\u79c0\u4eba\u7f51 No.662 \u96e8\u5915cy",
        "src": "http://d.duotuwang.com/2016/12/17/1963/0.jpg",
        "mtId": "24c5be5316edee90",
        "mtName": "\u96e8\u5915cy",
        "jgId": "xiuren",
        "jgName": "\u79c0\u4eba\u7f51",
        "href": "http://d.duotuwang.com/2016/12/17/1963/",
        "count": 58,
        "start": 1,
        "hasMtTag": 1,
        "hasJgTag": 1,
        "mtCount": 1,
        "jgCount": 750
    }
]