[
    {
        "id": "518607209",
        "title": "\u3010\u96ea\u970f\u970f\u3011\u665a\u4e0a\u53bb\u8857\u8fb9\u559d\u4e00\u676f\u5427\u300aStanding When It All Falls Down\u300b",
        "src": "http://v-huya-img2.msstatic.com/screenshot/2123/518607209/99.jpg?x-oss-process=style/460x268&amp;amp;v=4b77a7491dbb59740413b99896b9f3f41623916206",
        "url": "http://videohw-platform.cdn.huya.com/1048585/1431967642/23445945/dc72075c21438fc37d7eb45dbd6d8baf.m3u8?bitrate=1281&client=106&definition=1300&pid=1431967642&scene=vod&vid=518607209"
    },
    {
        "id": "516120035",
        "title": "\u3010\u96ea\u970f\u970f\u3011\u8fd9\u4e00\u679d\u5f85\u653e\u7684\u73ab\u7470\uff0c\u5728\u7b49\u5f85\u4f60\u3002",
        "src": "http://v-huya-img.huya.com/2122/516120035/99-460x268.jpg?v=0ea11d23cffda6490fa390094fe3c5261622770442",
        "url": "http://videotx-platform.cdn.huya.com/1048585/1431967642/23213045/fd4dfd3b3694ca07b43f461758870bec.m3u8?bitrate=1283&client=106&definition=1300&pid=1431967642&scene=vod&vid=516120035"
    },
    {
        "id": "511802249",
        "title": "\u3010\u96ea\u970f\u970f\u3011\u6211\u559c\u6b22\u4f60 \u5c82\u6b62\u662f\u72fc\u5b50\u91ce\u5fc3 \u662f\u8d3c\u5fc3\u4e0d\u6539",
        "src": "http://v-huya-img.huya.com/2121/511802249/99-460x268.jpg?v=ef2b699a64eeba02544169da5d2d8fba1621935562",
        "url": "http://huya-w20.huya.com/2121/511802249/1300/d29496031399e2f78d8f5cbee17116ff.m3u8?bitrate=1276&client=70&definition=1300&pid=1431967642&scene=vod&vid=511802249"
    },
    {
        "id": "511771893",
        "title": "\u3010\u96ea\u970f\u970f\u3011\u606d\u559c\u4f60\u53d1\u73b0\u6211\u4e86--\u300aJuicy Wiggle\u300b",
        "src": "http://v-huya-img.huya.com/2121/511771893/99-460x268.jpg?v=57fb1e13d01c318ad2be6b11a2148d311621930704",
        "url": "http://huya-w10.huya.com/2121/511771893/1300/d7a0a16323883e71c79ebe7bbcf88277.m3u8?bitrate=1279&client=70&definition=1300&pid=1431967642&scene=vod&vid=511771893"
    },
    {
        "id": "505699927",
        "title": "\u3010\u96ea\u970f\u970f\u3011Afterhours--\u821e\u8e48",
        "src": "http://v-huya-img.huya.com/2119/505699927/99-460x268.jpg",
        "url": "http://huya-w20.huya.com/2119/505699927/1300/b5526823c04e2ae5e89b8b8f270833e8.m3u8?bitrate=1288&client=70&definition=1300&pid=1431967642&scene=vod&vid=505699927"
    },
    {
        "id": "461370363",
        "title": "\u3010\u96ea\u970f\u970f\u3011\u6211\u5439\u8fc7\u4f60\u5439\u8fc7\u7684\u665a\u98ce\uff0c\u8fd9\u7b97\u4e0d\u7b97\u548c\u4f60\u76f8\u62e5",
        "src": "http://v-huya-img.huya.com/2107/461370363/99-460x268.jpg?v=5d400065dc600e20829cbf8d958330c61613355559",
        "url": "http://huya-w21.huya.com/2107/461370363/1300/ecac7c141f66285188f871f91cb4631b.m3u8?bitrate=1272&client=70&definition=1300&pid=1431967642&scene=vod&vid=461370363"
    },
    {
        "id": "460546025",
        "title": "\u3010\u96ea\u970f\u970f\u3011\u4f60\u7684\u5634\u89d2\uff0c\u5fae\u5fae\u4e0a\u7fd8",
        "src": "http://v-huya-img.huya.com/2106/460546025/99-460x268.jpg?v=e5db8006db5982227e8940ea11ff1bfb1613199805",
        "url": "http://huya-w21.huya.com/2106/460546025/1300/0c4c5b6623eb7c437a107487f3af1ff3.m3u8?bitrate=1283&client=70&definition=1300&pid=1431967642&scene=vod&vid=460546025"
    },
    {
        "id": "458577719",
        "title": "\u3010\u96ea\u970f\u970f\u3011#\u65b0\u6625\u9001\u798f\u5229#",
        "src": "http://v-huya-img.huya.com/2106/458577719/99-460x268.jpg?v=f89704049330ea44f3281b1a4db7e0f91612849130",
        "url": "http://huya-w10.huya.com/2106/458577719/1300/f92e613ae0bed79ada3c1da1fba2dde1.m3u8?bitrate=1324&client=70&definition=1300&pid=1431967642&scene=vod&vid=458577719"
    },
    {
        "id": "458217099",
        "title": "\u3010\u96ea\u970f\u970f\u3011\u628a\u751f\u6d3b\u8c03\u5230\u559c\u6b22\u7684\u9891\u9053",
        "src": "http://v-huya-img.huya.com/2106/458217099/99-460x268.jpg?v=9ecfa0ae666bdc617d67c2992a2d7dcc1612786821",
        "url": "http://huya-w20.huya.com/2106/458217099/1300/baf4f124ad79a735a1fcde74b71e5a91.m3u8?bitrate=1277&client=70&definition=1300&pid=1431967642&scene=vod&vid=458217099"
    },
    {
        "id": "455388853",
        "title": "\u3010\u96ea\u970f\u970f\u3011\u55e8~\u4f60\u600e\u4e48\u90a3\u4e48\u574f~",
        "src": "http://v-huya-img.huya.com/2105/455388853/99-460x268.jpg?v=06a9862d3fd97aa6ae61f3db7fd362bd1612343407",
        "url": "http://huya-w10.huya.com/2105/455388853/1300/e927d87d7f37fc00a1264b4e20d48eaa.m3u8?bitrate=1280&client=70&definition=1300&pid=1431967642&scene=vod&vid=455388853"
    },
    {
        "id": "449420559",
        "title": "\u3010\u96ea\u970f\u970f\u3011\u4f60\u662f\u6211\u7684\u672a\u5b8c\u5f85\u7eed\uff0c\u4e5f\u662f\u6211\u7684\u8fde\u7eed\u66f4\u65b0\u3002",
        "src": "http://v-huya-img.huya.com/2103/449420559/99-460x268.jpg?v=215f7db84d768b9b6ab61da9eabd666e1611403050",
        "url": "http://huya-w20.huya.com/2103/449420559/1300/7fcbd07d7cb30e5781c30a9382ac12fc.m3u8?bitrate=1258&client=70&definition=1300&pid=1431967642&scene=vod&vid=449420559"
    },
    {
        "id": "449410549",
        "title": "\u3010\u96ea\u970f\u970f\u3011\u4f60\u4e00\u5b9a\u662f\u67d0\u4e2a\u4eba\u7fd8\u9996\u4ee5\u76fc\u7684\u60ca\u559c",
        "src": "http://v-huya-img.huya.com/2103/449410549/99-460x268.jpg?v=0e0a762dd7b1cea405f7ad96aae80d971611402175",
        "url": "http://huya-w21.huya.com/2103/449410549/1300/79c3d80d3f060ba2462530ca395b4a26.m3u8?bitrate=1242&client=70&definition=1300&pid=1431967642&scene=vod&vid=449410549"
    },
    {
        "id": "448861347",
        "title": "\u3010\u96ea\u970f\u970f\u3011\u65e0\u975e\u662f\u591c\u8272\u64a9\u4eba\uff0c\u76ae\u56ca\u597d\u770b\u7684\u54d4\u771f",
        "src": "http://v-huya-img.huya.com/2103/448861347/99-460x268.jpg?v=52d7131a08c89432dcad314e00a60e6c1611317201",
        "url": "http://huya-w20.huya.com/2103/448861347/1300/5c7b66c6247daebea4370b13f2ca4a5f.m3u8?bitrate=1240&client=70&definition=1300&pid=1431967642&scene=vod&vid=448861347"
    },
    {
        "id": "448308913",
        "title": "\u3010\u96ea\u970f\u970f\u3011\u6211\u7231\u4e0a\u7ed9\u6211\u52c7\u6c14\u7684 Rainie Love",
        "src": "http://v-huya-img.huya.com/2103/448308913/99-460x268.jpg?v=d3dfa3f3fa0a6b87caed5b56281af6741611228950",
        "url": "http://huya-w10.huya.com/2103/448308913/1300/e3d5b1b90d352dbaed2122527f1da3c2.m3u8?bitrate=1145&client=70&definition=1300&pid=1431967642&scene=vod&vid=448308913"
    },
    {
        "id": "446663571",
        "title": "\u3010\u96ea\u970f\u970f\u3011\u80fd\u4e0d\u80fd\u518d\u542c\u4e00\u542c \u542c\u4f60\u7684\u58f0\u97f3",
        "src": "http://v-huya-img.huya.com/2103/446663571/99-460x268.jpg?v=084b18573d674740403765257e91ee821610969632",
        "url": "http://huya-w20.huya.com/2103/446663571/1300/a30c87ed5ea96cab7e1d15f3fb532d1a.m3u8?bitrate=1101&client=70&definition=1300&pid=1431967642&scene=vod&vid=446663571"
    }
]