[
    {
        "id": "443950487",
        "title": "\u3010\u96ea\u970f\u970f\u3011\u4f60\u4f4e\u5934\u4e0d\u8bf4\u4e00\u53e5\u8bdd... ...",
        "src": "http://v-huya-img.huya.com/2102/443950487/99-460x268.jpg?v=90efa3416e8bdfb34161e6069728c0331610536328",
        "url": "http://huya-w10.huya.com/2102/443950487/1300/56f4dba2b69a174e50ca23bd98cf830f.m3u8?bitrate=1095&client=70&definition=1300&pid=1431967642&scene=vod&vid=443950487"
    },
    {
        "id": "440721363",
        "title": "\u3010\u96ea\u970f\u970f\u3011\u6765\u5eb7\u5eb7\u6211\u51c6\u5907\u7684\u5973\u4ec6\u88c5\u5427\u3002 \u200b\u200b\u200b\u200b",
        "src": "http://v-huya-img.huya.com/2101/440721363/99-460x268.jpg?v=6db449c19cac51effda7fc6745daa2d11610003211",
        "url": "http://huya-w10.huya.com/2101/440721363/1300/696904c780782da3ec240d3167931506.m3u8?bitrate=1260&client=70&definition=1300&pid=1431967642&scene=vod&vid=440721363"
    },
    {
        "id": "438820631",
        "title": "\u3010\u96ea\u970f\u970f\u3011\u4e00\u4e9b\u751f\u6d3b\u7684\u8fb9\u89d2\u6599",
        "src": "http://v-huya-img.huya.com/2153/438820631/99-460x268.jpg?v=1f15d7931210175e66720f8de5a99b701609676583",
        "url": "http://huya-w10.huya.com/2153/438820631/1300/0996a8b095e898525361b9b139b18717.m3u8?bitrate=1231&client=70&definition=1300&pid=1431967642&scene=vod&vid=438820631"
    },
    {
        "id": "438675033",
        "title": "\u3010\u96ea\u970f\u970f\u3011\u4f60\u5c31\u505a\u4f60\u81ea\u5df1\uff0c\u7231\u4f60\u7684\u4eba\u81ea\u7136\u7231\u4f60\u3002",
        "src": "http://v-huya-img.huya.com/2153/438675033/99-460x268.jpg?v=c3bcb8e52dc7097372ad8d9da14080731609655147",
        "url": "http://huya-w20.huya.com/2153/438675033/1300/5a5c51bff8ced5927f5ea45eced9c9fb.m3u8?bitrate=1233&client=70&definition=1300&pid=1431967642&scene=vod&vid=438675033"
    },
    {
        "id": "438266629",
        "title": "\u3010\u96ea\u970f\u970f\u3011\u4e0d\u60f3\u7ed9\u6211\u70b9\u8d5e\u5c31\u7b97\u4e86\uff0c\u8bf4\u4ec0\u4e48\u4f60\u662f\u5965\u7279\u66fc\u5e26\u7740\u624b\u5957\u70b9\u4e0d\u4e86\u3002",
        "src": "http://v-huya-img.huya.com/2153/438266629/99-460x268.jpg?v=60cf8aae64ab7a7297dd9cb684182ce51609582838",
        "url": "http://huya-w20.huya.com/2153/438266629/1300/8797d1540cbfc8e2fcc024015aa8bfd5.m3u8?bitrate=1260&client=70&definition=1300&pid=1431967642&scene=vod&vid=438266629"
    },
    {
        "id": "431820439",
        "title": "\u3010\u96ea\u970f\u970f\u3011\u7ecf\u8fc7\u4e86\u515c\u515c\u8f6c\u8f6c\u7684\u91cd\u9022\u662f\u573a\u6d6a\u6f2b",
        "src": "http://v-huya-img.huya.com/2051/431820439/99-460x268.jpg?v=baf4060cb777feccaa2d9ecfc88e93fc1608451135",
        "url": "http://huya-w21.huya.com/2051/431820439/1300/37571273b4894ba25b8253a39ac0e072.m3u8?bitrate=1090&client=70&definition=1300&pid=1431967642&scene=vod&vid=431820439"
    },
    {
        "id": "430333679",
        "title": "\u3010\u96ea\u970f\u970f\u3011\u53ea\u60f3\u5728\u7761\u524d\u518d\u542c\u89c1\u4f60\u7684 \uff0c\u871c\u8bed\u751c\u8a00",
        "src": "http://v-huya-img.huya.com/2051/430333679/99-460x268.jpg?v=17c9131f0901fd324da8b394143319221608194683",
        "url": "http://huya-w10.huya.com/2051/430333679/1300/9320d25deca43957af7149d4405a650e.m3u8?bitrate=1203&client=70&definition=1300&pid=1431967642&scene=vod&vid=430333679"
    },
    {
        "id": "417580193",
        "title": "\u3010\u96ea\u970f\u970f\u3011\u5468\u672b\u7ed9\u81ea\u5df1\u653e\u4e2a\u5047~",
        "src": "http://v-huya-img.huya.com/2047/417580193/99-460x268.jpg?v=e509034a1a048cd29ffee48b7030ad681605958852",
        "url": "http://huya-w20.huya.com/2047/417580193/1300/02b2ffbbdf53968b353e1bf9b7a3ecff.m3u8?bitrate=1222&client=70&definition=1300&pid=1431967642&scene=vod&vid=417580193"
    },
    {
        "id": "408268865",
        "title": "\u3010\u96ea\u970f\u970f\u3011\u4f17\u751f\u7686\u82e6\uff0c\u552f\u4f60\u662f\u8349\u8393\u5473",
        "src": "http://v-huya-img.huya.com/2045/408268865/99-460x268.jpg?v=069b7574729371d14d23e7180b35e9e31604318270",
        "url": "http://huya-w21.huya.com/2045/408268865/1300/21572518a0f09742080e28969fb5309a.m3u8?bitrate=1153&client=70&definition=1300&pid=1431967642&scene=vod&vid=408268865"
    },
    {
        "id": "406847235",
        "title": "\u3010\u96ea\u970f\u970f\u3011\u987a\u7740\u540c\u4e00\u6761\u7eac\u7ebf\uff0c\u6211\u4eec\u8fdf\u65e9\u4f1a\u76f8\u89c1\u3002",
        "src": "http://v-huya-img.huya.com/2044/406847235/99-460x268.jpg?v=030c47c7a4ca30e3e7d0bd2894edeac21604057214",
        "url": "http://huya-w10.huya.com/2044/406847235/1300/939e18a697f9a1a60bb24bf5822d4427.m3u8?bitrate=1248&client=70&definition=1300&pid=1431967642&scene=vod&vid=406847235"
    },
    {
        "id": "405830791",
        "title": "\u3010\u96ea\u970f\u970f\u3011",
        "src": "http://v-huya-img.huya.com/2044/405830791/99-460x268.jpg?v=b49d34ed2f9665af8fdf45f84081311f1603869542",
        "url": "http://huya-w20.huya.com/2044/405830791/1300/7ced73848be58ad7c5bc95f1d9eb56e3.m3u8?bitrate=1279&client=70&definition=1300&pid=1431967642&scene=vod&vid=405830791"
    },
    {
        "id": "405805043",
        "title": "\u3010\u96ea\u970f\u970f\u3011\u8981\u4e0d\u8981\u548c\u6211\u4e00\u8d77\u6253\u6253\u6e38\u620f\uff1f",
        "src": "http://v-huya-img.huya.com/2044/405805043/99-460x268.jpg?v=8ffd59cf3d81ddf9e5f1e5c8ec0daeea1603864502",
        "url": "http://huya-w21.huya.com/2044/405805043/1300/804e62200c35cb2c4015c0cf6977cdb1.m3u8?bitrate=1238&client=70&definition=1300&pid=1431967642&scene=vod&vid=405805043"
    },
    {
        "id": "405050365",
        "title": "\u3010\u96ea\u970f\u970f\u3011\u4e0d\u7ba1\u600e\u4e48\u6837 \u4f60\u6c38\u8fdc\u90fd\u662f\u6211\u7684\u5c0f\u7537\u5b69",
        "src": "http://v-huya-img.huya.com/2044/405050365/99-460x268.jpg?v=32c3be973f99c0571abf62837411ac461603699548",
        "url": "http://huya-w21.huya.com/2044/405050365/1300/2393bd3d4050dbcb43152e4f0e442ef2.m3u8?bitrate=1200&client=70&definition=1300&pid=1431967642&scene=vod&vid=405050365"
    },
    {
        "id": "403614155",
        "title": "\u3010\u96ea\u970f\u970f\u3011\u6700\u5962\u4f88\u7684\u6e29\u67d4\u5168\u90fd\u4ea4\u7ed9\u4f60\u6325\u970d\u3002",
        "src": "http://v-huya-img.huya.com/2043/403614155/99-460x268.jpg?v=515d326ddea184f38b4926146459f5841603364889",
        "url": "http://huya-w21.huya.com/2043/403614155/1300/e8cb9bbd04e1e82d2e5c1e6ce70550b4.m3u8?bitrate=1275&client=70&definition=1300&pid=1431967642&scene=vod&vid=403614155"
    },
    {
        "id": "403259661",
        "title": "\u3010\u96ea\u970f\u970f\u3011\u7528\u5c3d\u5168\u8eab\u52c7\u6c14\u8bf4\u7231\u4f60\uff01",
        "src": "http://v-huya-img.huya.com/2043/403259661/99-460x268.jpg?v=46d645b86c9cf65021c7b227d8751d7e1603281725",
        "url": "http://huya-w20.huya.com/2043/403259661/1300/1a0f7dd562bc8d348fa4c4abeb275da2.m3u8?bitrate=1233&client=70&definition=1300&pid=1431967642&scene=vod&vid=403259661"
    }
]