[
    {
        "name": "[XIUREN]\u79c0\u4eba\u7f51 No.155 \u742a\u742aQuee",
        "src": "http://d.duotuwang.com/2014/06/11/470/0.jpg",
        "mtId": "0b44452e6d011c0c",
        "mtName": "\u742a\u742aQuee",
        "jgId": "xiuren",
        "jgName": "\u79c0\u4eba\u7f51",
        "href": "http://d.duotuwang.com/2014/06/11/470/",
        "count": 67,
        "start": 1,
        "hasMtTag": 1,
        "hasJgTag": 1,
        "mtCount": 1,
        "jgCount": 750
    }
]