[
    {
        "name": "[FEILIN]\u55f2\u56e1\u56e1 VOL.060 \u5b50\u82afbaby_",
        "src": "http://d.duotuwang.com/2016/10/25/1765/0.jpg",
        "mtId": "5f6e5fd34da02777",
        "mtName": "\u5b50\u82afbaby_",
        "jgId": "feilin",
        "jgName": "\u55f2\u56e1\u56e1",
        "href": "http://d.duotuwang.com/2016/10/25/1765/",
        "count": 40,
        "start": 1,
        "hasMtTag": 1,
        "hasJgTag": 1,
        "mtCount": 1,
        "jgCount": 61
    }
]