[
    {
        "name": "[IMISS]\u7231\u871c\u793e VOL.699 LindaLinda",
        "src": "http://d.duotuwang.com/2022/09/15/31379/0.jpg",
        "mtId": "7b70f8115e60a9df",
        "mtName": "LindaLinda",
        "jgId": "imiss",
        "jgName": "\u7231\u871c\u793e",
        "href": "http://d.duotuwang.com/2022/09/15/31379/",
        "count": 36,
        "start": 1,
        "hasMtTag": 1,
        "hasJgTag": 1,
        "mtCount": 3,
        "jgCount": 116
    },
    {
        "name": "[IMISS]\u7231\u871c\u793e VOL.690 LindaLinda",
        "src": "http://d.duotuwang.com/2022/06/23/30340/0.jpg",
        "mtId": "7b70f8115e60a9df",
        "mtName": "LindaLinda",
        "jgId": "imiss",
        "jgName": "\u7231\u871c\u793e",
        "href": "http://d.duotuwang.com/2022/06/23/30340/",
        "count": 37,
        "start": 1,
        "hasMtTag": 1,
        "hasJgTag": 1,
        "mtCount": 3,
        "jgCount": 116
    },
    {
        "name": "[IMISS]\u7231\u871c\u793e VOL.687 LindaLinda",
        "src": "http://d.duotuwang.com/2022/06/09/30170/0.jpg",
        "mtId": "7b70f8115e60a9df",
        "mtName": "LindaLinda",
        "jgId": "imiss",
        "jgName": "\u7231\u871c\u793e",
        "href": "http://d.duotuwang.com/2022/06/09/30170/",
        "count": 41,
        "start": 1,
        "hasMtTag": 1,
        "hasJgTag": 1,
        "mtCount": 3,
        "jgCount": 116
    },
    {
        "name": "[IMISS]\u7231\u871c\u793e VOL.661 LindaLinda",
        "src": "http://d.duotuwang.com/2022/02/09/28380/0.jpg",
        "mtId": "7b70f8115e60a9df",
        "mtName": "LindaLinda",
        "jgId": "imiss",
        "jgName": "\u7231\u871c\u793e",
        "href": "http://d.duotuwang.com/2022/02/09/28380/",
        "count": 39,
        "start": 1,
        "hasMtTag": 1,
        "hasJgTag": 1,
        "mtCount": 3,
        "jgCount": 116
    },
    {
        "name": "[IMISS]\u7231\u871c\u793e VOL.655 LindaLinda",
        "src": "http://d.duotuwang.com/2022/01/21/28289/0.jpg",
        "mtId": "7b70f8115e60a9df",
        "mtName": "LindaLinda",
        "jgId": "imiss",
        "jgName": "\u7231\u871c\u793e",
        "href": "http://d.duotuwang.com/2022/01/21/28289/",
        "count": 46,
        "start": 1,
        "hasMtTag": 1,
        "hasJgTag": 1,
        "mtCount": 3,
        "jgCount": 116
    },
    {
        "name": "[IMISS]\u7231\u871c\u793e VOL.649 LindaLinda",
        "src": "http://d.duotuwang.com/2022/01/04/28002/0.jpg",
        "mtId": "7b70f8115e60a9df",
        "mtName": "LindaLinda",
        "jgId": "imiss",
        "jgName": "\u7231\u871c\u793e",
        "href": "http://d.duotuwang.com/2022/01/04/28002/",
        "count": 36,
        "start": 1,
        "hasMtTag": 1,
        "hasJgTag": 1,
        "mtCount": 3,
        "jgCount": 116
    }
]