[
    {
        "name": "[YOUMI]\u5c24\u871c\u835f VOL.199 \u9ec4\u6b46\u82d1",
        "src": "http://d.duotuwang.com/2018/08/15/9513/0.jpg",
        "mtId": "3615c255ae1c6f3b",
        "mtName": "\u9ec4\u6b46\u82d1",
        "jgId": "youmi",
        "jgName": "\u5c24\u871c\u835f",
        "href": "http://d.duotuwang.com/2018/08/15/9513/",
        "count": 40,
        "start": 1,
        "hasMtTag": 1,
        "hasJgTag": 1,
        "mtCount": 5,
        "jgCount": 143
    },
    {
        "name": "[YOUMI]\u5c24\u871c\u835f VOL.198 \u5fc3\u598d\u5c0f\u516c\u4e3b",
        "src": "http://d.duotuwang.com/2018/08/14/9516/0.jpg",
        "mtId": "8179d941dcc5135a",
        "mtName": "\u5fc3\u598d\u516c\u4e3b",
        "jgId": "youmi",
        "jgName": "\u5c24\u871c\u835f",
        "href": "http://d.duotuwang.com/2018/08/14/9516/",
        "count": 44,
        "start": 1,
        "hasMtTag": 1,
        "hasJgTag": 1,
        "mtCount": 11,
        "jgCount": 143
    },
    {
        "name": "[YOUMI]\u5c24\u871c\u835f VOL.197 \u5976\u74f6\u571f\u80a5\u5706",
        "src": "http://d.duotuwang.com/2018/08/10/9468/0.jpg",
        "mtId": "2fd18d00d5f9689f",
        "mtName": "\u5468\u598d\u5e0c",
        "jgId": "youmi",
        "jgName": "\u5c24\u871c\u835f",
        "href": "http://d.duotuwang.com/2018/08/10/9468/",
        "count": 47,
        "start": 1,
        "hasMtTag": 1,
        "hasJgTag": 1,
        "mtCount": 23,
        "jgCount": 143
    },
    {
        "name": "[YOUMI]\u5c24\u871c\u835f VOL.196 \u5b59\u68a6\u7476V",
        "src": "http://d.duotuwang.com/2018/08/09/9475/0.jpg",
        "mtId": "555d525a22aa2df3",
        "mtName": "\u5b59\u68a6\u7476V",
        "jgId": "youmi",
        "jgName": "\u5c24\u871c\u835f",
        "href": "http://d.duotuwang.com/2018/08/09/9475/",
        "count": 45,
        "start": 1,
        "hasMtTag": 1,
        "hasJgTag": 1,
        "mtCount": 7,
        "jgCount": 143
    },
    {
        "name": "[YOUMI]\u5c24\u871c\u835f VOL.195 \u5218\u94b0\u513f",
        "src": "http://d.duotuwang.com/2018/08/06/9464/0.jpg",
        "mtId": "bdc9a940ec8312bb",
        "mtName": "\u5218\u94b0\u513f",
        "jgId": "youmi",
        "jgName": "\u5c24\u871c\u835f",
        "href": "http://d.duotuwang.com/2018/08/06/9464/",
        "count": 50,
        "start": 1,
        "hasMtTag": 1,
        "hasJgTag": 1,
        "mtCount": 10,
        "jgCount": 143
    },
    {
        "name": "[YOUMI]\u5c24\u871c\u835f VOL.194 Egg_\u5c24\u59ae\u4e1d",
        "src": "http://d.duotuwang.com/2018/08/01/9417/0.jpg",
        "mtId": "ad6ceea13469d7db",
        "mtName": "Egg-\u5c24\u59ae\u4e1d",
        "jgId": "youmi",
        "jgName": "\u5c24\u871c\u835f",
        "href": "http://d.duotuwang.com/2018/08/01/9417/",
        "count": 44,
        "start": 1,
        "hasMtTag": 1,
        "hasJgTag": 1,
        "mtCount": 29,
        "jgCount": 143
    }
]