[
    {
        "name": "[YOUMI]\u5c24\u871c\u835f VOL.020 \u5468\u7430\u7433LIN",
        "src": "http://d.duotuwang.com/2017/02/28/3632/0.jpg",
        "mtId": "2dbc9898161cf36d",
        "mtName": "\u5468\u7430\u7433LIN",
        "jgId": "youmi",
        "jgName": "\u5c24\u871c\u835f",
        "href": "http://d.duotuwang.com/2017/02/28/3632/",
        "count": 55,
        "start": 1,
        "hasMtTag": 1,
        "hasJgTag": 1,
        "mtCount": 2,
        "jgCount": 143
    },
    {
        "name": "[YOUMI]\u5c24\u871c\u835f VOL.019 Quella-\u7470\u5a1c",
        "src": "http://d.duotuwang.com/2017/02/24/3608/0.jpg",
        "mtId": "46e3a5c89a8986a4",
        "mtName": "Quella-\u7470\u5a1c",
        "jgId": "youmi",
        "jgName": "\u5c24\u871c\u835f",
        "href": "http://d.duotuwang.com/2017/02/24/3608/",
        "count": 50,
        "start": 1,
        "hasMtTag": 1,
        "hasJgTag": 1,
        "mtCount": 1,
        "jgCount": 143
    },
    {
        "name": "[YOUMI]\u5c24\u871c\u835f VOL.018 \u601d\u6dc7Sukiiii",
        "src": "http://d.duotuwang.com/2017/02/21/2189/0.jpg",
        "mtId": "629001966c11a640",
        "mtName": "\u601d\u6dc7Sukiiii",
        "jgId": "youmi",
        "jgName": "\u5c24\u871c\u835f",
        "href": "http://d.duotuwang.com/2017/02/21/2189/",
        "count": 46,
        "start": 1,
        "hasMtTag": 1,
        "hasJgTag": 1,
        "mtCount": 3,
        "jgCount": 143
    },
    {
        "name": "[YOUMI]\u5c24\u871c\u835f VOL.017 Sukki",
        "src": "http://d.duotuwang.com/2017/02/20/2192/0.jpg",
        "mtId": "d5f9c5b3b7265bd0",
        "mtName": "Sukki",
        "jgId": "youmi",
        "jgName": "\u5c24\u871c\u835f",
        "href": "http://d.duotuwang.com/2017/02/20/2192/",
        "count": 49,
        "start": 1,
        "hasMtTag": 1,
        "hasJgTag": 1,
        "mtCount": 5,
        "jgCount": 143
    },
    {
        "name": "[YOUMI]\u5c24\u871c\u835f VOL.016 \u601d\u6dc7Sukiiii",
        "src": "http://d.duotuwang.com/2017/02/14/2177/0.jpg",
        "mtId": "629001966c11a640",
        "mtName": "\u601d\u6dc7Sukiiii",
        "jgId": "youmi",
        "jgName": "\u5c24\u871c\u835f",
        "href": "http://d.duotuwang.com/2017/02/14/2177/",
        "count": 52,
        "start": 1,
        "hasMtTag": 1,
        "hasJgTag": 1,
        "mtCount": 3,
        "jgCount": 143
    },
    {
        "name": "[YOUMI]\u5c24\u871c\u835f VOL.015 \u5468\u7430\u7433LIN",
        "src": "http://d.duotuwang.com/2017/02/09/2077/0.jpg",
        "mtId": "2dbc9898161cf36d",
        "mtName": "\u5468\u7430\u7433LIN",
        "jgId": "youmi",
        "jgName": "\u5c24\u871c\u835f",
        "href": "http://d.duotuwang.com/2017/02/09/2077/",
        "count": 48,
        "start": 1,
        "hasMtTag": 1,
        "hasJgTag": 1,
        "mtCount": 2,
        "jgCount": 143
    }
]