[
    {
        "name": "[YOUMI]\u5c24\u871c\u835f VOL.014 \u4e0d\u67e0bling",
        "src": "http://d.duotuwang.com/2017/02/06/2086/0.jpg",
        "mtId": "c78934991e654126",
        "mtName": "\u4e0d\u67e0bling",
        "jgId": "youmi",
        "jgName": "\u5c24\u871c\u835f",
        "href": "http://d.duotuwang.com/2017/02/06/2086/",
        "count": 52,
        "start": 1,
        "hasMtTag": 1,
        "hasJgTag": 1,
        "mtCount": 1,
        "jgCount": 143
    },
    {
        "name": "[YOUMI]\u5c24\u871c\u835f VOL.013 \u5de6\u51b0Queen",
        "src": "http://d.duotuwang.com/2017/01/25/2060/0.jpg",
        "jgId": "youmi",
        "jgName": "\u5c24\u871c\u835f",
        "href": "http://d.duotuwang.com/2017/01/25/2060/",
        "count": 48,
        "start": 1,
        "hasMtTag": 0,
        "hasJgTag": 1,
        "jgCount": 143
    },
    {
        "name": "[YOUMI]\u5c24\u871c\u835f VOL.012 \u601d\u6dc7Sukiiii",
        "src": "http://d.duotuwang.com/2017/01/20/2034/0.jpg",
        "mtId": "629001966c11a640",
        "mtName": "\u601d\u6dc7Sukiiii",
        "jgId": "youmi",
        "jgName": "\u5c24\u871c\u835f",
        "href": "http://d.duotuwang.com/2017/01/20/2034/",
        "count": 45,
        "start": 1,
        "hasMtTag": 1,
        "hasJgTag": 1,
        "mtCount": 3,
        "jgCount": 143
    },
    {
        "name": "[YOUMI]\u5c24\u871c\u835f VOL.011 \u9ec4\u6b46\u82d1",
        "src": "http://d.duotuwang.com/2017/01/19/2039/0.jpg",
        "mtId": "3615c255ae1c6f3b",
        "mtName": "\u9ec4\u6b46\u82d1",
        "jgId": "youmi",
        "jgName": "\u5c24\u871c\u835f",
        "href": "http://d.duotuwang.com/2017/01/19/2039/",
        "count": 51,
        "start": 1,
        "hasMtTag": 1,
        "hasJgTag": 1,
        "mtCount": 5,
        "jgCount": 143
    },
    {
        "name": "[YOUMI]\u5c24\u871c\u835f VOL.010 Quella-\u7470\u5a1c",
        "src": "http://d.duotuwang.com/2017/01/18/2043/0.jpg",
        "mtId": "46e3a5c89a8986a4",
        "mtName": "Quella-\u7470\u5a1c",
        "jgId": "youmi",
        "jgName": "\u5c24\u871c\u835f",
        "href": "http://d.duotuwang.com/2017/01/18/2043/",
        "count": 50,
        "start": 1,
        "hasMtTag": 1,
        "hasJgTag": 1,
        "mtCount": 1,
        "jgCount": 143
    },
    {
        "name": "[YOUMI]\u5c24\u871c\u835f VOL.009 \u601d\u6dc7Sukiiii",
        "src": "http://d.duotuwang.com/2017/01/17/2046/0.jpg",
        "mtId": "629001966c11a640",
        "mtName": "\u601d\u6dc7Sukiiii",
        "jgId": "youmi",
        "jgName": "\u5c24\u871c\u835f",
        "href": "http://d.duotuwang.com/2017/01/17/2046/",
        "count": 52,
        "start": 1,
        "hasMtTag": 1,
        "hasJgTag": 1,
        "mtCount": 3,
        "jgCount": 143
    }
]