[
    {
        "name": "[YOUMI]\u5c24\u871c\u835f VOL.008 \u5b8b\u6893\u8bfaBee",
        "src": "http://d.duotuwang.com/2017/01/12/2019/0.jpg",
        "mtId": "15cae0fc160c8348",
        "mtName": "\u5b8b\u6893\u8bfaBee",
        "jgId": "youmi",
        "jgName": "\u5c24\u871c\u835f",
        "href": "http://d.duotuwang.com/2017/01/12/2019/",
        "count": 56,
        "start": 1,
        "hasMtTag": 1,
        "hasJgTag": 1,
        "mtCount": 2,
        "jgCount": 143
    },
    {
        "name": "[YOUMI]\u5c24\u871c\u835f VOL.007 Quella-\u7470\u5a1c",
        "src": "http://d.duotuwang.com/2017/01/10/2027/0.jpg",
        "mtId": "46e3a5c89a8986a4",
        "mtName": "Quella-\u7470\u5a1c",
        "jgId": "youmi",
        "jgName": "\u5c24\u871c\u835f",
        "href": "http://d.duotuwang.com/2017/01/10/2027/",
        "count": 59,
        "start": 1,
        "hasMtTag": 1,
        "hasJgTag": 1,
        "mtCount": 1,
        "jgCount": 143
    },
    {
        "name": "[YOUMI]\u5c24\u871c\u835f VOL.006 \u601d\u6dc7Sukiiii",
        "src": "http://d.duotuwang.com/2017/01/05/1998/0.jpg",
        "mtId": "629001966c11a640",
        "mtName": "\u601d\u6dc7Sukiiii",
        "jgId": "youmi",
        "jgName": "\u5c24\u871c\u835f",
        "href": "http://d.duotuwang.com/2017/01/05/1998/",
        "count": 40,
        "start": 1,
        "hasMtTag": 1,
        "hasJgTag": 1,
        "mtCount": 3,
        "jgCount": 143
    },
    {
        "name": "[YOUMI]\u5c24\u871c\u835f VOL.005 Yumi-\u5c24\u7f8e",
        "src": "http://d.duotuwang.com/2017/01/03/2006/0.jpg",
        "mtId": "309b83a821c74a83",
        "mtName": "Yumi\u5c24\u7f8e",
        "jgId": "youmi",
        "jgName": "\u5c24\u871c\u835f",
        "href": "http://d.duotuwang.com/2017/01/03/2006/",
        "count": 46,
        "start": 1,
        "hasMtTag": 1,
        "hasJgTag": 1,
        "mtCount": 6,
        "jgCount": 143
    },
    {
        "name": "[YOUMI]\u5c24\u871c\u835f VOL.004 \u5468\u7430\u7433LIN",
        "src": "http://d.duotuwang.com/2016/12/30/1976/0.jpg",
        "mtId": "2dbc9898161cf36d",
        "mtName": "\u5468\u7430\u7433LIN",
        "jgId": "youmi",
        "jgName": "\u5c24\u871c\u835f",
        "href": "http://d.duotuwang.com/2016/12/30/1976/",
        "count": 53,
        "start": 1,
        "hasMtTag": 1,
        "hasJgTag": 1,
        "mtCount": 2,
        "jgCount": 143
    },
    {
        "name": "[YOUMI]\u5c24\u871c\u835f VOL.003 \u9ec4\u6b46\u82d1",
        "src": "http://d.duotuwang.com/2016/12/28/1981/0.jpg",
        "mtId": "3615c255ae1c6f3b",
        "mtName": "\u9ec4\u6b46\u82d1",
        "jgId": "youmi",
        "jgName": "\u5c24\u871c\u835f",
        "href": "http://d.duotuwang.com/2016/12/28/1981/",
        "count": 49,
        "start": 1,
        "hasMtTag": 1,
        "hasJgTag": 1,
        "mtCount": 5,
        "jgCount": 143
    }
]