[
    {
        "name": "[YOUMI]\u5c24\u871c\u835f VOL.525 \u5468\u4e8e\u5e0cSandy",
        "src": "http://d.duotuwang.com/2020/09/09/22149/0.jpg",
        "mtId": "de6bdb42ece2255f",
        "mtName": "\u5468\u4e8e\u5e0cSandy",
        "jgId": "youmi",
        "jgName": "\u5c24\u871c\u835f",
        "href": "http://d.duotuwang.com/2020/09/09/22149/",
        "count": 78,
        "start": 1,
        "hasMtTag": 1,
        "hasJgTag": 1,
        "mtCount": 59,
        "jgCount": 143
    },
    {
        "name": "[YOUMI]\u5c24\u871c\u835f VOL.524 \u738b\u96e8\u7eaf",
        "src": "http://d.duotuwang.com/2020/09/08/22060/0.jpg",
        "mtId": "6a5d00e535915ee5",
        "mtName": "\u738b\u96e8\u7eaf",
        "jgId": "youmi",
        "jgName": "\u5c24\u871c\u835f",
        "href": "http://d.duotuwang.com/2020/09/08/22060/",
        "count": 72,
        "start": 1,
        "hasMtTag": 1,
        "hasJgTag": 1,
        "mtCount": 60,
        "jgCount": 143
    },
    {
        "name": "[YOUMI]\u5c24\u871c\u835f VOL.523 \u5a1c\u9732Selena",
        "src": "http://d.duotuwang.com/2020/09/07/22059/0.jpg",
        "mtId": "8dbbd724a3a06b9e",
        "mtName": "\u5a1c\u9732Selena",
        "jgId": "youmi",
        "jgName": "\u5c24\u871c\u835f",
        "href": "http://d.duotuwang.com/2020/09/07/22059/",
        "count": 89,
        "start": 1,
        "hasMtTag": 1,
        "hasJgTag": 1,
        "mtCount": 9,
        "jgCount": 143
    },
    {
        "name": "[YOUMI]\u5c24\u871c\u835f VOL.522 \u738b\u96e8\u7eaf",
        "src": "http://d.duotuwang.com/2020/09/04/22058/0.jpg",
        "mtId": "6a5d00e535915ee5",
        "mtName": "\u738b\u96e8\u7eaf",
        "jgId": "youmi",
        "jgName": "\u5c24\u871c\u835f",
        "href": "http://d.duotuwang.com/2020/09/04/22058/",
        "count": 90,
        "start": 1,
        "hasMtTag": 1,
        "hasJgTag": 1,
        "mtCount": 60,
        "jgCount": 143
    },
    {
        "name": "[YOUMI]\u5c24\u871c\u835f VOL.521 \u59b2\u5df1_Toxic",
        "src": "http://d.duotuwang.com/2020/09/03/22057/0.jpg",
        "mtId": "3c8b93e37672f106",
        "mtName": "\u59b2\u5df1_Toxic",
        "jgId": "youmi",
        "jgName": "\u5c24\u871c\u835f",
        "href": "http://d.duotuwang.com/2020/09/03/22057/",
        "count": 60,
        "start": 1,
        "hasMtTag": 1,
        "hasJgTag": 1,
        "mtCount": 21,
        "jgCount": 143
    },
    {
        "name": "[YOUMI]\u5c24\u871c\u835f VOL.520 Egg-\u5c24\u59ae\u4e1dEgg",
        "src": "http://d.duotuwang.com/2020/09/02/21894/0.jpg",
        "mtId": "ad6ceea13469d7db",
        "mtName": "Egg-\u5c24\u59ae\u4e1d",
        "jgId": "youmi",
        "jgName": "\u5c24\u871c\u835f",
        "href": "http://d.duotuwang.com/2020/09/02/21894/",
        "count": 52,
        "start": 1,
        "hasMtTag": 1,
        "hasJgTag": 1,
        "mtCount": 29,
        "jgCount": 143
    }
]