[
    {
        "name": "[YOUMI]\u5c24\u871c\u835f VOL.483 Angela\u5c0f\u70ed\u5df4",
        "src": "http://d.duotuwang.com/2020/07/10/21191/0.jpg",
        "mtId": "e4d09316d8a9d330",
        "mtName": "\u5c0f\u70ed\u5df4",
        "jgId": "youmi",
        "jgName": "\u5c24\u871c\u835f",
        "href": "http://d.duotuwang.com/2020/07/10/21191/",
        "count": 72,
        "start": 1,
        "hasMtTag": 1,
        "hasJgTag": 1,
        "mtCount": 26,
        "jgCount": 143
    },
    {
        "name": "[YOUMI]\u5c24\u871c\u835f VOL.482 \u5468\u4e8e\u5e0cSandy",
        "src": "http://d.duotuwang.com/2020/07/09/21190/0.jpg",
        "mtId": "de6bdb42ece2255f",
        "mtName": "\u5468\u4e8e\u5e0cSandy",
        "jgId": "youmi",
        "jgName": "\u5c24\u871c\u835f",
        "href": "http://d.duotuwang.com/2020/07/09/21190/",
        "count": 61,
        "start": 1,
        "hasMtTag": 1,
        "hasJgTag": 1,
        "mtCount": 59,
        "jgCount": 143
    },
    {
        "name": "[YOUMI]\u5c24\u871c\u835f VOL.481 \u845b\u5f81Model",
        "src": "http://d.duotuwang.com/2020/07/08/21189/0.jpg",
        "mtId": "bac3f4adea859891",
        "mtName": "\u845b\u5f81Model",
        "jgId": "youmi",
        "jgName": "\u5c24\u871c\u835f",
        "href": "http://d.duotuwang.com/2020/07/08/21189/",
        "count": 42,
        "start": 1,
        "hasMtTag": 1,
        "hasJgTag": 1,
        "mtCount": 10,
        "jgCount": 143
    },
    {
        "name": "[YOUMI]\u5c24\u871c\u835f VOL.480 \u738b\u96e8\u7eaf",
        "src": "http://d.duotuwang.com/2020/07/07/21083/0.jpg",
        "mtId": "6a5d00e535915ee5",
        "mtName": "\u738b\u96e8\u7eaf",
        "jgId": "youmi",
        "jgName": "\u5c24\u871c\u835f",
        "href": "http://d.duotuwang.com/2020/07/07/21083/",
        "count": 55,
        "start": 1,
        "hasMtTag": 1,
        "hasJgTag": 1,
        "mtCount": 60,
        "jgCount": 143
    },
    {
        "name": "[YOUMI]\u5c24\u871c\u835f VOL.479 Egg-\u5c24\u59ae\u4e1dEgg",
        "src": "http://d.duotuwang.com/2020/07/06/21082/0.jpg",
        "mtId": "ad6ceea13469d7db",
        "mtName": "Egg-\u5c24\u59ae\u4e1d",
        "jgId": "youmi",
        "jgName": "\u5c24\u871c\u835f",
        "href": "http://d.duotuwang.com/2020/07/06/21082/",
        "count": 55,
        "start": 1,
        "hasMtTag": 1,
        "hasJgTag": 1,
        "mtCount": 29,
        "jgCount": 143
    },
    {
        "name": "[YOUMI]\u5c24\u871c\u835f VOL.478 Angela\u5c0f\u70ed\u5df4",
        "src": "http://d.duotuwang.com/2020/07/03/21081/0.jpg",
        "mtId": "e4d09316d8a9d330",
        "mtName": "\u5c0f\u70ed\u5df4",
        "jgId": "youmi",
        "jgName": "\u5c24\u871c\u835f",
        "href": "http://d.duotuwang.com/2020/07/03/21081/",
        "count": 79,
        "start": 1,
        "hasMtTag": 1,
        "hasJgTag": 1,
        "mtCount": 26,
        "jgCount": 143
    }
]