[
    {
        "name": "[YOUMI]\u5c24\u871c\u835f VOL.355 \u68a6\u5fc3\u6708",
        "src": "http://d.duotuwang.com/2019/10/16/18294/0.jpg",
        "mtId": "845a90943c4d1633",
        "mtName": "\u68a6\u5fc3\u6708",
        "jgId": "youmi",
        "jgName": "\u5c24\u871c\u835f",
        "href": "http://d.duotuwang.com/2019/10/16/18294/",
        "count": 61,
        "start": 1,
        "hasMtTag": 1,
        "hasJgTag": 1,
        "mtCount": 35,
        "jgCount": 143
    },
    {
        "name": "[YOUMI]\u5c24\u871c\u835f VOL.354 \u738b\u96e8\u7eaf",
        "src": "http://d.duotuwang.com/2019/10/15/18245/0.jpg",
        "mtId": "6a5d00e535915ee5",
        "mtName": "\u738b\u96e8\u7eaf",
        "jgId": "youmi",
        "jgName": "\u5c24\u871c\u835f",
        "href": "http://d.duotuwang.com/2019/10/15/18245/",
        "count": 46,
        "start": 1,
        "hasMtTag": 1,
        "hasJgTag": 1,
        "mtCount": 60,
        "jgCount": 143
    },
    {
        "name": "[YOUMI]\u5c24\u871c\u835f VOL.353 Cris_\u5353\u5a05\u797a",
        "src": "http://d.duotuwang.com/2019/10/10/18205/0.jpg",
        "mtId": "508d1bde3048cf28",
        "mtName": "Cris_\u5353\u5a05\u797a",
        "jgId": "youmi",
        "jgName": "\u5c24\u871c\u835f",
        "href": "http://d.duotuwang.com/2019/10/10/18205/",
        "count": 50,
        "start": 1,
        "hasMtTag": 1,
        "hasJgTag": 1,
        "mtCount": 10,
        "jgCount": 143
    },
    {
        "name": "[YOUMI]\u5c24\u871c\u835f VOL.352 \u840c\u6c49\u836fbaby\u5f88\u9177",
        "src": "http://d.duotuwang.com/2019/10/08/18193/0.jpg",
        "mtId": "830ea5862a484115",
        "mtName": "\u840c\u6c49\u836fbaby",
        "jgId": "youmi",
        "jgName": "\u5c24\u871c\u835f",
        "href": "http://d.duotuwang.com/2019/10/08/18193/",
        "count": 47,
        "start": 1,
        "hasMtTag": 1,
        "hasJgTag": 1,
        "mtCount": 17,
        "jgCount": 143
    },
    {
        "name": "[YOUMI]\u5c24\u871c\u835f VOL.351 \u5468\u4e8e\u5e0cSandy",
        "src": "http://d.duotuwang.com/2019/09/30/18138/0.jpg",
        "mtId": "de6bdb42ece2255f",
        "mtName": "\u5468\u4e8e\u5e0cSandy",
        "jgId": "youmi",
        "jgName": "\u5c24\u871c\u835f",
        "href": "http://d.duotuwang.com/2019/09/30/18138/",
        "count": 55,
        "start": 1,
        "hasMtTag": 1,
        "hasJgTag": 1,
        "mtCount": 59,
        "jgCount": 143
    },
    {
        "name": "[YOUMI]\u5c24\u871c\u835f VOL.350 \u7b71\u6167",
        "src": "http://d.duotuwang.com/2019/09/29/18145/0.jpg",
        "mtId": "c739b89a0b9c02a0",
        "mtName": "\u7b71\u6167",
        "jgId": "youmi",
        "jgName": "\u5c24\u871c\u835f",
        "href": "http://d.duotuwang.com/2019/09/29/18145/",
        "count": 57,
        "start": 1,
        "hasMtTag": 1,
        "hasJgTag": 1,
        "mtCount": 17,
        "jgCount": 143
    }
]