[
    {
        "name": "[YOUMI]\u5c24\u871c\u835f VOL.313 \u59b2\u5df1_Toxic",
        "src": "http://d.duotuwang.com/2019/05/31/16676/0.jpg",
        "mtId": "3c8b93e37672f106",
        "mtName": "\u59b2\u5df1_Toxic",
        "jgId": "youmi",
        "jgName": "\u5c24\u871c\u835f",
        "href": "http://d.duotuwang.com/2019/05/31/16676/",
        "count": 45,
        "start": 1,
        "hasMtTag": 1,
        "hasJgTag": 1,
        "mtCount": 21,
        "jgCount": 143
    },
    {
        "name": "[YOUMI]\u5c24\u871c\u835f VOL.312 Emily\u987e\u5948\u5948\u9171",
        "src": "http://d.duotuwang.com/2019/05/30/16683/0.jpg",
        "mtId": "eaa19160eb9a4e36",
        "mtName": "Emily\u987e\u5948\u5948\u9171",
        "jgId": "youmi",
        "jgName": "\u5c24\u871c\u835f",
        "href": "http://d.duotuwang.com/2019/05/30/16683/",
        "count": 40,
        "start": 1,
        "hasMtTag": 1,
        "hasJgTag": 1,
        "mtCount": 22,
        "jgCount": 143
    },
    {
        "name": "[YOUMI]\u5c24\u871c\u835f VOL.311 \u6613\u9633Silvia",
        "src": "http://d.duotuwang.com/2019/05/28/16671/0.jpg",
        "mtId": "ed0ba549510c68da",
        "mtName": "\u6613\u9633Silvia",
        "jgId": "youmi",
        "jgName": "\u5c24\u871c\u835f",
        "href": "http://d.duotuwang.com/2019/05/28/16671/",
        "count": 45,
        "start": 1,
        "hasMtTag": 1,
        "hasJgTag": 1,
        "mtCount": 10,
        "jgCount": 143
    },
    {
        "name": "[YOUMI]\u5c24\u871c\u835f VOL.310 \u5fc3\u598d\u5c0f\u516c\u4e3b",
        "src": "http://d.duotuwang.com/2019/05/23/16549/0.jpg",
        "mtId": "8179d941dcc5135a",
        "mtName": "\u5fc3\u598d\u516c\u4e3b",
        "jgId": "youmi",
        "jgName": "\u5c24\u871c\u835f",
        "href": "http://d.duotuwang.com/2019/05/23/16549/",
        "count": 43,
        "start": 1,
        "hasMtTag": 1,
        "hasJgTag": 1,
        "mtCount": 11,
        "jgCount": 143
    },
    {
        "name": "[YOUMI]\u5c24\u871c\u835f VOL.309 \u5c0f\u5c24\u5948",
        "src": "http://d.duotuwang.com/2019/05/22/16558/0.jpg",
        "mtId": "ebef91bb28e0661a",
        "mtName": "\u5c0f\u5c24\u5948",
        "jgId": "youmi",
        "jgName": "\u5c24\u871c\u835f",
        "href": "http://d.duotuwang.com/2019/05/22/16558/",
        "count": 39,
        "start": 1,
        "hasMtTag": 1,
        "hasJgTag": 1,
        "mtCount": 7,
        "jgCount": 143
    },
    {
        "name": "[YOUMI]\u5c24\u871c\u835f VOL.308 Egg_\u5c24\u59ae\u4e1d",
        "src": "http://d.duotuwang.com/2019/05/21/16560/0.jpg",
        "mtId": "ad6ceea13469d7db",
        "mtName": "Egg-\u5c24\u59ae\u4e1d",
        "jgId": "youmi",
        "jgName": "\u5c24\u871c\u835f",
        "href": "http://d.duotuwang.com/2019/05/21/16560/",
        "count": 42,
        "start": 1,
        "hasMtTag": 1,
        "hasJgTag": 1,
        "mtCount": 29,
        "jgCount": 143
    }
]