[
    {
        "name": "[YOUMI]\u5c24\u871c\u835f VOL.546 \u5a1c\u9732Selena",
        "src": "http://d.duotuwang.com/2020/10/27/22904/0.jpg",
        "mtId": "8dbbd724a3a06b9e",
        "mtName": "\u5a1c\u9732Selena",
        "jgId": "youmi",
        "jgName": "\u5c24\u871c\u835f",
        "href": "http://d.duotuwang.com/2020/10/27/22904/",
        "count": 50,
        "start": 1,
        "hasMtTag": 1,
        "hasJgTag": 1,
        "mtCount": 9,
        "jgCount": 143
    },
    {
        "name": "[YOUMI]\u5c24\u871c\u835f VOL.543 \u5a1c\u9732Selena",
        "src": "http://d.duotuwang.com/2020/10/21/22901/0.jpg",
        "mtId": "8dbbd724a3a06b9e",
        "mtName": "\u5a1c\u9732Selena",
        "jgId": "youmi",
        "jgName": "\u5c24\u871c\u835f",
        "href": "http://d.duotuwang.com/2020/10/21/22901/",
        "count": 61,
        "start": 1,
        "hasMtTag": 1,
        "hasJgTag": 1,
        "mtCount": 9,
        "jgCount": 143
    },
    {
        "name": "[HuaYang]\u82b1\u6f3eshow VOL.303 \u5a1c\u9732Selena",
        "src": "http://d.duotuwang.com/2020/10/12/22722/0.jpg",
        "mtId": "8dbbd724a3a06b9e",
        "mtName": "\u5a1c\u9732Selena",
        "jgId": "huayang",
        "jgName": "\u82b1\u6f3eshow",
        "href": "http://d.duotuwang.com/2020/10/12/22722/",
        "count": 55,
        "start": 1,
        "hasMtTag": 1,
        "hasJgTag": 1,
        "mtCount": 9,
        "jgCount": 86
    },
    {
        "name": "[YOUMI]\u5c24\u871c\u835f VOL.539 \u5a1c\u9732Selena",
        "src": "http://d.duotuwang.com/2020/10/09/22762/0.jpg",
        "mtId": "8dbbd724a3a06b9e",
        "mtName": "\u5a1c\u9732Selena",
        "jgId": "youmi",
        "jgName": "\u5c24\u871c\u835f",
        "href": "http://d.duotuwang.com/2020/10/09/22762/",
        "count": 58,
        "start": 1,
        "hasMtTag": 1,
        "hasJgTag": 1,
        "mtCount": 9,
        "jgCount": 143
    },
    {
        "name": "[YOUMI]\u5c24\u871c\u835f VOL.528 \u5a1c\u9732Selena",
        "src": "http://d.duotuwang.com/2020/09/16/22152/0.jpg",
        "mtId": "8dbbd724a3a06b9e",
        "mtName": "\u5a1c\u9732Selena",
        "jgId": "youmi",
        "jgName": "\u5c24\u871c\u835f",
        "href": "http://d.duotuwang.com/2020/09/16/22152/",
        "count": 48,
        "start": 1,
        "hasMtTag": 1,
        "hasJgTag": 1,
        "mtCount": 9,
        "jgCount": 143
    },
    {
        "name": "[HuaYang]\u82b1\u6f3eshow VOL.290 \u5a1c\u9732Selena",
        "src": "http://d.duotuwang.com/2020/09/15/22098/0.jpg",
        "mtId": "8dbbd724a3a06b9e",
        "mtName": "\u5a1c\u9732Selena",
        "jgId": "huayang",
        "jgName": "\u82b1\u6f3eshow",
        "href": "http://d.duotuwang.com/2020/09/15/22098/",
        "count": 55,
        "start": 1,
        "hasMtTag": 1,
        "hasJgTag": 1,
        "mtCount": 9,
        "jgCount": 86
    }
]