[
    {
        "name": "[IMISS]\u7231\u871c\u793e VOL.048 \u6797\u6069\u829dalu",
        "src": "http://d.duotuwang.com/2015/11/26/1096/0.jpg",
        "mtId": "202669f67d774156",
        "mtName": "\u6797\u6069\u829dalu",
        "jgId": "imiss",
        "jgName": "\u7231\u871c\u793e",
        "href": "http://d.duotuwang.com/2015/11/26/1096/",
        "count": 50,
        "start": 1,
        "hasMtTag": 1,
        "hasJgTag": 1,
        "mtCount": 1,
        "jgCount": 116
    }
]