[
    {
        "name": "[XIUREN]\u79c0\u4eba\u7f51 No.3622 \u660e\u65e5\u82b1\u6843\u6843",
        "src": "http://d.duotuwang.com/2021/07/05/25745/0.jpg",
        "mtId": "09a830466e48adba",
        "mtName": "\u660e\u65e5\u82b1\u6843\u6843",
        "jgId": "xiuren",
        "jgName": "\u79c0\u4eba\u7f51",
        "href": "http://d.duotuwang.com/2021/07/05/25745/",
        "count": 53,
        "start": 1,
        "hasMtTag": 1,
        "hasJgTag": 1,
        "mtCount": 2,
        "jgCount": 750
    },
    {
        "name": "[XIUREN]\u79c0\u4eba\u7f51 No.3540 \u660e\u65e5\u82b1\u6843\u6843",
        "src": "http://d.duotuwang.com/2021/06/15/25440/0.jpg",
        "mtId": "09a830466e48adba",
        "mtName": "\u660e\u65e5\u82b1\u6843\u6843",
        "jgId": "xiuren",
        "jgName": "\u79c0\u4eba\u7f51",
        "href": "http://d.duotuwang.com/2021/06/15/25440/",
        "count": 45,
        "start": 1,
        "hasMtTag": 1,
        "hasJgTag": 1,
        "mtCount": 2,
        "jgCount": 750
    },
    {
        "name": "[XIUREN]\u79c0\u4eba\u7f51 No.3475 \u660e\u65e5\u82b1\u6843\u6843",
        "src": "http://d.duotuwang.com/2021/05/28/25234/0.jpg",
        "mtId": "09a830466e48adba",
        "mtName": "\u660e\u65e5\u82b1\u6843\u6843",
        "jgId": "xiuren",
        "jgName": "\u79c0\u4eba\u7f51",
        "href": "http://d.duotuwang.com/2021/05/28/25234/",
        "count": 52,
        "start": 1,
        "hasMtTag": 1,
        "hasJgTag": 1,
        "mtCount": 2,
        "jgCount": 750
    }
]