[
    {
        "name": "[YALAYI]\u96c5\u62c9\u4f0a Y052 \u674e\u9896\u60e0\u60e0 \u88ab\u9057\u5fd8\u7684\u623f\u95f4",
        "src": "http://d.duotuwang.com/2018/08/20/16188/0.jpg",
        "mtId": "10d212ffdb83eeaa",
        "mtName": "\u674e\u9896\u60e0\u60e0",
        "jgId": "yalayi",
        "jgName": "\u96c5\u62c9\u4f0a",
        "href": "http://d.duotuwang.com/2018/08/20/16188/",
        "count": 42,
        "start": 1,
        "hasMtTag": 1,
        "hasJgTag": 1,
        "mtCount": 2,
        "jgCount": 156
    }
]