[
    {
        "name": "[Girlt]\u679c\u56e2\u7f51 GT030 \u7199\u6069",
        "src": "http://d.duotuwang.com/2017/07/15/5143/0.jpg",
        "mtId": "2f9a8d34ff8a5cbb",
        "mtName": "\u7199\u6069",
        "jgId": "girlt",
        "jgName": "\u679c\u56e2\u7f51",
        "href": "http://d.duotuwang.com/2017/07/15/5143/",
        "count": 52,
        "start": 1,
        "hasMtTag": 1,
        "hasJgTag": 1,
        "mtCount": 1,
        "jgCount": 37
    },
    {
        "name": "[Girlt]\u679c\u56e2\u7f51 GT027 \u4f55\u68a6\u516eStacy",
        "src": "http://d.duotuwang.com/2017/07/08/4216/0.jpg",
        "mtId": "1bc992a6469cc34c",
        "mtName": "\u4f55\u68a6\u516eStacy",
        "jgId": "girlt",
        "jgName": "\u679c\u56e2\u7f51",
        "href": "http://d.duotuwang.com/2017/07/08/4216/",
        "count": 53,
        "start": 1,
        "hasMtTag": 1,
        "hasJgTag": 1,
        "mtCount": 1,
        "jgCount": 37
    },
    {
        "name": "[Girlt]\u679c\u56e2\u7f51 GT026 \u6027\u611f\u5c0f\u732b\u5996",
        "src": "http://d.duotuwang.com/2017/07/08/4217/0.jpg",
        "jgId": "girlt",
        "jgName": "\u679c\u56e2\u7f51",
        "href": "http://d.duotuwang.com/2017/07/08/4217/",
        "count": 61,
        "start": 1,
        "hasMtTag": 0,
        "hasJgTag": 1,
        "jgCount": 37
    },
    {
        "name": "[Girlt]\u679c\u56e2\u7f51 GT028 \u8d75\u7199\u513f",
        "src": "http://d.duotuwang.com/2017/07/08/4215/0.jpg",
        "mtId": "83c27c379ced05f3",
        "mtName": "\u8d75\u7199\u513f",
        "jgId": "girlt",
        "jgName": "\u679c\u56e2\u7f51",
        "href": "http://d.duotuwang.com/2017/07/08/4215/",
        "count": 53,
        "start": 1,
        "hasMtTag": 1,
        "hasJgTag": 1,
        "mtCount": 1,
        "jgCount": 37
    },
    {
        "name": "[Girlt]\u679c\u56e2\u7f51 GT024 \u76ae\u86cb\u513f",
        "src": "http://d.duotuwang.com/2017/06/29/4173/0.jpg",
        "jgId": "girlt",
        "jgName": "\u679c\u56e2\u7f51",
        "href": "http://d.duotuwang.com/2017/06/29/4173/",
        "count": 68,
        "start": 1,
        "hasMtTag": 0,
        "hasJgTag": 1,
        "jgCount": 37
    },
    {
        "name": "[Girlt]\u679c\u56e2\u7f51 GT022 little\u8d1d\u6bbc",
        "src": "http://d.duotuwang.com/2017/06/29/4175/0.jpg",
        "mtId": "f3774a2f60228810",
        "mtName": "little\u8d1d\u58f3",
        "jgId": "girlt",
        "jgName": "\u679c\u56e2\u7f51",
        "href": "http://d.duotuwang.com/2017/06/29/4175/",
        "count": 44,
        "start": 1,
        "hasMtTag": 1,
        "hasJgTag": 1,
        "mtCount": 1,
        "jgCount": 37
    }
]