[
    {
        "name": "[Girlt]\u679c\u56e2\u7f51 GT139",
        "src": "http://d.duotuwang.com/2018/04/12/8574/0.jpg",
        "jgId": "girlt",
        "jgName": "\u679c\u56e2\u7f51",
        "href": "http://d.duotuwang.com/2018/04/12/8574/",
        "count": 45,
        "start": 1,
        "hasMtTag": 0,
        "hasJgTag": 1,
        "jgCount": 37
    },
    {
        "name": "[Girlt]\u679c\u56e2\u7f51 GT137",
        "src": "http://d.duotuwang.com/2018/04/10/8576/0.jpg",
        "jgId": "girlt",
        "jgName": "\u679c\u56e2\u7f51",
        "href": "http://d.duotuwang.com/2018/04/10/8576/",
        "count": 65,
        "start": 1,
        "hasMtTag": 0,
        "hasJgTag": 1,
        "jgCount": 37
    },
    {
        "name": "[Girlt]\u679c\u56e2\u7f51 \u718a\u5ddd\u7eaa\u4fe1 XCJX032",
        "src": "http://d.duotuwang.com/2018/04/08/8551/0.jpg",
        "jgId": "girlt",
        "jgName": "\u679c\u56e2\u7f51",
        "href": "http://d.duotuwang.com/2018/04/08/8551/",
        "count": 54,
        "start": 1,
        "hasMtTag": 0,
        "hasJgTag": 1,
        "jgCount": 37
    },
    {
        "name": "[Girlt]\u679c\u56e2\u7f51 \u718a\u5ddd\u7eaa\u4fe1 XCJX031",
        "src": "http://d.duotuwang.com/2018/04/06/8552/0.jpg",
        "jgId": "girlt",
        "jgName": "\u679c\u56e2\u7f51",
        "href": "http://d.duotuwang.com/2018/04/06/8552/",
        "count": 48,
        "start": 1,
        "hasMtTag": 0,
        "hasJgTag": 1,
        "jgCount": 37
    },
    {
        "name": "[Girlt]\u679c\u56e2\u7f51 GT136",
        "src": "http://d.duotuwang.com/2018/04/04/8553/0.jpg",
        "jgId": "girlt",
        "jgName": "\u679c\u56e2\u7f51",
        "href": "http://d.duotuwang.com/2018/04/04/8553/",
        "count": 80,
        "start": 1,
        "hasMtTag": 0,
        "hasJgTag": 1,
        "jgCount": 37
    },
    {
        "name": "[Girlt]\u679c\u56e2\u7f51 GT135",
        "src": "http://d.duotuwang.com/2018/04/02/8383/0.jpg",
        "jgId": "girlt",
        "jgName": "\u679c\u56e2\u7f51",
        "href": "http://d.duotuwang.com/2018/04/02/8383/",
        "count": 40,
        "start": 1,
        "hasMtTag": 0,
        "hasJgTag": 1,
        "jgCount": 37
    }
]