[
    {
        "name": "[XIUREN]\u79c0\u4eba\u7f51 No.335 \u4e50\u6735\u6735-Wendy",
        "src": "http://d.duotuwang.com/2015/06/02/784/0.jpg",
        "mtId": "5f982b4058195aa2",
        "mtName": "Wendy\u667a\u79c0",
        "jgId": "xiuren",
        "jgName": "\u79c0\u4eba\u7f51",
        "href": "http://d.duotuwang.com/2015/06/02/784/",
        "count": 50,
        "start": 1,
        "hasMtTag": 1,
        "hasJgTag": 1,
        "mtCount": 2,
        "jgCount": 750
    }
]