[
    {
        "name": "[Pure Media] Vol.54 Sia",
        "src": "http://d.duotuwang.com/2021/01/22/29998/0.jpg",
        "mtId": "0863e388f319a3e1",
        "mtName": "PureMedia",
        "href": "http://d.duotuwang.com/2021/01/22/29998/",
        "count": 74,
        "start": 1,
        "hasMtTag": 1,
        "hasJgTag": 0,
        "mtCount": 6
    },
    {
        "name": "[Pure Media] Vol.41 Sia",
        "src": "http://d.duotuwang.com/2020/12/10/25720/0.jpg",
        "mtId": "0863e388f319a3e1",
        "mtName": "PureMedia",
        "href": "http://d.duotuwang.com/2020/12/10/25720/",
        "count": 75,
        "start": 1,
        "hasMtTag": 1,
        "hasJgTag": 0,
        "mtCount": 6
    },
    {
        "name": "[IMISS]\u7231\u871c\u793e VOL.522 Sia",
        "src": "http://d.duotuwang.com/2020/11/10/23071/0.jpg",
        "mtId": "55853db3e0e07a9f",
        "mtName": "Sia",
        "jgId": "imiss",
        "jgName": "\u7231\u871c\u793e",
        "href": "http://d.duotuwang.com/2020/11/10/23071/",
        "count": 77,
        "start": 1,
        "hasMtTag": 1,
        "hasJgTag": 1,
        "mtCount": 2,
        "jgCount": 116
    },
    {
        "name": "[Pure Media] Vol.06 Sia",
        "src": "http://d.duotuwang.com/2020/01/26/29881/0.jpg",
        "mtId": "0863e388f319a3e1",
        "mtName": "PureMedia",
        "href": "http://d.duotuwang.com/2020/01/26/29881/",
        "count": 65,
        "start": 1,
        "hasMtTag": 1,
        "hasJgTag": 0,
        "mtCount": 6
    }
]