[
    {
        "name": "[toutiaogirls]\u5934\u6761\u5973\u795e 2018-04-17 \u8fea\u7231\u513f",
        "src": "http://d.duotuwang.com/2018/04/17/8664/0.jpg",
        "mtId": "38c8df3c0d4738fa",
        "mtName": "\u8fea\u7231\u513f",
        "jgId": "toutiaogirls",
        "jgName": "\u5934\u6761\u5973\u795e",
        "href": "http://d.duotuwang.com/2018/04/17/8664/",
        "count": 45,
        "start": 1,
        "hasMtTag": 1,
        "hasJgTag": 1,
        "mtCount": 2,
        "jgCount": 133
    }
]