[
    {
        "name": "[DKGirl]DK\u5fa1\u5973\u90ce VOL.023 Meow\u55b5\u55b5\u54d2",
        "src": "http://d.duotuwang.com/2017/05/10/3837/0.jpg",
        "mtId": "e3a7dafaaec6a73b",
        "mtName": "Meow\u55b5\u55b5\u54d2",
        "jgId": "dkgirl",
        "jgName": "DK\u5fa1\u5973\u90ce",
        "href": "http://d.duotuwang.com/2017/05/10/3837/",
        "count": 53,
        "start": 1,
        "hasMtTag": 1,
        "hasJgTag": 1,
        "mtCount": 1,
        "jgCount": 20
    },
    {
        "name": "[DKGirl]DK\u5fa1\u5973\u90ce VOL.008 Meow\u55b5\u55b5\u54d2",
        "src": "http://d.duotuwang.com/2017/01/16/2050/0.jpg",
        "mtId": "e3a7dafaaec6a73b",
        "mtName": "Meow\u55b5\u55b5\u54d2",
        "jgId": "dkgirl",
        "jgName": "DK\u5fa1\u5973\u90ce",
        "href": "http://d.duotuwang.com/2017/01/16/2050/",
        "count": 50,
        "start": 1,
        "hasMtTag": 1,
        "hasJgTag": 1,
        "mtCount": 1,
        "jgCount": 20
    },
    {
        "name": "[TGod]\u63a8\u5973\u795e 2016-03-02 Meow\u55b5\u55b5\u54d2",
        "src": "http://d.duotuwang.com/2016/03/02/2491/0.jpg",
        "mtId": "e3a7dafaaec6a73b",
        "mtName": "Meow\u55b5\u55b5\u54d2",
        "jgId": "tgod",
        "jgName": "\u63a8\u5973\u795e",
        "href": "http://d.duotuwang.com/2016/03/02/2491/",
        "count": 42,
        "start": 1,
        "hasMtTag": 1,
        "hasJgTag": 1,
        "mtCount": 1,
        "jgCount": 78
    },
    {
        "name": "[TGod]\u63a8\u5973\u795e 2016-03-01 Meow\u55b5\u55b5\u54d2",
        "src": "http://d.duotuwang.com/2016/03/01/2492/0.jpg",
        "mtId": "e3a7dafaaec6a73b",
        "mtName": "Meow\u55b5\u55b5\u54d2",
        "jgId": "tgod",
        "jgName": "\u63a8\u5973\u795e",
        "href": "http://d.duotuwang.com/2016/03/01/2492/",
        "count": 52,
        "start": 1,
        "hasMtTag": 1,
        "hasJgTag": 1,
        "mtCount": 1,
        "jgCount": 78
    }
]