[
    {
        "name": "[PDLONE]\u6f58\u591a\u62c9 No.486 Eileen\u7231\u7433",
        "src": "http://d.duotuwang.com/2019/11/15/18554/0.jpg",
        "mtId": "17df826145cb6dad",
        "mtName": "Eileen\u7231\u7433",
        "jgId": "pdlone",
        "jgName": "\u6f58\u591a\u62c9",
        "href": "http://d.duotuwang.com/2019/11/15/18554/",
        "count": 48,
        "start": 1,
        "hasMtTag": 1,
        "hasJgTag": 1,
        "mtCount": 2,
        "jgCount": 30
    },
    {
        "name": "[PDLONE]\u6f58\u591a\u62c9 No.485 \u52a0\u5948",
        "src": "http://d.duotuwang.com/2019/11/13/18555/0.jpg",
        "mtId": "8bff8db367358f27",
        "mtName": "\u52a0\u5948",
        "jgId": "pdlone",
        "jgName": "\u6f58\u591a\u62c9",
        "href": "http://d.duotuwang.com/2019/11/13/18555/",
        "count": 42,
        "start": 1,
        "hasMtTag": 1,
        "hasJgTag": 1,
        "mtCount": 1,
        "jgCount": 30
    },
    {
        "name": "[PDLONE]\u6f58\u591a\u62c9 No.482 \u70ed\u838e\u838e",
        "src": "http://d.duotuwang.com/2019/11/06/18475/0.jpg",
        "mtId": "cfef32b1d2a501e7",
        "mtName": "\u70ed\u838e\u838e",
        "jgId": "pdlone",
        "jgName": "\u6f58\u591a\u62c9",
        "href": "http://d.duotuwang.com/2019/11/06/18475/",
        "count": 42,
        "start": 1,
        "hasMtTag": 1,
        "hasJgTag": 1,
        "mtCount": 2,
        "jgCount": 30
    },
    {
        "name": "[PDLONE]\u6f58\u591a\u62c9 No.479 \u6f58\u7433\u7433ber",
        "src": "http://d.duotuwang.com/2019/10/30/18390/0.jpg",
        "mtId": "0d8542e331684421",
        "mtName": "\u6f58\u7433\u7433ber",
        "jgId": "pdlone",
        "jgName": "\u6f58\u591a\u62c9",
        "href": "http://d.duotuwang.com/2019/10/30/18390/",
        "count": 40,
        "start": 1,
        "hasMtTag": 1,
        "hasJgTag": 1,
        "mtCount": 4,
        "jgCount": 30
    },
    {
        "name": "[PDLONE]\u6f58\u591a\u62c9 No.478 \u4e0a\u5b98\u83b9\u83b9",
        "src": "http://d.duotuwang.com/2019/10/28/18391/0.jpg",
        "mtId": "d4a3df54ffacc5ba",
        "mtName": "\u4e0a\u5b98\u83b9\u83b9",
        "jgId": "pdlone",
        "jgName": "\u6f58\u591a\u62c9",
        "href": "http://d.duotuwang.com/2019/10/28/18391/",
        "count": 49,
        "start": 1,
        "hasMtTag": 1,
        "hasJgTag": 1,
        "mtCount": 2,
        "jgCount": 30
    },
    {
        "name": "[PDLONE]\u6f58\u591a\u62c9 No.477",
        "src": "http://d.duotuwang.com/2019/10/25/18332/0.jpg",
        "jgId": "pdlone",
        "jgName": "\u6f58\u591a\u62c9",
        "href": "http://d.duotuwang.com/2019/10/25/18332/",
        "count": 32,
        "start": 1,
        "hasMtTag": 0,
        "hasJgTag": 1,
        "jgCount": 30
    }
]