[
    {
        "name": "[PDLONE]\u6f58\u591a\u62c9 No.272 \u571f\u80a5\u5706\u77ee\u632b\u7a77",
        "src": "http://d.duotuwang.com/2020/01/30/19490/0.jpg",
        "mtId": "2fd18d00d5f9689f",
        "mtName": "\u571f\u80a5\u5706\u77ee\u632b\u7a77",
        "jgId": "pdlone",
        "jgName": "\u6f58\u591a\u62c9",
        "href": "http://d.duotuwang.com/2020/01/30/19490/",
        "count": 45,
        "start": 1,
        "hasMtTag": 1,
        "hasJgTag": 1,
        "mtCount": 23,
        "jgCount": 30
    },
    {
        "name": "[PDLONE]\u6f58\u591a\u62c9 No.271",
        "src": "http://d.duotuwang.com/2020/01/26/19484/0.jpg",
        "jgId": "pdlone",
        "jgName": "\u6f58\u591a\u62c9",
        "href": "http://d.duotuwang.com/2020/01/26/19484/",
        "count": 43,
        "start": 1,
        "hasMtTag": 0,
        "hasJgTag": 1,
        "jgCount": 30
    },
    {
        "name": "[PDLONE]\u6f58\u591a\u62c9 No.270",
        "src": "http://d.duotuwang.com/2020/01/23/19363/0.jpg",
        "jgId": "pdlone",
        "jgName": "\u6f58\u591a\u62c9",
        "href": "http://d.duotuwang.com/2020/01/23/19363/",
        "count": 62,
        "start": 1,
        "hasMtTag": 0,
        "hasJgTag": 1,
        "jgCount": 30
    },
    {
        "name": "[PDLONE]\u6f58\u591a\u62c9 No.269 \u5b89\u59ae",
        "src": "http://d.duotuwang.com/2020/01/21/19364/0.jpg",
        "mtId": "3a5a8a2c51da56cd",
        "mtName": "\u5b89\u59ae",
        "jgId": "pdlone",
        "jgName": "\u6f58\u591a\u62c9",
        "href": "http://d.duotuwang.com/2020/01/21/19364/",
        "count": 74,
        "start": 1,
        "hasMtTag": 1,
        "hasJgTag": 1,
        "mtCount": 2,
        "jgCount": 30
    },
    {
        "name": "[PDLONE]\u6f58\u591a\u62c9 No.268 \u4e3d\u96c5",
        "src": "http://d.duotuwang.com/2020/01/17/19365/0.jpg",
        "mtId": "74b0257b05e43f68",
        "mtName": "\u4e3d\u96c5",
        "jgId": "pdlone",
        "jgName": "\u6f58\u591a\u62c9",
        "href": "http://d.duotuwang.com/2020/01/17/19365/",
        "count": 66,
        "start": 1,
        "hasMtTag": 1,
        "hasJgTag": 1,
        "mtCount": 4,
        "jgCount": 30
    },
    {
        "name": "[PDLONE]\u6f58\u591a\u62c9 No.267 \u571f\u80a5\u5706\u77ee\u632b\u7a77",
        "src": "http://d.duotuwang.com/2020/01/15/19270/0.jpg",
        "mtId": "2fd18d00d5f9689f",
        "mtName": "\u571f\u80a5\u5706\u77ee\u632b\u7a77",
        "jgId": "pdlone",
        "jgName": "\u6f58\u591a\u62c9",
        "href": "http://d.duotuwang.com/2020/01/15/19270/",
        "count": 50,
        "start": 1,
        "hasMtTag": 1,
        "hasJgTag": 1,
        "mtCount": 23,
        "jgCount": 30
    }
]