[
    {
        "name": "[PDLONE]\u6f58\u591a\u62c9 No.253 \u7d20\u7d20",
        "src": "http://d.duotuwang.com/2019/12/13/18930/0.jpg",
        "mtId": "2a3fd0f547e66fe2",
        "mtName": "\u7d20\u7d20",
        "jgId": "pdlone",
        "jgName": "\u6f58\u591a\u62c9",
        "href": "http://d.duotuwang.com/2019/12/13/18930/",
        "count": 54,
        "start": 1,
        "hasMtTag": 1,
        "hasJgTag": 1,
        "mtCount": 2,
        "jgCount": 30
    },
    {
        "name": "[PDLONE]\u6f58\u591a\u62c9 No.252 \u4e3d\u96c5",
        "src": "http://d.duotuwang.com/2019/12/11/18865/0.jpg",
        "mtId": "74b0257b05e43f68",
        "mtName": "\u4e3d\u96c5",
        "jgId": "pdlone",
        "jgName": "\u6f58\u591a\u62c9",
        "href": "http://d.duotuwang.com/2019/12/11/18865/",
        "count": 52,
        "start": 1,
        "hasMtTag": 1,
        "hasJgTag": 1,
        "mtCount": 4,
        "jgCount": 30
    },
    {
        "name": "[PDLONE]\u6f58\u591a\u62c9 No.251",
        "src": "http://d.duotuwang.com/2019/12/09/18866/0.jpg",
        "jgId": "pdlone",
        "jgName": "\u6f58\u591a\u62c9",
        "href": "http://d.duotuwang.com/2019/12/09/18866/",
        "count": 46,
        "start": 1,
        "hasMtTag": 0,
        "hasJgTag": 1,
        "jgCount": 30
    },
    {
        "name": "[PDLONE]\u6f58\u591a\u62c9 No.250",
        "src": "http://d.duotuwang.com/2019/12/08/18867/0.jpg",
        "jgId": "pdlone",
        "jgName": "\u6f58\u591a\u62c9",
        "href": "http://d.duotuwang.com/2019/12/08/18867/",
        "count": 43,
        "start": 1,
        "hasMtTag": 0,
        "hasJgTag": 1,
        "jgCount": 30
    },
    {
        "name": "[PDLONE]\u6f58\u591a\u62c9 No.249 \u6c34\u82b1\u513f",
        "src": "http://d.duotuwang.com/2019/12/08/18868/0.jpg",
        "mtId": "d9856ac4d9a1d68b",
        "mtName": "\u6c34\u82b1\u513f",
        "jgId": "pdlone",
        "jgName": "\u6f58\u591a\u62c9",
        "href": "http://d.duotuwang.com/2019/12/08/18868/",
        "count": 40,
        "start": 1,
        "hasMtTag": 1,
        "hasJgTag": 1,
        "mtCount": 2,
        "jgCount": 30
    },
    {
        "name": "[PDLONE]\u6f58\u591a\u62c9 No.248 Tobey\u8f69\u8f69\u9171",
        "src": "http://d.duotuwang.com/2019/12/08/18869/0.jpg",
        "mtId": "fb342e93a3d4ed11",
        "mtName": "Tobey\u8f69\u8f69\u9171",
        "jgId": "pdlone",
        "jgName": "\u6f58\u591a\u62c9",
        "href": "http://d.duotuwang.com/2019/12/08/18869/",
        "count": 41,
        "start": 1,
        "hasMtTag": 1,
        "hasJgTag": 1,
        "mtCount": 1,
        "jgCount": 30
    }
]