[
    {
        "name": "[MyGirl]\u7f8e\u5a9b\u9986 VOL.555 \u738b\u99a8\u7476yanni",
        "src": "http://d.duotuwang.com/2021/07/14/25809/0.jpg",
        "mtId": "ee305435592cf245",
        "mtName": "\u738b\u99a8\u7476yanni",
        "jgId": "mygirl",
        "jgName": "\u7f8e\u5a9b\u9986",
        "href": "http://d.duotuwang.com/2021/07/14/25809/",
        "count": 73,
        "start": 1,
        "hasMtTag": 1,
        "hasJgTag": 1,
        "mtCount": 29,
        "jgCount": 110
    },
    {
        "name": "[MyGirl]\u7f8e\u5a9b\u9986 VOL.551 \u738b\u99a8\u7476yanni",
        "src": "http://d.duotuwang.com/2021/07/08/25651/0.jpg",
        "mtId": "ee305435592cf245",
        "mtName": "\u738b\u99a8\u7476yanni",
        "jgId": "mygirl",
        "jgName": "\u7f8e\u5a9b\u9986",
        "href": "http://d.duotuwang.com/2021/07/08/25651/",
        "count": 76,
        "start": 1,
        "hasMtTag": 1,
        "hasJgTag": 1,
        "mtCount": 29,
        "jgCount": 110
    },
    {
        "name": "[MyGirl]\u7f8e\u5a9b\u9986 VOL.548 \u738b\u99a8\u7476yanni",
        "src": "http://d.duotuwang.com/2021/06/28/25648/0.jpg",
        "mtId": "ee305435592cf245",
        "mtName": "\u738b\u99a8\u7476yanni",
        "jgId": "mygirl",
        "jgName": "\u7f8e\u5a9b\u9986",
        "href": "http://d.duotuwang.com/2021/06/28/25648/",
        "count": 80,
        "start": 1,
        "hasMtTag": 1,
        "hasJgTag": 1,
        "mtCount": 29,
        "jgCount": 110
    },
    {
        "name": "[MyGirl]\u7f8e\u5a9b\u9986 VOL.546 \u738b\u99a8\u7476yanni",
        "src": "http://d.duotuwang.com/2021/06/24/25646/0.jpg",
        "mtId": "ee305435592cf245",
        "mtName": "\u738b\u99a8\u7476yanni",
        "jgId": "mygirl",
        "jgName": "\u7f8e\u5a9b\u9986",
        "href": "http://d.duotuwang.com/2021/06/24/25646/",
        "count": 68,
        "start": 1,
        "hasMtTag": 1,
        "hasJgTag": 1,
        "mtCount": 29,
        "jgCount": 110
    },
    {
        "name": "[MyGirl]\u7f8e\u5a9b\u9986 VOL.541 \u738b\u99a8\u7476yanni",
        "src": "http://d.duotuwang.com/2021/06/17/25405/0.jpg",
        "mtId": "ee305435592cf245",
        "mtName": "\u738b\u99a8\u7476yanni",
        "jgId": "mygirl",
        "jgName": "\u7f8e\u5a9b\u9986",
        "href": "http://d.duotuwang.com/2021/06/17/25405/",
        "count": 57,
        "start": 1,
        "hasMtTag": 1,
        "hasJgTag": 1,
        "mtCount": 29,
        "jgCount": 110
    },
    {
        "name": "[MyGirl]\u7f8e\u5a9b\u9986 VOL.538 \u738b\u99a8\u7476yanni",
        "src": "http://d.duotuwang.com/2021/06/12/25402/0.jpg",
        "mtId": "ee305435592cf245",
        "mtName": "\u738b\u99a8\u7476yanni",
        "jgId": "mygirl",
        "jgName": "\u7f8e\u5a9b\u9986",
        "href": "http://d.duotuwang.com/2021/06/12/25402/",
        "count": 98,
        "start": 1,
        "hasMtTag": 1,
        "hasJgTag": 1,
        "mtCount": 29,
        "jgCount": 110
    }
]