[
    {
        "name": "[YALAYI]\u96c5\u62c9\u4f0a Y953 \u4eac\u4eac \u5524",
        "src": "http://d.duotuwang.com/2022/07/16/30700/0.jpg",
        "mtId": "56d5dedf12a0a7c6",
        "mtName": "\u4eac\u4eac",
        "jgId": "yalayi",
        "jgName": "\u96c5\u62c9\u4f0a",
        "href": "http://d.duotuwang.com/2022/07/16/30700/",
        "count": 40,
        "start": 1,
        "hasMtTag": 1,
        "hasJgTag": 1,
        "mtCount": 4,
        "jgCount": 156
    },
    {
        "name": "[YALAYI]\u96c5\u62c9\u4f0a Y934 \u4eac\u4eac \u4e0d\u662f\u98ce\u666f",
        "src": "http://d.duotuwang.com/2022/05/20/30006/0.jpg",
        "mtId": "56d5dedf12a0a7c6",
        "mtName": "\u4eac\u4eac",
        "jgId": "yalayi",
        "jgName": "\u96c5\u62c9\u4f0a",
        "href": "http://d.duotuwang.com/2022/05/20/30006/",
        "count": 33,
        "start": 1,
        "hasMtTag": 1,
        "hasJgTag": 1,
        "mtCount": 4,
        "jgCount": 156
    },
    {
        "name": "[YALAYI]\u96c5\u62c9\u4f0a Y931 \u4eac\u4eac \u5149\u5f71\u96f6\u4e71",
        "src": "http://d.duotuwang.com/2022/05/11/29796/0.jpg",
        "mtId": "56d5dedf12a0a7c6",
        "mtName": "\u4eac\u4eac",
        "jgId": "yalayi",
        "jgName": "\u96c5\u62c9\u4f0a",
        "href": "http://d.duotuwang.com/2022/05/11/29796/",
        "count": 35,
        "start": 1,
        "hasMtTag": 1,
        "hasJgTag": 1,
        "mtCount": 4,
        "jgCount": 156
    },
    {
        "name": "[YALAYI]\u96c5\u62c9\u4f0a Y924 \u4eac\u4eac \u6625\u67d4",
        "src": "http://d.duotuwang.com/2022/04/23/29626/0.jpg",
        "mtId": "56d5dedf12a0a7c6",
        "mtName": "\u4eac\u4eac",
        "jgId": "yalayi",
        "jgName": "\u96c5\u62c9\u4f0a",
        "href": "http://d.duotuwang.com/2022/04/23/29626/",
        "count": 40,
        "start": 1,
        "hasMtTag": 1,
        "hasJgTag": 1,
        "mtCount": 4,
        "jgCount": 156
    },
    {
        "name": "[YALAYI]\u96c5\u62c9\u4f0a Y911 \u4eac\u4eac \u7edd\u4ee3\u82b3\u534e",
        "src": "http://d.duotuwang.com/2022/03/18/29052/0.jpg",
        "mtId": "56d5dedf12a0a7c6",
        "mtName": "\u4eac\u4eac",
        "jgId": "yalayi",
        "jgName": "\u96c5\u62c9\u4f0a",
        "href": "http://d.duotuwang.com/2022/03/18/29052/",
        "count": 38,
        "start": 1,
        "hasMtTag": 1,
        "hasJgTag": 1,
        "mtCount": 4,
        "jgCount": 156
    },
    {
        "name": "[YALAYI]\u96c5\u62c9\u4f0a Y887 \u4eac\u4eac \u6df1\u591c\u7684\u706f\u5149",
        "src": "http://d.duotuwang.com/2022/01/19/28353/0.jpg",
        "mtId": "56d5dedf12a0a7c6",
        "mtName": "\u4eac\u4eac",
        "jgId": "yalayi",
        "jgName": "\u96c5\u62c9\u4f0a",
        "href": "http://d.duotuwang.com/2022/01/19/28353/",
        "count": 37,
        "start": 1,
        "hasMtTag": 1,
        "hasJgTag": 1,
        "mtCount": 4,
        "jgCount": 156
    }
]