[
    {
        "name": "[XIAOYU]\u8bed\u753b\u754c VOL.032 \u51af\u6728\u6728LRIS",
        "src": "http://d.duotuwang.com/2019/03/05/14523/0.jpg",
        "mtId": "8f32655f10938cea",
        "mtName": "\u51af\u6728\u6728LRIS",
        "jgId": "xiaoyu",
        "jgName": "\u8bed\u753b\u754c",
        "href": "http://d.duotuwang.com/2019/03/05/14523/",
        "count": 61,
        "start": 1,
        "hasMtTag": 1,
        "hasJgTag": 1,
        "mtCount": 14,
        "jgCount": 155
    },
    {
        "name": "[FEILIN]\u55f2\u56e1\u56e1 2019.02.28 VOL.181 \u51af\u6728\u6728LRIS",
        "src": "http://d.duotuwang.com/2019/02/28/10777/0.jpg",
        "mtId": "8f32655f10938cea",
        "mtName": "\u51af\u6728\u6728LRIS",
        "jgId": "feilin",
        "jgName": "\u55f2\u56e1\u56e1",
        "href": "http://d.duotuwang.com/2019/02/28/10777/",
        "count": 40,
        "start": 1,
        "hasMtTag": 1,
        "hasJgTag": 1,
        "mtCount": 14,
        "jgCount": 61
    },
    {
        "name": "[XIAOYU]\u8bed\u753b\u754c VOL.021 \u51af\u6728\u6728LRIS",
        "src": "http://d.duotuwang.com/2019/02/18/10704/0.jpg",
        "mtId": "8f32655f10938cea",
        "mtName": "\u51af\u6728\u6728LRIS",
        "jgId": "xiaoyu",
        "jgName": "\u8bed\u753b\u754c",
        "href": "http://d.duotuwang.com/2019/02/18/10704/",
        "count": 56,
        "start": 1,
        "hasMtTag": 1,
        "hasJgTag": 1,
        "mtCount": 14,
        "jgCount": 155
    },
    {
        "name": "[XIAOYU]\u8bed\u753b\u754c VOL.009 \u51af\u6728\u6728LRIS",
        "src": "http://d.duotuwang.com/2019/01/15/10388/0.jpg",
        "mtId": "8f32655f10938cea",
        "mtName": "\u51af\u6728\u6728LRIS",
        "jgId": "xiaoyu",
        "jgName": "\u8bed\u753b\u754c",
        "href": "http://d.duotuwang.com/2019/01/15/10388/",
        "count": 65,
        "start": 1,
        "hasMtTag": 1,
        "hasJgTag": 1,
        "mtCount": 14,
        "jgCount": 155
    },
    {
        "name": "[XIAOYU]\u8bed\u753b\u754c VOL.006 \u51af\u6728\u6728LRIS",
        "src": "http://d.duotuwang.com/2019/01/10/10328/0.jpg",
        "mtId": "8f32655f10938cea",
        "mtName": "\u51af\u6728\u6728LRIS",
        "jgId": "xiaoyu",
        "jgName": "\u8bed\u753b\u754c",
        "href": "http://d.duotuwang.com/2019/01/10/10328/",
        "count": 81,
        "start": 1,
        "hasMtTag": 1,
        "hasJgTag": 1,
        "mtCount": 14,
        "jgCount": 155
    },
    {
        "name": "[YOUMI]\u5c24\u871c\u835f VOL.254 \u51af\u6728\u6728LRIS",
        "src": "http://d.duotuwang.com/2018/12/26/10245/0.jpg",
        "mtId": "8f32655f10938cea",
        "mtName": "\u51af\u6728\u6728LRIS",
        "jgId": "youmi",
        "jgName": "\u5c24\u871c\u835f",
        "href": "http://d.duotuwang.com/2018/12/26/10245/",
        "count": 46,
        "start": 1,
        "hasMtTag": 1,
        "hasJgTag": 1,
        "mtCount": 14,
        "jgCount": 143
    }
]