[
    {
        "name": "[MTMENG]\u6a21\u7279\u8054\u76df VOL.003 \u674e\u6893\u7199",
        "src": "http://d.duotuwang.com/2017/10/17/6207/0.jpg",
        "mtId": "c20a8d8edc6f01e7",
        "mtName": "\u674e\u6893\u7199",
        "jgId": "mtmeng",
        "jgName": "\u6a21\u7279\u8054\u76df",
        "href": "http://d.duotuwang.com/2017/10/17/6207/",
        "count": 55,
        "start": 1,
        "hasMtTag": 1,
        "hasJgTag": 1,
        "mtCount": 7,
        "jgCount": 1
    },
    {
        "name": "[MTMENG]\u6a21\u7279\u8054\u76df VOL.002 \u674e\u6893\u7199",
        "src": "http://d.duotuwang.com/2017/05/08/3988/0.jpg",
        "mtId": "c20a8d8edc6f01e7",
        "mtName": "\u674e\u6893\u7199",
        "jgId": "mtmeng",
        "jgName": "\u6a21\u7279\u8054\u76df",
        "href": "http://d.duotuwang.com/2017/05/08/3988/",
        "count": 41,
        "start": 1,
        "hasMtTag": 1,
        "hasJgTag": 1,
        "mtCount": 7,
        "jgCount": 1
    },
    {
        "name": "[MTMENG]\u6a21\u7279\u8054\u76df VOL.001 \u674e\u674e\u4e03\u4e03\u559c\u559c",
        "src": "http://d.duotuwang.com/2017/04/26/3987/0.jpg",
        "mtId": "8e2e1a6ffb4ae179",
        "mtName": "\u674e\u674e\u4e03\u4e03\u559c\u559c",
        "jgId": "mtmeng",
        "jgName": "\u6a21\u7279\u8054\u76df",
        "href": "http://d.duotuwang.com/2017/04/26/3987/",
        "count": 50,
        "start": 1,
        "hasMtTag": 1,
        "hasJgTag": 1,
        "mtCount": 3,
        "jgCount": 1
    }
]