[
    {
        "name": "[QingDouKe]\u9752\u8c46\u5ba2 2017-06-04 \u5927\u5b89\u59ae",
        "src": "http://d.duotuwang.com/2017/06/04/4031/0.jpg",
        "mtId": "4fdc4bf65a8b42b2",
        "mtName": "\u5927\u5b89\u59ae",
        "jgId": "qingdouke",
        "jgName": "\u9752\u8c46\u5ba2",
        "href": "http://d.duotuwang.com/2017/06/04/4031/",
        "count": 53,
        "start": 1,
        "hasMtTag": 1,
        "hasJgTag": 1,
        "mtCount": 1,
        "jgCount": 23
    },
    {
        "name": "[QingDouKe]\u9752\u8c46\u5ba2 2017-06-02 \u54d3\u54d3",
        "src": "http://d.duotuwang.com/2017/06/02/4032/0.jpg",
        "jgId": "qingdouke",
        "jgName": "\u9752\u8c46\u5ba2",
        "href": "http://d.duotuwang.com/2017/06/02/4032/",
        "count": 50,
        "start": 1,
        "hasMtTag": 0,
        "hasJgTag": 1,
        "jgCount": 23
    },
    {
        "name": "[QingDouKe]\u9752\u8c46\u5ba2 2017-05-31 \u7cd6\u679c",
        "src": "http://d.duotuwang.com/2017/05/31/4033/0.jpg",
        "mtId": "c6d31281fe79410b",
        "mtName": "\u6768\u679c\u679c",
        "jgId": "qingdouke",
        "jgName": "\u9752\u8c46\u5ba2",
        "href": "http://d.duotuwang.com/2017/05/31/4033/",
        "count": 52,
        "start": 1,
        "hasMtTag": 1,
        "hasJgTag": 1,
        "mtCount": 1,
        "jgCount": 23
    },
    {
        "name": "[QingDouKe]\u9752\u8c46\u5ba2 2017-05-29 kiko",
        "src": "http://d.duotuwang.com/2017/05/29/4034/0.jpg",
        "jgId": "qingdouke",
        "jgName": "\u9752\u8c46\u5ba2",
        "href": "http://d.duotuwang.com/2017/05/29/4034/",
        "count": 51,
        "start": 1,
        "hasMtTag": 0,
        "hasJgTag": 1,
        "jgCount": 23
    },
    {
        "name": "[QingDouKe]\u9752\u8c46\u5ba2 2017-05-27 \u54c8\u62ff",
        "src": "http://d.duotuwang.com/2017/05/27/4035/0.jpg",
        "mtId": "5a5ff61d85269ff5",
        "mtName": "\u54c8\u62ff",
        "jgId": "qingdouke",
        "jgName": "\u9752\u8c46\u5ba2",
        "href": "http://d.duotuwang.com/2017/05/27/4035/",
        "count": 53,
        "start": 1,
        "hasMtTag": 1,
        "hasJgTag": 1,
        "mtCount": 1,
        "jgCount": 23
    },
    {
        "name": "[QingDouKe]\u9752\u8c46\u5ba2 2017-05-25 \u5b89\u6c9b\u857e",
        "src": "http://d.duotuwang.com/2017/05/25/4036/0.jpg",
        "mtId": "7ef68c1e9c42f21c",
        "mtName": "\u5b89\u6c9b\u857e",
        "jgId": "qingdouke",
        "jgName": "\u9752\u8c46\u5ba2",
        "href": "http://d.duotuwang.com/2017/05/25/4036/",
        "count": 51,
        "start": 1,
        "hasMtTag": 1,
        "hasJgTag": 1,
        "mtCount": 2,
        "jgCount": 23
    }
]