[
    {
        "name": "[QingDouKe]\u9752\u8c46\u5ba2 2017-10-06 \u60a6\u7237",
        "src": "http://d.duotuwang.com/2017/10/06/6482/0.jpg",
        "mtId": "abf6f6f29228564a",
        "mtName": "\u5996\u7cbe\u60a6\u7237",
        "jgId": "qingdouke",
        "jgName": "\u9752\u8c46\u5ba2",
        "href": "http://d.duotuwang.com/2017/10/06/6482/",
        "count": 53,
        "start": 1,
        "hasMtTag": 1,
        "hasJgTag": 1,
        "mtCount": 2,
        "jgCount": 23
    },
    {
        "name": "[QingDouKe]\u9752\u8c46\u5ba2 2017-10-04 \u502a\u8bd7\u8335",
        "src": "http://d.duotuwang.com/2017/10/04/6472/0.jpg",
        "jgId": "qingdouke",
        "jgName": "\u9752\u8c46\u5ba2",
        "href": "http://d.duotuwang.com/2017/10/04/6472/",
        "count": 50,
        "start": 1,
        "hasMtTag": 0,
        "hasJgTag": 1,
        "jgCount": 23
    },
    {
        "name": "[QingDouKe]\u9752\u8c46\u5ba2 2017-10-02 \u7a46\u83f2\u83f2",
        "src": "http://d.duotuwang.com/2017/10/02/6067/0.jpg",
        "mtId": "b7e7cc5e417f9b4b",
        "mtName": "\u7a46\u83f2\u83f2",
        "jgId": "qingdouke",
        "jgName": "\u9752\u8c46\u5ba2",
        "href": "http://d.duotuwang.com/2017/10/02/6067/",
        "count": 49,
        "start": 1,
        "hasMtTag": 1,
        "hasJgTag": 1,
        "mtCount": 6,
        "jgCount": 23
    },
    {
        "name": "[QingDouKe]\u9752\u8c46\u5ba2 2017-09-30 \u6797\u7d2b\u6db5",
        "src": "http://d.duotuwang.com/2017/09/30/6068/0.jpg",
        "jgId": "qingdouke",
        "jgName": "\u9752\u8c46\u5ba2",
        "href": "http://d.duotuwang.com/2017/09/30/6068/",
        "count": 53,
        "start": 1,
        "hasMtTag": 0,
        "hasJgTag": 1,
        "jgCount": 23
    },
    {
        "name": "[QingDouKe]\u9752\u8c46\u5ba2 2017-09-26 \u767d\u55b5\u513f",
        "src": "http://d.duotuwang.com/2017/09/26/6069/0.jpg",
        "mtId": "0924dd52570e65f9",
        "mtName": "\u767d\u55b5\u513f",
        "jgId": "qingdouke",
        "jgName": "\u9752\u8c46\u5ba2",
        "href": "http://d.duotuwang.com/2017/09/26/6069/",
        "count": 53,
        "start": 1,
        "hasMtTag": 1,
        "hasJgTag": 1,
        "mtCount": 1,
        "jgCount": 23
    },
    {
        "name": "[QingDouKe]\u9752\u8c46\u5ba2 2017-09-24 \u5c0f\u9752",
        "src": "http://d.duotuwang.com/2017/09/24/6070/0.jpg",
        "jgId": "qingdouke",
        "jgName": "\u9752\u8c46\u5ba2",
        "href": "http://d.duotuwang.com/2017/09/24/6070/",
        "count": 53,
        "start": 1,
        "hasMtTag": 0,
        "hasJgTag": 1,
        "jgCount": 23
    }
]