[
    {
        "name": "[YALAYI]\u96c5\u62c9\u4f0a Y465 \u5c0f\u4e54 \u5927\u4e54 \u6a31\u6843\u59d0\u59b9\u82b1",
        "src": "http://d.duotuwang.com/2019/11/19/18614/0.jpg",
        "mtId": "d3fbbf5d38368b84",
        "mtName": "\u5c0f\u4e54",
        "jgId": "yalayi",
        "jgName": "\u96c5\u62c9\u4f0a",
        "href": "http://d.duotuwang.com/2019/11/19/18614/",
        "count": 42,
        "start": 1,
        "hasMtTag": 1,
        "hasJgTag": 1,
        "mtCount": 6,
        "jgCount": 156
    },
    {
        "name": "[YALAYI]\u96c5\u62c9\u4f0a Y439 \u5c0f\u4e54 \u95fa\u871c",
        "src": "http://d.duotuwang.com/2019/10/25/18613/0.jpg",
        "mtId": "d3fbbf5d38368b84",
        "mtName": "\u5c0f\u4e54",
        "jgId": "yalayi",
        "jgName": "\u96c5\u62c9\u4f0a",
        "href": "http://d.duotuwang.com/2019/10/25/18613/",
        "count": 43,
        "start": 1,
        "hasMtTag": 1,
        "hasJgTag": 1,
        "mtCount": 6,
        "jgCount": 156
    },
    {
        "name": "[YALAYI]\u96c5\u62c9\u4f0a Y440 \u5c0f\u4e54 \u95fa\u871c",
        "src": "http://d.duotuwang.com/2019/10/25/18335/0.jpg",
        "mtId": "d3fbbf5d38368b84",
        "mtName": "\u5c0f\u4e54",
        "jgId": "yalayi",
        "jgName": "\u96c5\u62c9\u4f0a",
        "href": "http://d.duotuwang.com/2019/10/25/18335/",
        "count": 37,
        "start": 1,
        "hasMtTag": 1,
        "hasJgTag": 1,
        "mtCount": 6,
        "jgCount": 156
    },
    {
        "name": "[toutiaogirls]\u5934\u6761\u5973\u795e 2019-09-24 \u5c0f\u4e54 \u5c81\u6708\u5982\u6b4c",
        "src": "http://d.duotuwang.com/2019/09/24/18089/0.jpg",
        "mtId": "d3fbbf5d38368b84",
        "mtName": "\u5c0f\u4e54",
        "jgId": "toutiaogirls",
        "jgName": "\u5934\u6761\u5973\u795e",
        "href": "http://d.duotuwang.com/2019/09/24/18089/",
        "count": 9,
        "start": 1,
        "hasMtTag": 1,
        "hasJgTag": 1,
        "mtCount": 6,
        "jgCount": 133
    },
    {
        "name": "[toutiaogirls]\u5934\u6761\u5973\u795e 2019-09-14 \u5c0f\u4e54 \u660e\u6708\u5343\u91cc\u5bc4\u76f8\u601d",
        "src": "http://d.duotuwang.com/2019/09/14/17991/0.jpg",
        "mtId": "d3fbbf5d38368b84",
        "mtName": "\u5c0f\u4e54",
        "jgId": "toutiaogirls",
        "jgName": "\u5934\u6761\u5973\u795e",
        "href": "http://d.duotuwang.com/2019/09/14/17991/",
        "count": 9,
        "start": 1,
        "hasMtTag": 1,
        "hasJgTag": 1,
        "mtCount": 6,
        "jgCount": 133
    },
    {
        "name": "[toutiaogirls]\u5934\u6761\u5973\u795e 2019-09-09 \u5c0f\u4e54 \u5bb6\u6709\u4ed9\u59bb",
        "src": "http://d.duotuwang.com/2019/09/09/17914/0.jpg",
        "mtId": "d3fbbf5d38368b84",
        "mtName": "\u5c0f\u4e54",
        "jgId": "toutiaogirls",
        "jgName": "\u5934\u6761\u5973\u795e",
        "href": "http://d.duotuwang.com/2019/09/09/17914/",
        "count": 25,
        "start": 1,
        "hasMtTag": 1,
        "hasJgTag": 1,
        "mtCount": 6,
        "jgCount": 133
    }
]