[
    {
        "name": "[toutiaogirls]\u5934\u6761\u5973\u795e 2017-09-18 \u7b11\u7b11",
        "src": "http://d.duotuwang.com/2017/09/18/6052/0.jpg",
        "mtId": "b9ba0a11832784e5",
        "mtName": "\u7b11\u7b11",
        "jgId": "toutiaogirls",
        "jgName": "\u5934\u6761\u5973\u795e",
        "href": "http://d.duotuwang.com/2017/09/18/6052/",
        "count": 25,
        "start": 1,
        "hasMtTag": 1,
        "hasJgTag": 1,
        "mtCount": 2,
        "jgCount": 133
    },
    {
        "name": "[toutiaogirls]\u5934\u6761\u5973\u795e 2017-08-24 \u7b11\u7b11",
        "src": "http://d.duotuwang.com/2017/08/24/5599/0.jpg",
        "mtId": "b9ba0a11832784e5",
        "mtName": "\u7b11\u7b11",
        "jgId": "toutiaogirls",
        "jgName": "\u5934\u6761\u5973\u795e",
        "href": "http://d.duotuwang.com/2017/08/24/5599/",
        "count": 37,
        "start": 1,
        "hasMtTag": 1,
        "hasJgTag": 1,
        "mtCount": 2,
        "jgCount": 133
    },
    {
        "name": "[MICAT]\u732b\u840c\u699c VOL.027 \u590f\u7b11\u7b11Summer",
        "src": "http://d.duotuwang.com/2017/08/10/5450/0.jpg",
        "mtId": "d6480340bfb7675c",
        "mtName": "\u590f\u7b11\u7b11Summer",
        "jgId": "micat",
        "jgName": "\u732b\u840c\u699c",
        "href": "http://d.duotuwang.com/2017/08/10/5450/",
        "count": 47,
        "start": 1,
        "hasMtTag": 1,
        "hasJgTag": 1,
        "mtCount": 3,
        "jgCount": 6
    },
    {
        "name": "[XIUREN]\u79c0\u4eba\u7f51 No.788 \u590f\u7b11\u7b11Summer",
        "src": "http://d.duotuwang.com/2017/07/25/5423/0.jpg",
        "mtId": "d6480340bfb7675c",
        "mtName": "\u590f\u7b11\u7b11Summer",
        "jgId": "xiuren",
        "jgName": "\u79c0\u4eba\u7f51",
        "href": "http://d.duotuwang.com/2017/07/25/5423/",
        "count": 41,
        "start": 1,
        "hasMtTag": 1,
        "hasJgTag": 1,
        "mtCount": 3,
        "jgCount": 750
    },
    {
        "name": "[toutiaogirls]\u5934\u6761\u5973\u795e 2017-06-28 \u83f2\u513f&\u7b11\u7b11",
        "src": "http://d.duotuwang.com/2017/06/28/4205/0.jpg",
        "mtId": "d3cfa2a8f3c7f271",
        "mtName": "\u83f2\u513f",
        "jgId": "toutiaogirls",
        "jgName": "\u5934\u6761\u5973\u795e",
        "href": "http://d.duotuwang.com/2017/06/28/4205/",
        "count": 26,
        "start": 1,
        "hasMtTag": 1,
        "hasJgTag": 1,
        "mtCount": 2,
        "jgCount": 133
    },
    {
        "name": "[toutiaogirls]\u5934\u6761\u5973\u795e 2017-06-14 \u7b11\u7b11",
        "src": "http://d.duotuwang.com/2017/06/14/3903/0.jpg",
        "mtId": "b9ba0a11832784e5",
        "mtName": "\u7b11\u7b11",
        "jgId": "toutiaogirls",
        "jgName": "\u5934\u6761\u5973\u795e",
        "href": "http://d.duotuwang.com/2017/06/14/3903/",
        "count": 37,
        "start": 1,
        "hasMtTag": 1,
        "hasJgTag": 1,
        "mtCount": 2,
        "jgCount": 133
    }
]