[
    {
        "name": "[XIUREN]\u79c0\u4eba\u7f51 No.3255 \u5b89\u7136Maleah",
        "src": "http://d.duotuwang.com/2021/03/29/24521/0.jpg",
        "mtId": "d6505baadceb44e6",
        "mtName": "\u5b89\u7136Maleah",
        "jgId": "xiuren",
        "jgName": "\u79c0\u4eba\u7f51",
        "href": "http://d.duotuwang.com/2021/03/29/24521/",
        "count": 64,
        "start": 1,
        "hasMtTag": 1,
        "hasJgTag": 1,
        "mtCount": 16,
        "jgCount": 750
    },
    {
        "name": "[XIUREN]\u79c0\u4eba\u7f51 No.3223 \u5b89\u7136Maleah",
        "src": "http://d.duotuwang.com/2021/03/19/24489/0.jpg",
        "mtId": "d6505baadceb44e6",
        "mtName": "\u5b89\u7136Maleah",
        "jgId": "xiuren",
        "jgName": "\u79c0\u4eba\u7f51",
        "href": "http://d.duotuwang.com/2021/03/19/24489/",
        "count": 71,
        "start": 1,
        "hasMtTag": 1,
        "hasJgTag": 1,
        "mtCount": 16,
        "jgCount": 750
    },
    {
        "name": "[XIUREN]\u79c0\u4eba\u7f51 No.3191 \u5b89\u7136Maleah",
        "src": "http://d.duotuwang.com/2021/03/11/24457/0.jpg",
        "mtId": "d6505baadceb44e6",
        "mtName": "\u5b89\u7136Maleah",
        "jgId": "xiuren",
        "jgName": "\u79c0\u4eba\u7f51",
        "href": "http://d.duotuwang.com/2021/03/11/24457/",
        "count": 79,
        "start": 1,
        "hasMtTag": 1,
        "hasJgTag": 1,
        "mtCount": 16,
        "jgCount": 750
    },
    {
        "name": "[XIUREN]\u79c0\u4eba\u7f51 No.3161 \u5b89\u7136Maleah",
        "src": "http://d.duotuwang.com/2021/03/03/24337/0.jpg",
        "mtId": "d6505baadceb44e6",
        "mtName": "\u5b89\u7136Maleah",
        "jgId": "xiuren",
        "jgName": "\u79c0\u4eba\u7f51",
        "href": "http://d.duotuwang.com/2021/03/03/24337/",
        "count": 58,
        "start": 1,
        "hasMtTag": 1,
        "hasJgTag": 1,
        "mtCount": 16,
        "jgCount": 750
    },
    {
        "name": "[XIUREN]\u79c0\u4eba\u7f51 No.3123 \u5b89\u7136Maleah",
        "src": "http://d.duotuwang.com/2021/02/22/24299/0.jpg",
        "mtId": "d6505baadceb44e6",
        "mtName": "\u5b89\u7136Maleah",
        "jgId": "xiuren",
        "jgName": "\u79c0\u4eba\u7f51",
        "href": "http://d.duotuwang.com/2021/02/22/24299/",
        "count": 75,
        "start": 1,
        "hasMtTag": 1,
        "hasJgTag": 1,
        "mtCount": 16,
        "jgCount": 750
    },
    {
        "name": "[XIUREN]\u79c0\u4eba\u7f51 No.3075 \u5b89\u7136Maleah",
        "src": "http://d.duotuwang.com/2021/02/02/24080/0.jpg",
        "mtId": "d6505baadceb44e6",
        "mtName": "\u5b89\u7136Maleah",
        "jgId": "xiuren",
        "jgName": "\u79c0\u4eba\u7f51",
        "href": "http://d.duotuwang.com/2021/02/02/24080/",
        "count": 80,
        "start": 1,
        "hasMtTag": 1,
        "hasJgTag": 1,
        "mtCount": 16,
        "jgCount": 750
    }
]