[
    {
        "name": "[UGirls]\u5c24\u679c\u7f51 U315 \u9648\u4e03\u4e03",
        "src": "http://d.duotuwang.com/2017/10/27/6300/0.jpg",
        "mtId": "1590956fa24c4f87",
        "mtName": "\u9648\u4e03\u4e03",
        "jgId": "ugirls",
        "jgName": "\u5c24\u679c\u7f51",
        "href": "http://d.duotuwang.com/2017/10/27/6300/",
        "count": 65,
        "start": 1,
        "hasMtTag": 1,
        "hasJgTag": 1,
        "mtCount": 1,
        "jgCount": 79
    },
    {
        "name": "[UGirlsAPP]\u7231\u5c24\u7269 No.877 \u9648\u4e03\u4e03",
        "src": "http://d.duotuwang.com/2017/10/13/6157/0.jpg",
        "mtId": "1590956fa24c4f87",
        "mtName": "\u9648\u4e03\u4e03",
        "jgId": "ugirlsapp",
        "jgName": "\u7231\u5c24\u7269",
        "href": "http://d.duotuwang.com/2017/10/13/6157/",
        "count": 40,
        "start": 1,
        "hasMtTag": 1,
        "hasJgTag": 1,
        "mtCount": 1,
        "jgCount": 397
    }
]