[
    {
        "name": "[UGirls]\u5c24\u679c\u7f51 U209 \u6c88\u8bfa\u99a8",
        "src": "http://d.duotuwang.com/2016/09/18/3236/0.jpg",
        "mtId": "a348663122ebbfa4",
        "mtName": "\u6c88\u8bfa\u99a8",
        "jgId": "ugirls",
        "jgName": "\u5c24\u679c\u7f51",
        "href": "http://d.duotuwang.com/2016/09/18/3236/",
        "count": 65,
        "start": 1,
        "hasMtTag": 1,
        "hasJgTag": 1,
        "mtCount": 1,
        "jgCount": 79
    },
    {
        "name": "[UGirlsAPP]\u7231\u5c24\u7269 No.480 \u6c88\u8bfa\u99a8",
        "src": "http://d.duotuwang.com/2016/09/09/4828/0.jpg",
        "mtId": "a348663122ebbfa4",
        "mtName": "\u6c88\u8bfa\u99a8",
        "jgId": "ugirlsapp",
        "jgName": "\u7231\u5c24\u7269",
        "href": "http://d.duotuwang.com/2016/09/09/4828/",
        "count": 40,
        "start": 1,
        "hasMtTag": 1,
        "hasJgTag": 1,
        "mtCount": 1,
        "jgCount": 397
    },
    {
        "name": "[UGirlsAPP]\u7231\u5c24\u7269 No.430 \u6c88\u8bfa\u99a8",
        "src": "http://d.duotuwang.com/2016/07/22/4785/0.jpg",
        "mtId": "a348663122ebbfa4",
        "mtName": "\u6c88\u8bfa\u99a8",
        "jgId": "ugirlsapp",
        "jgName": "\u7231\u5c24\u7269",
        "href": "http://d.duotuwang.com/2016/07/22/4785/",
        "count": 40,
        "start": 1,
        "hasMtTag": 1,
        "hasJgTag": 1,
        "mtCount": 1,
        "jgCount": 397
    }
]