[
    {
        "name": "[UGirlsAPP]\u7231\u5c24\u7269 No.172 \u8bb8\u6587\u5a77",
        "src": "http://d.duotuwang.com/2015/11/06/4518/0.jpg",
        "mtId": "887296a82352fa26",
        "mtName": "\u8bb8\u6587\u5a77",
        "jgId": "ugirlsapp",
        "jgName": "\u7231\u5c24\u7269",
        "href": "http://d.duotuwang.com/2015/11/06/4518/",
        "count": 40,
        "start": 1,
        "hasMtTag": 1,
        "hasJgTag": 1,
        "mtCount": 2,
        "jgCount": 397
    },
    {
        "name": "[BoLoli]\u6ce2\u841d\u793e VOL.028 \u8bb8\u6587\u5a77Regina",
        "src": "http://d.duotuwang.com/2015/05/28/790/0.jpg",
        "mtId": "887296a82352fa26",
        "mtName": "\u8bb8\u6587\u5a77Regina",
        "jgId": "bololi",
        "jgName": "\u6ce2\u841d\u793e",
        "href": "http://d.duotuwang.com/2015/05/28/790/",
        "count": 40,
        "start": 1,
        "hasMtTag": 1,
        "hasJgTag": 1,
        "mtCount": 2,
        "jgCount": 40
    },
    {
        "name": "[BoLoli]\u6ce2\u841d\u793e Vol.023 \u8bb8\u6587\u5a77Regina",
        "src": "http://d.duotuwang.com/2015/05/15/762/0.jpg",
        "mtId": "887296a82352fa26",
        "mtName": "\u8bb8\u6587\u5a77Regina",
        "jgId": "bololi",
        "jgName": "\u6ce2\u841d\u793e",
        "href": "http://d.duotuwang.com/2015/05/15/762/",
        "count": 56,
        "start": 1,
        "hasMtTag": 1,
        "hasJgTag": 1,
        "mtCount": 2,
        "jgCount": 40
    },
    {
        "name": "[BoLoli]\u6ce2\u841d\u793e Vol.018 \u8bb8\u6587\u5a77Regina",
        "src": "http://d.duotuwang.com/2015/04/30/749/0.jpg",
        "mtId": "887296a82352fa26",
        "mtName": "\u8bb8\u6587\u5a77Regina",
        "jgId": "bololi",
        "jgName": "\u6ce2\u841d\u793e",
        "href": "http://d.duotuwang.com/2015/04/30/749/",
        "count": 68,
        "start": 1,
        "hasMtTag": 1,
        "hasJgTag": 1,
        "mtCount": 2,
        "jgCount": 40
    },
    {
        "name": "[UGirls]\u5c24\u679c\u7f51 E002 \u8bb8\u6587\u5a77",
        "src": "http://d.duotuwang.com/2014/01/01/3277/0.jpg",
        "mtId": "887296a82352fa26",
        "mtName": "\u8bb8\u6587\u5a77",
        "jgId": "ugirls",
        "jgName": "\u5c24\u679c\u7f51",
        "href": "http://d.duotuwang.com/2014/01/01/3277/",
        "count": 50,
        "start": 1,
        "hasMtTag": 1,
        "hasJgTag": 1,
        "mtCount": 2,
        "jgCount": 79
    }
]