[
    {
        "name": "[UGirlsAPP]\u7231\u5c24\u7269 No.1693 \u6797\u4f73\u6cab \u7f51\u889c\u4e0e\u7f8e\u817f\u7684\u78b0\u649e",
        "src": "http://d.duotuwang.com/2020/01/07/19244/0.jpg",
        "mtId": "909b51cdf0022536",
        "mtName": "\u6797\u4f73\u6cab",
        "jgId": "ugirlsapp",
        "jgName": "\u7231\u5c24\u7269",
        "href": "http://d.duotuwang.com/2020/01/07/19244/",
        "count": 35,
        "start": 1,
        "hasMtTag": 1,
        "hasJgTag": 1,
        "mtCount": 1,
        "jgCount": 397
    },
    {
        "name": "[UGirlsAPP]\u7231\u5c24\u7269 No.1653 \u6797\u4f73\u6cab \u5c0f\u5fc3\u8bd5\u7231",
        "src": "http://d.duotuwang.com/2019/11/28/18751/0.jpg",
        "mtId": "909b51cdf0022536",
        "mtName": "\u6797\u4f73\u6cab",
        "jgId": "ugirlsapp",
        "jgName": "\u7231\u5c24\u7269",
        "href": "http://d.duotuwang.com/2019/11/28/18751/",
        "count": 35,
        "start": 1,
        "hasMtTag": 1,
        "hasJgTag": 1,
        "mtCount": 1,
        "jgCount": 397
    },
    {
        "name": "[UGirlsAPP]\u7231\u5c24\u7269 No.1591 \u6797\u4f73\u6cab \u5348\u8336\u6d3e\u5bf9",
        "src": "http://d.duotuwang.com/2019/09/27/18155/0.jpg",
        "mtId": "909b51cdf0022536",
        "mtName": "\u6797\u4f73\u6cab",
        "jgId": "ugirlsapp",
        "jgName": "\u7231\u5c24\u7269",
        "href": "http://d.duotuwang.com/2019/09/27/18155/",
        "count": 35,
        "start": 1,
        "hasMtTag": 1,
        "hasJgTag": 1,
        "mtCount": 1,
        "jgCount": 397
    },
    {
        "name": "[UGirlsAPP]\u7231\u5c24\u7269 No.1463 \u6797\u4f73\u6cab \u5fd8\u4e0e\u8bb0",
        "src": "http://d.duotuwang.com/2019/05/22/16544/0.jpg",
        "mtId": "909b51cdf0022536",
        "mtName": "\u6797\u4f73\u6cab",
        "jgId": "ugirlsapp",
        "jgName": "\u7231\u5c24\u7269",
        "href": "http://d.duotuwang.com/2019/05/22/16544/",
        "count": 35,
        "start": 1,
        "hasMtTag": 1,
        "hasJgTag": 1,
        "mtCount": 1,
        "jgCount": 397
    },
    {
        "name": "[UGirlsAPP]\u7231\u5c24\u7269 No.1420 \u6797\u4f73\u6cab \u7b2c\u4e00\u5343\u6b21\u56de\u7738",
        "src": "http://d.duotuwang.com/2019/04/09/15992/0.jpg",
        "mtId": "909b51cdf0022536",
        "mtName": "\u6797\u4f73\u6cab",
        "jgId": "ugirlsapp",
        "jgName": "\u7231\u5c24\u7269",
        "href": "http://d.duotuwang.com/2019/04/09/15992/",
        "count": 35,
        "start": 1,
        "hasMtTag": 1,
        "hasJgTag": 1,
        "mtCount": 1,
        "jgCount": 397
    },
    {
        "name": "[UGirlsAPP]\u7231\u5c24\u7269 No.1230 \u6797\u4f73\u6cab \u7ea2\u8272\u4f73\u4eba",
        "src": "http://d.duotuwang.com/2018/10/01/9730/0.jpg",
        "mtId": "909b51cdf0022536",
        "mtName": "\u6797\u4f73\u6cab",
        "jgId": "ugirlsapp",
        "jgName": "\u7231\u5c24\u7269",
        "href": "http://d.duotuwang.com/2018/10/01/9730/",
        "count": 35,
        "start": 1,
        "hasMtTag": 1,
        "hasJgTag": 1,
        "mtCount": 1,
        "jgCount": 397
    }
]