[
    {
        "name": "[MyGirl]\u7f8e\u5a9b\u9986 VOL.292 \u9ec4\u697d\u7136",
        "src": "http://d.duotuwang.com/2018/07/12/9303/0.jpg",
        "mtId": "ed4d676610a0b9e3",
        "mtName": "\u9ec4\u697d\u7136",
        "jgId": "mygirl",
        "jgName": "\u7f8e\u5a9b\u9986",
        "href": "http://d.duotuwang.com/2018/07/12/9303/",
        "count": 69,
        "start": 1,
        "hasMtTag": 1,
        "hasJgTag": 1,
        "mtCount": 17,
        "jgCount": 110
    },
    {
        "name": "[YouMei]\u5c24\u7f8e No.033 \u9ec4\u697d\u7136 \u76ae\u97ad\u5973\u738b\u6ee1\u8db3\u4f60\u7684\u5f81\u670d\u6b32\u671b",
        "src": "http://d.duotuwang.com/2018/07/11/10490/0.jpg",
        "mtId": "ed4d676610a0b9e3",
        "mtName": "\u9ec4\u697d\u7136",
        "jgId": "youmei",
        "jgName": "\u5c24\u7f8e\u7f51",
        "href": "http://d.duotuwang.com/2018/07/11/10490/",
        "count": 22,
        "start": 1,
        "hasMtTag": 1,
        "hasJgTag": 1,
        "mtCount": 17,
        "jgCount": 47
    },
    {
        "name": "[MFStar]\u6a21\u8303\u5b66\u9662 VOL.130 \u9ec4\u697d\u7136",
        "src": "http://d.duotuwang.com/2018/07/09/9291/0.jpg",
        "mtId": "ed4d676610a0b9e3",
        "mtName": "\u9ec4\u697d\u7136",
        "jgId": "mfstar",
        "jgName": "\u6a21\u8303\u5b66\u9662",
        "href": "http://d.duotuwang.com/2018/07/09/9291/",
        "count": 42,
        "start": 1,
        "hasMtTag": 1,
        "hasJgTag": 1,
        "mtCount": 17,
        "jgCount": 94
    },
    {
        "name": "[MiStar]\u9b45\u598d\u793e VOL.229 \u9ec4\u697d\u7136",
        "src": "http://d.duotuwang.com/2018/06/27/9198/0.jpg",
        "mtId": "ed4d676610a0b9e3",
        "mtName": "\u9ec4\u697d\u7136",
        "jgId": "mistar",
        "jgName": "\u9b45\u598d\u793e",
        "href": "http://d.duotuwang.com/2018/06/27/9198/",
        "count": 37,
        "start": 1,
        "hasMtTag": 1,
        "hasJgTag": 1,
        "mtCount": 17,
        "jgCount": 55
    },
    {
        "name": "[MyGirl]\u7f8e\u5a9b\u9986 VOL.289 \u9ec4\u697d\u7136",
        "src": "http://d.duotuwang.com/2018/06/25/9209/0.jpg",
        "mtId": "ed4d676610a0b9e3",
        "mtName": "\u9ec4\u697d\u7136",
        "jgId": "mygirl",
        "jgName": "\u7f8e\u5a9b\u9986",
        "href": "http://d.duotuwang.com/2018/06/25/9209/",
        "count": 59,
        "start": 1,
        "hasMtTag": 1,
        "hasJgTag": 1,
        "mtCount": 17,
        "jgCount": 110
    },
    {
        "name": "[XIUREN]\u79c0\u4eba\u7f51 No.1043 \u9ec4\u697d\u7136",
        "src": "http://d.duotuwang.com/2018/06/14/9124/0.jpg",
        "mtId": "ed4d676610a0b9e3",
        "mtName": "\u9ec4\u697d\u7136",
        "jgId": "xiuren",
        "jgName": "\u79c0\u4eba\u7f51",
        "href": "http://d.duotuwang.com/2018/06/14/9124/",
        "count": 45,
        "start": 1,
        "hasMtTag": 1,
        "hasJgTag": 1,
        "mtCount": 17,
        "jgCount": 750
    }
]