[
    {
        "name": "[YALAYI]\u96c5\u62c9\u4f0a Y355 \u9ec4\u4e50\u7136 \u8f7b\u719f\u5973",
        "src": "http://d.duotuwang.com/2019/07/31/17468/0.jpg",
        "mtId": "ed4d676610a0b9e3",
        "mtName": "\u9ec4\u4e50\u7136",
        "jgId": "yalayi",
        "jgName": "\u96c5\u62c9\u4f0a",
        "href": "http://d.duotuwang.com/2019/07/31/17468/",
        "count": 43,
        "start": 1,
        "hasMtTag": 1,
        "hasJgTag": 1,
        "mtCount": 17,
        "jgCount": 156
    },
    {
        "name": "[XIUREN]\u79c0\u4eba\u7f51 No.1578 \u9ec4\u697d\u7136",
        "src": "http://d.duotuwang.com/2019/07/29/17490/0.jpg",
        "mtId": "ed4d676610a0b9e3",
        "mtName": "\u9ec4\u697d\u7136",
        "jgId": "xiuren",
        "jgName": "\u79c0\u4eba\u7f51",
        "href": "http://d.duotuwang.com/2019/07/29/17490/",
        "count": 50,
        "start": 1,
        "hasMtTag": 1,
        "hasJgTag": 1,
        "mtCount": 17,
        "jgCount": 750
    },
    {
        "name": "[HuaYang]\u82b1\u6f3eshow VOL.161 \u9ec4\u697d\u7136",
        "src": "http://d.duotuwang.com/2019/07/25/17263/0.jpg",
        "mtId": "ed4d676610a0b9e3",
        "mtName": "\u9ec4\u697d\u7136",
        "jgId": "huayang",
        "jgName": "\u82b1\u6f3eshow",
        "href": "http://d.duotuwang.com/2019/07/25/17263/",
        "count": 48,
        "start": 1,
        "hasMtTag": 1,
        "hasJgTag": 1,
        "mtCount": 17,
        "jgCount": 86
    },
    {
        "name": "[YOUMI]\u5c24\u871c\u835f VOL.331 \u9ec4\u697d\u7136",
        "src": "http://d.duotuwang.com/2019/07/23/17230/0.jpg",
        "mtId": "ed4d676610a0b9e3",
        "mtName": "\u9ec4\u697d\u7136",
        "jgId": "youmi",
        "jgName": "\u5c24\u871c\u835f",
        "href": "http://d.duotuwang.com/2019/07/23/17230/",
        "count": 60,
        "start": 1,
        "hasMtTag": 1,
        "hasJgTag": 1,
        "mtCount": 17,
        "jgCount": 143
    },
    {
        "name": "[XIUREN]\u79c0\u4eba\u7f51 No.1562 \u9ec4\u697d\u7136",
        "src": "http://d.duotuwang.com/2019/07/22/17240/0.jpg",
        "mtId": "ed4d676610a0b9e3",
        "mtName": "\u9ec4\u697d\u7136",
        "jgId": "xiuren",
        "jgName": "\u79c0\u4eba\u7f51",
        "href": "http://d.duotuwang.com/2019/07/22/17240/",
        "count": 51,
        "start": 1,
        "hasMtTag": 1,
        "hasJgTag": 1,
        "mtCount": 17,
        "jgCount": 750
    },
    {
        "name": "[XIUREN]\u79c0\u4eba\u7f51 No.1551 \u9ec4\u697d\u7136",
        "src": "http://d.duotuwang.com/2019/07/16/17160/0.jpg",
        "mtId": "ed4d676610a0b9e3",
        "mtName": "\u9ec4\u697d\u7136",
        "jgId": "xiuren",
        "jgName": "\u79c0\u4eba\u7f51",
        "href": "http://d.duotuwang.com/2019/07/16/17160/",
        "count": 55,
        "start": 1,
        "hasMtTag": 1,
        "hasJgTag": 1,
        "mtCount": 17,
        "jgCount": 750
    }
]