[
    {
        "name": "[XIUREN]\u79c0\u4eba\u7f51 No.534 sophie\u4f59\u51b0",
        "src": "http://d.duotuwang.com/2016/06/03/1440/0.jpg",
        "mtId": "0e8d3183d5d23472",
        "mtName": "sophie\u4f59\u51b0",
        "jgId": "xiuren",
        "jgName": "\u79c0\u4eba\u7f51",
        "href": "http://d.duotuwang.com/2016/06/03/1440/",
        "count": 55,
        "start": 1,
        "hasMtTag": 1,
        "hasJgTag": 1,
        "mtCount": 1,
        "jgCount": 750
    }
]