[
    {
        "name": "[YouWu]\u5c24\u7269\u9986 VOL.147 \u4f0a\u8bfa",
        "src": "http://d.duotuwang.com/2019/05/14/16483/0.jpg",
        "mtId": "8d04713d44d20fd0",
        "mtName": "\u4f0a\u8bfa",
        "jgId": "youwu",
        "jgName": "\u5c24\u7269\u9986",
        "href": "http://d.duotuwang.com/2019/05/14/16483/",
        "count": 38,
        "start": 1,
        "hasMtTag": 1,
        "hasJgTag": 1,
        "mtCount": 3,
        "jgCount": 29
    },
    {
        "name": "[YouWu]\u5c24\u7269\u9986 VOL.145 \u4f0a\u8bfa",
        "src": "http://d.duotuwang.com/2019/05/05/16377/0.jpg",
        "mtId": "8d04713d44d20fd0",
        "mtName": "\u4f0a\u8bfa",
        "jgId": "youwu",
        "jgName": "\u5c24\u7269\u9986",
        "href": "http://d.duotuwang.com/2019/05/05/16377/",
        "count": 42,
        "start": 1,
        "hasMtTag": 1,
        "hasJgTag": 1,
        "mtCount": 3,
        "jgCount": 29
    },
    {
        "name": "[XIUREN]\u79c0\u4eba\u7f51 No.1412 \u4f0a\u82e5",
        "src": "http://d.duotuwang.com/2019/04/24/16179/0.jpg",
        "mtId": "8d04713d44d20fd0",
        "mtName": "\u4f0a\u8bfa",
        "jgId": "xiuren",
        "jgName": "\u79c0\u4eba\u7f51",
        "href": "http://d.duotuwang.com/2019/04/24/16179/",
        "count": 49,
        "start": 1,
        "hasMtTag": 1,
        "hasJgTag": 1,
        "mtCount": 3,
        "jgCount": 750
    },
    {
        "name": "[XIUREN]\u79c0\u4eba\u7f51 No.1395 \u4f0a\u8bfa",
        "src": "http://d.duotuwang.com/2019/04/15/16046/0.jpg",
        "mtId": "8d04713d44d20fd0",
        "mtName": "\u4f0a\u8bfa",
        "jgId": "xiuren",
        "jgName": "\u79c0\u4eba\u7f51",
        "href": "http://d.duotuwang.com/2019/04/15/16046/",
        "count": 45,
        "start": 1,
        "hasMtTag": 1,
        "hasJgTag": 1,
        "mtCount": 3,
        "jgCount": 750
    },
    {
        "name": "[XIUREN]\u79c0\u4eba\u7f51 No.1289 \u4f0a\u8bfa",
        "src": "http://d.duotuwang.com/2018/12/26/10248/0.jpg",
        "mtId": "8d04713d44d20fd0",
        "mtName": "\u4f0a\u8bfa",
        "jgId": "xiuren",
        "jgName": "\u79c0\u4eba\u7f51",
        "href": "http://d.duotuwang.com/2018/12/26/10248/",
        "count": 45,
        "start": 1,
        "hasMtTag": 1,
        "hasJgTag": 1,
        "mtCount": 3,
        "jgCount": 750
    },
    {
        "name": "[XIUREN]\u79c0\u4eba\u7f51 No.1122 \u4f0a\u8bfa",
        "src": "http://d.duotuwang.com/2018/08/15/9514/0.jpg",
        "mtId": "8d04713d44d20fd0",
        "mtName": "\u4f0a\u8bfa",
        "jgId": "xiuren",
        "jgName": "\u79c0\u4eba\u7f51",
        "href": "http://d.duotuwang.com/2018/08/15/9514/",
        "count": 46,
        "start": 1,
        "hasMtTag": 1,
        "hasJgTag": 1,
        "mtCount": 3,
        "jgCount": 750
    }
]