[
    {
        "name": "[XIUREN]\u79c0\u4eba\u7f51 No.4842 \u9c7c\u5b50\u9171Fish",
        "src": "http://d.duotuwang.com/2022/04/08/29352/0.jpg",
        "mtId": "2606e0481db6777f",
        "mtName": "\u9c7c\u5b50\u9171Fish",
        "jgId": "xiuren",
        "jgName": "\u79c0\u4eba\u7f51",
        "href": "http://d.duotuwang.com/2022/04/08/29352/",
        "count": 69,
        "start": 1,
        "hasMtTag": 1,
        "hasJgTag": 1,
        "mtCount": 16,
        "jgCount": 750
    },
    {
        "name": "[XIUREN]\u79c0\u4eba\u7f51 No.4841 \u7eee\u91cc\u5609ula",
        "src": "http://d.duotuwang.com/2022/04/08/29351/0.jpg",
        "mtId": "4ebc33c7dadc04af",
        "mtName": "\u7eee\u91cc\u5609ula",
        "jgId": "xiuren",
        "jgName": "\u79c0\u4eba\u7f51",
        "href": "http://d.duotuwang.com/2022/04/08/29351/",
        "count": 56,
        "start": 1,
        "hasMtTag": 1,
        "hasJgTag": 1,
        "mtCount": 27,
        "jgCount": 750
    },
    {
        "name": "[XIUREN]\u79c0\u4eba\u7f51 No.4840 \u829d\u829dBooty",
        "src": "http://d.duotuwang.com/2022/04/08/29350/0.jpg",
        "mtId": "8fe458bd9af7ab1d",
        "mtName": "\u829d\u829dBooty",
        "jgId": "xiuren",
        "jgName": "\u79c0\u4eba\u7f51",
        "href": "http://d.duotuwang.com/2022/04/08/29350/",
        "count": 75,
        "start": 1,
        "hasMtTag": 1,
        "hasJgTag": 1,
        "mtCount": 56,
        "jgCount": 750
    },
    {
        "name": "[XIUREN]\u79c0\u4eba\u7f51 No.4839 \u4e00\u9897\u751c\u86cb\u9ec4a",
        "src": "http://d.duotuwang.com/2022/04/08/29349/0.jpg",
        "mtId": "1e531aa4c2b8e6f7",
        "mtName": "\u4e00\u9897\u751c\u86cb\u9ec4a",
        "jgId": "xiuren",
        "jgName": "\u79c0\u4eba\u7f51",
        "href": "http://d.duotuwang.com/2022/04/08/29349/",
        "count": 68,
        "start": 1,
        "hasMtTag": 1,
        "hasJgTag": 1,
        "mtCount": 5,
        "jgCount": 750
    },
    {
        "name": "[XIUREN]\u79c0\u4eba\u7f51 No.4838 \u5976\u74f6.",
        "src": "http://d.duotuwang.com/2022/04/08/29348/0.jpg",
        "mtId": "4b7b846f8dd02ffb",
        "mtName": "\u5976\u74f6\u5b50",
        "jgId": "xiuren",
        "jgName": "\u79c0\u4eba\u7f51",
        "href": "http://d.duotuwang.com/2022/04/08/29348/",
        "count": 70,
        "start": 1,
        "hasMtTag": 1,
        "hasJgTag": 1,
        "mtCount": 7,
        "jgCount": 750
    },
    {
        "name": "[XIUREN]\u79c0\u4eba\u7f51 No.4837 \u5c39\u751c\u751c",
        "src": "http://d.duotuwang.com/2022/04/08/29347/0.jpg",
        "mtId": "d071e99652f9fe0f",
        "mtName": "\u5c39\u751c\u751c",
        "jgId": "xiuren",
        "jgName": "\u79c0\u4eba\u7f51",
        "href": "http://d.duotuwang.com/2022/04/08/29347/",
        "count": 64,
        "start": 1,
        "hasMtTag": 1,
        "hasJgTag": 1,
        "mtCount": 7,
        "jgCount": 750
    }
]