[
    {
        "name": "[XIUREN]\u79c0\u4eba\u7f51 No.5510 \u5510\u5b89\u742a",
        "src": "http://d.duotuwang.com/2022/08/29/31146/0.jpg",
        "mtId": "552de7273733ea34",
        "mtName": "\u5510\u5b89\u742a",
        "jgId": "xiuren",
        "jgName": "\u79c0\u4eba\u7f51",
        "href": "http://d.duotuwang.com/2022/08/29/31146/",
        "count": 100,
        "start": 1,
        "hasMtTag": 1,
        "hasJgTag": 1,
        "mtCount": 19,
        "jgCount": 750
    },
    {
        "name": "[XIUREN]\u79c0\u4eba\u7f51 No.5509 \u5c0f\u6d77\u81c0Rena",
        "src": "http://d.duotuwang.com/2022/08/29/31145/0.jpg",
        "mtId": "4bd8157768956e31",
        "mtName": "\u5c0f\u6d77\u81c0Rena",
        "jgId": "xiuren",
        "jgName": "\u79c0\u4eba\u7f51",
        "href": "http://d.duotuwang.com/2022/08/29/31145/",
        "count": 56,
        "start": 1,
        "hasMtTag": 1,
        "hasJgTag": 1,
        "mtCount": 8,
        "jgCount": 750
    },
    {
        "name": "[XIUREN]\u79c0\u4eba\u7f51 No.5508 \u53e4\u6708\u5c0f\u540c\u5b66",
        "src": "http://d.duotuwang.com/2022/08/29/31144/0.jpg",
        "mtId": "908377caf31c9db0",
        "mtName": "\u53e4\u6708\u5c0f\u540c\u5b66",
        "jgId": "xiuren",
        "jgName": "\u79c0\u4eba\u7f51",
        "href": "http://d.duotuwang.com/2022/08/29/31144/",
        "count": 60,
        "start": 1,
        "hasMtTag": 1,
        "hasJgTag": 1,
        "mtCount": 2,
        "jgCount": 750
    },
    {
        "name": "[XIUREN]\u79c0\u4eba\u7f51 No.5507 \u6797\u4e50\u4e00",
        "src": "http://d.duotuwang.com/2022/08/29/31143/0.jpg",
        "mtId": "600bcd316870a0b5",
        "mtName": "\u6797\u4e50\u4e00",
        "jgId": "xiuren",
        "jgName": "\u79c0\u4eba\u7f51",
        "href": "http://d.duotuwang.com/2022/08/29/31143/",
        "count": 80,
        "start": 1,
        "hasMtTag": 1,
        "hasJgTag": 1,
        "mtCount": 3,
        "jgCount": 750
    },
    {
        "name": "[XIUREN]\u79c0\u4eba\u7f51 No.5506 \u7f8e\u4e03Mia",
        "src": "http://d.duotuwang.com/2022/08/29/31142/0.jpg",
        "mtId": "58a8832e511f67e3",
        "mtName": "\u7f8e\u4e03Mia",
        "jgId": "xiuren",
        "jgName": "\u79c0\u4eba\u7f51",
        "href": "http://d.duotuwang.com/2022/08/29/31142/",
        "count": 65,
        "start": 1,
        "hasMtTag": 1,
        "hasJgTag": 1,
        "mtCount": 9,
        "jgCount": 750
    },
    {
        "name": "[XIUREN]\u79c0\u4eba\u7f51 No.5505 summer\u5b9d\u5b9d",
        "src": "http://d.duotuwang.com/2022/08/29/31141/0.jpg",
        "mtId": "44fdbd7b49f4f2c0",
        "mtName": "summer\u5b9d\u5b9d",
        "jgId": "xiuren",
        "jgName": "\u79c0\u4eba\u7f51",
        "href": "http://d.duotuwang.com/2022/08/29/31141/",
        "count": 51,
        "start": 1,
        "hasMtTag": 1,
        "hasJgTag": 1,
        "mtCount": 3,
        "jgCount": 750
    }
]