[
    {
        "name": "[XIUREN]\u79c0\u4eba\u7f51 No.4696 \u590f\u6cab\u6cabtifa",
        "src": "http://d.duotuwang.com/2022/03/10/28922/0.jpg",
        "mtId": "d18a3314715df750",
        "mtName": "\u590f\u6cab\u6cabtifa",
        "jgId": "xiuren",
        "jgName": "\u79c0\u4eba\u7f51",
        "href": "http://d.duotuwang.com/2022/03/10/28922/",
        "count": 58,
        "start": 1,
        "hasMtTag": 1,
        "hasJgTag": 1,
        "mtCount": 5,
        "jgCount": 750
    },
    {
        "name": "[XIUREN]\u79c0\u4eba\u7f51 No.4695 \u5468\u4e8e\u5e0cSally",
        "src": "http://d.duotuwang.com/2022/03/09/28841/0.jpg",
        "mtId": "de6bdb42ece2255f",
        "mtName": "\u5468\u4e8e\u5e0cSandy",
        "jgId": "xiuren",
        "jgName": "\u79c0\u4eba\u7f51",
        "href": "http://d.duotuwang.com/2022/03/09/28841/",
        "count": 80,
        "start": 1,
        "hasMtTag": 1,
        "hasJgTag": 1,
        "mtCount": 59,
        "jgCount": 750
    },
    {
        "name": "[XIUREN]\u79c0\u4eba\u7f51 No.4694 \u9646\u8431\u8431",
        "src": "http://d.duotuwang.com/2022/03/09/28840/0.jpg",
        "mtId": "15c3767f8a07de21",
        "mtName": "\u9646\u8431\u8431",
        "jgId": "xiuren",
        "jgName": "\u79c0\u4eba\u7f51",
        "href": "http://d.duotuwang.com/2022/03/09/28840/",
        "count": 77,
        "start": 1,
        "hasMtTag": 1,
        "hasJgTag": 1,
        "mtCount": 25,
        "jgCount": 750
    },
    {
        "name": "[XIUREN]\u79c0\u4eba\u7f51 No.4693 \u5c0f\u6d77\u81c0Rena",
        "src": "http://d.duotuwang.com/2022/03/09/28839/0.jpg",
        "mtId": "4bd8157768956e31",
        "mtName": "\u5c0f\u6d77\u81c0Rena",
        "jgId": "xiuren",
        "jgName": "\u79c0\u4eba\u7f51",
        "href": "http://d.duotuwang.com/2022/03/09/28839/",
        "count": 42,
        "start": 1,
        "hasMtTag": 1,
        "hasJgTag": 1,
        "mtCount": 8,
        "jgCount": 750
    },
    {
        "name": "[XIUREN]\u79c0\u4eba\u7f51 No.4692 \u8bd7\u8bd7kiki",
        "src": "http://d.duotuwang.com/2022/03/09/28838/0.jpg",
        "mtId": "d7f8fece5bbc52e6",
        "mtName": "\u8bd7\u8bd7kiki",
        "jgId": "xiuren",
        "jgName": "\u79c0\u4eba\u7f51",
        "href": "http://d.duotuwang.com/2022/03/09/28838/",
        "count": 71,
        "start": 1,
        "hasMtTag": 1,
        "hasJgTag": 1,
        "mtCount": 10,
        "jgCount": 750
    },
    {
        "name": "[XIUREN]\u79c0\u4eba\u7f51 No.4691 \u8a00\u6cab",
        "src": "http://d.duotuwang.com/2022/03/09/28837/0.jpg",
        "mtId": "3c6f7e1773bf4c77",
        "mtName": "\u8a00\u6cab",
        "jgId": "xiuren",
        "jgName": "\u79c0\u4eba\u7f51",
        "href": "http://d.duotuwang.com/2022/03/09/28837/",
        "count": 71,
        "start": 1,
        "hasMtTag": 1,
        "hasJgTag": 1,
        "mtCount": 11,
        "jgCount": 750
    }
]