[
    {
        "name": "[XIUREN]\u79c0\u4eba\u7f51 No.4690 \u674e\u96c5\u67d4182CM",
        "src": "http://d.duotuwang.com/2022/03/09/28836/0.jpg",
        "mtId": "dcea9eebb24ab4fc",
        "mtName": "\u674e\u96c5\u67d4182CM",
        "jgId": "xiuren",
        "jgName": "\u79c0\u4eba\u7f51",
        "href": "http://d.duotuwang.com/2022/03/09/28836/",
        "count": 60,
        "start": 1,
        "hasMtTag": 1,
        "hasJgTag": 1,
        "mtCount": 7,
        "jgCount": 750
    },
    {
        "name": "[XIUREN]\u79c0\u4eba\u7f51 No.4689 Arude\u8587\u8587",
        "src": "http://d.duotuwang.com/2022/03/09/28835/0.jpg",
        "mtId": "ab265d1ad7ad11b8",
        "mtName": "Arude\u8587\u8587",
        "jgId": "xiuren",
        "jgName": "\u79c0\u4eba\u7f51",
        "href": "http://d.duotuwang.com/2022/03/09/28835/",
        "count": 97,
        "start": 1,
        "hasMtTag": 1,
        "hasJgTag": 1,
        "mtCount": 3,
        "jgCount": 750
    },
    {
        "name": "[XIUREN]\u79c0\u4eba\u7f51 No.4688 \u738b\u99a8\u7476yanni",
        "src": "http://d.duotuwang.com/2022/03/08/28834/0.jpg",
        "mtId": "ee305435592cf245",
        "mtName": "\u738b\u99a8\u7476yanni",
        "jgId": "xiuren",
        "jgName": "\u79c0\u4eba\u7f51",
        "href": "http://d.duotuwang.com/2022/03/08/28834/",
        "count": 72,
        "start": 1,
        "hasMtTag": 1,
        "hasJgTag": 1,
        "mtCount": 29,
        "jgCount": 750
    },
    {
        "name": "[XIUREN]\u79c0\u4eba\u7f51 No.4687 \u5b89\u7136Maleah",
        "src": "http://d.duotuwang.com/2022/03/08/28833/0.jpg",
        "mtId": "d6505baadceb44e6",
        "mtName": "\u5b89\u7136Maleah",
        "jgId": "xiuren",
        "jgName": "\u79c0\u4eba\u7f51",
        "href": "http://d.duotuwang.com/2022/03/08/28833/",
        "count": 83,
        "start": 1,
        "hasMtTag": 1,
        "hasJgTag": 1,
        "mtCount": 16,
        "jgCount": 750
    },
    {
        "name": "[XIUREN]\u79c0\u4eba\u7f51 No.4686 tina_\u751c\u4ed4",
        "src": "http://d.duotuwang.com/2022/03/08/28832/0.jpg",
        "mtId": "4a8e9100013ddf0a",
        "mtName": "tina_\u751c\u4ed4",
        "jgId": "xiuren",
        "jgName": "\u79c0\u4eba\u7f51",
        "href": "http://d.duotuwang.com/2022/03/08/28832/",
        "count": 68,
        "start": 1,
        "hasMtTag": 1,
        "hasJgTag": 1,
        "mtCount": 3,
        "jgCount": 750
    },
    {
        "name": "[XIUREN]\u79c0\u4eba\u7f51 No.4685 \u4e45\u4e45Aimee",
        "src": "http://d.duotuwang.com/2022/03/08/28831/0.jpg",
        "mtId": "e9e2057cd6e2887d",
        "mtName": "\u4e45\u4e45Aimee",
        "jgId": "xiuren",
        "jgName": "\u79c0\u4eba\u7f51",
        "href": "http://d.duotuwang.com/2022/03/08/28831/",
        "count": 56,
        "start": 1,
        "hasMtTag": 1,
        "hasJgTag": 1,
        "mtCount": 7,
        "jgCount": 750
    }
]