[
    {
        "name": "[XIUREN]\u79c0\u4eba\u7f51 No.4684 \u6768\u5029\u5029",
        "src": "http://d.duotuwang.com/2022/03/08/28830/0.jpg",
        "mtId": "3769d222ef83be4c",
        "mtName": "\u6768\u5029\u5029",
        "jgId": "xiuren",
        "jgName": "\u79c0\u4eba\u7f51",
        "href": "http://d.duotuwang.com/2022/03/08/28830/",
        "count": 44,
        "start": 1,
        "hasMtTag": 1,
        "hasJgTag": 1,
        "mtCount": 1,
        "jgCount": 750
    },
    {
        "name": "[XIUREN]\u79c0\u4eba\u7f51 No.4683 \u5510\u5b89\u742a",
        "src": "http://d.duotuwang.com/2022/03/07/28829/0.jpg",
        "mtId": "552de7273733ea34",
        "mtName": "\u5510\u5b89\u742a",
        "jgId": "xiuren",
        "jgName": "\u79c0\u4eba\u7f51",
        "href": "http://d.duotuwang.com/2022/03/07/28829/",
        "count": 80,
        "start": 1,
        "hasMtTag": 1,
        "hasJgTag": 1,
        "mtCount": 19,
        "jgCount": 750
    },
    {
        "name": "[XIUREN]\u79c0\u4eba\u7f51 No.4682 \u6768\u6668\u6668Yome",
        "src": "http://d.duotuwang.com/2022/03/07/28828/0.jpg",
        "mtId": "48bada5e7225ec9f",
        "mtName": "\u6768\u6668\u6668sugar",
        "jgId": "xiuren",
        "jgName": "\u79c0\u4eba\u7f51",
        "href": "http://d.duotuwang.com/2022/03/07/28828/",
        "count": 86,
        "start": 1,
        "hasMtTag": 1,
        "hasJgTag": 1,
        "mtCount": 89,
        "jgCount": 750
    },
    {
        "name": "[XIUREN]\u79c0\u4eba\u7f51 No.4681 Egg_\u5c24\u59ae\u4e1d",
        "src": "http://d.duotuwang.com/2022/03/07/28827/0.jpg",
        "mtId": "ad6ceea13469d7db",
        "mtName": "Egg-\u5c24\u59ae\u4e1d",
        "jgId": "xiuren",
        "jgName": "\u79c0\u4eba\u7f51",
        "href": "http://d.duotuwang.com/2022/03/07/28827/",
        "count": 41,
        "start": 1,
        "hasMtTag": 1,
        "hasJgTag": 1,
        "mtCount": 29,
        "jgCount": 750
    },
    {
        "name": "[XIUREN]\u79c0\u4eba\u7f51 No.4680 \u767d\u5e7c\u5e7c",
        "src": "http://d.duotuwang.com/2022/03/07/28826/0.jpg",
        "mtId": "7254fdc4dc46ced1",
        "mtName": "\u767d\u5e7c\u5e7c",
        "jgId": "xiuren",
        "jgName": "\u79c0\u4eba\u7f51",
        "href": "http://d.duotuwang.com/2022/03/07/28826/",
        "count": 74,
        "start": 1,
        "hasMtTag": 1,
        "hasJgTag": 1,
        "mtCount": 1,
        "jgCount": 750
    },
    {
        "name": "[XIUREN]\u79c0\u4eba\u7f51 No.4679 \u738b\u5a49\u60a0Queen",
        "src": "http://d.duotuwang.com/2022/03/07/28825/0.jpg",
        "mtId": "fe06cbeaec35f3a0",
        "mtName": "\u738b\u5a49\u60a0Queen",
        "jgId": "xiuren",
        "jgName": "\u79c0\u4eba\u7f51",
        "href": "http://d.duotuwang.com/2022/03/07/28825/",
        "count": 49,
        "start": 1,
        "hasMtTag": 1,
        "hasJgTag": 1,
        "mtCount": 4,
        "jgCount": 750
    }
]