[
    {
        "name": "[XIUREN]\u79c0\u4eba\u7f51 No.4618 \u4f60\u7684\u5154\u59b9\u59b9",
        "src": "http://d.duotuwang.com/2022/02/22/28595/0.jpg",
        "mtId": "3feaca2aa5ec9dbf",
        "mtName": "\u4f60\u7684\u5154\u59b9\u59b9",
        "jgId": "xiuren",
        "jgName": "\u79c0\u4eba\u7f51",
        "href": "http://d.duotuwang.com/2022/02/22/28595/",
        "count": 60,
        "start": 1,
        "hasMtTag": 1,
        "hasJgTag": 1,
        "mtCount": 1,
        "jgCount": 750
    },
    {
        "name": "[XIUREN]\u79c0\u4eba\u7f51 No.4617 \u751c\u59ae",
        "src": "http://d.duotuwang.com/2022/02/22/28594/0.jpg",
        "mtId": "53fa7649254e347b",
        "mtName": "\u751c\u59ae",
        "jgId": "xiuren",
        "jgName": "\u79c0\u4eba\u7f51",
        "href": "http://d.duotuwang.com/2022/02/22/28594/",
        "count": 59,
        "start": 1,
        "hasMtTag": 1,
        "hasJgTag": 1,
        "mtCount": 1,
        "jgCount": 750
    },
    {
        "name": "[XIUREN]\u79c0\u4eba\u7f51 \u5510\u5b89\u742a",
        "src": "http://d.duotuwang.com/2022/02/21/29484/0.jpg",
        "mtId": "552de7273733ea34",
        "mtName": "\u5510\u5b89\u742a",
        "jgId": "xiuren",
        "jgName": "\u79c0\u4eba\u7f51",
        "href": "http://d.duotuwang.com/2022/02/21/29484/",
        "count": 85,
        "start": 1,
        "hasMtTag": 1,
        "hasJgTag": 1,
        "mtCount": 19,
        "jgCount": 750
    },
    {
        "name": "[XIUREN]\u79c0\u4eba\u7f51 No.4616 \u5510\u5b89\u742a",
        "src": "http://d.duotuwang.com/2022/02/21/28593/0.jpg",
        "mtId": "552de7273733ea34",
        "mtName": "\u5510\u5b89\u742a",
        "jgId": "xiuren",
        "jgName": "\u79c0\u4eba\u7f51",
        "href": "http://d.duotuwang.com/2022/02/21/28593/",
        "count": 78,
        "start": 1,
        "hasMtTag": 1,
        "hasJgTag": 1,
        "mtCount": 19,
        "jgCount": 750
    },
    {
        "name": "[XIUREN]\u79c0\u4eba\u7f51 No.4615 \u6768\u6668\u6668Yome",
        "src": "http://d.duotuwang.com/2022/02/21/28592/0.jpg",
        "mtId": "48bada5e7225ec9f",
        "mtName": "\u6768\u6668\u6668sugar",
        "jgId": "xiuren",
        "jgName": "\u79c0\u4eba\u7f51",
        "href": "http://d.duotuwang.com/2022/02/21/28592/",
        "count": 77,
        "start": 1,
        "hasMtTag": 1,
        "hasJgTag": 1,
        "mtCount": 89,
        "jgCount": 750
    },
    {
        "name": "[XIUREN]\u79c0\u4eba\u7f51 No.4614 \u8bd7\u8bd7kiki",
        "src": "http://d.duotuwang.com/2022/02/21/28591/0.jpg",
        "mtId": "d7f8fece5bbc52e6",
        "mtName": "\u8bd7\u8bd7kiki",
        "jgId": "xiuren",
        "jgName": "\u79c0\u4eba\u7f51",
        "href": "http://d.duotuwang.com/2022/02/21/28591/",
        "count": 70,
        "start": 1,
        "hasMtTag": 1,
        "hasJgTag": 1,
        "mtCount": 10,
        "jgCount": 750
    }
]