[
    {
        "name": "[XIUREN]\u79c0\u4eba\u7f51 No.4572 \u6c50\u6c50baby",
        "src": "http://d.duotuwang.com/2022/02/11/28500/0.jpg",
        "mtId": "c5e50fb0a4ebbc43",
        "mtName": "\u6c50\u6c50baby",
        "jgId": "xiuren",
        "jgName": "\u79c0\u4eba\u7f51",
        "href": "http://d.duotuwang.com/2022/02/11/28500/",
        "count": 80,
        "start": 1,
        "hasMtTag": 1,
        "hasJgTag": 1,
        "mtCount": 10,
        "jgCount": 750
    },
    {
        "name": "[XIUREN]\u79c0\u4eba\u7f51 No.4571 summer\u5b9d\u5b9d",
        "src": "http://d.duotuwang.com/2022/02/11/28499/0.jpg",
        "mtId": "44fdbd7b49f4f2c0",
        "mtName": "summer\u5b9d\u5b9d",
        "jgId": "xiuren",
        "jgName": "\u79c0\u4eba\u7f51",
        "href": "http://d.duotuwang.com/2022/02/11/28499/",
        "count": 48,
        "start": 1,
        "hasMtTag": 1,
        "hasJgTag": 1,
        "mtCount": 3,
        "jgCount": 750
    },
    {
        "name": "[XIUREN]\u79c0\u4eba\u7f51 No.4570 \u9646\u8431\u8431",
        "src": "http://d.duotuwang.com/2022/02/10/28498/0.jpg",
        "mtId": "15c3767f8a07de21",
        "mtName": "\u9646\u8431\u8431",
        "jgId": "xiuren",
        "jgName": "\u79c0\u4eba\u7f51",
        "href": "http://d.duotuwang.com/2022/02/10/28498/",
        "count": 79,
        "start": 1,
        "hasMtTag": 1,
        "hasJgTag": 1,
        "mtCount": 25,
        "jgCount": 750
    },
    {
        "name": "[XIUREN]\u79c0\u4eba\u7f51 No.4569 \u4e00\u9897\u751c\u86cb\u9ec4a",
        "src": "http://d.duotuwang.com/2022/02/10/28497/0.jpg",
        "mtId": "1e531aa4c2b8e6f7",
        "mtName": "\u4e00\u9897\u751c\u86cb\u9ec4a",
        "jgId": "xiuren",
        "jgName": "\u79c0\u4eba\u7f51",
        "href": "http://d.duotuwang.com/2022/02/10/28497/",
        "count": 67,
        "start": 1,
        "hasMtTag": 1,
        "hasJgTag": 1,
        "mtCount": 5,
        "jgCount": 750
    },
    {
        "name": "[XIUREN]\u79c0\u4eba\u7f51 No.4568 \u718a\u5c0f\u8bfa",
        "src": "http://d.duotuwang.com/2022/02/10/28496/0.jpg",
        "mtId": "4b77043b985e1845",
        "mtName": "\u718a\u5c0f\u8bfa",
        "jgId": "xiuren",
        "jgName": "\u79c0\u4eba\u7f51",
        "href": "http://d.duotuwang.com/2022/02/10/28496/",
        "count": 56,
        "start": 1,
        "hasMtTag": 1,
        "hasJgTag": 1,
        "mtCount": 11,
        "jgCount": 750
    },
    {
        "name": "[XIUREN]\u79c0\u4eba\u7f51 No.4567 \u987e\u4e54\u6960Cora",
        "src": "http://d.duotuwang.com/2022/02/10/28495/0.jpg",
        "mtId": "71814f89502e46e8",
        "mtName": "\u987e\u4e54\u6960",
        "jgId": "xiuren",
        "jgName": "\u79c0\u4eba\u7f51",
        "href": "http://d.duotuwang.com/2022/02/10/28495/",
        "count": 71,
        "start": 1,
        "hasMtTag": 1,
        "hasJgTag": 1,
        "mtCount": 8,
        "jgCount": 750
    }
]