[
    {
        "name": "[XIUREN]\u79c0\u4eba\u7f51 No.4526 \u679c\u513fVictoria",
        "src": "http://d.duotuwang.com/2022/01/28/28415/0.jpg",
        "mtId": "fc1868c8a652655f",
        "mtName": "\u679c\u513fVictoria",
        "jgId": "xiuren",
        "jgName": "\u79c0\u4eba\u7f51",
        "href": "http://d.duotuwang.com/2022/01/28/28415/",
        "count": 79,
        "start": 1,
        "hasMtTag": 1,
        "hasJgTag": 1,
        "mtCount": 29,
        "jgCount": 750
    },
    {
        "name": "[XIUREN]\u79c0\u4eba\u7f51 No.4525 \u987e\u4e54\u6960Cora",
        "src": "http://d.duotuwang.com/2022/01/28/28414/0.jpg",
        "mtId": "71814f89502e46e8",
        "mtName": "\u987e\u4e54\u6960",
        "jgId": "xiuren",
        "jgName": "\u79c0\u4eba\u7f51",
        "href": "http://d.duotuwang.com/2022/01/28/28414/",
        "count": 53,
        "start": 1,
        "hasMtTag": 1,
        "hasJgTag": 1,
        "mtCount": 8,
        "jgCount": 750
    },
    {
        "name": "[XIUREN]\u79c0\u4eba\u7f51 No.4524 \u718a\u5c0f\u8bfa",
        "src": "http://d.duotuwang.com/2022/01/27/28413/0.jpg",
        "mtId": "4b77043b985e1845",
        "mtName": "\u718a\u5c0f\u8bfa",
        "jgId": "xiuren",
        "jgName": "\u79c0\u4eba\u7f51",
        "href": "http://d.duotuwang.com/2022/01/27/28413/",
        "count": 60,
        "start": 1,
        "hasMtTag": 1,
        "hasJgTag": 1,
        "mtCount": 11,
        "jgCount": 750
    },
    {
        "name": "[XIUREN]\u79c0\u4eba\u7f51 No.4523 \u5229\u4e16",
        "src": "http://d.duotuwang.com/2022/01/27/28412/0.jpg",
        "mtId": "8356114d4df8d319",
        "mtName": "\u6296\u5a18\u5229\u4e16",
        "jgId": "xiuren",
        "jgName": "\u79c0\u4eba\u7f51",
        "href": "http://d.duotuwang.com/2022/01/27/28412/",
        "count": 97,
        "start": 1,
        "hasMtTag": 1,
        "hasJgTag": 1,
        "mtCount": 7,
        "jgCount": 750
    },
    {
        "name": "[XIUREN]\u79c0\u4eba\u7f51 No.4522 Evelyn\u827e\u8389",
        "src": "http://d.duotuwang.com/2022/01/27/28411/0.jpg",
        "mtId": "25b9d9de60147a4d",
        "mtName": "Evelyn\u827e\u8389",
        "jgId": "xiuren",
        "jgName": "\u79c0\u4eba\u7f51",
        "href": "http://d.duotuwang.com/2022/01/27/28411/",
        "count": 53,
        "start": 1,
        "hasMtTag": 1,
        "hasJgTag": 1,
        "mtCount": 8,
        "jgCount": 750
    },
    {
        "name": "[XIUREN]\u79c0\u4eba\u7f51 No.4521 \u8a00\u6cab",
        "src": "http://d.duotuwang.com/2022/01/27/28410/0.jpg",
        "mtId": "3c6f7e1773bf4c77",
        "mtName": "\u8a00\u6cab",
        "jgId": "xiuren",
        "jgName": "\u79c0\u4eba\u7f51",
        "href": "http://d.duotuwang.com/2022/01/27/28410/",
        "count": 76,
        "start": 1,
        "hasMtTag": 1,
        "hasJgTag": 1,
        "mtCount": 11,
        "jgCount": 750
    }
]