[
    {
        "name": "[XIUREN]\u79c0\u4eba\u7f51 No.4378 \u9646\u8431\u8431",
        "src": "http://d.duotuwang.com/2021/12/23/27933/0.jpg",
        "mtId": "15c3767f8a07de21",
        "mtName": "\u9646\u8431\u8431",
        "jgId": "xiuren",
        "jgName": "\u79c0\u4eba\u7f51",
        "href": "http://d.duotuwang.com/2021/12/23/27933/",
        "count": 80,
        "start": 1,
        "hasMtTag": 1,
        "hasJgTag": 1,
        "mtCount": 25,
        "jgCount": 750
    },
    {
        "name": "[XIUREN]\u79c0\u4eba\u7f51 No.4377 \u5c0f\u86ee\u5996Yummy",
        "src": "http://d.duotuwang.com/2021/12/23/27932/0.jpg",
        "mtId": "2dc510fc19dd00b7",
        "mtName": "\u5c0f\u86ee\u5996Yummy",
        "jgId": "xiuren",
        "jgName": "\u79c0\u4eba\u7f51",
        "href": "http://d.duotuwang.com/2021/12/23/27932/",
        "count": 83,
        "start": 1,
        "hasMtTag": 1,
        "hasJgTag": 1,
        "mtCount": 8,
        "jgCount": 750
    },
    {
        "name": "[XIUREN]\u79c0\u4eba\u7f51 No.4376 \u674e\u96c5\u67d4182CM",
        "src": "http://d.duotuwang.com/2021/12/23/27931/0.jpg",
        "mtId": "dcea9eebb24ab4fc",
        "mtName": "\u674e\u96c5\u67d4182CM",
        "jgId": "xiuren",
        "jgName": "\u79c0\u4eba\u7f51",
        "href": "http://d.duotuwang.com/2021/12/23/27931/",
        "count": 64,
        "start": 1,
        "hasMtTag": 1,
        "hasJgTag": 1,
        "mtCount": 7,
        "jgCount": 750
    },
    {
        "name": "[XIUREN]\u79c0\u4eba\u7f51 No.4375 \u4e45\u4e45Aimee",
        "src": "http://d.duotuwang.com/2021/12/23/27930/0.jpg",
        "mtId": "e9e2057cd6e2887d",
        "mtName": "\u4e45\u4e45Aimee",
        "jgId": "xiuren",
        "jgName": "\u79c0\u4eba\u7f51",
        "href": "http://d.duotuwang.com/2021/12/23/27930/",
        "count": 62,
        "start": 1,
        "hasMtTag": 1,
        "hasJgTag": 1,
        "mtCount": 7,
        "jgCount": 750
    },
    {
        "name": "[XIUREN]\u79c0\u4eba\u7f51 No.4374 \u6587\u82aejeninfer",
        "src": "http://d.duotuwang.com/2021/12/23/27929/0.jpg",
        "mtId": "dd1e9e2e1b5b9138",
        "mtName": "\u6587\u82aejeninfer",
        "jgId": "xiuren",
        "jgName": "\u79c0\u4eba\u7f51",
        "href": "http://d.duotuwang.com/2021/12/23/27929/",
        "count": 50,
        "start": 1,
        "hasMtTag": 1,
        "hasJgTag": 1,
        "mtCount": 4,
        "jgCount": 750
    },
    {
        "name": "[XIUREN]\u79c0\u4eba\u7f51 No.4373 \u5468\u4e8e\u5e0cSally",
        "src": "http://d.duotuwang.com/2021/12/22/27850/0.jpg",
        "mtId": "de6bdb42ece2255f",
        "mtName": "\u5468\u4e8e\u5e0cSandy",
        "jgId": "xiuren",
        "jgName": "\u79c0\u4eba\u7f51",
        "href": "http://d.duotuwang.com/2021/12/22/27850/",
        "count": 84,
        "start": 1,
        "hasMtTag": 1,
        "hasJgTag": 1,
        "mtCount": 59,
        "jgCount": 750
    }
]