[
    {
        "name": "[XIUREN]\u79c0\u4eba\u7f51 No.5467 \u738b\u96e8\u7eaf",
        "src": "http://d.duotuwang.com/2022/08/19/31034/0.jpg",
        "mtId": "6a5d00e535915ee5",
        "mtName": "\u738b\u96e8\u7eaf",
        "jgId": "xiuren",
        "jgName": "\u79c0\u4eba\u7f51",
        "href": "http://d.duotuwang.com/2022/08/19/31034/",
        "count": 84,
        "start": 1,
        "hasMtTag": 1,
        "hasJgTag": 1,
        "mtCount": 60,
        "jgCount": 750
    },
    {
        "name": "[XIUREN]\u79c0\u4eba\u7f51 No.5466 \u5c31\u662f\u963f\u6731\u554a",
        "src": "http://d.duotuwang.com/2022/08/19/31033/0.jpg",
        "mtId": "0fe398c14ee967d6",
        "mtName": "\u5c31\u662f\u963f\u6731\u554a",
        "jgId": "xiuren",
        "jgName": "\u79c0\u4eba\u7f51",
        "href": "http://d.duotuwang.com/2022/08/19/31033/",
        "count": 83,
        "start": 1,
        "hasMtTag": 1,
        "hasJgTag": 1,
        "mtCount": 16,
        "jgCount": 750
    },
    {
        "name": "[XIUREN]\u79c0\u4eba\u7f51 No.5465 \u8c46\u74e3\u9171 2/2",
        "src": "http://d.duotuwang.com/2022/08/19/31336/0.jpg",
        "mtId": "08803faee9d72468",
        "mtName": "\u8c46\u74e3\u9171",
        "jgId": "xiuren",
        "jgName": "\u79c0\u4eba\u7f51",
        "href": "http://d.duotuwang.com/2022/08/19/31336/",
        "count": 58,
        "start": 60,
        "hasMtTag": 1,
        "hasJgTag": 1,
        "mtCount": 8,
        "jgCount": 750
    },
    {
        "name": "[XIUREN]\u79c0\u4eba\u7f51 No.5465 \u8c46\u74e3\u9171 1/2",
        "src": "http://d.duotuwang.com/2022/08/19/31032/0.jpg",
        "mtId": "08803faee9d72468",
        "mtName": "\u8c46\u74e3\u9171",
        "jgId": "xiuren",
        "jgName": "\u79c0\u4eba\u7f51",
        "href": "http://d.duotuwang.com/2022/08/19/31032/",
        "count": 59,
        "start": 1,
        "hasMtTag": 1,
        "hasJgTag": 1,
        "mtCount": 8,
        "jgCount": 750
    },
    {
        "name": "[XIUREN]\u79c0\u4eba\u7f51 No.5464 \u718a\u5c0f\u8bfa",
        "src": "http://d.duotuwang.com/2022/08/19/31031/0.jpg",
        "mtId": "4b77043b985e1845",
        "mtName": "\u718a\u5c0f\u8bfa",
        "jgId": "xiuren",
        "jgName": "\u79c0\u4eba\u7f51",
        "href": "http://d.duotuwang.com/2022/08/19/31031/",
        "count": 82,
        "start": 1,
        "hasMtTag": 1,
        "hasJgTag": 1,
        "mtCount": 11,
        "jgCount": 750
    },
    {
        "name": "[XIUREN]\u79c0\u4eba\u7f51 No.5463 \u5c0f\u679c\u51bb\u513f",
        "src": "http://d.duotuwang.com/2022/08/19/31030/0.jpg",
        "mtId": "86aa746387f17777",
        "mtName": "\u5c0f\u679c\u51bb\u513f",
        "jgId": "xiuren",
        "jgName": "\u79c0\u4eba\u7f51",
        "href": "http://d.duotuwang.com/2022/08/19/31030/",
        "count": 55,
        "start": 1,
        "hasMtTag": 1,
        "hasJgTag": 1,
        "mtCount": 7,
        "jgCount": 750
    }
]