[
    {
        "name": "[XIUREN]\u79c0\u4eba\u7f51 No.4272 \u6731\u53ef\u513fFlora",
        "src": "http://d.duotuwang.com/2021/11/26/27557/0.jpg",
        "mtId": "6ded6be4a79e57ac",
        "mtName": "\u6731\u53ef\u513fFlower",
        "jgId": "xiuren",
        "jgName": "\u79c0\u4eba\u7f51",
        "href": "http://d.duotuwang.com/2021/11/26/27557/",
        "count": 57,
        "start": 1,
        "hasMtTag": 1,
        "hasJgTag": 1,
        "mtCount": 38,
        "jgCount": 750
    },
    {
        "name": "[XIUREN]\u79c0\u4eba\u7f51 No.4271 \u5468\u6155\u6c50baby",
        "src": "http://d.duotuwang.com/2021/11/26/27556/0.jpg",
        "mtId": "c5e50fb0a4ebbc43",
        "mtName": "\u5468\u6155\u6c50fairy",
        "jgId": "xiuren",
        "jgName": "\u79c0\u4eba\u7f51",
        "href": "http://d.duotuwang.com/2021/11/26/27556/",
        "count": 68,
        "start": 1,
        "hasMtTag": 1,
        "hasJgTag": 1,
        "mtCount": 10,
        "jgCount": 750
    },
    {
        "name": "[XIUREN]\u79c0\u4eba\u7f51 No.4270 \u674e\u96c5\u67d4182CM",
        "src": "http://d.duotuwang.com/2021/11/26/27555/0.jpg",
        "mtId": "dcea9eebb24ab4fc",
        "mtName": "\u674e\u96c5\u67d4182CM",
        "jgId": "xiuren",
        "jgName": "\u79c0\u4eba\u7f51",
        "href": "http://d.duotuwang.com/2021/11/26/27555/",
        "count": 44,
        "start": 1,
        "hasMtTag": 1,
        "hasJgTag": 1,
        "mtCount": 7,
        "jgCount": 750
    },
    {
        "name": "[XIUREN]\u79c0\u4eba\u7f51 No.4269 \u829d\u829dBooty",
        "src": "http://d.duotuwang.com/2021/11/25/27554/0.jpg",
        "mtId": "8fe458bd9af7ab1d",
        "mtName": "\u829d\u829dBooty",
        "jgId": "xiuren",
        "jgName": "\u79c0\u4eba\u7f51",
        "href": "http://d.duotuwang.com/2021/11/25/27554/",
        "count": 100,
        "start": 1,
        "hasMtTag": 1,
        "hasJgTag": 1,
        "mtCount": 56,
        "jgCount": 750
    },
    {
        "name": "[XIUREN]\u79c0\u4eba\u7f51 No.4268 \u9646\u8431\u8431",
        "src": "http://d.duotuwang.com/2021/11/25/27553/0.jpg",
        "mtId": "15c3767f8a07de21",
        "mtName": "\u9646\u8431\u8431",
        "jgId": "xiuren",
        "jgName": "\u79c0\u4eba\u7f51",
        "href": "http://d.duotuwang.com/2021/11/25/27553/",
        "count": 78,
        "start": 1,
        "hasMtTag": 1,
        "hasJgTag": 1,
        "mtCount": 25,
        "jgCount": 750
    },
    {
        "name": "[XIUREN]\u79c0\u4eba\u7f51 No.4267 \u679c\u513fVictoria",
        "src": "http://d.duotuwang.com/2021/11/25/27552/0.jpg",
        "mtId": "fc1868c8a652655f",
        "mtName": "\u679c\u513fVictoria",
        "jgId": "xiuren",
        "jgName": "\u79c0\u4eba\u7f51",
        "href": "http://d.duotuwang.com/2021/11/25/27552/",
        "count": 60,
        "start": 1,
        "hasMtTag": 1,
        "hasJgTag": 1,
        "mtCount": 29,
        "jgCount": 750
    }
]