[
    {
        "name": "[XIUREN]\u79c0\u4eba\u7f51 No.4266 \u674e\u96c5\u67d4182CM",
        "src": "http://d.duotuwang.com/2021/11/25/27551/0.jpg",
        "mtId": "dcea9eebb24ab4fc",
        "mtName": "\u674e\u96c5\u67d4182CM",
        "jgId": "xiuren",
        "jgName": "\u79c0\u4eba\u7f51",
        "href": "http://d.duotuwang.com/2021/11/25/27551/",
        "count": 54,
        "start": 1,
        "hasMtTag": 1,
        "hasJgTag": 1,
        "mtCount": 7,
        "jgCount": 750
    },
    {
        "name": "[XIUREN]\u79c0\u4eba\u7f51 No.4265 \u5c0f\u732apeggy",
        "src": "http://d.duotuwang.com/2021/11/25/27550/0.jpg",
        "jgId": "xiuren",
        "jgName": "\u79c0\u4eba\u7f51",
        "href": "http://d.duotuwang.com/2021/11/25/27550/",
        "count": 70,
        "start": 1,
        "hasMtTag": 0,
        "hasJgTag": 1,
        "jgCount": 750
    },
    {
        "name": "[XIUREN]\u79c0\u4eba\u7f51 No.4264 \u738b\u5fc3\u6021",
        "src": "http://d.duotuwang.com/2021/11/24/27549/0.jpg",
        "mtId": "0c94021581c07e86",
        "mtName": "\u738b\u5fc3\u6021",
        "jgId": "xiuren",
        "jgName": "\u79c0\u4eba\u7f51",
        "href": "http://d.duotuwang.com/2021/11/24/27549/",
        "count": 78,
        "start": 1,
        "hasMtTag": 1,
        "hasJgTag": 1,
        "mtCount": 6,
        "jgCount": 750
    },
    {
        "name": "[XIUREN]\u79c0\u4eba\u7f51 No.4263 \u68a6\u5fc3\u6708",
        "src": "http://d.duotuwang.com/2021/11/24/27548/0.jpg",
        "mtId": "845a90943c4d1633",
        "mtName": "\u68a6\u5fc3\u6708",
        "jgId": "xiuren",
        "jgName": "\u79c0\u4eba\u7f51",
        "href": "http://d.duotuwang.com/2021/11/24/27548/",
        "count": 95,
        "start": 1,
        "hasMtTag": 1,
        "hasJgTag": 1,
        "mtCount": 35,
        "jgCount": 750
    },
    {
        "name": "[XIUREN]\u79c0\u4eba\u7f51 No.4262 Egg_\u5c24\u59ae\u4e1d",
        "src": "http://d.duotuwang.com/2021/11/24/27547/0.jpg",
        "mtId": "ad6ceea13469d7db",
        "mtName": "Egg-\u5c24\u59ae\u4e1d",
        "jgId": "xiuren",
        "jgName": "\u79c0\u4eba\u7f51",
        "href": "http://d.duotuwang.com/2021/11/24/27547/",
        "count": 50,
        "start": 1,
        "hasMtTag": 1,
        "hasJgTag": 1,
        "mtCount": 29,
        "jgCount": 750
    },
    {
        "name": "[XIUREN]\u79c0\u4eba\u7f51 No.4261 Niki\u53ef\u96c5",
        "src": "http://d.duotuwang.com/2021/11/24/27546/0.jpg",
        "mtId": "03d2c6cb0c62f44b",
        "mtName": "Niki\u53ef\u96c5",
        "jgId": "xiuren",
        "jgName": "\u79c0\u4eba\u7f51",
        "href": "http://d.duotuwang.com/2021/11/24/27546/",
        "count": 50,
        "start": 1,
        "hasMtTag": 1,
        "hasJgTag": 1,
        "mtCount": 2,
        "jgCount": 750
    }
]