[
    {
        "name": "[XIUREN]\u79c0\u4eba\u7f51 No.4117 \u5f20\u6b23\u6b23",
        "src": "http://d.duotuwang.com/2021/10/26/27148/0.jpg",
        "mtId": "52bb8739508919a0",
        "mtName": "\u5f20\u6b23\u6b23",
        "jgId": "xiuren",
        "jgName": "\u79c0\u4eba\u7f51",
        "href": "http://d.duotuwang.com/2021/10/26/27148/",
        "count": 83,
        "start": 1,
        "hasMtTag": 1,
        "hasJgTag": 1,
        "mtCount": 5,
        "jgCount": 750
    },
    {
        "name": "[XIUREN]\u79c0\u4eba\u7f51 No.4116 \u5ba5\u5229",
        "src": "http://d.duotuwang.com/2021/10/26/27147/0.jpg",
        "mtId": "8f384c6f5097c9fa",
        "mtName": "\u5ba5\u5229",
        "jgId": "xiuren",
        "jgName": "\u79c0\u4eba\u7f51",
        "href": "http://d.duotuwang.com/2021/10/26/27147/",
        "count": 53,
        "start": 1,
        "hasMtTag": 1,
        "hasJgTag": 1,
        "mtCount": 2,
        "jgCount": 750
    },
    {
        "name": "[XIUREN]\u79c0\u4eba\u7f51 No.4115 \u8bd7\u8bd7kiki",
        "src": "http://d.duotuwang.com/2021/10/26/27146/0.jpg",
        "mtId": "d7f8fece5bbc52e6",
        "mtName": "\u8bd7\u8bd7kiki",
        "jgId": "xiuren",
        "jgName": "\u79c0\u4eba\u7f51",
        "href": "http://d.duotuwang.com/2021/10/26/27146/",
        "count": 70,
        "start": 1,
        "hasMtTag": 1,
        "hasJgTag": 1,
        "mtCount": 10,
        "jgCount": 750
    },
    {
        "name": "[XIUREN]\u79c0\u4eba\u7f51 No.4114 \u829d\u829dBooty",
        "src": "http://d.duotuwang.com/2021/10/25/27145/0.jpg",
        "mtId": "8fe458bd9af7ab1d",
        "mtName": "\u829d\u829dBooty",
        "jgId": "xiuren",
        "jgName": "\u79c0\u4eba\u7f51",
        "href": "http://d.duotuwang.com/2021/10/25/27145/",
        "count": 97,
        "start": 1,
        "hasMtTag": 1,
        "hasJgTag": 1,
        "mtCount": 56,
        "jgCount": 750
    },
    {
        "name": "[XIUREN]\u79c0\u4eba\u7f51 No.4113 \u6731\u53ef\u513fFlower",
        "src": "http://d.duotuwang.com/2021/10/25/27144/0.jpg",
        "mtId": "6ded6be4a79e57ac",
        "mtName": "\u6731\u53ef\u513fFlower",
        "jgId": "xiuren",
        "jgName": "\u79c0\u4eba\u7f51",
        "href": "http://d.duotuwang.com/2021/10/25/27144/",
        "count": 70,
        "start": 1,
        "hasMtTag": 1,
        "hasJgTag": 1,
        "mtCount": 38,
        "jgCount": 750
    },
    {
        "name": "[XIUREN]\u79c0\u4eba\u7f51 No.4112 \u5b89\u7136Maleah",
        "src": "http://d.duotuwang.com/2021/10/25/27143/0.jpg",
        "mtId": "d6505baadceb44e6",
        "mtName": "\u5b89\u7136Maleah",
        "jgId": "xiuren",
        "jgName": "\u79c0\u4eba\u7f51",
        "href": "http://d.duotuwang.com/2021/10/25/27143/",
        "count": 81,
        "start": 1,
        "hasMtTag": 1,
        "hasJgTag": 1,
        "mtCount": 16,
        "jgCount": 750
    }
]