[
    {
        "name": "[XIUREN]\u79c0\u4eba\u7f51 No.3976 Emily\u5c39\u83f2",
        "src": "http://d.duotuwang.com/2021/09/22/26753/0.jpg",
        "mtId": "eaa19160eb9a4e36",
        "mtName": "SOLO-\u5c39\u83f2",
        "jgId": "xiuren",
        "jgName": "\u79c0\u4eba\u7f51",
        "href": "http://d.duotuwang.com/2021/09/22/26753/",
        "count": 72,
        "start": 1,
        "hasMtTag": 1,
        "hasJgTag": 1,
        "mtCount": 22,
        "jgCount": 750
    },
    {
        "name": "[XIUREN]\u79c0\u4eba\u7f51 No.3975 xiuren\u767d\u9732",
        "src": "http://d.duotuwang.com/2021/09/22/26752/0.jpg",
        "mtId": "5cd1cc0726427c54",
        "mtName": "\u767d\u9732\u5c0f\u732a",
        "jgId": "xiuren",
        "jgName": "\u79c0\u4eba\u7f51",
        "href": "http://d.duotuwang.com/2021/09/22/26752/",
        "count": 71,
        "start": 1,
        "hasMtTag": 1,
        "hasJgTag": 1,
        "mtCount": 2,
        "jgCount": 750
    },
    {
        "name": "[XIUREN]\u79c0\u4eba\u7f51 No.3974 \u8c46\u74e3\u9171",
        "src": "http://d.duotuwang.com/2021/09/22/26751/0.jpg",
        "mtId": "08803faee9d72468",
        "mtName": "\u8c46\u74e3\u9171",
        "jgId": "xiuren",
        "jgName": "\u79c0\u4eba\u7f51",
        "href": "http://d.duotuwang.com/2021/09/22/26751/",
        "count": 46,
        "start": 1,
        "hasMtTag": 1,
        "hasJgTag": 1,
        "mtCount": 8,
        "jgCount": 750
    },
    {
        "name": "[XIUREN]\u79c0\u4eba\u7f51 No.3973 \u5468\u4e8e\u5e0cSandy",
        "src": "http://d.duotuwang.com/2021/09/18/26750/0.jpg",
        "mtId": "de6bdb42ece2255f",
        "mtName": "\u5468\u4e8e\u5e0cSandy",
        "jgId": "xiuren",
        "jgName": "\u79c0\u4eba\u7f51",
        "href": "http://d.duotuwang.com/2021/09/18/26750/",
        "count": 70,
        "start": 1,
        "hasMtTag": 1,
        "hasJgTag": 1,
        "mtCount": 59,
        "jgCount": 750
    },
    {
        "name": "[XIUREN]\u79c0\u4eba\u7f51 No.3972 \u9c7c\u5b50\u9171Fish 2/2",
        "src": "http://d.duotuwang.com/2021/09/18/26828/0.jpg",
        "mtId": "2606e0481db6777f",
        "mtName": "\u9c7c\u5b50\u9171Fish",
        "jgId": "xiuren",
        "jgName": "\u79c0\u4eba\u7f51",
        "href": "http://d.duotuwang.com/2021/09/18/26828/",
        "count": 61,
        "start": 52,
        "hasMtTag": 1,
        "hasJgTag": 1,
        "mtCount": 16,
        "jgCount": 750
    },
    {
        "name": "[XIUREN]\u79c0\u4eba\u7f51 No.3972 \u9c7c\u5b50\u9171Fish 1/2",
        "src": "http://d.duotuwang.com/2021/09/18/26749/0.jpg",
        "mtId": "2606e0481db6777f",
        "mtName": "\u9c7c\u5b50\u9171Fish",
        "jgId": "xiuren",
        "jgName": "\u79c0\u4eba\u7f51",
        "href": "http://d.duotuwang.com/2021/09/18/26749/",
        "count": 51,
        "start": 1,
        "hasMtTag": 1,
        "hasJgTag": 1,
        "mtCount": 16,
        "jgCount": 750
    }
]