[
    {
        "name": "[XIUREN]\u79c0\u4eba\u7f51 No.3942 \u679c\u513fVictoria",
        "src": "http://d.duotuwang.com/2021/09/14/26596/0.jpg",
        "mtId": "fc1868c8a652655f",
        "mtName": "\u679c\u513fVictoria",
        "jgId": "xiuren",
        "jgName": "\u79c0\u4eba\u7f51",
        "href": "http://d.duotuwang.com/2021/09/14/26596/",
        "count": 51,
        "start": 1,
        "hasMtTag": 1,
        "hasJgTag": 1,
        "mtCount": 29,
        "jgCount": 750
    },
    {
        "name": "[XIUREN]\u79c0\u4eba\u7f51 No.3941 Emily\u5c39\u83f2",
        "src": "http://d.duotuwang.com/2021/09/14/26595/0.jpg",
        "mtId": "eaa19160eb9a4e36",
        "mtName": "SOLO-\u5c39\u83f2",
        "jgId": "xiuren",
        "jgName": "\u79c0\u4eba\u7f51",
        "href": "http://d.duotuwang.com/2021/09/14/26595/",
        "count": 63,
        "start": 1,
        "hasMtTag": 1,
        "hasJgTag": 1,
        "mtCount": 22,
        "jgCount": 750
    },
    {
        "name": "[XIUREN]\u79c0\u4eba\u7f51 No.3940 \u840c\u6c49\u836fbaby",
        "src": "http://d.duotuwang.com/2021/09/14/26594/0.jpg",
        "mtId": "830ea5862a484115",
        "mtName": "\u840c\u6c49\u836fbaby",
        "jgId": "xiuren",
        "jgName": "\u79c0\u4eba\u7f51",
        "href": "http://d.duotuwang.com/2021/09/14/26594/",
        "count": 56,
        "start": 1,
        "hasMtTag": 1,
        "hasJgTag": 1,
        "mtCount": 17,
        "jgCount": 750
    },
    {
        "name": "[XIUREN]\u79c0\u4eba\u7f51 No.3939 \u5434\u96ea\u7476",
        "src": "http://d.duotuwang.com/2021/09/14/26593/0.jpg",
        "mtId": "5d2993653be79cee",
        "mtName": "\u5434\u96ea\u7476",
        "jgId": "xiuren",
        "jgName": "\u79c0\u4eba\u7f51",
        "href": "http://d.duotuwang.com/2021/09/14/26593/",
        "count": 35,
        "start": 1,
        "hasMtTag": 1,
        "hasJgTag": 1,
        "mtCount": 6,
        "jgCount": 750
    },
    {
        "name": "[XIUREN]\u79c0\u4eba\u7f51 No.3938 \u82cf\u5c0f\u66fcbabyface",
        "src": "http://d.duotuwang.com/2021/09/14/26592/0.jpg",
        "mtId": "4a595ac08e09c195",
        "mtName": "\u82cf\u5c0f\u66fc",
        "jgId": "xiuren",
        "jgName": "\u79c0\u4eba\u7f51",
        "href": "http://d.duotuwang.com/2021/09/14/26592/",
        "count": 63,
        "start": 1,
        "hasMtTag": 1,
        "hasJgTag": 1,
        "mtCount": 6,
        "jgCount": 750
    },
    {
        "name": "[XIUREN]\u79c0\u4eba\u7f51 No.3937 \u5468\u4e8e\u5e0cSandy",
        "src": "http://d.duotuwang.com/2021/09/13/26591/0.jpg",
        "mtId": "de6bdb42ece2255f",
        "mtName": "\u5468\u4e8e\u5e0cSandy",
        "jgId": "xiuren",
        "jgName": "\u79c0\u4eba\u7f51",
        "href": "http://d.duotuwang.com/2021/09/13/26591/",
        "count": 72,
        "start": 1,
        "hasMtTag": 1,
        "hasJgTag": 1,
        "mtCount": 59,
        "jgCount": 750
    }
]