[
    {
        "name": "[XIUREN]\u79c0\u4eba\u7f51 No.3930 \u9c7c\u5b50\u9171Fish",
        "src": "http://d.duotuwang.com/2021/09/10/26584/0.jpg",
        "mtId": "2606e0481db6777f",
        "mtName": "\u9c7c\u5b50\u9171Fish",
        "jgId": "xiuren",
        "jgName": "\u79c0\u4eba\u7f51",
        "href": "http://d.duotuwang.com/2021/09/10/26584/",
        "count": 73,
        "start": 1,
        "hasMtTag": 1,
        "hasJgTag": 1,
        "mtCount": 16,
        "jgCount": 750
    },
    {
        "name": "[XIUREN]\u79c0\u4eba\u7f51 No.3929 \u5141\u723e",
        "src": "http://d.duotuwang.com/2021/09/10/26583/0.jpg",
        "mtId": "abc6f05a1bc00c01",
        "mtName": "\u5141\u723e",
        "jgId": "xiuren",
        "jgName": "\u79c0\u4eba\u7f51",
        "href": "http://d.duotuwang.com/2021/09/10/26583/",
        "count": 41,
        "start": 1,
        "hasMtTag": 1,
        "hasJgTag": 1,
        "mtCount": 18,
        "jgCount": 750
    },
    {
        "name": "[XIUREN]\u79c0\u4eba\u7f51 No.3928 \u65b9\u5b50\u8431",
        "src": "http://d.duotuwang.com/2021/09/10/26582/0.jpg",
        "mtId": "9987f205a66cb83f",
        "mtName": "\u65b9\u5b50\u8431",
        "jgId": "xiuren",
        "jgName": "\u79c0\u4eba\u7f51",
        "href": "http://d.duotuwang.com/2021/09/10/26582/",
        "count": 40,
        "start": 1,
        "hasMtTag": 1,
        "hasJgTag": 1,
        "mtCount": 13,
        "jgCount": 750
    },
    {
        "name": "[XIUREN]\u79c0\u4eba\u7f51 No.3927 \u84dd\u8393FY",
        "src": "http://d.duotuwang.com/2021/09/10/26581/0.jpg",
        "mtId": "6019fb49e7840ae8",
        "mtName": "\u84dd\u8393FY",
        "jgId": "xiuren",
        "jgName": "\u79c0\u4eba\u7f51",
        "href": "http://d.duotuwang.com/2021/09/10/26581/",
        "count": 76,
        "start": 1,
        "hasMtTag": 1,
        "hasJgTag": 1,
        "mtCount": 1,
        "jgCount": 750
    },
    {
        "name": "[XIUREN]\u79c0\u4eba\u7f51 No.3926 \u5c0f\u679c\u51bb\u513f",
        "src": "http://d.duotuwang.com/2021/09/10/26580/0.jpg",
        "mtId": "86aa746387f17777",
        "mtName": "\u5c0f\u679c\u51bb\u513f",
        "jgId": "xiuren",
        "jgName": "\u79c0\u4eba\u7f51",
        "href": "http://d.duotuwang.com/2021/09/10/26580/",
        "count": 62,
        "start": 1,
        "hasMtTag": 1,
        "hasJgTag": 1,
        "mtCount": 7,
        "jgCount": 750
    },
    {
        "name": "[XIUREN]\u79c0\u4eba\u7f51 No.3925 \u9646\u8431\u8431",
        "src": "http://d.duotuwang.com/2021/09/09/26579/0.jpg",
        "mtId": "15c3767f8a07de21",
        "mtName": "\u9646\u8431\u8431",
        "jgId": "xiuren",
        "jgName": "\u79c0\u4eba\u7f51",
        "href": "http://d.duotuwang.com/2021/09/09/26579/",
        "count": 80,
        "start": 1,
        "hasMtTag": 1,
        "hasJgTag": 1,
        "mtCount": 25,
        "jgCount": 750
    }
]