[
    {
        "name": "[XIUREN]\u79c0\u4eba\u7f51 No.3853 \u738b\u96e8\u7eaf",
        "src": "http://d.duotuwang.com/2021/08/25/26393/0.jpg",
        "mtId": "6a5d00e535915ee5",
        "mtName": "\u738b\u96e8\u7eaf",
        "jgId": "xiuren",
        "jgName": "\u79c0\u4eba\u7f51",
        "href": "http://d.duotuwang.com/2021/08/25/26393/",
        "count": 66,
        "start": 1,
        "hasMtTag": 1,
        "hasJgTag": 1,
        "mtCount": 60,
        "jgCount": 750
    },
    {
        "name": "[XIUREN]\u79c0\u4eba\u7f51 No.3852 \u738b\u5fc3\u6021",
        "src": "http://d.duotuwang.com/2021/08/25/26392/0.jpg",
        "mtId": "0c94021581c07e86",
        "mtName": "\u738b\u5fc3\u6021",
        "jgId": "xiuren",
        "jgName": "\u79c0\u4eba\u7f51",
        "href": "http://d.duotuwang.com/2021/08/25/26392/",
        "count": 82,
        "start": 1,
        "hasMtTag": 1,
        "hasJgTag": 1,
        "mtCount": 6,
        "jgCount": 750
    },
    {
        "name": "[XIUREN]\u79c0\u4eba\u7f51 No.3851 \u5a9b\u5a9b\u9171belle",
        "src": "http://d.duotuwang.com/2021/08/25/26391/0.jpg",
        "mtId": "cd808c587a640182",
        "mtName": "\u5a9b\u5a9b\u9171belle",
        "jgId": "xiuren",
        "jgName": "\u79c0\u4eba\u7f51",
        "href": "http://d.duotuwang.com/2021/08/25/26391/",
        "count": 40,
        "start": 1,
        "hasMtTag": 1,
        "hasJgTag": 1,
        "mtCount": 4,
        "jgCount": 750
    },
    {
        "name": "[XIUREN]\u79c0\u4eba\u7f51 No.3850 Emily\u5c39\u83f2",
        "src": "http://d.duotuwang.com/2021/08/25/26390/0.jpg",
        "mtId": "eaa19160eb9a4e36",
        "mtName": "SOLO-\u5c39\u83f2",
        "jgId": "xiuren",
        "jgName": "\u79c0\u4eba\u7f51",
        "href": "http://d.duotuwang.com/2021/08/25/26390/",
        "count": 61,
        "start": 1,
        "hasMtTag": 1,
        "hasJgTag": 1,
        "mtCount": 22,
        "jgCount": 750
    },
    {
        "name": "[XIUREN]\u79c0\u4eba\u7f51 No.3849 \u7f8e\u4e03Mia",
        "src": "http://d.duotuwang.com/2021/08/25/26389/0.jpg",
        "mtId": "58a8832e511f67e3",
        "mtName": "\u7f8e\u4e03Mia",
        "jgId": "xiuren",
        "jgName": "\u79c0\u4eba\u7f51",
        "href": "http://d.duotuwang.com/2021/08/25/26389/",
        "count": 42,
        "start": 1,
        "hasMtTag": 1,
        "hasJgTag": 1,
        "mtCount": 9,
        "jgCount": 750
    },
    {
        "name": "[XIUREN]\u79c0\u4eba\u7f51 No.3848 \u90d1\u9896\u59d7Bev",
        "src": "http://d.duotuwang.com/2021/08/25/26388/0.jpg",
        "mtId": "69a179c472dcbd6e",
        "mtName": "\u90d1\u9896\u59d7Bev",
        "jgId": "xiuren",
        "jgName": "\u79c0\u4eba\u7f51",
        "href": "http://d.duotuwang.com/2021/08/25/26388/",
        "count": 60,
        "start": 1,
        "hasMtTag": 1,
        "hasJgTag": 1,
        "mtCount": 7,
        "jgCount": 750
    }
]