[
    {
        "name": "[XIUREN]\u79c0\u4eba\u7f51 No.3799 \u5468\u4e8e\u5e0cSandy",
        "src": "http://d.duotuwang.com/2021/08/13/26268/0.jpg",
        "mtId": "de6bdb42ece2255f",
        "mtName": "\u5468\u4e8e\u5e0cSandy",
        "jgId": "xiuren",
        "jgName": "\u79c0\u4eba\u7f51",
        "href": "http://d.duotuwang.com/2021/08/13/26268/",
        "count": 58,
        "start": 1,
        "hasMtTag": 1,
        "hasJgTag": 1,
        "mtCount": 59,
        "jgCount": 750
    },
    {
        "name": "[XIUREN]\u79c0\u4eba\u7f51 No.3798 \u9c7c\u5b50\u9171Fish",
        "src": "http://d.duotuwang.com/2021/08/13/26267/0.jpg",
        "mtId": "2606e0481db6777f",
        "mtName": "\u9c7c\u5b50\u9171Fish",
        "jgId": "xiuren",
        "jgName": "\u79c0\u4eba\u7f51",
        "href": "http://d.duotuwang.com/2021/08/13/26267/",
        "count": 77,
        "start": 1,
        "hasMtTag": 1,
        "hasJgTag": 1,
        "mtCount": 16,
        "jgCount": 750
    },
    {
        "name": "[XIUREN]\u79c0\u4eba\u7f51 No.3797 \u6731\u53ef\u513fFlower",
        "src": "http://d.duotuwang.com/2021/08/13/26266/0.jpg",
        "mtId": "6ded6be4a79e57ac",
        "mtName": "\u6731\u53ef\u513fFlower",
        "jgId": "xiuren",
        "jgName": "\u79c0\u4eba\u7f51",
        "href": "http://d.duotuwang.com/2021/08/13/26266/",
        "count": 57,
        "start": 1,
        "hasMtTag": 1,
        "hasJgTag": 1,
        "mtCount": 38,
        "jgCount": 750
    },
    {
        "name": "[XIUREN]\u79c0\u4eba\u7f51 No.3796 \u7f8e\u4e03Mia&\u840c\u6c49\u836fbaby 2/2",
        "src": "http://d.duotuwang.com/2021/08/13/26309/0.jpg",
        "mtId": "58a8832e511f67e3",
        "mtName": "\u7f8e\u4e03Mia",
        "jgId": "xiuren",
        "jgName": "\u79c0\u4eba\u7f51",
        "href": "http://d.duotuwang.com/2021/08/13/26309/",
        "count": 58,
        "start": 53,
        "hasMtTag": 1,
        "hasJgTag": 1,
        "mtCount": 9,
        "jgCount": 750
    },
    {
        "name": "[XIUREN]\u79c0\u4eba\u7f51 No.3796 \u7f8e\u4e03Mia&\u840c\u6c49\u836fbaby 1/2",
        "src": "http://d.duotuwang.com/2021/08/13/26265/0.jpg",
        "mtId": "58a8832e511f67e3",
        "mtName": "\u7f8e\u4e03Mia",
        "jgId": "xiuren",
        "jgName": "\u79c0\u4eba\u7f51",
        "href": "http://d.duotuwang.com/2021/08/13/26265/",
        "count": 52,
        "start": 1,
        "hasMtTag": 1,
        "hasJgTag": 1,
        "mtCount": 9,
        "jgCount": 750
    },
    {
        "name": "[XIUREN]\u79c0\u4eba\u7f51 No.3795 \u9646\u8431\u8431",
        "src": "http://d.duotuwang.com/2021/08/12/26264/0.jpg",
        "mtId": "15c3767f8a07de21",
        "mtName": "\u9646\u8431\u8431",
        "jgId": "xiuren",
        "jgName": "\u79c0\u4eba\u7f51",
        "href": "http://d.duotuwang.com/2021/08/12/26264/",
        "count": 80,
        "start": 1,
        "hasMtTag": 1,
        "hasJgTag": 1,
        "mtCount": 25,
        "jgCount": 750
    }
]