[
    {
        "name": "[XIUREN]\u79c0\u4eba\u7f51 No.3735 \u7f8e\u4e03Mia",
        "src": "http://d.duotuwang.com/2021/07/29/26111/0.jpg",
        "mtId": "58a8832e511f67e3",
        "mtName": "\u7f8e\u4e03Mia",
        "jgId": "xiuren",
        "jgName": "\u79c0\u4eba\u7f51",
        "href": "http://d.duotuwang.com/2021/07/29/26111/",
        "count": 48,
        "start": 1,
        "hasMtTag": 1,
        "hasJgTag": 1,
        "mtCount": 9,
        "jgCount": 750
    },
    {
        "name": "[XIUREN]\u79c0\u4eba\u7f51 No.3734 \u4f58\u8d1d\u62c9bella",
        "src": "http://d.duotuwang.com/2021/07/29/26110/0.jpg",
        "mtId": "77da4d2b1d53f5fa",
        "mtName": "\u4f58\u8d1d\u62c9bella",
        "jgId": "xiuren",
        "jgName": "\u79c0\u4eba\u7f51",
        "href": "http://d.duotuwang.com/2021/07/29/26110/",
        "count": 41,
        "start": 1,
        "hasMtTag": 1,
        "hasJgTag": 1,
        "mtCount": 9,
        "jgCount": 750
    },
    {
        "name": "[XIUREN]\u79c0\u4eba\u7f51 No.3733 \u5f90\u5b89\u5b89",
        "src": "http://d.duotuwang.com/2021/07/29/26109/0.jpg",
        "mtId": "ffe5e0d0bba79203",
        "mtName": "\u5f90\u5b89\u5b89",
        "jgId": "xiuren",
        "jgName": "\u79c0\u4eba\u7f51",
        "href": "http://d.duotuwang.com/2021/07/29/26109/",
        "count": 61,
        "start": 1,
        "hasMtTag": 1,
        "hasJgTag": 1,
        "mtCount": 9,
        "jgCount": 750
    },
    {
        "name": "[XIUREN]\u79c0\u4eba\u7f51 No.3732 \u590f\u53ef\u99a8amii",
        "src": "http://d.duotuwang.com/2021/07/29/26108/0.jpg",
        "mtId": "c642e36499c65774",
        "mtName": "\u590f\u53ef\u99a8amii",
        "jgId": "xiuren",
        "jgName": "\u79c0\u4eba\u7f51",
        "href": "http://d.duotuwang.com/2021/07/29/26108/",
        "count": 56,
        "start": 1,
        "hasMtTag": 1,
        "hasJgTag": 1,
        "mtCount": 1,
        "jgCount": 750
    },
    {
        "name": "[XIUREN]\u79c0\u4eba\u7f51 No.3731 \u674e\u96c5\u67d4182CM",
        "src": "http://d.duotuwang.com/2021/07/29/26107/0.jpg",
        "mtId": "dcea9eebb24ab4fc",
        "mtName": "\u674e\u96c5\u67d4182CM",
        "jgId": "xiuren",
        "jgName": "\u79c0\u4eba\u7f51",
        "href": "http://d.duotuwang.com/2021/07/29/26107/",
        "count": 38,
        "start": 1,
        "hasMtTag": 1,
        "hasJgTag": 1,
        "mtCount": 7,
        "jgCount": 750
    },
    {
        "name": "[XIUREN]\u79c0\u4eba\u7f51 No.3730 \u845b\u5f81 \u51c0\u9ad8184c\u2006m",
        "src": "http://d.duotuwang.com/2021/07/29/26106/0.jpg",
        "mtId": "bac3f4adea859891",
        "mtName": "\u845b\u5f81Model",
        "jgId": "xiuren",
        "jgName": "\u79c0\u4eba\u7f51",
        "href": "http://d.duotuwang.com/2021/07/29/26106/",
        "count": 41,
        "start": 1,
        "hasMtTag": 1,
        "hasJgTag": 1,
        "mtCount": 10,
        "jgCount": 750
    }
]