[
    {
        "name": "[XIUREN]\u79c0\u4eba\u7f51 No.5404 \u5510\u5b89\u742a",
        "src": "http://d.duotuwang.com/2022/08/08/30897/0.jpg",
        "mtId": "552de7273733ea34",
        "mtName": "\u5510\u5b89\u742a",
        "jgId": "xiuren",
        "jgName": "\u79c0\u4eba\u7f51",
        "href": "http://d.duotuwang.com/2022/08/08/30897/",
        "count": 83,
        "start": 1,
        "hasMtTag": 1,
        "hasJgTag": 1,
        "mtCount": 19,
        "jgCount": 750
    },
    {
        "name": "[XIUREN]\u79c0\u4eba\u7f51 No.5403 \u6797\u4e50\u4e00",
        "src": "http://d.duotuwang.com/2022/08/08/30896/0.jpg",
        "mtId": "600bcd316870a0b5",
        "mtName": "\u6797\u4e50\u4e00",
        "jgId": "xiuren",
        "jgName": "\u79c0\u4eba\u7f51",
        "href": "http://d.duotuwang.com/2022/08/08/30896/",
        "count": 66,
        "start": 1,
        "hasMtTag": 1,
        "hasJgTag": 1,
        "mtCount": 3,
        "jgCount": 750
    },
    {
        "name": "[XIUREN]\u79c0\u4eba\u7f51 No.5402 \u751c\u59ae",
        "src": "http://d.duotuwang.com/2022/08/08/30895/0.jpg",
        "mtId": "53fa7649254e347b",
        "mtName": "\u751c\u59ae",
        "jgId": "xiuren",
        "jgName": "\u79c0\u4eba\u7f51",
        "href": "http://d.duotuwang.com/2022/08/08/30895/",
        "count": 58,
        "start": 1,
        "hasMtTag": 1,
        "hasJgTag": 1,
        "mtCount": 1,
        "jgCount": 750
    },
    {
        "name": "[XIUREN]\u79c0\u4eba\u7f51 No.5401 \u674e\u96c5\u67d4182CM",
        "src": "http://d.duotuwang.com/2022/08/08/30894/0.jpg",
        "mtId": "dcea9eebb24ab4fc",
        "mtName": "\u674e\u96c5\u67d4182CM",
        "jgId": "xiuren",
        "jgName": "\u79c0\u4eba\u7f51",
        "href": "http://d.duotuwang.com/2022/08/08/30894/",
        "count": 60,
        "start": 1,
        "hasMtTag": 1,
        "hasJgTag": 1,
        "mtCount": 7,
        "jgCount": 750
    },
    {
        "name": "[XIUREN]\u79c0\u4eba\u7f51 No.5400 hebe\u97e9\u5fc3\u96e8",
        "src": "http://d.duotuwang.com/2022/08/08/30893/0.jpg",
        "mtId": "3c66bdfc015ff373",
        "mtName": "hebe\u97e9\u5fc3\u96e8",
        "jgId": "xiuren",
        "jgName": "\u79c0\u4eba\u7f51",
        "href": "http://d.duotuwang.com/2022/08/08/30893/",
        "count": 55,
        "start": 1,
        "hasMtTag": 1,
        "hasJgTag": 1,
        "mtCount": 2,
        "jgCount": 750
    },
    {
        "name": "[XIUREN]\u79c0\u4eba\u7f51 No.5399 \u5341\u4e5d\u4e5d 2/2",
        "src": "http://d.duotuwang.com/2022/08/08/31213/0.jpg",
        "mtId": "f2662605d45fdb00",
        "mtName": "\u5341\u4e5d\u4e5d",
        "jgId": "xiuren",
        "jgName": "\u79c0\u4eba\u7f51",
        "href": "http://d.duotuwang.com/2022/08/08/31213/",
        "count": 35,
        "start": 1,
        "hasMtTag": 1,
        "hasJgTag": 1,
        "mtCount": 1,
        "jgCount": 750
    }
]