[
    {
        "name": "[XIUREN]\u79c0\u4eba\u7f51 No.3545 \u5218\u827e\u7433Allen",
        "src": "http://d.duotuwang.com/2021/06/16/25445/0.jpg",
        "mtId": "c95acde7c150dacd",
        "mtName": "\u5218\u827e\u7433Allen",
        "jgId": "xiuren",
        "jgName": "\u79c0\u4eba\u7f51",
        "href": "http://d.duotuwang.com/2021/06/16/25445/",
        "count": 45,
        "start": 1,
        "hasMtTag": 1,
        "hasJgTag": 1,
        "mtCount": 3,
        "jgCount": 750
    },
    {
        "name": "[XIUREN]\u79c0\u4eba\u7f51 No.3544 \u6768\u6668\u6668Yome",
        "src": "http://d.duotuwang.com/2021/06/15/25444/0.jpg",
        "mtId": "48bada5e7225ec9f",
        "mtName": "\u6768\u6668\u6668sugar",
        "jgId": "xiuren",
        "jgName": "\u79c0\u4eba\u7f51",
        "href": "http://d.duotuwang.com/2021/06/15/25444/",
        "count": 53,
        "start": 1,
        "hasMtTag": 1,
        "hasJgTag": 1,
        "mtCount": 89,
        "jgCount": 750
    },
    {
        "name": "[XIUREN]\u79c0\u4eba\u7f51 No.3543 \u829d\u829dBooty",
        "src": "http://d.duotuwang.com/2021/06/15/25443/0.jpg",
        "mtId": "8fe458bd9af7ab1d",
        "mtName": "\u829d\u829dBooty",
        "jgId": "xiuren",
        "jgName": "\u79c0\u4eba\u7f51",
        "href": "http://d.duotuwang.com/2021/06/15/25443/",
        "count": 56,
        "start": 1,
        "hasMtTag": 1,
        "hasJgTag": 1,
        "mtCount": 56,
        "jgCount": 750
    },
    {
        "name": "[XIUREN]\u79c0\u4eba\u7f51 No.3542 \u718a\u5c0f\u8bfa",
        "src": "http://d.duotuwang.com/2021/06/15/25442/0.jpg",
        "mtId": "4b77043b985e1845",
        "mtName": "\u718a\u5c0f\u8bfa",
        "jgId": "xiuren",
        "jgName": "\u79c0\u4eba\u7f51",
        "href": "http://d.duotuwang.com/2021/06/15/25442/",
        "count": 63,
        "start": 1,
        "hasMtTag": 1,
        "hasJgTag": 1,
        "mtCount": 11,
        "jgCount": 750
    },
    {
        "name": "[XIUREN]\u79c0\u4eba\u7f51 No.3541 \u5c31\u662f\u963f\u6731\u554a",
        "src": "http://d.duotuwang.com/2021/06/15/25441/0.jpg",
        "mtId": "0fe398c14ee967d6",
        "mtName": "\u5c31\u662f\u963f\u6731\u554a",
        "jgId": "xiuren",
        "jgName": "\u79c0\u4eba\u7f51",
        "href": "http://d.duotuwang.com/2021/06/15/25441/",
        "count": 80,
        "start": 1,
        "hasMtTag": 1,
        "hasJgTag": 1,
        "mtCount": 16,
        "jgCount": 750
    },
    {
        "name": "[XIUREN]\u79c0\u4eba\u7f51 No.3540 \u660e\u65e5\u82b1\u6843\u6843",
        "src": "http://d.duotuwang.com/2021/06/15/25440/0.jpg",
        "mtId": "09a830466e48adba",
        "mtName": "\u660e\u65e5\u82b1\u6843\u6843",
        "jgId": "xiuren",
        "jgName": "\u79c0\u4eba\u7f51",
        "href": "http://d.duotuwang.com/2021/06/15/25440/",
        "count": 45,
        "start": 1,
        "hasMtTag": 1,
        "hasJgTag": 1,
        "mtCount": 2,
        "jgCount": 750
    }
]