[
    {
        "name": "[XIUREN]\u79c0\u4eba\u7f51 No.5387 \u5a9b\u5a9b\u9171belle",
        "src": "http://d.duotuwang.com/2022/08/04/30880/0.jpg",
        "mtId": "cd808c587a640182",
        "mtName": "\u5a9b\u5a9b\u9171belle",
        "jgId": "xiuren",
        "jgName": "\u79c0\u4eba\u7f51",
        "href": "http://d.duotuwang.com/2022/08/04/30880/",
        "count": 60,
        "start": 1,
        "hasMtTag": 1,
        "hasJgTag": 1,
        "mtCount": 4,
        "jgCount": 750
    },
    {
        "name": "[XIUREN]\u79c0\u4eba\u7f51 No.5386 \u5976\u74f6.",
        "src": "http://d.duotuwang.com/2022/08/04/30879/0.jpg",
        "mtId": "4b7b846f8dd02ffb",
        "mtName": "\u5976\u74f6\u5b50",
        "jgId": "xiuren",
        "jgName": "\u79c0\u4eba\u7f51",
        "href": "http://d.duotuwang.com/2022/08/04/30879/",
        "count": 98,
        "start": 1,
        "hasMtTag": 1,
        "hasJgTag": 1,
        "mtCount": 7,
        "jgCount": 750
    },
    {
        "name": "[XIUREN]\u79c0\u4eba\u7f51 No.5385 \u718a\u5c0f\u8bfa",
        "src": "http://d.duotuwang.com/2022/08/04/30878/0.jpg",
        "mtId": "4b77043b985e1845",
        "mtName": "\u718a\u5c0f\u8bfa",
        "jgId": "xiuren",
        "jgName": "\u79c0\u4eba\u7f51",
        "href": "http://d.duotuwang.com/2022/08/04/30878/",
        "count": 72,
        "start": 1,
        "hasMtTag": 1,
        "hasJgTag": 1,
        "mtCount": 11,
        "jgCount": 750
    },
    {
        "name": "[XIUREN]\u79c0\u4eba\u7f51 No.5384 \u4f58\u8d1d\u62c9bella",
        "src": "http://d.duotuwang.com/2022/08/04/30877/0.jpg",
        "mtId": "77da4d2b1d53f5fa",
        "mtName": "\u4f58\u8d1d\u62c9bella",
        "jgId": "xiuren",
        "jgName": "\u79c0\u4eba\u7f51",
        "href": "http://d.duotuwang.com/2022/08/04/30877/",
        "count": 84,
        "start": 1,
        "hasMtTag": 1,
        "hasJgTag": 1,
        "mtCount": 9,
        "jgCount": 750
    },
    {
        "name": "[XIUREN]\u79c0\u4eba\u7f51 No.5383 sugar\u7cd6\u9152\u9152",
        "src": "http://d.duotuwang.com/2022/08/04/30876/0.jpg",
        "mtId": "97073f5cbd1b07f7",
        "mtName": "sugar\u7cd6\u9152\u9152",
        "jgId": "xiuren",
        "jgName": "\u79c0\u4eba\u7f51",
        "href": "http://d.duotuwang.com/2022/08/04/30876/",
        "count": 48,
        "start": 1,
        "hasMtTag": 1,
        "hasJgTag": 1,
        "mtCount": 7,
        "jgCount": 750
    },
    {
        "name": "[XIUREN]\u79c0\u4eba\u7f51 No.5382 \u6731\u53ef\u513fFlora",
        "src": "http://d.duotuwang.com/2022/08/04/30875/0.jpg",
        "mtId": "6ded6be4a79e57ac",
        "mtName": "\u6731\u53ef\u513fFlower",
        "jgId": "xiuren",
        "jgName": "\u79c0\u4eba\u7f51",
        "href": "http://d.duotuwang.com/2022/08/04/30875/",
        "count": 68,
        "start": 1,
        "hasMtTag": 1,
        "hasJgTag": 1,
        "mtCount": 38,
        "jgCount": 750
    }
]