[
    {
        "name": "[XIUREN]\u79c0\u4eba\u7f51 No.3254 \u5468\u4e8e\u5e0cSandy",
        "src": "http://d.duotuwang.com/2021/03/29/24520/0.jpg",
        "mtId": "de6bdb42ece2255f",
        "mtName": "\u5468\u4e8e\u5e0cSandy",
        "jgId": "xiuren",
        "jgName": "\u79c0\u4eba\u7f51",
        "href": "http://d.duotuwang.com/2021/03/29/24520/",
        "count": 64,
        "start": 1,
        "hasMtTag": 1,
        "hasJgTag": 1,
        "mtCount": 59,
        "jgCount": 750
    },
    {
        "name": "[XIUREN]\u79c0\u4eba\u7f51 No.3253 \u5f90\u5b89\u5b89",
        "src": "http://d.duotuwang.com/2021/03/29/24519/0.jpg",
        "mtId": "ffe5e0d0bba79203",
        "mtName": "\u5f90\u5b89\u5b89",
        "jgId": "xiuren",
        "jgName": "\u79c0\u4eba\u7f51",
        "href": "http://d.duotuwang.com/2021/03/29/24519/",
        "count": 50,
        "start": 1,
        "hasMtTag": 1,
        "hasJgTag": 1,
        "mtCount": 9,
        "jgCount": 750
    },
    {
        "name": "[XIUREN]\u79c0\u4eba\u7f51 No.3252 \u59b2\u5df1_Toxic",
        "src": "http://d.duotuwang.com/2021/03/29/24518/0.jpg",
        "mtId": "3c8b93e37672f106",
        "mtName": "\u59b2\u5df1_Toxic",
        "jgId": "xiuren",
        "jgName": "\u79c0\u4eba\u7f51",
        "href": "http://d.duotuwang.com/2021/03/29/24518/",
        "count": 52,
        "start": 1,
        "hasMtTag": 1,
        "hasJgTag": 1,
        "mtCount": 21,
        "jgCount": 750
    },
    {
        "name": "[XIUREN]\u79c0\u4eba\u7f51 No.3251 \u5c39\u751c\u751c",
        "src": "http://d.duotuwang.com/2021/03/29/24517/0.jpg",
        "mtId": "d071e99652f9fe0f",
        "mtName": "\u5c39\u751c\u751c",
        "jgId": "xiuren",
        "jgName": "\u79c0\u4eba\u7f51",
        "href": "http://d.duotuwang.com/2021/03/29/24517/",
        "count": 85,
        "start": 1,
        "hasMtTag": 1,
        "hasJgTag": 1,
        "mtCount": 7,
        "jgCount": 750
    },
    {
        "name": "[XIUREN]\u79c0\u4eba\u7f51 No.3250 \u6653\u9c7c\u9171",
        "src": "http://d.duotuwang.com/2021/03/29/24516/0.jpg",
        "mtId": "aba33f22a3e6bdaf",
        "mtName": "\u6653\u9c7c\u9171",
        "jgId": "xiuren",
        "jgName": "\u79c0\u4eba\u7f51",
        "href": "http://d.duotuwang.com/2021/03/29/24516/",
        "count": 64,
        "start": 1,
        "hasMtTag": 1,
        "hasJgTag": 1,
        "mtCount": 1,
        "jgCount": 750
    },
    {
        "name": "[XIUREN]\u79c0\u4eba\u7f51 No.3249 \u9c7c\u5b50\u9171Fish",
        "src": "http://d.duotuwang.com/2021/03/26/24515/0.jpg",
        "mtId": "2606e0481db6777f",
        "mtName": "\u9c7c\u5b50\u9171Fish",
        "jgId": "xiuren",
        "jgName": "\u79c0\u4eba\u7f51",
        "href": "http://d.duotuwang.com/2021/03/26/24515/",
        "count": 82,
        "start": 1,
        "hasMtTag": 1,
        "hasJgTag": 1,
        "mtCount": 16,
        "jgCount": 750
    }
]