[
    {
        "name": "[XIUREN]\u79c0\u4eba\u7f51 No.3194 \u6797\u5b50\u6b23Freya",
        "src": "http://d.duotuwang.com/2021/03/12/24460/0.jpg",
        "mtId": "0b6f991f2ec0e943",
        "mtName": "\u6797\u5b50\u6b23Freya",
        "jgId": "xiuren",
        "jgName": "\u79c0\u4eba\u7f51",
        "href": "http://d.duotuwang.com/2021/03/12/24460/",
        "count": 42,
        "start": 1,
        "hasMtTag": 1,
        "hasJgTag": 1,
        "mtCount": 7,
        "jgCount": 750
    },
    {
        "name": "[XIUREN]\u79c0\u4eba\u7f51 No.3193 \u4e5d\u6708\u751f__",
        "src": "http://d.duotuwang.com/2021/03/12/24459/0.jpg",
        "mtId": "edbcdd7f8a1f1507",
        "mtName": "\u4e5d\u6708\u751f__",
        "jgId": "xiuren",
        "jgName": "\u79c0\u4eba\u7f51",
        "href": "http://d.duotuwang.com/2021/03/12/24459/",
        "count": 44,
        "start": 1,
        "hasMtTag": 1,
        "hasJgTag": 1,
        "mtCount": 10,
        "jgCount": 750
    },
    {
        "name": "[XIUREN]\u79c0\u4eba\u7f51 No.3192 Cherry\u7eef\u6708\u6a31",
        "src": "http://d.duotuwang.com/2021/03/11/24458/0.jpg",
        "mtId": "85e55daf35c53f9e",
        "mtName": "\u7eef\u6708\u6a31-Cherry",
        "jgId": "xiuren",
        "jgName": "\u79c0\u4eba\u7f51",
        "href": "http://d.duotuwang.com/2021/03/11/24458/",
        "count": 74,
        "start": 1,
        "hasMtTag": 1,
        "hasJgTag": 1,
        "mtCount": 26,
        "jgCount": 750
    },
    {
        "name": "[XIUREN]\u79c0\u4eba\u7f51 No.3191 \u5b89\u7136Maleah",
        "src": "http://d.duotuwang.com/2021/03/11/24457/0.jpg",
        "mtId": "d6505baadceb44e6",
        "mtName": "\u5b89\u7136Maleah",
        "jgId": "xiuren",
        "jgName": "\u79c0\u4eba\u7f51",
        "href": "http://d.duotuwang.com/2021/03/11/24457/",
        "count": 79,
        "start": 1,
        "hasMtTag": 1,
        "hasJgTag": 1,
        "mtCount": 16,
        "jgCount": 750
    },
    {
        "name": "[XIUREN]\u79c0\u4eba\u7f51 No.3190 \u840c\u5948\u5b50",
        "src": "http://d.duotuwang.com/2021/03/11/24456/0.jpg",
        "mtId": "3e9fc4d5b0d14bc8",
        "mtName": "\u840c\u5948\u5b50",
        "jgId": "xiuren",
        "jgName": "\u79c0\u4eba\u7f51",
        "href": "http://d.duotuwang.com/2021/03/11/24456/",
        "count": 46,
        "start": 1,
        "hasMtTag": 1,
        "hasJgTag": 1,
        "mtCount": 3,
        "jgCount": 750
    },
    {
        "name": "[XIUREN]\u79c0\u4eba\u7f51 No.3189 Isabelle\u8d35\u8d35",
        "src": "http://d.duotuwang.com/2021/03/11/24455/0.jpg",
        "mtId": "46d553bcf126be35",
        "mtName": "Isabelle\u8d35\u8d35",
        "jgId": "xiuren",
        "jgName": "\u79c0\u4eba\u7f51",
        "href": "http://d.duotuwang.com/2021/03/11/24455/",
        "count": 54,
        "start": 1,
        "hasMtTag": 1,
        "hasJgTag": 1,
        "mtCount": 1,
        "jgCount": 750
    }
]