[
    {
        "name": "[XIUREN]\u79c0\u4eba\u7f51 No.3141 \u5f90\u5b89\u5b89&\u6731\u53ef\u513fFlower",
        "src": "http://d.duotuwang.com/2021/02/25/24317/0.jpg",
        "mtId": "ffe5e0d0bba79203",
        "mtName": "\u5f90\u5b89\u5b89",
        "jgId": "xiuren",
        "jgName": "\u79c0\u4eba\u7f51",
        "href": "http://d.duotuwang.com/2021/02/25/24317/",
        "count": 63,
        "start": 1,
        "hasMtTag": 1,
        "hasJgTag": 1,
        "mtCount": 9,
        "jgCount": 750
    },
    {
        "name": "[XIUREN]\u79c0\u4eba\u7f51 No.3140 \u8f6f\u8f6f\u5b50",
        "src": "http://d.duotuwang.com/2021/02/25/24316/0.jpg",
        "mtId": "6edb7bbd479c689c",
        "mtName": "\u8f6f\u8f6f\u5b50",
        "jgId": "xiuren",
        "jgName": "\u79c0\u4eba\u7f51",
        "href": "http://d.duotuwang.com/2021/02/25/24316/",
        "count": 34,
        "start": 1,
        "hasMtTag": 1,
        "hasJgTag": 1,
        "mtCount": 2,
        "jgCount": 750
    },
    {
        "name": "[XIUREN]\u79c0\u4eba\u7f51 No.3139 \u7389\u5154miki",
        "src": "http://d.duotuwang.com/2021/02/25/24315/0.jpg",
        "mtId": "e7e5da8fd6f60683",
        "mtName": "\u7389\u5154miki",
        "jgId": "xiuren",
        "jgName": "\u79c0\u4eba\u7f51",
        "href": "http://d.duotuwang.com/2021/02/25/24315/",
        "count": 56,
        "start": 1,
        "hasMtTag": 1,
        "hasJgTag": 1,
        "mtCount": 8,
        "jgCount": 750
    },
    {
        "name": "[XIUREN]\u79c0\u4eba\u7f51 No.3138 \u97e9\u73ca\u73ca",
        "src": "http://d.duotuwang.com/2021/02/25/24314/0.jpg",
        "mtId": "768a274256f08cb6",
        "mtName": "\u97e9\u73ca\u73ca",
        "jgId": "xiuren",
        "jgName": "\u79c0\u4eba\u7f51",
        "href": "http://d.duotuwang.com/2021/02/25/24314/",
        "count": 49,
        "start": 1,
        "hasMtTag": 1,
        "hasJgTag": 1,
        "mtCount": 1,
        "jgCount": 750
    },
    {
        "name": "[XIUREN]\u79c0\u4eba\u7f51 No.3137 \u9648\u8212\u7fbd",
        "src": "http://d.duotuwang.com/2021/02/25/24313/0.jpg",
        "mtId": "cc6a7c2b3706b1f7",
        "mtName": "\u9648\u8212\u7fbd",
        "jgId": "xiuren",
        "jgName": "\u79c0\u4eba\u7f51",
        "href": "http://d.duotuwang.com/2021/02/25/24313/",
        "count": 62,
        "start": 1,
        "hasMtTag": 1,
        "hasJgTag": 1,
        "mtCount": 2,
        "jgCount": 750
    },
    {
        "name": "[XIUREN]\u79c0\u4eba\u7f51 No.3136 \u827e\u9759\u9999",
        "src": "http://d.duotuwang.com/2021/02/25/24312/0.jpg",
        "mtId": "10d2870a1d7cd583",
        "mtName": "\u827e\u9759\u9999",
        "jgId": "xiuren",
        "jgName": "\u79c0\u4eba\u7f51",
        "href": "http://d.duotuwang.com/2021/02/25/24312/",
        "count": 41,
        "start": 1,
        "hasMtTag": 1,
        "hasJgTag": 1,
        "mtCount": 9,
        "jgCount": 750
    }
]