[
    {
        "name": "[XIUREN]\u79c0\u4eba\u7f51 No.3023 \u7389\u5154miki",
        "src": "http://d.duotuwang.com/2021/01/20/23937/0.jpg",
        "mtId": "e7e5da8fd6f60683",
        "mtName": "\u7389\u5154miki",
        "jgId": "xiuren",
        "jgName": "\u79c0\u4eba\u7f51",
        "href": "http://d.duotuwang.com/2021/01/20/23937/",
        "count": 70,
        "start": 1,
        "hasMtTag": 1,
        "hasJgTag": 1,
        "mtCount": 8,
        "jgCount": 750
    },
    {
        "name": "[XIUREN]\u79c0\u4eba\u7f51 No.3022 \u6768\u6668\u6668sugar",
        "src": "http://d.duotuwang.com/2021/01/19/23926/0.jpg",
        "mtId": "48bada5e7225ec9f",
        "mtName": "\u6768\u6668\u6668sugar",
        "jgId": "xiuren",
        "jgName": "\u79c0\u4eba\u7f51",
        "href": "http://d.duotuwang.com/2021/01/19/23926/",
        "count": 52,
        "start": 1,
        "hasMtTag": 1,
        "hasJgTag": 1,
        "mtCount": 89,
        "jgCount": 750
    },
    {
        "name": "[XIUREN]\u79c0\u4eba\u7f51 No.3021 \u738b\u96e8\u7eaf",
        "src": "http://d.duotuwang.com/2021/01/19/23925/0.jpg",
        "mtId": "6a5d00e535915ee5",
        "mtName": "\u738b\u96e8\u7eaf",
        "jgId": "xiuren",
        "jgName": "\u79c0\u4eba\u7f51",
        "href": "http://d.duotuwang.com/2021/01/19/23925/",
        "count": 64,
        "start": 1,
        "hasMtTag": 1,
        "hasJgTag": 1,
        "mtCount": 60,
        "jgCount": 750
    },
    {
        "name": "[XIUREN]\u79c0\u4eba\u7f51 No.3020 \u5b89\u7136Maleah",
        "src": "http://d.duotuwang.com/2021/01/19/23924/0.jpg",
        "mtId": "d6505baadceb44e6",
        "mtName": "\u5b89\u7136Maleah",
        "jgId": "xiuren",
        "jgName": "\u79c0\u4eba\u7f51",
        "href": "http://d.duotuwang.com/2021/01/19/23924/",
        "count": 68,
        "start": 1,
        "hasMtTag": 1,
        "hasJgTag": 1,
        "mtCount": 16,
        "jgCount": 750
    },
    {
        "name": "[XIUREN]\u79c0\u4eba\u7f51 No.3019 \u4f58\u8d1d\u62c9bella",
        "src": "http://d.duotuwang.com/2021/01/19/23923/0.jpg",
        "mtId": "77da4d2b1d53f5fa",
        "mtName": "\u4f58\u8d1d\u62c9bella",
        "jgId": "xiuren",
        "jgName": "\u79c0\u4eba\u7f51",
        "href": "http://d.duotuwang.com/2021/01/19/23923/",
        "count": 54,
        "start": 1,
        "hasMtTag": 1,
        "hasJgTag": 1,
        "mtCount": 9,
        "jgCount": 750
    },
    {
        "name": "[XIUREN]\u79c0\u4eba\u7f51 No.3018 \u5f20\u96e8\u840c",
        "src": "http://d.duotuwang.com/2021/01/19/23922/0.jpg",
        "mtId": "f3366c5dc0e9677b",
        "mtName": "\u5f20\u96e8\u840c",
        "jgId": "xiuren",
        "jgName": "\u79c0\u4eba\u7f51",
        "href": "http://d.duotuwang.com/2021/01/19/23922/",
        "count": 37,
        "start": 1,
        "hasMtTag": 1,
        "hasJgTag": 1,
        "mtCount": 10,
        "jgCount": 750
    }
]