[
    {
        "name": "[XIUREN]\u79c0\u4eba\u7f51 No.3000 \u8a00\u6cab",
        "src": "http://d.duotuwang.com/2021/01/13/23869/0.jpg",
        "mtId": "3c6f7e1773bf4c77",
        "mtName": "\u8a00\u6cab",
        "jgId": "xiuren",
        "jgName": "\u79c0\u4eba\u7f51",
        "href": "http://d.duotuwang.com/2021/01/13/23869/",
        "count": 82,
        "start": 1,
        "hasMtTag": 1,
        "hasJgTag": 1,
        "mtCount": 11,
        "jgCount": 750
    },
    {
        "name": "[XIUREN]\u79c0\u4eba\u7f51 No.2999 \u5468\u6155\u6c50baby",
        "src": "http://d.duotuwang.com/2021/01/13/23868/0.jpg",
        "mtId": "c5e50fb0a4ebbc43",
        "mtName": "\u5468\u6155\u6c50fairy",
        "jgId": "xiuren",
        "jgName": "\u79c0\u4eba\u7f51",
        "href": "http://d.duotuwang.com/2021/01/13/23868/",
        "count": 67,
        "start": 1,
        "hasMtTag": 1,
        "hasJgTag": 1,
        "mtCount": 10,
        "jgCount": 750
    },
    {
        "name": "[XIUREN]\u79c0\u4eba\u7f51 No.2998 \u767d\u751c",
        "src": "http://d.duotuwang.com/2021/01/13/23867/0.jpg",
        "mtId": "a4ebb348f9ef7db2",
        "mtName": "\u767d\u751c",
        "jgId": "xiuren",
        "jgName": "\u79c0\u4eba\u7f51",
        "href": "http://d.duotuwang.com/2021/01/13/23867/",
        "count": 41,
        "start": 1,
        "hasMtTag": 1,
        "hasJgTag": 1,
        "mtCount": 3,
        "jgCount": 750
    },
    {
        "name": "[XIUREN]\u79c0\u4eba\u7f51 No.2997 \u6768\u6668\u6668sugar",
        "src": "http://d.duotuwang.com/2021/01/12/23866/0.jpg",
        "mtId": "48bada5e7225ec9f",
        "mtName": "\u6768\u6668\u6668sugar",
        "jgId": "xiuren",
        "jgName": "\u79c0\u4eba\u7f51",
        "href": "http://d.duotuwang.com/2021/01/12/23866/",
        "count": 67,
        "start": 1,
        "hasMtTag": 1,
        "hasJgTag": 1,
        "mtCount": 89,
        "jgCount": 750
    },
    {
        "name": "[XIUREN]\u79c0\u4eba\u7f51 No.2996 \u9646\u8431\u8431",
        "src": "http://d.duotuwang.com/2021/01/12/23865/0.jpg",
        "mtId": "15c3767f8a07de21",
        "mtName": "\u9646\u8431\u8431",
        "jgId": "xiuren",
        "jgName": "\u79c0\u4eba\u7f51",
        "href": "http://d.duotuwang.com/2021/01/12/23865/",
        "count": 72,
        "start": 1,
        "hasMtTag": 1,
        "hasJgTag": 1,
        "mtCount": 25,
        "jgCount": 750
    },
    {
        "name": "[XIUREN]\u79c0\u4eba\u7f51 No.2995 \u65b9\u5b50\u8431",
        "src": "http://d.duotuwang.com/2021/01/12/23864/0.jpg",
        "mtId": "9987f205a66cb83f",
        "mtName": "\u65b9\u5b50\u8431",
        "jgId": "xiuren",
        "jgName": "\u79c0\u4eba\u7f51",
        "href": "http://d.duotuwang.com/2021/01/12/23864/",
        "count": 44,
        "start": 1,
        "hasMtTag": 1,
        "hasJgTag": 1,
        "mtCount": 13,
        "jgCount": 750
    }
]