[
    {
        "name": "[XIUREN]\u79c0\u4eba\u7f51 No.2983 \u9c7c\u5b50\u9171Fish",
        "src": "http://d.duotuwang.com/2021/01/07/23852/0.jpg",
        "mtId": "2606e0481db6777f",
        "mtName": "\u9c7c\u5b50\u9171Fish",
        "jgId": "xiuren",
        "jgName": "\u79c0\u4eba\u7f51",
        "href": "http://d.duotuwang.com/2021/01/07/23852/",
        "count": 78,
        "start": 1,
        "hasMtTag": 1,
        "hasJgTag": 1,
        "mtCount": 16,
        "jgCount": 750
    },
    {
        "name": "[XIUREN]\u79c0\u4eba\u7f51 No.2982 Carry",
        "src": "http://d.duotuwang.com/2021/01/07/23851/0.jpg",
        "mtId": "eaba1ecd7edb60f2",
        "mtName": "Carry",
        "jgId": "xiuren",
        "jgName": "\u79c0\u4eba\u7f51",
        "href": "http://d.duotuwang.com/2021/01/07/23851/",
        "count": 68,
        "start": 1,
        "hasMtTag": 1,
        "hasJgTag": 1,
        "mtCount": 9,
        "jgCount": 750
    },
    {
        "name": "[XIUREN]\u79c0\u4eba\u7f51 No.2981 \u90d1\u9896\u59d7",
        "src": "http://d.duotuwang.com/2021/01/07/23850/0.jpg",
        "mtId": "69a179c472dcbd6e",
        "mtName": "\u90d1\u9896\u59d7",
        "jgId": "xiuren",
        "jgName": "\u79c0\u4eba\u7f51",
        "href": "http://d.duotuwang.com/2021/01/07/23850/",
        "count": 66,
        "start": 1,
        "hasMtTag": 1,
        "hasJgTag": 1,
        "mtCount": 7,
        "jgCount": 750
    },
    {
        "name": "[XIUREN]\u79c0\u4eba\u7f51 No.2980 \u845b\u5f81\u51c0\u9ad8184cm",
        "src": "http://d.duotuwang.com/2021/01/07/23849/0.jpg",
        "mtId": "bac3f4adea859891",
        "mtName": "\u845b\u5f81Model",
        "jgId": "xiuren",
        "jgName": "\u79c0\u4eba\u7f51",
        "href": "http://d.duotuwang.com/2021/01/07/23849/",
        "count": 39,
        "start": 1,
        "hasMtTag": 1,
        "hasJgTag": 1,
        "mtCount": 10,
        "jgCount": 750
    },
    {
        "name": "[XIUREN]\u79c0\u4eba\u7f51 No.2979 \u5c31\u662f\u963f\u6731\u554a",
        "src": "http://d.duotuwang.com/2021/01/06/23750/0.jpg",
        "mtId": "0fe398c14ee967d6",
        "mtName": "\u5c31\u662f\u963f\u6731\u554a",
        "jgId": "xiuren",
        "jgName": "\u79c0\u4eba\u7f51",
        "href": "http://d.duotuwang.com/2021/01/06/23750/",
        "count": 66,
        "start": 1,
        "hasMtTag": 1,
        "hasJgTag": 1,
        "mtCount": 16,
        "jgCount": 750
    },
    {
        "name": "[XIUREN]\u79c0\u4eba\u7f51 No.2978 \u679c\u513fVictoria",
        "src": "http://d.duotuwang.com/2021/01/06/23749/0.jpg",
        "mtId": "fc1868c8a652655f",
        "mtName": "\u679c\u513fVictoria",
        "jgId": "xiuren",
        "jgName": "\u79c0\u4eba\u7f51",
        "href": "http://d.duotuwang.com/2021/01/06/23749/",
        "count": 58,
        "start": 1,
        "hasMtTag": 1,
        "hasJgTag": 1,
        "mtCount": 29,
        "jgCount": 750
    }
]