[
    {
        "name": "[XIUREN]\u79c0\u4eba\u7f51 No.2935 Lucky\u6c88\u6b22\u6b23",
        "src": "http://d.duotuwang.com/2020/12/24/23636/0.jpg",
        "mtId": "70e29c37b06acf52",
        "mtName": "Lucky\u6c88\u6b22\u6b23",
        "jgId": "xiuren",
        "jgName": "\u79c0\u4eba\u7f51",
        "href": "http://d.duotuwang.com/2020/12/24/23636/",
        "count": 46,
        "start": 1,
        "hasMtTag": 1,
        "hasJgTag": 1,
        "mtCount": 6,
        "jgCount": 750
    },
    {
        "name": "[XIUREN]\u79c0\u4eba\u7f51 No.2934 \u5218\u827e\u7433Allen",
        "src": "http://d.duotuwang.com/2020/12/24/23635/0.jpg",
        "mtId": "c95acde7c150dacd",
        "mtName": "\u5218\u827e\u7433Allen",
        "jgId": "xiuren",
        "jgName": "\u79c0\u4eba\u7f51",
        "href": "http://d.duotuwang.com/2020/12/24/23635/",
        "count": 36,
        "start": 1,
        "hasMtTag": 1,
        "hasJgTag": 1,
        "mtCount": 3,
        "jgCount": 750
    },
    {
        "name": "[XIUREN]\u79c0\u4eba\u7f51 No.2933 \u679c\u513fcelia",
        "src": "http://d.duotuwang.com/2020/12/24/23634/0.jpg",
        "mtId": "9992fdd5394de3d5",
        "mtName": "\u679c\u513fcelia",
        "jgId": "xiuren",
        "jgName": "\u79c0\u4eba\u7f51",
        "href": "http://d.duotuwang.com/2020/12/24/23634/",
        "count": 43,
        "start": 1,
        "hasMtTag": 1,
        "hasJgTag": 1,
        "mtCount": 1,
        "jgCount": 750
    },
    {
        "name": "[XIUREN]\u79c0\u4eba\u7f51 No.2932 \u9646\u8431\u8431",
        "src": "http://d.duotuwang.com/2020/12/23/23633/0.jpg",
        "mtId": "15c3767f8a07de21",
        "mtName": "\u9646\u8431\u8431",
        "jgId": "xiuren",
        "jgName": "\u79c0\u4eba\u7f51",
        "href": "http://d.duotuwang.com/2020/12/23/23633/",
        "count": 72,
        "start": 1,
        "hasMtTag": 1,
        "hasJgTag": 1,
        "mtCount": 25,
        "jgCount": 750
    },
    {
        "name": "[XIUREN]\u79c0\u4eba\u7f51 No.2931 \u7cef\u7c73NM",
        "src": "http://d.duotuwang.com/2020/12/23/23632/0.jpg",
        "mtId": "e1d90854018d28a1",
        "mtName": "\u7cef\u7c73NM",
        "jgId": "xiuren",
        "jgName": "\u79c0\u4eba\u7f51",
        "href": "http://d.duotuwang.com/2020/12/23/23632/",
        "count": 37,
        "start": 1,
        "hasMtTag": 1,
        "hasJgTag": 1,
        "mtCount": 2,
        "jgCount": 750
    },
    {
        "name": "[XIUREN]\u79c0\u4eba\u7f51 No.2930 \u5468\u4e95\u7a7a",
        "src": "http://d.duotuwang.com/2020/12/23/23631/0.jpg",
        "mtId": "8edba3a7774b8b52",
        "mtName": "\u5468\u4e95\u7a7a",
        "jgId": "xiuren",
        "jgName": "\u79c0\u4eba\u7f51",
        "href": "http://d.duotuwang.com/2020/12/23/23631/",
        "count": 40,
        "start": 1,
        "hasMtTag": 1,
        "hasJgTag": 1,
        "mtCount": 2,
        "jgCount": 750
    }
]