[
    {
        "name": "[XIUREN]\u79c0\u4eba\u7f51 No.2929 \u5468\u6155\u6c50baby",
        "src": "http://d.duotuwang.com/2020/12/23/23630/0.jpg",
        "mtId": "c5e50fb0a4ebbc43",
        "mtName": "\u5468\u6155\u6c50fairy",
        "jgId": "xiuren",
        "jgName": "\u79c0\u4eba\u7f51",
        "href": "http://d.duotuwang.com/2020/12/23/23630/",
        "count": 55,
        "start": 1,
        "hasMtTag": 1,
        "hasJgTag": 1,
        "mtCount": 10,
        "jgCount": 750
    },
    {
        "name": "[XIUREN]\u79c0\u4eba\u7f51 No.2928 \u6768\u6668\u6668sugar",
        "src": "http://d.duotuwang.com/2020/12/22/23629/0.jpg",
        "mtId": "48bada5e7225ec9f",
        "mtName": "\u6768\u6668\u6668sugar",
        "jgId": "xiuren",
        "jgName": "\u79c0\u4eba\u7f51",
        "href": "http://d.duotuwang.com/2020/12/22/23629/",
        "count": 80,
        "start": 1,
        "hasMtTag": 1,
        "hasJgTag": 1,
        "mtCount": 89,
        "jgCount": 750
    },
    {
        "name": "[XIUREN]\u79c0\u4eba\u7f51 No.2927 \u5510\u5b89\u742a",
        "src": "http://d.duotuwang.com/2020/12/22/23628/0.jpg",
        "mtId": "552de7273733ea34",
        "mtName": "\u5510\u5b89\u742a",
        "jgId": "xiuren",
        "jgName": "\u79c0\u4eba\u7f51",
        "href": "http://d.duotuwang.com/2020/12/22/23628/",
        "count": 78,
        "start": 1,
        "hasMtTag": 1,
        "hasJgTag": 1,
        "mtCount": 19,
        "jgCount": 750
    },
    {
        "name": "[XIUREN]\u79c0\u4eba\u7f51 No.2926 \u65b9\u5b50\u8431",
        "src": "http://d.duotuwang.com/2020/12/22/23627/0.jpg",
        "mtId": "9987f205a66cb83f",
        "mtName": "\u65b9\u5b50\u8431",
        "jgId": "xiuren",
        "jgName": "\u79c0\u4eba\u7f51",
        "href": "http://d.duotuwang.com/2020/12/22/23627/",
        "count": 56,
        "start": 1,
        "hasMtTag": 1,
        "hasJgTag": 1,
        "mtCount": 13,
        "jgCount": 750
    },
    {
        "name": "[XIUREN]\u79c0\u4eba\u7f51 No.2925 \u97e9\u9759\u5b89",
        "src": "http://d.duotuwang.com/2020/12/22/23626/0.jpg",
        "mtId": "85406606b185affd",
        "mtName": "\u97e9\u9759\u5b89",
        "jgId": "xiuren",
        "jgName": "\u79c0\u4eba\u7f51",
        "href": "http://d.duotuwang.com/2020/12/22/23626/",
        "count": 56,
        "start": 1,
        "hasMtTag": 1,
        "hasJgTag": 1,
        "mtCount": 5,
        "jgCount": 750
    },
    {
        "name": "[XIUREN]\u79c0\u4eba\u7f51 No.2924 \u679c\u513fVictoria",
        "src": "http://d.duotuwang.com/2020/12/22/23625/0.jpg",
        "mtId": "fc1868c8a652655f",
        "mtName": "\u679c\u513fVictoria",
        "jgId": "xiuren",
        "jgName": "\u79c0\u4eba\u7f51",
        "href": "http://d.duotuwang.com/2020/12/22/23625/",
        "count": 40,
        "start": 1,
        "hasMtTag": 1,
        "hasJgTag": 1,
        "mtCount": 29,
        "jgCount": 750
    }
]