[
    {
        "name": "[XIUREN]\u79c0\u4eba\u7f51 No.2866 \u840c\u5948\u5b50",
        "src": "http://d.duotuwang.com/2020/12/08/23448/0.jpg",
        "mtId": "3e9fc4d5b0d14bc8",
        "mtName": "\u840c\u5948\u5b50",
        "jgId": "xiuren",
        "jgName": "\u79c0\u4eba\u7f51",
        "href": "http://d.duotuwang.com/2020/12/08/23448/",
        "count": 27,
        "start": 1,
        "hasMtTag": 1,
        "hasJgTag": 1,
        "mtCount": 3,
        "jgCount": 750
    },
    {
        "name": "[XIUREN]\u79c0\u4eba\u7f51 No.2865 \u5510\u5b89\u742a",
        "src": "http://d.duotuwang.com/2020/12/07/23447/0.jpg",
        "mtId": "552de7273733ea34",
        "mtName": "\u5510\u5b89\u742a",
        "jgId": "xiuren",
        "jgName": "\u79c0\u4eba\u7f51",
        "href": "http://d.duotuwang.com/2020/12/07/23447/",
        "count": 61,
        "start": 1,
        "hasMtTag": 1,
        "hasJgTag": 1,
        "mtCount": 19,
        "jgCount": 750
    },
    {
        "name": "[XIUREN]\u79c0\u4eba\u7f51 No.2864 \u6768\u6668\u6668sugar",
        "src": "http://d.duotuwang.com/2020/12/07/23446/0.jpg",
        "mtId": "48bada5e7225ec9f",
        "mtName": "\u6768\u6668\u6668sugar",
        "jgId": "xiuren",
        "jgName": "\u79c0\u4eba\u7f51",
        "href": "http://d.duotuwang.com/2020/12/07/23446/",
        "count": 85,
        "start": 1,
        "hasMtTag": 1,
        "hasJgTag": 1,
        "mtCount": 89,
        "jgCount": 750
    },
    {
        "name": "[XIUREN]\u79c0\u4eba\u7f51 No.2863 \u5a1c\u9732Selena",
        "src": "http://d.duotuwang.com/2020/12/07/23445/0.jpg",
        "mtId": "8dbbd724a3a06b9e",
        "mtName": "\u5a1c\u9732Selena",
        "jgId": "xiuren",
        "jgName": "\u79c0\u4eba\u7f51",
        "href": "http://d.duotuwang.com/2020/12/07/23445/",
        "count": 50,
        "start": 1,
        "hasMtTag": 1,
        "hasJgTag": 1,
        "mtCount": 9,
        "jgCount": 750
    },
    {
        "name": "[XIUREN]\u79c0\u4eba\u7f51 No.2862 \u8f6f\u8f6f\u5b50&monika\u4e5d\u6708",
        "src": "http://d.duotuwang.com/2020/12/07/23444/0.jpg",
        "mtId": "6edb7bbd479c689c",
        "mtName": "\u8f6f\u8f6f\u5b50",
        "jgId": "xiuren",
        "jgName": "\u79c0\u4eba\u7f51",
        "href": "http://d.duotuwang.com/2020/12/07/23444/",
        "count": 75,
        "start": 1,
        "hasMtTag": 1,
        "hasJgTag": 1,
        "mtCount": 2,
        "jgCount": 750
    },
    {
        "name": "[XIUREN]\u79c0\u4eba\u7f51 No.2861 \u8bd7\u8bd7kiki",
        "src": "http://d.duotuwang.com/2020/12/07/23443/0.jpg",
        "mtId": "d7f8fece5bbc52e6",
        "mtName": "\u8bd7\u8bd7kiki",
        "jgId": "xiuren",
        "jgName": "\u79c0\u4eba\u7f51",
        "href": "http://d.duotuwang.com/2020/12/07/23443/",
        "count": 86,
        "start": 1,
        "hasMtTag": 1,
        "hasJgTag": 1,
        "mtCount": 10,
        "jgCount": 750
    }
]