[
    {
        "name": "[XIUREN]\u79c0\u4eba\u7f51 No.2848 \u8303\u4eac\u5b9c",
        "src": "http://d.duotuwang.com/2020/12/02/23385/0.jpg",
        "jgId": "xiuren",
        "jgName": "\u79c0\u4eba\u7f51",
        "href": "http://d.duotuwang.com/2020/12/02/23385/",
        "count": 64,
        "start": 1,
        "hasMtTag": 0,
        "hasJgTag": 1,
        "jgCount": 750
    },
    {
        "name": "[XIUREN]\u79c0\u4eba\u7f51 No.2847 \u9c7c\u5b50\u9171Fish",
        "src": "http://d.duotuwang.com/2020/12/01/23384/0.jpg",
        "mtId": "2606e0481db6777f",
        "mtName": "\u9c7c\u5b50\u9171Fish",
        "jgId": "xiuren",
        "jgName": "\u79c0\u4eba\u7f51",
        "href": "http://d.duotuwang.com/2020/12/01/23384/",
        "count": 68,
        "start": 1,
        "hasMtTag": 1,
        "hasJgTag": 1,
        "mtCount": 16,
        "jgCount": 750
    },
    {
        "name": "[XIUREN]\u79c0\u4eba\u7f51 No.2846 \u7cef\u7f8e\u5b50Mini",
        "src": "http://d.duotuwang.com/2020/12/01/23383/0.jpg",
        "mtId": "f4543e3a7d545391",
        "mtName": "\u7cef\u7f8e\u5b50Mini",
        "jgId": "xiuren",
        "jgName": "\u79c0\u4eba\u7f51",
        "href": "http://d.duotuwang.com/2020/12/01/23383/",
        "count": 45,
        "start": 1,
        "hasMtTag": 1,
        "hasJgTag": 1,
        "mtCount": 19,
        "jgCount": 750
    },
    {
        "name": "[XIUREN]\u79c0\u4eba\u7f51 No.2845 \u68a6\u5fc3\u6708",
        "src": "http://d.duotuwang.com/2020/12/01/23382/0.jpg",
        "mtId": "845a90943c4d1633",
        "mtName": "\u68a6\u5fc3\u6708",
        "jgId": "xiuren",
        "jgName": "\u79c0\u4eba\u7f51",
        "href": "http://d.duotuwang.com/2020/12/01/23382/",
        "count": 56,
        "start": 1,
        "hasMtTag": 1,
        "hasJgTag": 1,
        "mtCount": 35,
        "jgCount": 750
    },
    {
        "name": "[XIUREN]\u79c0\u4eba\u7f51 No.2844 \u8f6f\u8f6f\u5b50",
        "src": "http://d.duotuwang.com/2020/12/01/23381/0.jpg",
        "mtId": "6edb7bbd479c689c",
        "mtName": "\u8f6f\u8f6f\u5b50",
        "jgId": "xiuren",
        "jgName": "\u79c0\u4eba\u7f51",
        "href": "http://d.duotuwang.com/2020/12/01/23381/",
        "count": 28,
        "start": 1,
        "hasMtTag": 1,
        "hasJgTag": 1,
        "mtCount": 2,
        "jgCount": 750
    },
    {
        "name": "[XIUREN]\u79c0\u4eba\u7f51 No.2843 fairy\u5982\u6b4c",
        "src": "http://d.duotuwang.com/2020/12/01/23380/0.jpg",
        "mtId": "f4ae050e165dd4b4",
        "mtName": "fairy\u5982\u6b4c",
        "jgId": "xiuren",
        "jgName": "\u79c0\u4eba\u7f51",
        "href": "http://d.duotuwang.com/2020/12/01/23380/",
        "count": 35,
        "start": 1,
        "hasMtTag": 1,
        "hasJgTag": 1,
        "mtCount": 4,
        "jgCount": 750
    }
]