[
    {
        "name": "[XIUREN]\u79c0\u4eba\u7f51 No.2812 \u8f6f\u800c",
        "src": "http://d.duotuwang.com/2020/11/23/23267/0.jpg",
        "mtName": "\u8f6f\u800c",
        "jgId": "xiuren",
        "jgName": "\u79c0\u4eba\u7f51",
        "href": "http://d.duotuwang.com/2020/11/23/23267/",
        "count": 85,
        "start": 1,
        "hasMtTag": 0,
        "hasJgTag": 1,
        "jgCount": 750
    },
    {
        "name": "[XIUREN]\u79c0\u4eba\u7f51 No.2811 \u829d\u829dBooty",
        "src": "http://d.duotuwang.com/2020/11/20/23266/0.jpg",
        "mtId": "8fe458bd9af7ab1d",
        "mtName": "\u829d\u829dBooty",
        "jgId": "xiuren",
        "jgName": "\u79c0\u4eba\u7f51",
        "href": "http://d.duotuwang.com/2020/11/20/23266/",
        "count": 82,
        "start": 1,
        "hasMtTag": 1,
        "hasJgTag": 1,
        "mtCount": 56,
        "jgCount": 750
    },
    {
        "name": "[XIUREN]\u79c0\u4eba\u7f51 No.2810 \u9646\u8431\u8431",
        "src": "http://d.duotuwang.com/2020/11/20/23265/0.jpg",
        "mtId": "15c3767f8a07de21",
        "mtName": "\u9646\u8431\u8431",
        "jgId": "xiuren",
        "jgName": "\u79c0\u4eba\u7f51",
        "href": "http://d.duotuwang.com/2020/11/20/23265/",
        "count": 55,
        "start": 1,
        "hasMtTag": 1,
        "hasJgTag": 1,
        "mtCount": 25,
        "jgCount": 750
    },
    {
        "name": "[XIUREN]\u79c0\u4eba\u7f51 No.2809 \u738b\u96e8\u7eaf&\u5a1c\u9732Selena",
        "src": "http://d.duotuwang.com/2020/11/20/23264/0.jpg",
        "mtId": "6a5d00e535915ee5",
        "mtName": "\u738b\u96e8\u7eaf",
        "jgId": "xiuren",
        "jgName": "\u79c0\u4eba\u7f51",
        "href": "http://d.duotuwang.com/2020/11/20/23264/",
        "count": 91,
        "start": 1,
        "hasMtTag": 1,
        "hasJgTag": 1,
        "mtCount": 60,
        "jgCount": 750
    },
    {
        "name": "[XIUREN]\u79c0\u4eba\u7f51 No.2808 \u767d\u9732\u5c0f\u732a",
        "src": "http://d.duotuwang.com/2020/11/20/23263/0.jpg",
        "mtId": "5cd1cc0726427c54",
        "mtName": "\u767d\u9732\u5c0f\u732a",
        "jgId": "xiuren",
        "jgName": "\u79c0\u4eba\u7f51",
        "href": "http://d.duotuwang.com/2020/11/20/23263/",
        "count": 51,
        "start": 1,
        "hasMtTag": 1,
        "hasJgTag": 1,
        "mtCount": 2,
        "jgCount": 750
    },
    {
        "name": "[XIUREN]\u79c0\u4eba\u7f51 No.2807 \u5b89\u7136Maleah",
        "src": "http://d.duotuwang.com/2020/11/19/23262/0.jpg",
        "mtId": "d6505baadceb44e6",
        "mtName": "\u5b89\u7136Maleah",
        "jgId": "xiuren",
        "jgName": "\u79c0\u4eba\u7f51",
        "href": "http://d.duotuwang.com/2020/11/19/23262/",
        "count": 59,
        "start": 1,
        "hasMtTag": 1,
        "hasJgTag": 1,
        "mtCount": 16,
        "jgCount": 750
    }
]