[
    {
        "name": "[XIUREN]\u79c0\u4eba\u7f51 No.2557 \u7cef\u7f8e\u5b50Mini 2/2",
        "src": "http://d.duotuwang.com/2020/09/14/22155/0.jpg",
        "mtId": "f4543e3a7d545391",
        "mtName": "\u7cef\u7f8e\u5b50Mini",
        "jgId": "xiuren",
        "jgName": "\u79c0\u4eba\u7f51",
        "href": "http://d.duotuwang.com/2020/09/14/22155/",
        "count": 53,
        "start": 54,
        "hasMtTag": 1,
        "hasJgTag": 1,
        "mtCount": 19,
        "jgCount": 750
    },
    {
        "name": "[XIUREN]\u79c0\u4eba\u7f51 No.2557 \u7cef\u7f8e\u5b50Mini 1/2",
        "src": "http://d.duotuwang.com/2020/09/14/22130/0.jpg",
        "mtId": "f4543e3a7d545391",
        "mtName": "\u7cef\u7f8e\u5b50Mini",
        "jgId": "xiuren",
        "jgName": "\u79c0\u4eba\u7f51",
        "href": "http://d.duotuwang.com/2020/09/14/22130/",
        "count": 53,
        "start": 1,
        "hasMtTag": 1,
        "hasJgTag": 1,
        "mtCount": 19,
        "jgCount": 750
    },
    {
        "name": "[XIUREN]\u79c0\u4eba\u7f51 No.2556 \u5468\u6155\u6c50fairy",
        "src": "http://d.duotuwang.com/2020/09/14/22129/0.jpg",
        "mtId": "c5e50fb0a4ebbc43",
        "mtName": "\u5468\u6155\u6c50fairy",
        "jgId": "xiuren",
        "jgName": "\u79c0\u4eba\u7f51",
        "href": "http://d.duotuwang.com/2020/09/14/22129/",
        "count": 40,
        "start": 1,
        "hasMtTag": 1,
        "hasJgTag": 1,
        "mtCount": 10,
        "jgCount": 750
    },
    {
        "name": "[XIUREN]\u79c0\u4eba\u7f51 No.2555 \u4f58\u8d1d\u62c9bella",
        "src": "http://d.duotuwang.com/2020/09/14/22128/0.jpg",
        "mtId": "77da4d2b1d53f5fa",
        "mtName": "\u4f58\u8d1d\u62c9bella",
        "jgId": "xiuren",
        "jgName": "\u79c0\u4eba\u7f51",
        "href": "http://d.duotuwang.com/2020/09/14/22128/",
        "count": 41,
        "start": 1,
        "hasMtTag": 1,
        "hasJgTag": 1,
        "mtCount": 9,
        "jgCount": 750
    },
    {
        "name": "[XIUREN]\u79c0\u4eba\u7f51 No.2554 \u674e\u592b\u4eba",
        "src": "http://d.duotuwang.com/2020/09/14/22127/0.jpg",
        "mtId": "4bca6d81a8a21f07",
        "mtName": "\u674e\u592b\u4eba",
        "jgId": "xiuren",
        "jgName": "\u79c0\u4eba\u7f51",
        "href": "http://d.duotuwang.com/2020/09/14/22127/",
        "count": 55,
        "start": 1,
        "hasMtTag": 1,
        "hasJgTag": 1,
        "mtCount": 1,
        "jgCount": 750
    },
    {
        "name": "[XIUREN]\u79c0\u4eba\u7f51 No.2553 \u7eef\u6708\u6a31-Cherry",
        "src": "http://d.duotuwang.com/2020/09/10/22126/0.jpg",
        "mtId": "85e55daf35c53f9e",
        "mtName": "\u7eef\u6708\u6a31-Cherry",
        "jgId": "xiuren",
        "jgName": "\u79c0\u4eba\u7f51",
        "href": "http://d.duotuwang.com/2020/09/10/22126/",
        "count": 80,
        "start": 1,
        "hasMtTag": 1,
        "hasJgTag": 1,
        "mtCount": 26,
        "jgCount": 750
    }
]