[
    {
        "name": "[XIUREN]\u79c0\u4eba\u7f51 No.2486 \u827a\u8f69",
        "src": "http://d.duotuwang.com/2020/08/25/21697/0.jpg",
        "mtId": "3b3a0a82d01cb68c",
        "mtName": "\u827a\u8f69",
        "jgId": "xiuren",
        "jgName": "\u79c0\u4eba\u7f51",
        "href": "http://d.duotuwang.com/2020/08/25/21697/",
        "count": 65,
        "start": 1,
        "hasMtTag": 1,
        "hasJgTag": 1,
        "mtCount": 6,
        "jgCount": 750
    },
    {
        "name": "[XIUREN]\u79c0\u4eba\u7f51 No.2485 \u6dfc\u6dfc\u5c0f\u59d0\u59d0\u5440",
        "src": "http://d.duotuwang.com/2020/08/25/21696/0.jpg",
        "mtId": "ad8e2a5d128c00bb",
        "mtName": "\u6dfc\u6dfc\u5c0f\u59d0\u59d0\u5440",
        "jgId": "xiuren",
        "jgName": "\u79c0\u4eba\u7f51",
        "href": "http://d.duotuwang.com/2020/08/25/21696/",
        "count": 32,
        "start": 1,
        "hasMtTag": 1,
        "hasJgTag": 1,
        "mtCount": 2,
        "jgCount": 750
    },
    {
        "name": "[XIUREN]\u79c0\u4eba\u7f51 No.2484 \u59dd\u59dd\u59b9\u59b9",
        "src": "http://d.duotuwang.com/2020/08/25/21695/0.jpg",
        "mtId": "6897bd5c6c9cb22d",
        "mtName": "\u59dd\u59dd\u59b9\u59b9",
        "jgId": "xiuren",
        "jgName": "\u79c0\u4eba\u7f51",
        "href": "http://d.duotuwang.com/2020/08/25/21695/",
        "count": 59,
        "start": 1,
        "hasMtTag": 1,
        "hasJgTag": 1,
        "mtCount": 2,
        "jgCount": 750
    },
    {
        "name": "[XIUREN]\u79c0\u4eba\u7f51 No.2483 yoo\u4f18\u4f18",
        "src": "http://d.duotuwang.com/2020/08/25/21694/0.jpg",
        "mtId": "eb786dcb99b97985",
        "mtName": "yoo\u4f18\u4f18",
        "jgId": "xiuren",
        "jgName": "\u79c0\u4eba\u7f51",
        "href": "http://d.duotuwang.com/2020/08/25/21694/",
        "count": 45,
        "start": 1,
        "hasMtTag": 1,
        "hasJgTag": 1,
        "mtCount": 6,
        "jgCount": 750
    },
    {
        "name": "[XIUREN]\u79c0\u4eba\u7f51 No.2482 Egg-\u5c24\u59ae\u4e1dEgg",
        "src": "http://d.duotuwang.com/2020/08/25/22988/0.jpg",
        "mtId": "ad6ceea13469d7db",
        "mtName": "Egg-\u5c24\u59ae\u4e1d",
        "jgId": "xiuren",
        "jgName": "\u79c0\u4eba\u7f51",
        "href": "http://d.duotuwang.com/2020/08/25/22988/",
        "count": 78,
        "start": 1,
        "hasMtTag": 1,
        "hasJgTag": 1,
        "mtCount": 29,
        "jgCount": 750
    },
    {
        "name": "[XIUREN]\u79c0\u4eba\u7f51 No.2481 \u8303\u5c0f\u5ba3fancy",
        "src": "http://d.duotuwang.com/2020/08/25/22987/0.jpg",
        "mtId": "90f99d4bcd9a33d0",
        "mtName": "\u8303\u5c0f\u5ba3fancy",
        "jgId": "xiuren",
        "jgName": "\u79c0\u4eba\u7f51",
        "href": "http://d.duotuwang.com/2020/08/25/22987/",
        "count": 55,
        "start": 1,
        "hasMtTag": 1,
        "hasJgTag": 1,
        "mtCount": 2,
        "jgCount": 750
    }
]