[
    {
        "name": "[XIUREN]\u79c0\u4eba\u7f51 No.2404 Egg-\u5c24\u59ae\u4e1dEgg",
        "src": "http://d.duotuwang.com/2020/08/04/21451/0.jpg",
        "mtId": "ad6ceea13469d7db",
        "mtName": "Egg-\u5c24\u59ae\u4e1d",
        "jgId": "xiuren",
        "jgName": "\u79c0\u4eba\u7f51",
        "href": "http://d.duotuwang.com/2020/08/04/21451/",
        "count": 62,
        "start": 1,
        "hasMtTag": 1,
        "hasJgTag": 1,
        "mtCount": 29,
        "jgCount": 750
    },
    {
        "name": "[XIUREN]\u79c0\u4eba\u7f51 No.2403 \u68a6\u5fc3\u6708 2/2",
        "src": "http://d.duotuwang.com/2020/08/04/21465/0.jpg",
        "mtId": "845a90943c4d1633",
        "mtName": "\u68a6\u5fc3\u6708",
        "jgId": "xiuren",
        "jgName": "\u79c0\u4eba\u7f51",
        "href": "http://d.duotuwang.com/2020/08/04/21465/",
        "count": 57,
        "start": 54,
        "hasMtTag": 1,
        "hasJgTag": 1,
        "mtCount": 35,
        "jgCount": 750
    },
    {
        "name": "[XIUREN]\u79c0\u4eba\u7f51 No.2403 \u68a6\u5fc3\u6708 1/2",
        "src": "http://d.duotuwang.com/2020/08/04/21450/0.jpg",
        "mtId": "845a90943c4d1633",
        "mtName": "\u68a6\u5fc3\u6708",
        "jgId": "xiuren",
        "jgName": "\u79c0\u4eba\u7f51",
        "href": "http://d.duotuwang.com/2020/08/04/21450/",
        "count": 53,
        "start": 1,
        "hasMtTag": 1,
        "hasJgTag": 1,
        "mtCount": 35,
        "jgCount": 750
    },
    {
        "name": "[XIUREN]\u79c0\u4eba\u7f51 No.2402 yoo\u4f18\u4f18",
        "src": "http://d.duotuwang.com/2020/08/04/21449/0.jpg",
        "mtId": "eb786dcb99b97985",
        "mtName": "yoo\u4f18\u4f18",
        "jgId": "xiuren",
        "jgName": "\u79c0\u4eba\u7f51",
        "href": "http://d.duotuwang.com/2020/08/04/21449/",
        "count": 50,
        "start": 1,
        "hasMtTag": 1,
        "hasJgTag": 1,
        "mtCount": 6,
        "jgCount": 750
    },
    {
        "name": "[XIUREN]\u79c0\u4eba\u7f51 No.2401 \u9648\u5c0f\u55b5",
        "src": "http://d.duotuwang.com/2020/08/03/21448/0.jpg",
        "mtId": "b78e87fe8e591b8d",
        "mtName": "\u9648\u5c0f\u55b5",
        "jgId": "xiuren",
        "jgName": "\u79c0\u4eba\u7f51",
        "href": "http://d.duotuwang.com/2020/08/03/21448/",
        "count": 77,
        "start": 1,
        "hasMtTag": 1,
        "hasJgTag": 1,
        "mtCount": 12,
        "jgCount": 750
    },
    {
        "name": "[XIUREN]\u79c0\u4eba\u7f51 No.2400 \u6768\u6668\u6668sugar",
        "src": "http://d.duotuwang.com/2020/08/03/21447/0.jpg",
        "mtId": "48bada5e7225ec9f",
        "mtName": "\u6768\u6668\u6668sugar",
        "jgId": "xiuren",
        "jgName": "\u79c0\u4eba\u7f51",
        "href": "http://d.duotuwang.com/2020/08/03/21447/",
        "count": 56,
        "start": 1,
        "hasMtTag": 1,
        "hasJgTag": 1,
        "mtCount": 89,
        "jgCount": 750
    }
]