[
    {
        "name": "[XIUREN]\u79c0\u4eba\u7f51 No.2325 \u6768\u7d2b\u5ae3Cynthia",
        "src": "http://d.duotuwang.com/2020/07/14/21181/0.jpg",
        "mtId": "aca6a5b5e8c338c9",
        "mtName": "\u6768\u7d2b\u5ae3Cynthia",
        "jgId": "xiuren",
        "jgName": "\u79c0\u4eba\u7f51",
        "href": "http://d.duotuwang.com/2020/07/14/21181/",
        "count": 67,
        "start": 1,
        "hasMtTag": 1,
        "hasJgTag": 1,
        "mtCount": 6,
        "jgCount": 750
    },
    {
        "name": "[XIUREN]\u79c0\u4eba\u7f51 No.2324 \u59dd\u59dd\u59b9\u59b9",
        "src": "http://d.duotuwang.com/2020/07/14/21180/0.jpg",
        "mtId": "6897bd5c6c9cb22d",
        "mtName": "\u59dd\u59dd\u59b9\u59b9",
        "jgId": "xiuren",
        "jgName": "\u79c0\u4eba\u7f51",
        "href": "http://d.duotuwang.com/2020/07/14/21180/",
        "count": 55,
        "start": 1,
        "hasMtTag": 1,
        "hasJgTag": 1,
        "mtCount": 2,
        "jgCount": 750
    },
    {
        "name": "[XIUREN]\u79c0\u4eba\u7f51 No.2323 \u67cf\u539f\u775b",
        "src": "http://d.duotuwang.com/2020/07/14/21243/0.jpg",
        "jgId": "xiuren",
        "jgName": "\u79c0\u4eba\u7f51",
        "href": "http://d.duotuwang.com/2020/07/14/21243/",
        "count": 45,
        "start": 1,
        "hasMtTag": 0,
        "hasJgTag": 1,
        "jgCount": 750
    },
    {
        "name": "[XIUREN]\u79c0\u4eba\u7f51 No.2322 \u9648\u5c0f\u55b5",
        "src": "http://d.duotuwang.com/2020/07/13/21179/0.jpg",
        "mtId": "b78e87fe8e591b8d",
        "mtName": "\u9648\u5c0f\u55b5",
        "jgId": "xiuren",
        "jgName": "\u79c0\u4eba\u7f51",
        "href": "http://d.duotuwang.com/2020/07/13/21179/",
        "count": 76,
        "start": 1,
        "hasMtTag": 1,
        "hasJgTag": 1,
        "mtCount": 12,
        "jgCount": 750
    },
    {
        "name": "[XIUREN]\u79c0\u4eba\u7f51 No.2321 \u738b\u96e8\u7eaf",
        "src": "http://d.duotuwang.com/2020/07/13/21178/0.jpg",
        "mtId": "6a5d00e535915ee5",
        "mtName": "\u738b\u96e8\u7eaf",
        "jgId": "xiuren",
        "jgName": "\u79c0\u4eba\u7f51",
        "href": "http://d.duotuwang.com/2020/07/13/21178/",
        "count": 52,
        "start": 1,
        "hasMtTag": 1,
        "hasJgTag": 1,
        "mtCount": 60,
        "jgCount": 750
    },
    {
        "name": "[XIUREN]\u79c0\u4eba\u7f51 No.2320 \u6768\u6668\u6668sugar",
        "src": "http://d.duotuwang.com/2020/07/13/21177/0.jpg",
        "mtId": "48bada5e7225ec9f",
        "mtName": "\u6768\u6668\u6668sugar",
        "jgId": "xiuren",
        "jgName": "\u79c0\u4eba\u7f51",
        "href": "http://d.duotuwang.com/2020/07/13/21177/",
        "count": 94,
        "start": 1,
        "hasMtTag": 1,
        "hasJgTag": 1,
        "mtCount": 89,
        "jgCount": 750
    }
]