[
    {
        "name": "[XIUREN]\u79c0\u4eba\u7f51 No.2283 \u7389\u5154miki",
        "src": "http://d.duotuwang.com/2020/07/02/21024/0.jpg",
        "mtId": "e7e5da8fd6f60683",
        "mtName": "\u7389\u5154miki",
        "jgId": "xiuren",
        "jgName": "\u79c0\u4eba\u7f51",
        "href": "http://d.duotuwang.com/2020/07/02/21024/",
        "count": 50,
        "start": 1,
        "hasMtTag": 1,
        "hasJgTag": 1,
        "mtCount": 8,
        "jgCount": 750
    },
    {
        "name": "[XIUREN]\u79c0\u4eba\u7f51 No.2282 \u6731\u53ef\u513fFlower",
        "src": "http://d.duotuwang.com/2020/07/01/21023/0.jpg",
        "mtId": "6ded6be4a79e57ac",
        "mtName": "Flower\u6731\u53ef\u513f",
        "jgId": "xiuren",
        "jgName": "\u79c0\u4eba\u7f51",
        "href": "http://d.duotuwang.com/2020/07/01/21023/",
        "count": 60,
        "start": 1,
        "hasMtTag": 1,
        "hasJgTag": 1,
        "mtCount": 38,
        "jgCount": 750
    },
    {
        "name": "[XIUREN]\u79c0\u4eba\u7f51 No.2281 \u5b89\u7136Maleah",
        "src": "http://d.duotuwang.com/2020/07/01/21022/0.jpg",
        "mtId": "d6505baadceb44e6",
        "mtName": "\u5b89\u7136Maleah",
        "jgId": "xiuren",
        "jgName": "\u79c0\u4eba\u7f51",
        "href": "http://d.duotuwang.com/2020/07/01/21022/",
        "count": 68,
        "start": 1,
        "hasMtTag": 1,
        "hasJgTag": 1,
        "mtCount": 16,
        "jgCount": 750
    },
    {
        "name": "[XIUREN]\u79c0\u4eba\u7f51 No.2280 \u53ef\u6a02Vicky",
        "src": "http://d.duotuwang.com/2020/07/01/21021/0.jpg",
        "mtId": "e9a893c6944bfd79",
        "mtName": "\u53ef\u6a02Vicky",
        "jgId": "xiuren",
        "jgName": "\u79c0\u4eba\u7f51",
        "href": "http://d.duotuwang.com/2020/07/01/21021/",
        "count": 60,
        "start": 1,
        "hasMtTag": 1,
        "hasJgTag": 1,
        "mtCount": 7,
        "jgCount": 750
    },
    {
        "name": "[XIUREN]\u79c0\u4eba\u7f51 No.2279 \u9648\u5c0f\u55b5",
        "src": "http://d.duotuwang.com/2020/07/01/21020/0.jpg",
        "mtId": "b78e87fe8e591b8d",
        "mtName": "\u9648\u5c0f\u55b5",
        "jgId": "xiuren",
        "jgName": "\u79c0\u4eba\u7f51",
        "href": "http://d.duotuwang.com/2020/07/01/21020/",
        "count": 83,
        "start": 1,
        "hasMtTag": 1,
        "hasJgTag": 1,
        "mtCount": 12,
        "jgCount": 750
    },
    {
        "name": "[XIUREN]\u79c0\u4eba\u7f51 No.2278 \u5c0f\u5ba3fancy",
        "src": "http://d.duotuwang.com/2020/07/01/21019/0.jpg",
        "mtId": "90f99d4bcd9a33d0",
        "mtName": "\u5c0f\u5ba3fancy",
        "jgId": "xiuren",
        "jgName": "\u79c0\u4eba\u7f51",
        "href": "http://d.duotuwang.com/2020/07/01/21019/",
        "count": 47,
        "start": 1,
        "hasMtTag": 1,
        "hasJgTag": 1,
        "mtCount": 2,
        "jgCount": 750
    }
]