[
    {
        "name": "[XIUREN]\u79c0\u4eba\u7f51 No.2183 \u8f6f\u8f6fRoro",
        "src": "http://d.duotuwang.com/2020/04/23/20329/0.jpg",
        "mtName": "\u8f6f\u8f6fRoro",
        "jgId": "xiuren",
        "jgName": "\u79c0\u4eba\u7f51",
        "href": "http://d.duotuwang.com/2020/04/23/20329/",
        "count": 40,
        "start": 1,
        "hasMtTag": 0,
        "hasJgTag": 1,
        "jgCount": 750
    },
    {
        "name": "[XIUREN]\u79c0\u4eba\u7f51 No.2182 \u826f\u4eba\u975e\u7231\u4eba",
        "src": "http://d.duotuwang.com/2020/04/23/20331/0.jpg",
        "mtId": "e7e8a9f1e13dd5ee",
        "mtName": "\u826f\u4eba\u975e\u7231\u4eba",
        "jgId": "xiuren",
        "jgName": "\u79c0\u4eba\u7f51",
        "href": "http://d.duotuwang.com/2020/04/23/20331/",
        "count": 60,
        "start": 1,
        "hasMtTag": 1,
        "hasJgTag": 1,
        "mtCount": 1,
        "jgCount": 750
    },
    {
        "name": "[XIUREN]\u79c0\u4eba\u7f51 No.2181 \u5b89\u7136Maleah 1/2",
        "src": "http://d.duotuwang.com/2020/04/22/20332/0.jpg",
        "mtId": "d6505baadceb44e6",
        "mtName": "\u5b89\u7136Maleah",
        "jgId": "xiuren",
        "jgName": "\u79c0\u4eba\u7f51",
        "href": "http://d.duotuwang.com/2020/04/22/20332/",
        "count": 52,
        "start": 1,
        "hasMtTag": 1,
        "hasJgTag": 1,
        "mtCount": 16,
        "jgCount": 750
    },
    {
        "name": "[XIUREN]\u79c0\u4eba\u7f51 No.2181 \u5b89\u7136Maleah 2/2",
        "src": "http://d.duotuwang.com/2020/04/22/20448/0.jpg",
        "mtId": "d6505baadceb44e6",
        "mtName": "\u5b89\u7136Maleah",
        "jgId": "xiuren",
        "jgName": "\u79c0\u4eba\u7f51",
        "href": "http://d.duotuwang.com/2020/04/22/20448/",
        "count": 50,
        "start": 53,
        "hasMtTag": 1,
        "hasJgTag": 1,
        "mtCount": 16,
        "jgCount": 750
    },
    {
        "name": "[XIUREN]\u79c0\u4eba\u7f51 No.2180 \u5468\u4e8e\u5e0cSandy",
        "src": "http://d.duotuwang.com/2020/04/22/20334/0.jpg",
        "mtId": "de6bdb42ece2255f",
        "mtName": "\u5468\u4e8e\u5e0cSandy",
        "jgId": "xiuren",
        "jgName": "\u79c0\u4eba\u7f51",
        "href": "http://d.duotuwang.com/2020/04/22/20334/",
        "count": 100,
        "start": 1,
        "hasMtTag": 1,
        "hasJgTag": 1,
        "mtCount": 59,
        "jgCount": 750
    },
    {
        "name": "[XIUREN]\u79c0\u4eba\u7f51 No.2179 \u6708\u97f3\u77b3",
        "src": "http://d.duotuwang.com/2020/04/22/20337/0.jpg",
        "mtId": "ad1cc72dcd927205",
        "mtName": "\u6708\u97f3\u77b3",
        "jgId": "xiuren",
        "jgName": "\u79c0\u4eba\u7f51",
        "href": "http://d.duotuwang.com/2020/04/22/20337/",
        "count": 45,
        "start": 1,
        "hasMtTag": 1,
        "hasJgTag": 1,
        "mtCount": 11,
        "jgCount": 750
    }
]