[
    {
        "name": "[XIUREN]\u79c0\u4eba\u7f51 No.2051 \u6768\u6668\u6668sugar",
        "src": "http://d.duotuwang.com/2020/03/11/19846/0.jpg",
        "mtId": "48bada5e7225ec9f",
        "mtName": "\u6768\u6668\u6668sugar",
        "jgId": "xiuren",
        "jgName": "\u79c0\u4eba\u7f51",
        "href": "http://d.duotuwang.com/2020/03/11/19846/",
        "count": 81,
        "start": 1,
        "hasMtTag": 1,
        "hasJgTag": 1,
        "mtCount": 89,
        "jgCount": 750
    },
    {
        "name": "[XIUREN]\u79c0\u4eba\u7f51 No.2050 \u84dd\u590fAkasha",
        "src": "http://d.duotuwang.com/2020/03/11/19848/0.jpg",
        "mtId": "d904b8d6ef81d6f9",
        "mtName": "\u84dd\u590fAkasha",
        "jgId": "xiuren",
        "jgName": "\u79c0\u4eba\u7f51",
        "href": "http://d.duotuwang.com/2020/03/11/19848/",
        "count": 46,
        "start": 1,
        "hasMtTag": 1,
        "hasJgTag": 1,
        "mtCount": 9,
        "jgCount": 750
    },
    {
        "name": "[XIUREN]\u79c0\u4eba\u7f51 No.2049 \u9648\u5c0f\u55b5",
        "src": "http://d.duotuwang.com/2020/03/11/19850/0.jpg",
        "mtId": "b78e87fe8e591b8d",
        "mtName": "\u9648\u5c0f\u55b5",
        "jgId": "xiuren",
        "jgName": "\u79c0\u4eba\u7f51",
        "href": "http://d.duotuwang.com/2020/03/11/19850/",
        "count": 63,
        "start": 1,
        "hasMtTag": 1,
        "hasJgTag": 1,
        "mtCount": 12,
        "jgCount": 750
    },
    {
        "name": "[XIUREN]\u79c0\u4eba\u7f51 No.2048 \u827e\u5c0f\u9752",
        "src": "http://d.duotuwang.com/2020/03/11/19852/0.jpg",
        "mtId": "956ac07ef794d061",
        "mtName": "\u827e\u5c0f\u9752",
        "jgId": "xiuren",
        "jgName": "\u79c0\u4eba\u7f51",
        "href": "http://d.duotuwang.com/2020/03/11/19852/",
        "count": 48,
        "start": 1,
        "hasMtTag": 1,
        "hasJgTag": 1,
        "mtCount": 16,
        "jgCount": 750
    },
    {
        "name": "[XIUREN]\u79c0\u4eba\u7f51 No.2047 \u829d\u829dBooty",
        "src": "http://d.duotuwang.com/2020/03/10/19853/0.jpg",
        "mtId": "8fe458bd9af7ab1d",
        "mtName": "\u829d\u829dBooty",
        "jgId": "xiuren",
        "jgName": "\u79c0\u4eba\u7f51",
        "href": "http://d.duotuwang.com/2020/03/10/19853/",
        "count": 62,
        "start": 1,
        "hasMtTag": 1,
        "hasJgTag": 1,
        "mtCount": 56,
        "jgCount": 750
    },
    {
        "name": "[XIUREN]\u79c0\u4eba\u7f51 No.2046 \u5468\u4e8e\u5e0cSandy",
        "src": "http://d.duotuwang.com/2020/03/10/19855/0.jpg",
        "mtId": "de6bdb42ece2255f",
        "mtName": "\u5468\u4e8e\u5e0cSandy",
        "jgId": "xiuren",
        "jgName": "\u79c0\u4eba\u7f51",
        "href": "http://d.duotuwang.com/2020/03/10/19855/",
        "count": 90,
        "start": 1,
        "hasMtTag": 1,
        "hasJgTag": 1,
        "mtCount": 59,
        "jgCount": 750
    }
]