[
    {
        "name": "[XIUREN]\u79c0\u4eba\u7f51 No.2045 \u59b2\u5df1_Toxic",
        "src": "http://d.duotuwang.com/2020/03/10/19856/0.jpg",
        "mtId": "3c8b93e37672f106",
        "mtName": "\u59b2\u5df1_Toxic",
        "jgId": "xiuren",
        "jgName": "\u79c0\u4eba\u7f51",
        "href": "http://d.duotuwang.com/2020/03/10/19856/",
        "count": 28,
        "start": 1,
        "hasMtTag": 1,
        "hasJgTag": 1,
        "mtCount": 21,
        "jgCount": 750
    },
    {
        "name": "[XIUREN]\u79c0\u4eba\u7f51 No.2044 \u60a0\u60a0\u9171yoyoyo",
        "src": "http://d.duotuwang.com/2020/03/10/19858/0.jpg",
        "mtId": "596222287aa3fab0",
        "mtName": "\u60a0\u60a0\u9171yoyoyo",
        "jgId": "xiuren",
        "jgName": "\u79c0\u4eba\u7f51",
        "href": "http://d.duotuwang.com/2020/03/10/19858/",
        "count": 38,
        "start": 1,
        "hasMtTag": 1,
        "hasJgTag": 1,
        "mtCount": 1,
        "jgCount": 750
    },
    {
        "name": "[XIUREN]\u79c0\u4eba\u7f51 No.2043 \u5c31\u662f\u963f\u6731\u554a",
        "src": "http://d.duotuwang.com/2020/03/10/19860/0.jpg",
        "mtId": "0fe398c14ee967d6",
        "mtName": "\u5c31\u662f\u963f\u6731\u554a",
        "jgId": "xiuren",
        "jgName": "\u79c0\u4eba\u7f51",
        "href": "http://d.duotuwang.com/2020/03/10/19860/",
        "count": 73,
        "start": 1,
        "hasMtTag": 1,
        "hasJgTag": 1,
        "mtCount": 16,
        "jgCount": 750
    },
    {
        "name": "[XIUREN]\u79c0\u4eba\u7f51 No.2042 \u738b\u96e8\u7eaf",
        "src": "http://d.duotuwang.com/2020/03/09/19861/0.jpg",
        "mtId": "6a5d00e535915ee5",
        "mtName": "\u738b\u96e8\u7eaf",
        "jgId": "xiuren",
        "jgName": "\u79c0\u4eba\u7f51",
        "href": "http://d.duotuwang.com/2020/03/09/19861/",
        "count": 61,
        "start": 1,
        "hasMtTag": 1,
        "hasJgTag": 1,
        "mtCount": 60,
        "jgCount": 750
    },
    {
        "name": "[XIUREN]\u79c0\u4eba\u7f51 No.2041 \u739b\u9c81\u5a1cManuela",
        "src": "http://d.duotuwang.com/2020/03/09/19864/0.jpg",
        "mtId": "bf0e52c44e97112d",
        "mtName": "Manuela\u739b\u9c81\u5a1c",
        "jgId": "xiuren",
        "jgName": "\u79c0\u4eba\u7f51",
        "href": "http://d.duotuwang.com/2020/03/09/19864/",
        "count": 48,
        "start": 1,
        "hasMtTag": 1,
        "hasJgTag": 1,
        "mtCount": 10,
        "jgCount": 750
    },
    {
        "name": "[XIUREN]\u79c0\u4eba\u7f51 No.2040 \u68a6\u5fc3\u6708 2/2",
        "src": "http://d.duotuwang.com/2020/03/09/20449/0.jpg",
        "mtId": "845a90943c4d1633",
        "mtName": "\u68a6\u5fc3\u6708",
        "jgId": "xiuren",
        "jgName": "\u79c0\u4eba\u7f51",
        "href": "http://d.duotuwang.com/2020/03/09/20449/",
        "count": 55,
        "start": 51,
        "hasMtTag": 1,
        "hasJgTag": 1,
        "mtCount": 35,
        "jgCount": 750
    }
]