[
    {
        "name": "[XIUREN]\u79c0\u4eba\u7f51 No.2035 \u6797\u6587\u6587yooki",
        "src": "http://d.duotuwang.com/2020/03/06/19837/0.jpg",
        "mtId": "4eba90c841ec7445",
        "mtName": "\u6797\u6587\u6587yooki",
        "jgId": "xiuren",
        "jgName": "\u79c0\u4eba\u7f51",
        "href": "http://d.duotuwang.com/2020/03/06/19837/",
        "count": 66,
        "start": 1,
        "hasMtTag": 1,
        "hasJgTag": 1,
        "mtCount": 5,
        "jgCount": 750
    },
    {
        "name": "[XIUREN]\u79c0\u4eba\u7f51 No.2034 Lavinia\u8089\u8089",
        "src": "http://d.duotuwang.com/2020/03/06/19838/0.jpg",
        "mtId": "e618f72f851c7483",
        "mtName": "Lavinia",
        "jgId": "xiuren",
        "jgName": "\u79c0\u4eba\u7f51",
        "href": "http://d.duotuwang.com/2020/03/06/19838/",
        "count": 45,
        "start": 1,
        "hasMtTag": 1,
        "hasJgTag": 1,
        "mtCount": 16,
        "jgCount": 750
    },
    {
        "name": "[XIUREN]\u79c0\u4eba\u7f51 No.2033 \u9646\u8431\u8431",
        "src": "http://d.duotuwang.com/2020/03/05/19839/0.jpg",
        "mtId": "15c3767f8a07de21",
        "mtName": "\u9646\u8431\u8431",
        "jgId": "xiuren",
        "jgName": "\u79c0\u4eba\u7f51",
        "href": "http://d.duotuwang.com/2020/03/05/19839/",
        "count": 84,
        "start": 1,
        "hasMtTag": 1,
        "hasJgTag": 1,
        "mtCount": 25,
        "jgCount": 750
    },
    {
        "name": "[XIUREN]\u79c0\u4eba\u7f51 No.2029 \u7530\u5c0f\u71d5Vicky",
        "src": "http://d.duotuwang.com/2020/03/05/19824/0.jpg",
        "jgId": "xiuren",
        "jgName": "\u79c0\u4eba\u7f51",
        "href": "http://d.duotuwang.com/2020/03/05/19824/",
        "count": 63,
        "start": 1,
        "hasMtTag": 0,
        "hasJgTag": 1,
        "jgCount": 750
    },
    {
        "name": "[XIUREN]\u79c0\u4eba\u7f51 No.2030 \u6c88\u68a6\u7476&\u5c31\u662f\u963f\u6731\u554a",
        "src": "http://d.duotuwang.com/2020/03/05/19844/0.jpg",
        "mtId": "a5196f36e26bb71c",
        "mtName": "\u6c88\u68a6\u7476",
        "jgId": "xiuren",
        "jgName": "\u79c0\u4eba\u7f51",
        "href": "http://d.duotuwang.com/2020/03/05/19844/",
        "count": 53,
        "start": 1,
        "hasMtTag": 1,
        "hasJgTag": 1,
        "mtCount": 16,
        "jgCount": 750
    },
    {
        "name": "[XIUREN]\u79c0\u4eba\u7f51 No.2031 \u5468\u4e8e\u5e0cSandy",
        "src": "http://d.duotuwang.com/2020/03/05/19843/0.jpg",
        "mtId": "de6bdb42ece2255f",
        "mtName": "\u5468\u4e8e\u5e0cSandy",
        "jgId": "xiuren",
        "jgName": "\u79c0\u4eba\u7f51",
        "href": "http://d.duotuwang.com/2020/03/05/19843/",
        "count": 52,
        "start": 1,
        "hasMtTag": 1,
        "hasJgTag": 1,
        "mtCount": 59,
        "jgCount": 750
    }
]