[
    {
        "name": "[XIUREN]\u79c0\u4eba\u7f51 No.2025 \u5976\u74f6\u571f\u80a5\u5706\u77ee\u632b\u4e11\u9ed1\u7a77",
        "src": "http://d.duotuwang.com/2020/03/03/19763/0.jpg",
        "mtId": "2fd18d00d5f9689f",
        "mtName": "\u571f\u80a5\u5706\u77ee\u632b\u7a77",
        "jgId": "xiuren",
        "jgName": "\u79c0\u4eba\u7f51",
        "href": "http://d.duotuwang.com/2020/03/03/19763/",
        "count": 50,
        "start": 1,
        "hasMtTag": 1,
        "hasJgTag": 1,
        "mtCount": 23,
        "jgCount": 750
    },
    {
        "name": "[XIUREN]\u79c0\u4eba\u7f51 No.2021 \u6e29\u5fc3\u6021",
        "src": "http://d.duotuwang.com/2020/03/03/19772/0.jpg",
        "mtId": "735e57c1277ecc66",
        "mtName": "\u6e29\u5fc3\u6021",
        "jgId": "xiuren",
        "jgName": "\u79c0\u4eba\u7f51",
        "href": "http://d.duotuwang.com/2020/03/03/19772/",
        "count": 40,
        "start": 1,
        "hasMtTag": 1,
        "hasJgTag": 1,
        "mtCount": 9,
        "jgCount": 750
    },
    {
        "name": "[XIUREN]\u79c0\u4eba\u7f51 No.2023 \u5c31\u662f\u963f\u6731\u554a",
        "src": "http://d.duotuwang.com/2020/03/03/19767/0.jpg",
        "mtId": "0fe398c14ee967d6",
        "mtName": "\u5c31\u662f\u963f\u6731\u554a",
        "jgId": "xiuren",
        "jgName": "\u79c0\u4eba\u7f51",
        "href": "http://d.duotuwang.com/2020/03/03/19767/",
        "count": 50,
        "start": 1,
        "hasMtTag": 1,
        "hasJgTag": 1,
        "mtCount": 16,
        "jgCount": 750
    },
    {
        "name": "[XIUREN]\u79c0\u4eba\u7f51 No.2018 carry",
        "src": "http://d.duotuwang.com/2020/03/02/19738/0.jpg",
        "mtId": "eaba1ecd7edb60f2",
        "mtName": "Carry",
        "jgId": "xiuren",
        "jgName": "\u79c0\u4eba\u7f51",
        "href": "http://d.duotuwang.com/2020/03/02/19738/",
        "count": 34,
        "start": 1,
        "hasMtTag": 1,
        "hasJgTag": 1,
        "mtCount": 9,
        "jgCount": 750
    },
    {
        "name": "[XIUREN]\u79c0\u4eba\u7f51 No.2019 \u829d\u829dBooty",
        "src": "http://d.duotuwang.com/2020/03/02/19735/0.jpg",
        "mtId": "8fe458bd9af7ab1d",
        "mtName": "\u829d\u829dBooty",
        "jgId": "xiuren",
        "jgName": "\u79c0\u4eba\u7f51",
        "href": "http://d.duotuwang.com/2020/03/02/19735/",
        "count": 71,
        "start": 1,
        "hasMtTag": 1,
        "hasJgTag": 1,
        "mtCount": 56,
        "jgCount": 750
    },
    {
        "name": "[XIUREN]\u79c0\u4eba\u7f51 No.2020 \u9646\u8431\u8431",
        "src": "http://d.duotuwang.com/2020/03/02/19773/0.jpg",
        "mtId": "15c3767f8a07de21",
        "mtName": "\u9646\u8431\u8431",
        "jgId": "xiuren",
        "jgName": "\u79c0\u4eba\u7f51",
        "href": "http://d.duotuwang.com/2020/03/02/19773/",
        "count": 100,
        "start": 1,
        "hasMtTag": 1,
        "hasJgTag": 1,
        "mtCount": 25,
        "jgCount": 750
    }
]