[
    {
        "name": "[XIUREN]\u79c0\u4eba\u7f51 No.1977 \u9646\u8431\u8431 2/2",
        "src": "http://d.duotuwang.com/2020/02/14/19664/0.jpg",
        "mtId": "15c3767f8a07de21",
        "mtName": "\u9646\u8431\u8431",
        "jgId": "xiuren",
        "jgName": "\u79c0\u4eba\u7f51",
        "href": "http://d.duotuwang.com/2020/02/14/19664/",
        "count": 51,
        "start": 52,
        "hasMtTag": 1,
        "hasJgTag": 1,
        "mtCount": 25,
        "jgCount": 750
    },
    {
        "name": "[XIUREN]\u79c0\u4eba\u7f51 No.1977 \u9646\u8431\u8431 1/2",
        "src": "http://d.duotuwang.com/2020/02/14/19602/0.jpg",
        "mtId": "15c3767f8a07de21",
        "mtName": "\u9646\u8431\u8431",
        "jgId": "xiuren",
        "jgName": "\u79c0\u4eba\u7f51",
        "href": "http://d.duotuwang.com/2020/02/14/19602/",
        "count": 51,
        "start": 1,
        "hasMtTag": 1,
        "hasJgTag": 1,
        "mtCount": 25,
        "jgCount": 750
    },
    {
        "name": "[XIUREN]\u79c0\u4eba\u7f51 No.1976 Egg_\u5c24\u59ae\u4e1d",
        "src": "http://d.duotuwang.com/2020/02/14/19604/0.jpg",
        "mtId": "ad6ceea13469d7db",
        "mtName": "Egg-\u5c24\u59ae\u4e1d",
        "jgId": "xiuren",
        "jgName": "\u79c0\u4eba\u7f51",
        "href": "http://d.duotuwang.com/2020/02/14/19604/",
        "count": 63,
        "start": 1,
        "hasMtTag": 1,
        "hasJgTag": 1,
        "mtCount": 29,
        "jgCount": 750
    },
    {
        "name": "[XIUREN]\u79c0\u4eba\u7f51 No.1975 \u6797\u6587\u6587yooki",
        "src": "http://d.duotuwang.com/2020/02/14/19584/0.jpg",
        "mtId": "4eba90c841ec7445",
        "mtName": "\u6797\u6587\u6587yooki",
        "jgId": "xiuren",
        "jgName": "\u79c0\u4eba\u7f51",
        "href": "http://d.duotuwang.com/2020/02/14/19584/",
        "count": 66,
        "start": 1,
        "hasMtTag": 1,
        "hasJgTag": 1,
        "mtCount": 5,
        "jgCount": 750
    },
    {
        "name": "[XIUREN]\u79c0\u4eba\u7f51 No.1974 \u6768\u6668\u6668sugar",
        "src": "http://d.duotuwang.com/2020/02/13/19542/0.jpg",
        "mtId": "48bada5e7225ec9f",
        "mtName": "\u6768\u6668\u6668sugar",
        "jgId": "xiuren",
        "jgName": "\u79c0\u4eba\u7f51",
        "href": "http://d.duotuwang.com/2020/02/13/19542/",
        "count": 65,
        "start": 1,
        "hasMtTag": 1,
        "hasJgTag": 1,
        "mtCount": 89,
        "jgCount": 750
    },
    {
        "name": "[XIUREN]\u79c0\u4eba\u7f51 No.1973 \u9676\u559c\u4e50_lele&\u9646\u8431\u8431",
        "src": "http://d.duotuwang.com/2020/02/12/19545/0.jpg",
        "mtId": "7b89270dd206d455",
        "mtName": "\u9676\u559c\u4e50_lele",
        "jgId": "xiuren",
        "jgName": "\u79c0\u4eba\u7f51",
        "href": "http://d.duotuwang.com/2020/02/12/19545/",
        "count": 73,
        "start": 1,
        "hasMtTag": 1,
        "hasJgTag": 1,
        "mtCount": 5,
        "jgCount": 750
    }
]