[
    {
        "name": "[XIUREN]\u79c0\u4eba\u7f51 No.1923 \u6c88\u68a6\u7476",
        "src": "http://d.duotuwang.com/2020/01/12/19274/0.jpg",
        "mtId": "a5196f36e26bb71c",
        "mtName": "\u6c88\u68a6\u7476",
        "jgId": "xiuren",
        "jgName": "\u79c0\u4eba\u7f51",
        "href": "http://d.duotuwang.com/2020/01/12/19274/",
        "count": 40,
        "start": 1,
        "hasMtTag": 1,
        "hasJgTag": 1,
        "mtCount": 16,
        "jgCount": 750
    },
    {
        "name": "[XIUREN]\u79c0\u4eba\u7f51 No.1922 \u5976\u74f6\u571f\u80a5\u5706\u77ee\u632b\u4e11\u9ed1\u7a77",
        "src": "http://d.duotuwang.com/2020/01/10/19276/0.jpg",
        "mtId": "2fd18d00d5f9689f",
        "mtName": "\u571f\u80a5\u5706\u77ee\u632b\u7a77",
        "jgId": "xiuren",
        "jgName": "\u79c0\u4eba\u7f51",
        "href": "http://d.duotuwang.com/2020/01/10/19276/",
        "count": 70,
        "start": 1,
        "hasMtTag": 1,
        "hasJgTag": 1,
        "mtCount": 23,
        "jgCount": 750
    },
    {
        "name": "[XIUREN]\u79c0\u4eba\u7f51 No.1921 \u5c31\u662f\u963f\u6731\u554a",
        "src": "http://d.duotuwang.com/2020/01/10/19209/0.jpg",
        "mtId": "0fe398c14ee967d6",
        "mtName": "\u5c31\u662f\u963f\u6731\u554a",
        "jgId": "xiuren",
        "jgName": "\u79c0\u4eba\u7f51",
        "href": "http://d.duotuwang.com/2020/01/10/19209/",
        "count": 100,
        "start": 1,
        "hasMtTag": 1,
        "hasJgTag": 1,
        "mtCount": 16,
        "jgCount": 750
    },
    {
        "name": "[XIUREN]\u79c0\u4eba\u7f51 No.1920 \u9648\u5c0f\u55b5",
        "src": "http://d.duotuwang.com/2020/01/10/19212/0.jpg",
        "mtId": "b78e87fe8e591b8d",
        "mtName": "\u9648\u5c0f\u55b5",
        "jgId": "xiuren",
        "jgName": "\u79c0\u4eba\u7f51",
        "href": "http://d.duotuwang.com/2020/01/10/19212/",
        "count": 61,
        "start": 1,
        "hasMtTag": 1,
        "hasJgTag": 1,
        "mtCount": 12,
        "jgCount": 750
    },
    {
        "name": "[XIUREN]\u79c0\u4eba\u7f51 No.1919 \u6768\u7d2b\u5ae3Cynthia",
        "src": "http://d.duotuwang.com/2020/01/10/19214/0.jpg",
        "mtId": "aca6a5b5e8c338c9",
        "mtName": "\u6768\u7d2b\u5ae3Cynthia",
        "jgId": "xiuren",
        "jgName": "\u79c0\u4eba\u7f51",
        "href": "http://d.duotuwang.com/2020/01/10/19214/",
        "count": 37,
        "start": 1,
        "hasMtTag": 1,
        "hasJgTag": 1,
        "mtCount": 6,
        "jgCount": 750
    },
    {
        "name": "[XIUREN]\u79c0\u4eba\u7f51 No.1918 \u7cef\u7f8e\u5b50Mini",
        "src": "http://d.duotuwang.com/2020/01/10/19216/0.jpg",
        "mtId": "f4543e3a7d545391",
        "mtName": "\u7cef\u7f8e\u5b50Mini",
        "jgId": "xiuren",
        "jgName": "\u79c0\u4eba\u7f51",
        "href": "http://d.duotuwang.com/2020/01/10/19216/",
        "count": 41,
        "start": 1,
        "hasMtTag": 1,
        "hasJgTag": 1,
        "mtCount": 19,
        "jgCount": 750
    }
]