[
    {
        "name": "[XIUREN]\u79c0\u4eba\u7f51 No.5215 \u6731\u53ef\u513fFlora",
        "src": "http://d.duotuwang.com/2022/07/01/30438/0.jpg",
        "mtId": "6ded6be4a79e57ac",
        "mtName": "\u6731\u53ef\u513fFlower",
        "jgId": "xiuren",
        "jgName": "\u79c0\u4eba\u7f51",
        "href": "http://d.duotuwang.com/2022/07/01/30438/",
        "count": 76,
        "start": 1,
        "hasMtTag": 1,
        "hasJgTag": 1,
        "mtCount": 38,
        "jgCount": 750
    },
    {
        "name": "[XIUREN]\u79c0\u4eba\u7f51 No.5214 \u718a\u5c0f\u8bfa",
        "src": "http://d.duotuwang.com/2022/07/01/30437/0.jpg",
        "mtId": "4b77043b985e1845",
        "mtName": "\u718a\u5c0f\u8bfa",
        "jgId": "xiuren",
        "jgName": "\u79c0\u4eba\u7f51",
        "href": "http://d.duotuwang.com/2022/07/01/30437/",
        "count": 83,
        "start": 1,
        "hasMtTag": 1,
        "hasJgTag": 1,
        "mtCount": 11,
        "jgCount": 750
    },
    {
        "name": "[XIUREN]\u79c0\u4eba\u7f51 No.5213 \u9646\u8431\u8431",
        "src": "http://d.duotuwang.com/2022/06/30/30436/0.jpg",
        "mtId": "15c3767f8a07de21",
        "mtName": "\u9646\u8431\u8431",
        "jgId": "xiuren",
        "jgName": "\u79c0\u4eba\u7f51",
        "href": "http://d.duotuwang.com/2022/06/30/30436/",
        "count": 71,
        "start": 1,
        "hasMtTag": 1,
        "hasJgTag": 1,
        "mtCount": 25,
        "jgCount": 750
    },
    {
        "name": "[XIUREN]\u79c0\u4eba\u7f51 No.5212 \u5976\u74f6.",
        "src": "http://d.duotuwang.com/2022/06/30/30435/0.jpg",
        "mtId": "4b7b846f8dd02ffb",
        "mtName": "\u5976\u74f6\u5b50",
        "jgId": "xiuren",
        "jgName": "\u79c0\u4eba\u7f51",
        "href": "http://d.duotuwang.com/2022/06/30/30435/",
        "count": 89,
        "start": 1,
        "hasMtTag": 1,
        "hasJgTag": 1,
        "mtCount": 7,
        "jgCount": 750
    },
    {
        "name": "[XIUREN]\u79c0\u4eba\u7f51 No.5211 \u6797\u661f\u9611",
        "src": "http://d.duotuwang.com/2022/06/30/30434/0.jpg",
        "mtId": "ae97554bce4f86d1",
        "mtName": "\u6797\u661f\u9611",
        "jgId": "xiuren",
        "jgName": "\u79c0\u4eba\u7f51",
        "href": "http://d.duotuwang.com/2022/06/30/30434/",
        "count": 92,
        "start": 1,
        "hasMtTag": 1,
        "hasJgTag": 1,
        "mtCount": 8,
        "jgCount": 750
    },
    {
        "name": "[XIUREN]\u79c0\u4eba\u7f51 No.5210 \u5c0f\u86ee\u5996Yummy",
        "src": "http://d.duotuwang.com/2022/06/30/30433/0.jpg",
        "mtId": "2dc510fc19dd00b7",
        "mtName": "\u5c0f\u86ee\u5996Yummy",
        "jgId": "xiuren",
        "jgName": "\u79c0\u4eba\u7f51",
        "href": "http://d.duotuwang.com/2022/06/30/30433/",
        "count": 70,
        "start": 1,
        "hasMtTag": 1,
        "hasJgTag": 1,
        "mtCount": 8,
        "jgCount": 750
    }
]