[
    {
        "name": "[XIUREN]\u79c0\u4eba\u7f51 No.1707 \u59b2\u5df1_Toxic",
        "src": "http://d.duotuwang.com/2019/09/30/18141/0.jpg",
        "mtId": "3c8b93e37672f106",
        "mtName": "\u59b2\u5df1_Toxic",
        "jgId": "xiuren",
        "jgName": "\u79c0\u4eba\u7f51",
        "href": "http://d.duotuwang.com/2019/09/30/18141/",
        "count": 56,
        "start": 1,
        "hasMtTag": 1,
        "hasJgTag": 1,
        "mtCount": 21,
        "jgCount": 750
    },
    {
        "name": "[XIUREN]\u79c0\u4eba\u7f51 No.1706 BABY_\u67d2",
        "src": "http://d.duotuwang.com/2019/09/30/18142/0.jpg",
        "mtId": "ed71948751a1427f",
        "mtName": "BABY_\u67d2",
        "jgId": "xiuren",
        "jgName": "\u79c0\u4eba\u7f51",
        "href": "http://d.duotuwang.com/2019/09/30/18142/",
        "count": 75,
        "start": 1,
        "hasMtTag": 1,
        "hasJgTag": 1,
        "mtCount": 4,
        "jgCount": 750
    },
    {
        "name": "[XIUREN]\u79c0\u4eba\u7f51 No.1705 \u9676\u559c\u4e50_lele",
        "src": "http://d.duotuwang.com/2019/09/30/18143/0.jpg",
        "mtId": "7b89270dd206d455",
        "mtName": "\u9676\u559c\u4e50_lele",
        "jgId": "xiuren",
        "jgName": "\u79c0\u4eba\u7f51",
        "href": "http://d.duotuwang.com/2019/09/30/18143/",
        "count": 70,
        "start": 1,
        "hasMtTag": 1,
        "hasJgTag": 1,
        "mtCount": 5,
        "jgCount": 750
    },
    {
        "name": "[XIUREN]\u79c0\u4eba\u7f51 No.1704 Emily\u987e\u5948\u5948",
        "src": "http://d.duotuwang.com/2019/09/29/18146/0.jpg",
        "mtId": "eaa19160eb9a4e36",
        "mtName": "Emily\u987e\u5948\u5948\u9171",
        "jgId": "xiuren",
        "jgName": "\u79c0\u4eba\u7f51",
        "href": "http://d.duotuwang.com/2019/09/29/18146/",
        "count": 43,
        "start": 1,
        "hasMtTag": 1,
        "hasJgTag": 1,
        "mtCount": 22,
        "jgCount": 750
    },
    {
        "name": "[XIUREN]\u79c0\u4eba\u7f51 No.1703 \u5468\u4e8e\u5e0cSandy",
        "src": "http://d.duotuwang.com/2019/09/29/18147/0.jpg",
        "mtId": "de6bdb42ece2255f",
        "mtName": "\u5468\u4e8e\u5e0cSandy",
        "jgId": "xiuren",
        "jgName": "\u79c0\u4eba\u7f51",
        "href": "http://d.duotuwang.com/2019/09/29/18147/",
        "count": 72,
        "start": 1,
        "hasMtTag": 1,
        "hasJgTag": 1,
        "mtCount": 59,
        "jgCount": 750
    },
    {
        "name": "[XIUREN]\u79c0\u4eba\u7f51 No.1702 \u6a21\u7279_\u537f\u537f",
        "src": "http://d.duotuwang.com/2019/09/29/18150/0.jpg",
        "mtId": "91f345cfdb81a7f6",
        "mtName": "\u6a21\u7279_\u537f\u537f",
        "jgId": "xiuren",
        "jgName": "\u79c0\u4eba\u7f51",
        "href": "http://d.duotuwang.com/2019/09/29/18150/",
        "count": 68,
        "start": 1,
        "hasMtTag": 1,
        "hasJgTag": 1,
        "mtCount": 2,
        "jgCount": 750
    }
]