[
    {
        "name": "[XIUREN]\u79c0\u4eba\u7f51 No.1678 \u91d1\u9759\u7199",
        "src": "http://d.duotuwang.com/2019/09/11/17935/0.jpg",
        "mtId": "a7ce1c3aaf0cd9ca",
        "mtName": "\u91d1\u9759\u7199",
        "jgId": "xiuren",
        "jgName": "\u79c0\u4eba\u7f51",
        "href": "http://d.duotuwang.com/2019/09/11/17935/",
        "count": 50,
        "start": 1,
        "hasMtTag": 1,
        "hasJgTag": 1,
        "mtCount": 1,
        "jgCount": 750
    },
    {
        "name": "[XIUREN]\u79c0\u4eba\u7f51 No.1677 Cris_\u5353\u5a05\u797a",
        "src": "http://d.duotuwang.com/2019/09/10/17899/0.jpg",
        "mtId": "508d1bde3048cf28",
        "mtName": "Cris_\u5353\u5a05\u797a",
        "jgId": "xiuren",
        "jgName": "\u79c0\u4eba\u7f51",
        "href": "http://d.duotuwang.com/2019/09/10/17899/",
        "count": 55,
        "start": 1,
        "hasMtTag": 1,
        "hasJgTag": 1,
        "mtCount": 10,
        "jgCount": 750
    },
    {
        "name": "[XIUREN]\u79c0\u4eba\u7f51 No.1676 \u5927\u7199",
        "src": "http://d.duotuwang.com/2019/09/10/17901/0.jpg",
        "mtId": "659ecaa0a660de83",
        "mtName": "\u5927\u7199",
        "jgId": "xiuren",
        "jgName": "\u79c0\u4eba\u7f51",
        "href": "http://d.duotuwang.com/2019/09/10/17901/",
        "count": 53,
        "start": 1,
        "hasMtTag": 1,
        "hasJgTag": 1,
        "mtCount": 2,
        "jgCount": 750
    },
    {
        "name": "[XIUREN]\u79c0\u4eba\u7f51 No.1675 \u829d\u829dBooty",
        "src": "http://d.duotuwang.com/2019/09/09/17902/0.jpg",
        "mtId": "8fe458bd9af7ab1d",
        "mtName": "\u829d\u829dBooty",
        "jgId": "xiuren",
        "jgName": "\u79c0\u4eba\u7f51",
        "href": "http://d.duotuwang.com/2019/09/09/17902/",
        "count": 66,
        "start": 1,
        "hasMtTag": 1,
        "hasJgTag": 1,
        "mtCount": 56,
        "jgCount": 750
    },
    {
        "name": "[XIUREN]\u79c0\u4eba\u7f51 No.1674 \u9ec4\u697d\u7136",
        "src": "http://d.duotuwang.com/2019/09/09/17903/0.jpg",
        "mtId": "ed4d676610a0b9e3",
        "mtName": "\u9ec4\u697d\u7136",
        "jgId": "xiuren",
        "jgName": "\u79c0\u4eba\u7f51",
        "href": "http://d.duotuwang.com/2019/09/09/17903/",
        "count": 53,
        "start": 1,
        "hasMtTag": 1,
        "hasJgTag": 1,
        "mtCount": 17,
        "jgCount": 750
    },
    {
        "name": "[XIUREN]\u79c0\u4eba\u7f51 No.1673 Yomi\u60a0\u871c",
        "src": "http://d.duotuwang.com/2019/09/09/17905/0.jpg",
        "mtId": "efd10580d2e6e2d9",
        "mtName": "Yomi\u60a0\u871c",
        "jgId": "xiuren",
        "jgName": "\u79c0\u4eba\u7f51",
        "href": "http://d.duotuwang.com/2019/09/09/17905/",
        "count": 38,
        "start": 1,
        "hasMtTag": 1,
        "hasJgTag": 1,
        "mtCount": 1,
        "jgCount": 750
    }
]