[
    {
        "name": "[XIUREN]\u79c0\u4eba\u7f51 No.1655 Emily\u987e\u5948\u5948\u9171",
        "src": "http://d.duotuwang.com/2019/08/29/17799/0.jpg",
        "mtId": "eaa19160eb9a4e36",
        "mtName": "Emily\u987e\u5948\u5948\u9171",
        "jgId": "xiuren",
        "jgName": "\u79c0\u4eba\u7f51",
        "href": "http://d.duotuwang.com/2019/08/29/17799/",
        "count": 49,
        "start": 1,
        "hasMtTag": 1,
        "hasJgTag": 1,
        "mtCount": 22,
        "jgCount": 750
    },
    {
        "name": "[XIUREN]\u79c0\u4eba\u7f51 No.1654 \u7cef\u7c73NM",
        "src": "http://d.duotuwang.com/2019/08/29/17802/0.jpg",
        "mtId": "e1d90854018d28a1",
        "mtName": "\u7cef\u7c73NM",
        "jgId": "xiuren",
        "jgName": "\u79c0\u4eba\u7f51",
        "href": "http://d.duotuwang.com/2019/08/29/17802/",
        "count": 39,
        "start": 1,
        "hasMtTag": 1,
        "hasJgTag": 1,
        "mtCount": 2,
        "jgCount": 750
    },
    {
        "name": "[XIUREN]\u79c0\u4eba\u7f51 No.1653 \u5c0f\u5c24\u5948",
        "src": "http://d.duotuwang.com/2019/08/28/17805/0.jpg",
        "mtId": "ebef91bb28e0661a",
        "mtName": "\u5c0f\u5c24\u5948",
        "jgId": "xiuren",
        "jgName": "\u79c0\u4eba\u7f51",
        "href": "http://d.duotuwang.com/2019/08/28/17805/",
        "count": 53,
        "start": 1,
        "hasMtTag": 1,
        "hasJgTag": 1,
        "mtCount": 7,
        "jgCount": 750
    },
    {
        "name": "[XIUREN]\u79c0\u4eba\u7f51 No.1652 \u7b71\u6167",
        "src": "http://d.duotuwang.com/2019/08/28/17806/0.jpg",
        "mtId": "c739b89a0b9c02a0",
        "mtName": "\u7b71\u6167",
        "jgId": "xiuren",
        "jgName": "\u79c0\u4eba\u7f51",
        "href": "http://d.duotuwang.com/2019/08/28/17806/",
        "count": 62,
        "start": 1,
        "hasMtTag": 1,
        "hasJgTag": 1,
        "mtCount": 17,
        "jgCount": 750
    },
    {
        "name": "[XIUREN]\u79c0\u4eba\u7f51 No.1651 Baileys\u9999\u513f",
        "src": "http://d.duotuwang.com/2019/08/28/17808/0.jpg",
        "mtId": "3734ba1c3fb8c9ed",
        "mtName": "Baileys\u9999\u513f",
        "jgId": "xiuren",
        "jgName": "\u79c0\u4eba\u7f51",
        "href": "http://d.duotuwang.com/2019/08/28/17808/",
        "count": 55,
        "start": 1,
        "hasMtTag": 1,
        "hasJgTag": 1,
        "mtCount": 9,
        "jgCount": 750
    },
    {
        "name": "[XIUREN]\u79c0\u4eba\u7f51 No.1650 \u6768\u6668\u6668sugar",
        "src": "http://d.duotuwang.com/2019/08/27/17810/0.jpg",
        "mtId": "48bada5e7225ec9f",
        "mtName": "\u6768\u6668\u6668sugar",
        "jgId": "xiuren",
        "jgName": "\u79c0\u4eba\u7f51",
        "href": "http://d.duotuwang.com/2019/08/27/17810/",
        "count": 99,
        "start": 1,
        "hasMtTag": 1,
        "hasJgTag": 1,
        "mtCount": 89,
        "jgCount": 750
    }
]