[
    {
        "name": "[XIUREN]\u79c0\u4eba\u7f51 No.1649 \u84dd\u590fAkasha",
        "src": "http://d.duotuwang.com/2019/08/27/17780/0.jpg",
        "mtId": "d904b8d6ef81d6f9",
        "mtName": "\u84dd\u590fAkasha",
        "jgId": "xiuren",
        "jgName": "\u79c0\u4eba\u7f51",
        "href": "http://d.duotuwang.com/2019/08/27/17780/",
        "count": 48,
        "start": 1,
        "hasMtTag": 1,
        "hasJgTag": 1,
        "mtCount": 9,
        "jgCount": 750
    },
    {
        "name": "[XIUREN]\u79c0\u4eba\u7f51 No.1648 \u6c88\u68a6\u7476",
        "src": "http://d.duotuwang.com/2019/08/27/17782/0.jpg",
        "mtId": "a5196f36e26bb71c",
        "mtName": "\u6c88\u68a6\u7476",
        "jgId": "xiuren",
        "jgName": "\u79c0\u4eba\u7f51",
        "href": "http://d.duotuwang.com/2019/08/27/17782/",
        "count": 60,
        "start": 1,
        "hasMtTag": 1,
        "hasJgTag": 1,
        "mtCount": 16,
        "jgCount": 750
    },
    {
        "name": "[XIUREN]\u79c0\u4eba\u7f51 No.1647 \u738b\u7d2b\u7433",
        "src": "http://d.duotuwang.com/2019/08/27/17783/0.jpg",
        "mtId": "1d575119539fdb46",
        "mtName": "\u738b\u7d2b\u7433",
        "jgId": "xiuren",
        "jgName": "\u79c0\u4eba\u7f51",
        "href": "http://d.duotuwang.com/2019/08/27/17783/",
        "count": 82,
        "start": 1,
        "hasMtTag": 1,
        "hasJgTag": 1,
        "mtCount": 2,
        "jgCount": 750
    },
    {
        "name": "[XIUREN]\u79c0\u4eba\u7f51 No.1646 \u51af\u6728\u6728LRIS",
        "src": "http://d.duotuwang.com/2019/08/26/17785/0.jpg",
        "mtId": "8f32655f10938cea",
        "mtName": "\u51af\u6728\u6728LRIS",
        "jgId": "xiuren",
        "jgName": "\u79c0\u4eba\u7f51",
        "href": "http://d.duotuwang.com/2019/08/26/17785/",
        "count": 55,
        "start": 1,
        "hasMtTag": 1,
        "hasJgTag": 1,
        "mtCount": 14,
        "jgCount": 750
    },
    {
        "name": "[XIUREN]\u79c0\u4eba\u7f51 No.1645 \u68a6\u5fc3\u6708",
        "src": "http://d.duotuwang.com/2019/08/26/17787/0.jpg",
        "mtId": "845a90943c4d1633",
        "mtName": "\u68a6\u5fc3\u6708",
        "jgId": "xiuren",
        "jgName": "\u79c0\u4eba\u7f51",
        "href": "http://d.duotuwang.com/2019/08/26/17787/",
        "count": 95,
        "start": 1,
        "hasMtTag": 1,
        "hasJgTag": 1,
        "mtCount": 35,
        "jgCount": 750
    },
    {
        "name": "[XIUREN]\u79c0\u4eba\u7f51 No.1644 \u8d3e\u8bd7\u6657",
        "src": "http://d.duotuwang.com/2019/08/26/17788/0.jpg",
        "mtId": "c76e0f71f35cc3d0",
        "mtName": "\u8d3e\u8bd7\u6657",
        "jgId": "xiuren",
        "jgName": "\u79c0\u4eba\u7f51",
        "href": "http://d.duotuwang.com/2019/08/26/17788/",
        "count": 50,
        "start": 1,
        "hasMtTag": 1,
        "hasJgTag": 1,
        "mtCount": 2,
        "jgCount": 750
    }
]