[
    {
        "name": "[XIUREN]\u79c0\u4eba\u7f51 No.1510 Egg_\u5c24\u59ae\u4e1d",
        "src": "http://d.duotuwang.com/2019/06/21/16914/0.jpg",
        "mtId": "ad6ceea13469d7db",
        "mtName": "Egg-\u5c24\u59ae\u4e1d",
        "jgId": "xiuren",
        "jgName": "\u79c0\u4eba\u7f51",
        "href": "http://d.duotuwang.com/2019/06/21/16914/",
        "count": 53,
        "start": 1,
        "hasMtTag": 1,
        "hasJgTag": 1,
        "mtCount": 29,
        "jgCount": 750
    },
    {
        "name": "[XIUREN]\u79c0\u4eba\u7f51 No.1511 \u5976\u74f6\u571f\u80a5\u5706\u77ee\u632b\u4e11\u9ed1\u7a77",
        "src": "http://d.duotuwang.com/2019/06/21/16910/0.jpg",
        "mtId": "2fd18d00d5f9689f",
        "mtName": "\u5468\u598d\u5e0c",
        "jgId": "xiuren",
        "jgName": "\u79c0\u4eba\u7f51",
        "href": "http://d.duotuwang.com/2019/06/21/16910/",
        "count": 58,
        "start": 1,
        "hasMtTag": 1,
        "hasJgTag": 1,
        "mtCount": 23,
        "jgCount": 750
    },
    {
        "name": "[XIUREN]\u79c0\u4eba\u7f51 No.1509 \u7eef\u6708\u6a31-Cherry",
        "src": "http://d.duotuwang.com/2019/06/20/16866/0.jpg",
        "mtId": "85e55daf35c53f9e",
        "mtName": "\u7eef\u6708\u6a31-Cherry",
        "jgId": "xiuren",
        "jgName": "\u79c0\u4eba\u7f51",
        "href": "http://d.duotuwang.com/2019/06/20/16866/",
        "count": 60,
        "start": 1,
        "hasMtTag": 1,
        "hasJgTag": 1,
        "mtCount": 26,
        "jgCount": 750
    },
    {
        "name": "[XIUREN]\u79c0\u4eba\u7f51 No.1508 \u5fc3\u598d\u5c0f\u516c\u4e3b",
        "src": "http://d.duotuwang.com/2019/06/20/16867/0.jpg",
        "mtId": "8179d941dcc5135a",
        "mtName": "\u5fc3\u598d\u5c0f\u516c\u4e3b",
        "jgId": "xiuren",
        "jgName": "\u79c0\u4eba\u7f51",
        "href": "http://d.duotuwang.com/2019/06/20/16867/",
        "count": 55,
        "start": 1,
        "hasMtTag": 1,
        "hasJgTag": 1,
        "mtCount": 11,
        "jgCount": 750
    },
    {
        "name": "[XIUREN]\u79c0\u4eba\u7f51 No.1507 Emily\u987e\u5948\u5948\u9171",
        "src": "http://d.duotuwang.com/2019/06/20/16869/0.jpg",
        "mtId": "eaa19160eb9a4e36",
        "mtName": "Emily\u987e\u5948\u5948\u9171",
        "jgId": "xiuren",
        "jgName": "\u79c0\u4eba\u7f51",
        "href": "http://d.duotuwang.com/2019/06/20/16869/",
        "count": 41,
        "start": 1,
        "hasMtTag": 1,
        "hasJgTag": 1,
        "mtCount": 22,
        "jgCount": 750
    },
    {
        "name": "[XIUREN]\u79c0\u4eba\u7f51 No.1506 \u674e\u5b93\u513f",
        "src": "http://d.duotuwang.com/2019/06/20/16870/0.jpg",
        "mtId": "bd5953142f24cb0a",
        "mtName": "\u674e\u5b93\u513f",
        "jgId": "xiuren",
        "jgName": "\u79c0\u4eba\u7f51",
        "href": "http://d.duotuwang.com/2019/06/20/16870/",
        "count": 45,
        "start": 1,
        "hasMtTag": 1,
        "hasJgTag": 1,
        "mtCount": 5,
        "jgCount": 750
    }
]