[
    {
        "name": "[XIUREN]\u79c0\u4eba\u7f51 No.1505 \u5468\u4e8e\u5e0cSandy",
        "src": "http://d.duotuwang.com/2019/06/19/16873/0.jpg",
        "mtId": "de6bdb42ece2255f",
        "mtName": "\u5468\u4e8e\u5e0c",
        "jgId": "xiuren",
        "jgName": "\u79c0\u4eba\u7f51",
        "href": "http://d.duotuwang.com/2019/06/19/16873/",
        "count": 60,
        "start": 1,
        "hasMtTag": 1,
        "hasJgTag": 1,
        "mtCount": 59,
        "jgCount": 750
    },
    {
        "name": "[XIUREN]\u79c0\u4eba\u7f51 No.1504 \u5f90\u5fae\u5faemia",
        "src": "http://d.duotuwang.com/2019/06/19/16875/0.jpg",
        "mtId": "b676514ad570d0d2",
        "mtName": "\u5f90\u5fae\u5faemia",
        "jgId": "xiuren",
        "jgName": "\u79c0\u4eba\u7f51",
        "href": "http://d.duotuwang.com/2019/06/19/16875/",
        "count": 50,
        "start": 1,
        "hasMtTag": 1,
        "hasJgTag": 1,
        "mtCount": 8,
        "jgCount": 750
    },
    {
        "name": "[XIUREN]\u79c0\u4eba\u7f51 No.1502 \u6e29\u5fc3\u6021",
        "src": "http://d.duotuwang.com/2019/06/18/16839/0.jpg",
        "mtId": "735e57c1277ecc66",
        "mtName": "\u6e29\u5fc3\u6021",
        "jgId": "xiuren",
        "jgName": "\u79c0\u4eba\u7f51",
        "href": "http://d.duotuwang.com/2019/06/18/16839/",
        "count": 47,
        "start": 1,
        "hasMtTag": 1,
        "hasJgTag": 1,
        "mtCount": 9,
        "jgCount": 750
    },
    {
        "name": "[XIUREN]\u79c0\u4eba\u7f51 No.1503 \u6768\u6668\u6668sugar",
        "src": "http://d.duotuwang.com/2019/06/18/16878/0.jpg",
        "mtId": "48bada5e7225ec9f",
        "mtName": "\u6768\u6668\u6668sugar",
        "jgId": "xiuren",
        "jgName": "\u79c0\u4eba\u7f51",
        "href": "http://d.duotuwang.com/2019/06/18/16878/",
        "count": 70,
        "start": 1,
        "hasMtTag": 1,
        "hasJgTag": 1,
        "mtCount": 89,
        "jgCount": 750
    },
    {
        "name": "[XIUREN]\u79c0\u4eba\u7f51 No.1500 \u4efb\u83b9\u6a31Jenny",
        "src": "http://d.duotuwang.com/2019/06/17/16846/0.jpg",
        "mtId": "0fda849ec12a407f",
        "mtName": "\u4efb\u83b9\u6a31Jenny",
        "jgId": "xiuren",
        "jgName": "\u79c0\u4eba\u7f51",
        "href": "http://d.duotuwang.com/2019/06/17/16846/",
        "count": 39,
        "start": 1,
        "hasMtTag": 1,
        "hasJgTag": 1,
        "mtCount": 3,
        "jgCount": 750
    },
    {
        "name": "[XIUREN]\u79c0\u4eba\u7f51 No.1501 \u738b\u96e8\u7eaf",
        "src": "http://d.duotuwang.com/2019/06/17/16843/0.jpg",
        "mtId": "6a5d00e535915ee5",
        "mtName": "\u738b\u96e8\u7eaf",
        "jgId": "xiuren",
        "jgName": "\u79c0\u4eba\u7f51",
        "href": "http://d.duotuwang.com/2019/06/17/16843/",
        "count": 45,
        "start": 1,
        "hasMtTag": 1,
        "hasJgTag": 1,
        "mtCount": 60,
        "jgCount": 750
    }
]