[
    {
        "name": "[XIUREN]\u79c0\u4eba\u7f51 No.1439 Yomi\u60a0\u871c",
        "src": "http://d.duotuwang.com/2019/05/09/16452/0.jpg",
        "mtId": "efd10580d2e6e2d9",
        "mtName": "Yomi\u60a0\u871c",
        "jgId": "xiuren",
        "jgName": "\u79c0\u4eba\u7f51",
        "href": "http://d.duotuwang.com/2019/05/09/16452/",
        "count": 42,
        "start": 1,
        "hasMtTag": 1,
        "hasJgTag": 1,
        "mtCount": 1,
        "jgCount": 750
    },
    {
        "name": "[XIUREN]\u79c0\u4eba\u7f51 No.1438 Cris_\u5353\u5a05\u797a",
        "src": "http://d.duotuwang.com/2019/05/08/16406/0.jpg",
        "mtId": "508d1bde3048cf28",
        "mtName": "Cris_\u5353\u5a05\u797a",
        "jgId": "xiuren",
        "jgName": "\u79c0\u4eba\u7f51",
        "href": "http://d.duotuwang.com/2019/05/08/16406/",
        "count": 60,
        "start": 1,
        "hasMtTag": 1,
        "hasJgTag": 1,
        "mtCount": 10,
        "jgCount": 750
    },
    {
        "name": "[XIUREN]\u79c0\u4eba\u7f51 No.1437 SOLO-\u5c39\u83f2",
        "src": "http://d.duotuwang.com/2019/05/08/16408/0.jpg",
        "mtId": "eaa19160eb9a4e36",
        "mtName": "SOLO-\u5c39\u83f2",
        "jgId": "xiuren",
        "jgName": "\u79c0\u4eba\u7f51",
        "href": "http://d.duotuwang.com/2019/05/08/16408/",
        "count": 56,
        "start": 1,
        "hasMtTag": 1,
        "hasJgTag": 1,
        "mtCount": 22,
        "jgCount": 750
    },
    {
        "name": "[XIUREN]\u79c0\u4eba\u7f51 No.1436 \u6768\u6668\u6668sugar",
        "src": "http://d.duotuwang.com/2019/05/07/16410/0.jpg",
        "mtId": "48bada5e7225ec9f",
        "mtName": "\u6768\u6668\u6668sugar",
        "jgId": "xiuren",
        "jgName": "\u79c0\u4eba\u7f51",
        "href": "http://d.duotuwang.com/2019/05/07/16410/",
        "count": 54,
        "start": 1,
        "hasMtTag": 1,
        "hasJgTag": 1,
        "mtCount": 89,
        "jgCount": 750
    },
    {
        "name": "[XIUREN]\u79c0\u4eba\u7f51 No.1435 \u59b2\u5df1_Toxic",
        "src": "http://d.duotuwang.com/2019/05/07/16411/0.jpg",
        "mtId": "3c8b93e37672f106",
        "mtName": "\u59b2\u5df1_Toxic",
        "jgId": "xiuren",
        "jgName": "\u79c0\u4eba\u7f51",
        "href": "http://d.duotuwang.com/2019/05/07/16411/",
        "count": 45,
        "start": 1,
        "hasMtTag": 1,
        "hasJgTag": 1,
        "mtCount": 21,
        "jgCount": 750
    },
    {
        "name": "[XIUREN]\u79c0\u4eba\u7f51 No.1434 \u6817\u5b50Riz",
        "src": "http://d.duotuwang.com/2019/05/07/16413/0.jpg",
        "mtId": "92316d0e0bb84801",
        "mtName": "\u6817\u5b50Riz",
        "jgId": "xiuren",
        "jgName": "\u79c0\u4eba\u7f51",
        "href": "http://d.duotuwang.com/2019/05/07/16413/",
        "count": 62,
        "start": 1,
        "hasMtTag": 1,
        "hasJgTag": 1,
        "mtCount": 5,
        "jgCount": 750
    }
]