[
    {
        "name": "[XIUREN]\u79c0\u4eba\u7f51 No.1421 Cris_\u5353\u5a05\u797a",
        "src": "http://d.duotuwang.com/2019/04/26/16245/0.jpg",
        "mtId": "508d1bde3048cf28",
        "mtName": "Cris_\u5353\u5a05\u797a",
        "jgId": "xiuren",
        "jgName": "\u79c0\u4eba\u7f51",
        "href": "http://d.duotuwang.com/2019/04/26/16245/",
        "count": 65,
        "start": 1,
        "hasMtTag": 1,
        "hasJgTag": 1,
        "mtCount": 10,
        "jgCount": 750
    },
    {
        "name": "[XIUREN]\u79c0\u4eba\u7f51 No.1420 \u674e\u6893\u7199",
        "src": "http://d.duotuwang.com/2019/04/26/16164/0.jpg",
        "mtId": "c20a8d8edc6f01e7",
        "mtName": "\u674e\u6893\u7199",
        "jgId": "xiuren",
        "jgName": "\u79c0\u4eba\u7f51",
        "href": "http://d.duotuwang.com/2019/04/26/16164/",
        "count": 50,
        "start": 1,
        "hasMtTag": 1,
        "hasJgTag": 1,
        "mtCount": 7,
        "jgCount": 750
    },
    {
        "name": "[XIUREN]\u79c0\u4eba\u7f51 No.1419 \u6c88\u68a6\u7476",
        "src": "http://d.duotuwang.com/2019/04/26/16165/0.jpg",
        "mtId": "a5196f36e26bb71c",
        "mtName": "\u6c88\u68a6\u7476",
        "jgId": "xiuren",
        "jgName": "\u79c0\u4eba\u7f51",
        "href": "http://d.duotuwang.com/2019/04/26/16165/",
        "count": 62,
        "start": 1,
        "hasMtTag": 1,
        "hasJgTag": 1,
        "mtCount": 16,
        "jgCount": 750
    },
    {
        "name": "[XIUREN]\u79c0\u4eba\u7f51 No.1418 Evelyn\u827e\u8389",
        "src": "http://d.duotuwang.com/2019/04/25/16167/0.jpg",
        "mtId": "25b9d9de60147a4d",
        "mtName": "Evelyn\u827e\u8389",
        "jgId": "xiuren",
        "jgName": "\u79c0\u4eba\u7f51",
        "href": "http://d.duotuwang.com/2019/04/25/16167/",
        "count": 48,
        "start": 1,
        "hasMtTag": 1,
        "hasJgTag": 1,
        "mtCount": 8,
        "jgCount": 750
    },
    {
        "name": "[XIUREN]\u79c0\u4eba\u7f51 No.1417 \u5b8b-KiKi",
        "src": "http://d.duotuwang.com/2019/04/25/16171/0.jpg",
        "mtId": "4d58fddeaf850335",
        "mtName": "\u5b8b-KiKi",
        "jgId": "xiuren",
        "jgName": "\u79c0\u4eba\u7f51",
        "href": "http://d.duotuwang.com/2019/04/25/16171/",
        "count": 41,
        "start": 1,
        "hasMtTag": 1,
        "hasJgTag": 1,
        "mtCount": 8,
        "jgCount": 750
    },
    {
        "name": "[XIUREN]\u79c0\u4eba\u7f51 No.1416 \u854a\u854aruirui",
        "src": "http://d.duotuwang.com/2019/04/25/16173/0.jpg",
        "mtId": "b0ba0508bb843c5c",
        "mtName": "\u854a\u854aruirui",
        "jgId": "xiuren",
        "jgName": "\u79c0\u4eba\u7f51",
        "href": "http://d.duotuwang.com/2019/04/25/16173/",
        "count": 45,
        "start": 1,
        "hasMtTag": 1,
        "hasJgTag": 1,
        "mtCount": 1,
        "jgCount": 750
    }
]