[
    {
        "name": "[XIUREN]\u79c0\u4eba\u7f51 No.1385 \u59b2\u5df1_Toxic",
        "src": "http://d.duotuwang.com/2019/04/04/15862/0.jpg",
        "mtId": "3c8b93e37672f106",
        "mtName": "\u59b2\u5df1_Toxic",
        "jgId": "xiuren",
        "jgName": "\u79c0\u4eba\u7f51",
        "href": "http://d.duotuwang.com/2019/04/04/15862/",
        "count": 49,
        "start": 1,
        "hasMtTag": 1,
        "hasJgTag": 1,
        "mtCount": 21,
        "jgCount": 750
    },
    {
        "name": "[XIUREN]\u79c0\u4eba\u7f51 No.1384 \u840c\u6c49\u836fbaby\u5f88\u9177",
        "src": "http://d.duotuwang.com/2019/04/04/15864/0.jpg",
        "mtId": "830ea5862a484115",
        "mtName": "\u840c\u6c49\u836fbaby",
        "jgId": "xiuren",
        "jgName": "\u79c0\u4eba\u7f51",
        "href": "http://d.duotuwang.com/2019/04/04/15864/",
        "count": 63,
        "start": 1,
        "hasMtTag": 1,
        "hasJgTag": 1,
        "mtCount": 17,
        "jgCount": 750
    },
    {
        "name": "[XIUREN]\u79c0\u4eba\u7f51 No.1383 \u4e45\u4e45Aimee",
        "src": "http://d.duotuwang.com/2019/04/04/15865/0.jpg",
        "mtId": "e9e2057cd6e2887d",
        "mtName": "\u4e45\u4e45Aimee",
        "jgId": "xiuren",
        "jgName": "\u79c0\u4eba\u7f51",
        "href": "http://d.duotuwang.com/2019/04/04/15865/",
        "count": 45,
        "start": 1,
        "hasMtTag": 1,
        "hasJgTag": 1,
        "mtCount": 7,
        "jgCount": 750
    },
    {
        "name": "[XIUREN]\u79c0\u4eba\u7f51 No.1382 \u5b8b-KiKi",
        "src": "http://d.duotuwang.com/2019/04/03/15870/0.jpg",
        "mtId": "4d58fddeaf850335",
        "mtName": "\u5b8b-KiKi",
        "jgId": "xiuren",
        "jgName": "\u79c0\u4eba\u7f51",
        "href": "http://d.duotuwang.com/2019/04/03/15870/",
        "count": 36,
        "start": 1,
        "hasMtTag": 1,
        "hasJgTag": 1,
        "mtCount": 8,
        "jgCount": 750
    },
    {
        "name": "[XIUREN]\u79c0\u4eba\u7f51 No.1381 \u5468\u4e8e\u5e0cSandy",
        "src": "http://d.duotuwang.com/2019/04/01/14752/0.jpg",
        "mtId": "de6bdb42ece2255f",
        "mtName": "\u5468\u4e8e\u5e0c",
        "jgId": "xiuren",
        "jgName": "\u79c0\u4eba\u7f51",
        "href": "http://d.duotuwang.com/2019/04/01/14752/",
        "count": 54,
        "start": 1,
        "hasMtTag": 1,
        "hasJgTag": 1,
        "mtCount": 59,
        "jgCount": 750
    },
    {
        "name": "[XIUREN]\u79c0\u4eba\u7f51 No.1380 \u9ec4\u697d\u7136",
        "src": "http://d.duotuwang.com/2019/03/29/14759/0.jpg",
        "mtId": "ed4d676610a0b9e3",
        "mtName": "\u9ec4\u697d\u7136",
        "jgId": "xiuren",
        "jgName": "\u79c0\u4eba\u7f51",
        "href": "http://d.duotuwang.com/2019/03/29/14759/",
        "count": 40,
        "start": 1,
        "hasMtTag": 1,
        "hasJgTag": 1,
        "mtCount": 17,
        "jgCount": 750
    }
]