[
    {
        "name": "[XIUREN]\u79c0\u4eba\u7f51 No.1342 \u5b5f\u72d0\u72f8FoxYini",
        "src": "http://d.duotuwang.com/2019/02/19/10703/0.jpg",
        "mtId": "5ee0e185d3cabf77",
        "mtName": "\u5b5f\u72d0\u72f8",
        "jgId": "xiuren",
        "jgName": "\u79c0\u4eba\u7f51",
        "href": "http://d.duotuwang.com/2019/02/19/10703/",
        "count": 33,
        "start": 1,
        "hasMtTag": 1,
        "hasJgTag": 1,
        "mtCount": 9,
        "jgCount": 750
    },
    {
        "name": "[XIUREN]\u79c0\u4eba\u7f51 No.1341 \u679c\u513fVictoria",
        "src": "http://d.duotuwang.com/2019/02/18/10707/0.jpg",
        "mtId": "fc1868c8a652655f",
        "mtName": "\u679c\u513fVictoria",
        "jgId": "xiuren",
        "jgName": "\u79c0\u4eba\u7f51",
        "href": "http://d.duotuwang.com/2019/02/18/10707/",
        "count": 61,
        "start": 1,
        "hasMtTag": 1,
        "hasJgTag": 1,
        "mtCount": 29,
        "jgCount": 750
    },
    {
        "name": "[XIUREN]\u79c0\u4eba\u7f51 No.1340 \u5c0f\u5c24\u5948",
        "src": "http://d.duotuwang.com/2019/02/18/10709/0.jpg",
        "mtId": "ebef91bb28e0661a",
        "mtName": "\u5c0f\u5c24\u5948",
        "jgId": "xiuren",
        "jgName": "\u79c0\u4eba\u7f51",
        "href": "http://d.duotuwang.com/2019/02/18/10709/",
        "count": 54,
        "start": 1,
        "hasMtTag": 1,
        "hasJgTag": 1,
        "mtCount": 7,
        "jgCount": 750
    },
    {
        "name": "[XIUREN]\u79c0\u4eba\u7f51 No.1339 \u5976\u74f6\u571f\u80a5\u5706\u77ee\u632b\u4e11\u9ed1\u7a77",
        "src": "http://d.duotuwang.com/2019/02/15/10568/0.jpg",
        "mtId": "2fd18d00d5f9689f",
        "mtName": "\u5468\u598d\u5e0c",
        "jgId": "xiuren",
        "jgName": "\u79c0\u4eba\u7f51",
        "href": "http://d.duotuwang.com/2019/02/15/10568/",
        "count": 46,
        "start": 1,
        "hasMtTag": 1,
        "hasJgTag": 1,
        "mtCount": 23,
        "jgCount": 750
    },
    {
        "name": "[XIUREN]\u79c0\u4eba\u7f51 No.1338 Mieko\u6797\u7f8e\u60e0\u5b50",
        "src": "http://d.duotuwang.com/2019/02/15/10716/0.jpg",
        "mtId": "d7f0322fd052042b",
        "mtName": "\u6797\u7f8e\u60e0\u5b50Mieko",
        "jgId": "xiuren",
        "jgName": "\u79c0\u4eba\u7f51",
        "href": "http://d.duotuwang.com/2019/02/15/10716/",
        "count": 40,
        "start": 1,
        "hasMtTag": 1,
        "hasJgTag": 1,
        "mtCount": 5,
        "jgCount": 750
    },
    {
        "name": "[XIUREN]\u79c0\u4eba\u7f51 No.1337 \u674e\u5b93\u513f",
        "src": "http://d.duotuwang.com/2019/02/14/10567/0.jpg",
        "mtId": "bd5953142f24cb0a",
        "mtName": "\u674e\u5b93\u513f",
        "jgId": "xiuren",
        "jgName": "\u79c0\u4eba\u7f51",
        "href": "http://d.duotuwang.com/2019/02/14/10567/",
        "count": 45,
        "start": 1,
        "hasMtTag": 1,
        "hasJgTag": 1,
        "mtCount": 5,
        "jgCount": 750
    }
]