[
    {
        "name": "[XIUREN\u79c0\u4eba\u7f51] No.1324 \u6e29\u5fc3\u6021",
        "src": "http://d.duotuwang.com/2019/01/30/10445/0.jpg",
        "mtId": "735e57c1277ecc66",
        "mtName": "\u6e29\u5fc3\u6021",
        "jgId": "xiuren",
        "jgName": "\u79c0\u4eba\u7f51",
        "href": "http://d.duotuwang.com/2019/01/30/10445/",
        "count": 47,
        "start": 1,
        "hasMtTag": 1,
        "hasJgTag": 1,
        "mtCount": 9,
        "jgCount": 750
    },
    {
        "name": "[XIUREN\u79c0\u4eba\u7f51] No.1323 \u9ec4\u697d\u7136",
        "src": "http://d.duotuwang.com/2019/01/29/10444/0.jpg",
        "mtId": "ed4d676610a0b9e3",
        "mtName": "\u9ec4\u697d\u7136",
        "jgId": "xiuren",
        "jgName": "\u79c0\u4eba\u7f51",
        "href": "http://d.duotuwang.com/2019/01/29/10444/",
        "count": 41,
        "start": 1,
        "hasMtTag": 1,
        "hasJgTag": 1,
        "mtCount": 17,
        "jgCount": 750
    },
    {
        "name": "[XIUREN\u79c0\u4eba\u7f51] No.1322 \u767d\u7f8a\u5ea7Aries",
        "src": "http://d.duotuwang.com/2019/01/28/10443/0.jpg",
        "jgId": "xiuren",
        "jgName": "\u79c0\u4eba\u7f51",
        "href": "http://d.duotuwang.com/2019/01/28/10443/",
        "count": 46,
        "start": 1,
        "hasMtTag": 0,
        "hasJgTag": 1,
        "jgCount": 750
    },
    {
        "name": "[XIUREN]\u79c0\u4eba\u7f51 No.1321 Mieko\u6797\u7f8e\u60e0\u5b50",
        "src": "http://d.duotuwang.com/2019/01/28/10645/0.jpg",
        "mtId": "d7f0322fd052042b",
        "mtName": "\u6797\u7f8e\u60e0\u5b50Mieko",
        "jgId": "xiuren",
        "jgName": "\u79c0\u4eba\u7f51",
        "href": "http://d.duotuwang.com/2019/01/28/10645/",
        "count": 30,
        "start": 1,
        "hasMtTag": 1,
        "hasJgTag": 1,
        "mtCount": 5,
        "jgCount": 750
    },
    {
        "name": "[XIUREN\u79c0\u4eba\u7f51] No.1320 Egg_\u5c24\u59ae\u4e1d",
        "src": "http://d.duotuwang.com/2019/01/23/10404/0.jpg",
        "mtId": "ad6ceea13469d7db",
        "mtName": "Egg-\u5c24\u59ae\u4e1d",
        "jgId": "xiuren",
        "jgName": "\u79c0\u4eba\u7f51",
        "href": "http://d.duotuwang.com/2019/01/23/10404/",
        "count": 29,
        "start": 1,
        "hasMtTag": 1,
        "hasJgTag": 1,
        "mtCount": 29,
        "jgCount": 750
    },
    {
        "name": "[XIUREN\u79c0\u4eba\u7f51] No.1319 \u6613\u9633Silvia",
        "src": "http://d.duotuwang.com/2019/01/23/10403/0.jpg",
        "mtId": "ed0ba549510c68da",
        "mtName": "\u6613\u9633",
        "jgId": "xiuren",
        "jgName": "\u79c0\u4eba\u7f51",
        "href": "http://d.duotuwang.com/2019/01/23/10403/",
        "count": 45,
        "start": 1,
        "hasMtTag": 1,
        "hasJgTag": 1,
        "mtCount": 10,
        "jgCount": 750
    }
]