[
    {
        "name": "[XIUREN]\u79c0\u4eba\u7f51 No.5087 \u5f20\u601d\u5141Nice",
        "src": "http://d.duotuwang.com/2022/05/31/30045/0.jpg",
        "mtId": "1f0b573e6fe41163",
        "mtName": "\u5f20\u601d\u5141Nice",
        "jgId": "xiuren",
        "jgName": "\u79c0\u4eba\u7f51",
        "href": "http://d.duotuwang.com/2022/05/31/30045/",
        "count": 50,
        "start": 1,
        "hasMtTag": 1,
        "hasJgTag": 1,
        "mtCount": 6,
        "jgCount": 750
    },
    {
        "name": "[XIUREN]\u79c0\u4eba\u7f51 No.5086 \u5229\u4e16",
        "src": "http://d.duotuwang.com/2022/05/31/30044/0.jpg",
        "mtId": "8356114d4df8d319",
        "mtName": "\u5229\u4e16",
        "jgId": "xiuren",
        "jgName": "\u79c0\u4eba\u7f51",
        "href": "http://d.duotuwang.com/2022/05/31/30044/",
        "count": 74,
        "start": 1,
        "hasMtTag": 1,
        "hasJgTag": 1,
        "mtCount": 7,
        "jgCount": 750
    },
    {
        "name": "[XIUREN]\u79c0\u4eba\u7f51 No.5085 \u4f58\u8d1d\u62c9bella",
        "src": "http://d.duotuwang.com/2022/05/31/30043/0.jpg",
        "mtId": "77da4d2b1d53f5fa",
        "mtName": "\u4f58\u8d1d\u62c9bella",
        "jgId": "xiuren",
        "jgName": "\u79c0\u4eba\u7f51",
        "href": "http://d.duotuwang.com/2022/05/31/30043/",
        "count": 73,
        "start": 1,
        "hasMtTag": 1,
        "hasJgTag": 1,
        "mtCount": 9,
        "jgCount": 750
    },
    {
        "name": "[XIUREN]\u79c0\u4eba\u7f51 No.5084 \u987e\u4e54\u6960Cora",
        "src": "http://d.duotuwang.com/2022/05/31/30042/0.jpg",
        "mtId": "71814f89502e46e8",
        "mtName": "\u987e\u4e54\u6960",
        "jgId": "xiuren",
        "jgName": "\u79c0\u4eba\u7f51",
        "href": "http://d.duotuwang.com/2022/05/31/30042/",
        "count": 62,
        "start": 1,
        "hasMtTag": 1,
        "hasJgTag": 1,
        "mtCount": 8,
        "jgCount": 750
    },
    {
        "name": "[XIUREN]\u79c0\u4eba\u7f51 No.5083 \u840c\u6c49\u836fbaby",
        "src": "http://d.duotuwang.com/2022/05/31/30041/0.jpg",
        "mtId": "830ea5862a484115",
        "mtName": "\u840c\u6c49\u836fbaby",
        "jgId": "xiuren",
        "jgName": "\u79c0\u4eba\u7f51",
        "href": "http://d.duotuwang.com/2022/05/31/30041/",
        "count": 40,
        "start": 1,
        "hasMtTag": 1,
        "hasJgTag": 1,
        "mtCount": 17,
        "jgCount": 750
    },
    {
        "name": "[XIUREN]\u79c0\u4eba\u7f51 No.5082 \u53e4\u6708\u5c0f\u540c\u5b66",
        "src": "http://d.duotuwang.com/2022/05/31/30040/0.jpg",
        "mtId": "908377caf31c9db0",
        "mtName": "\u53e4\u6708\u5c0f\u540c\u5b66",
        "jgId": "xiuren",
        "jgName": "\u79c0\u4eba\u7f51",
        "href": "http://d.duotuwang.com/2022/05/31/30040/",
        "count": 47,
        "start": 1,
        "hasMtTag": 1,
        "hasJgTag": 1,
        "mtCount": 2,
        "jgCount": 750
    }
]