[
    {
        "name": "[XIUREN]\u79c0\u4eba\u7f51 No.5546 \u590f\u6cab\u6cabtifa",
        "src": "http://d.duotuwang.com/2022/09/06/31294/0.jpg",
        "mtId": "d18a3314715df750",
        "mtName": "\u590f\u6cab\u6cabtifa",
        "jgId": "xiuren",
        "jgName": "\u79c0\u4eba\u7f51",
        "href": "http://d.duotuwang.com/2022/09/06/31294/",
        "count": 76,
        "start": 1,
        "hasMtTag": 1,
        "hasJgTag": 1,
        "mtCount": 5,
        "jgCount": 750
    },
    {
        "name": "[XIUREN]\u79c0\u4eba\u7f51 No.5545 \u5510\u5b89\u742a",
        "src": "http://d.duotuwang.com/2022/09/05/31181/0.jpg",
        "mtId": "552de7273733ea34",
        "mtName": "\u5510\u5b89\u742a",
        "jgId": "xiuren",
        "jgName": "\u79c0\u4eba\u7f51",
        "href": "http://d.duotuwang.com/2022/09/05/31181/",
        "count": 81,
        "start": 1,
        "hasMtTag": 1,
        "hasJgTag": 1,
        "mtCount": 19,
        "jgCount": 750
    },
    {
        "name": "[XIUREN]\u79c0\u4eba\u7f51 No.5544 \u6797\u661f\u9611",
        "src": "http://d.duotuwang.com/2022/09/05/31180/0.jpg",
        "mtId": "ae97554bce4f86d1",
        "mtName": "\u6797\u661f\u9611",
        "jgId": "xiuren",
        "jgName": "\u79c0\u4eba\u7f51",
        "href": "http://d.duotuwang.com/2022/09/05/31180/",
        "count": 81,
        "start": 1,
        "hasMtTag": 1,
        "hasJgTag": 1,
        "mtCount": 8,
        "jgCount": 750
    },
    {
        "name": "[XIUREN]\u79c0\u4eba\u7f51 No.5543 \u84dd\u590fAkasha",
        "src": "http://d.duotuwang.com/2022/09/05/31179/0.jpg",
        "mtId": "d904b8d6ef81d6f9",
        "mtName": "\u84dd\u590fAkasha",
        "jgId": "xiuren",
        "jgName": "\u79c0\u4eba\u7f51",
        "href": "http://d.duotuwang.com/2022/09/05/31179/",
        "count": 59,
        "start": 1,
        "hasMtTag": 1,
        "hasJgTag": 1,
        "mtCount": 9,
        "jgCount": 750
    },
    {
        "name": "[XIUREN]\u79c0\u4eba\u7f51 No.5542 hebe\u97e9\u5fc3\u96e8",
        "src": "http://d.duotuwang.com/2022/09/05/31178/0.jpg",
        "mtId": "3c66bdfc015ff373",
        "mtName": "hebe\u97e9\u5fc3\u96e8",
        "jgId": "xiuren",
        "jgName": "\u79c0\u4eba\u7f51",
        "href": "http://d.duotuwang.com/2022/09/05/31178/",
        "count": 56,
        "start": 1,
        "hasMtTag": 1,
        "hasJgTag": 1,
        "mtCount": 2,
        "jgCount": 750
    },
    {
        "name": "[XIUREN]\u79c0\u4eba\u7f51 No.5541 \u767d\u8339\u96ea",
        "src": "http://d.duotuwang.com/2022/09/05/31177/0.jpg",
        "mtId": "4d41c81d1d3e89fc",
        "mtName": "\u767d\u8339\u96ea",
        "jgId": "xiuren",
        "jgName": "\u79c0\u4eba\u7f51",
        "href": "http://d.duotuwang.com/2022/09/05/31177/",
        "count": 78,
        "start": 1,
        "hasMtTag": 1,
        "hasJgTag": 1,
        "mtCount": 4,
        "jgCount": 750
    }
]