[
    {
        "name": "[XIUREN]\u79c0\u4eba\u7f51 No.5036 \u8bd7\u8bd7kiki",
        "src": "http://d.duotuwang.com/2022/05/20/29915/0.jpg",
        "mtId": "d7f8fece5bbc52e6",
        "mtName": "\u8bd7\u8bd7kiki",
        "jgId": "xiuren",
        "jgName": "\u79c0\u4eba\u7f51",
        "href": "http://d.duotuwang.com/2022/05/20/29915/",
        "count": 51,
        "start": 1,
        "hasMtTag": 1,
        "hasJgTag": 1,
        "mtCount": 10,
        "jgCount": 750
    },
    {
        "name": "[XIUREN]\u79c0\u4eba\u7f51 No.5035 \u53e4\u6708\u5c0f\u540c\u5b66",
        "src": "http://d.duotuwang.com/2022/05/20/29914/0.jpg",
        "mtId": "908377caf31c9db0",
        "mtName": "\u53e4\u6708\u5c0f\u540c\u5b66",
        "jgId": "xiuren",
        "jgName": "\u79c0\u4eba\u7f51",
        "href": "http://d.duotuwang.com/2022/05/20/29914/",
        "count": 58,
        "start": 1,
        "hasMtTag": 1,
        "hasJgTag": 1,
        "mtCount": 2,
        "jgCount": 750
    },
    {
        "name": "[XIUREN]\u79c0\u4eba\u7f51 No.5034 \u5434\u96ea\u7476",
        "src": "http://d.duotuwang.com/2022/05/20/29913/0.jpg",
        "mtId": "5d2993653be79cee",
        "mtName": "\u5434\u96ea\u7476",
        "jgId": "xiuren",
        "jgName": "\u79c0\u4eba\u7f51",
        "href": "http://d.duotuwang.com/2022/05/20/29913/",
        "count": 43,
        "start": 1,
        "hasMtTag": 1,
        "hasJgTag": 1,
        "mtCount": 6,
        "jgCount": 750
    },
    {
        "name": "[XIUREN]\u79c0\u4eba\u7f51 No.5033 \u9646\u8431\u8431",
        "src": "http://d.duotuwang.com/2022/05/19/29912/0.jpg",
        "mtId": "15c3767f8a07de21",
        "mtName": "\u9646\u8431\u8431",
        "jgId": "xiuren",
        "jgName": "\u79c0\u4eba\u7f51",
        "href": "http://d.duotuwang.com/2022/05/19/29912/",
        "count": 77,
        "start": 1,
        "hasMtTag": 1,
        "hasJgTag": 1,
        "mtCount": 25,
        "jgCount": 750
    },
    {
        "name": "[XIUREN]\u79c0\u4eba\u7f51 No.5032 \u7f8e\u6843\u9171",
        "src": "http://d.duotuwang.com/2022/05/19/29911/0.jpg",
        "mtId": "cf5d6952fd864281",
        "mtName": "\u7f8e\u6843\u9171",
        "jgId": "xiuren",
        "jgName": "\u79c0\u4eba\u7f51",
        "href": "http://d.duotuwang.com/2022/05/19/29911/",
        "count": 91,
        "start": 1,
        "hasMtTag": 1,
        "hasJgTag": 1,
        "mtCount": 7,
        "jgCount": 750
    },
    {
        "name": "[XIUREN]\u79c0\u4eba\u7f51 No.5031 Evelyn\u827e\u8389",
        "src": "http://d.duotuwang.com/2022/05/19/29910/0.jpg",
        "mtId": "25b9d9de60147a4d",
        "mtName": "Evelyn\u827e\u8389",
        "jgId": "xiuren",
        "jgName": "\u79c0\u4eba\u7f51",
        "href": "http://d.duotuwang.com/2022/05/19/29910/",
        "count": 56,
        "start": 1,
        "hasMtTag": 1,
        "hasJgTag": 1,
        "mtCount": 8,
        "jgCount": 750
    }
]