[
    {
        "name": "[XIUREN]\u79c0\u4eba\u7f51 No.5030 \u845b\u5f81\u51c0\u9ad8184cm",
        "src": "http://d.duotuwang.com/2022/05/19/29909/0.jpg",
        "mtId": "bac3f4adea859891",
        "mtName": "\u845b\u5f81Model",
        "jgId": "xiuren",
        "jgName": "\u79c0\u4eba\u7f51",
        "href": "http://d.duotuwang.com/2022/05/19/29909/",
        "count": 51,
        "start": 1,
        "hasMtTag": 1,
        "hasJgTag": 1,
        "mtCount": 10,
        "jgCount": 750
    },
    {
        "name": "[XIUREN]\u79c0\u4eba\u7f51 No.5029 \u90d1\u9896\u59d7",
        "src": "http://d.duotuwang.com/2022/05/19/29908/0.jpg",
        "mtId": "69a179c472dcbd6e",
        "mtName": "\u90d1\u9896\u59d7",
        "jgId": "xiuren",
        "jgName": "\u79c0\u4eba\u7f51",
        "href": "http://d.duotuwang.com/2022/05/19/29908/",
        "count": 66,
        "start": 1,
        "hasMtTag": 1,
        "hasJgTag": 1,
        "mtCount": 7,
        "jgCount": 750
    },
    {
        "name": "[XIUREN]\u79c0\u4eba\u7f51 No.5028 \u679c\u513fVictoria",
        "src": "http://d.duotuwang.com/2022/05/19/29907/0.jpg",
        "mtId": "fc1868c8a652655f",
        "mtName": "\u679c\u513fVictoria",
        "jgId": "xiuren",
        "jgName": "\u79c0\u4eba\u7f51",
        "href": "http://d.duotuwang.com/2022/05/19/29907/",
        "count": 46,
        "start": 1,
        "hasMtTag": 1,
        "hasJgTag": 1,
        "mtCount": 29,
        "jgCount": 750
    },
    {
        "name": "[XIUREN]\u79c0\u4eba\u7f51 No.5027 \u5229\u4e16",
        "src": "http://d.duotuwang.com/2022/05/18/29906/0.jpg",
        "mtId": "8356114d4df8d319",
        "mtName": "\u6296\u5a18\u5229\u4e16",
        "jgId": "xiuren",
        "jgName": "\u79c0\u4eba\u7f51",
        "href": "http://d.duotuwang.com/2022/05/18/29906/",
        "count": 83,
        "start": 1,
        "hasMtTag": 1,
        "hasJgTag": 1,
        "mtCount": 7,
        "jgCount": 750
    },
    {
        "name": "[XIUREN]\u79c0\u4eba\u7f51 No.5026 \u5c0f\u6d77\u81c0Rena",
        "src": "http://d.duotuwang.com/2022/05/18/29905/0.jpg",
        "mtId": "4bd8157768956e31",
        "mtName": "\u5c0f\u6d77\u81c0Rena",
        "jgId": "xiuren",
        "jgName": "\u79c0\u4eba\u7f51",
        "href": "http://d.duotuwang.com/2022/05/18/29905/",
        "count": 61,
        "start": 1,
        "hasMtTag": 1,
        "hasJgTag": 1,
        "mtCount": 8,
        "jgCount": 750
    },
    {
        "name": "[XIUREN]\u79c0\u4eba\u7f51 No.5025 \u8c46\u74e3\u9171",
        "src": "http://d.duotuwang.com/2022/05/18/29904/0.jpg",
        "mtId": "08803faee9d72468",
        "mtName": "\u8c46\u74e3\u9171",
        "jgId": "xiuren",
        "jgName": "\u79c0\u4eba\u7f51",
        "href": "http://d.duotuwang.com/2022/05/18/29904/",
        "count": 70,
        "start": 1,
        "hasMtTag": 1,
        "hasJgTag": 1,
        "mtCount": 8,
        "jgCount": 750
    }
]