[
    {
        "name": "[XIUREN]\u79c0\u4eba\u7f51 No.1823 Demon\u7476\u7476",
        "src": "http://d.duotuwang.com/2019/12/04/18769/0.jpg",
        "mtId": "c8af28b95411d539",
        "mtName": "Demon\u7476\u7476",
        "jgId": "xiuren",
        "jgName": "\u79c0\u4eba\u7f51",
        "href": "http://d.duotuwang.com/2019/12/04/18769/",
        "count": 40,
        "start": 1,
        "hasMtTag": 1,
        "hasJgTag": 1,
        "mtCount": 2,
        "jgCount": 750
    },
    {
        "name": "[XIUREN]\u79c0\u4eba\u7f51 No.1765 Demon\u7476\u7476",
        "src": "http://d.duotuwang.com/2019/11/01/18417/0.jpg",
        "mtId": "c8af28b95411d539",
        "mtName": "Demon\u7476\u7476",
        "jgId": "xiuren",
        "jgName": "\u79c0\u4eba\u7f51",
        "href": "http://d.duotuwang.com/2019/11/01/18417/",
        "count": 40,
        "start": 1,
        "hasMtTag": 1,
        "hasJgTag": 1,
        "mtCount": 2,
        "jgCount": 750
    },
    {
        "name": "[XIUREN]\u79c0\u4eba\u7f51 No.1711 Demon\u7476\u7476",
        "src": "http://d.duotuwang.com/2019/10/09/18190/0.jpg",
        "mtId": "c8af28b95411d539",
        "mtName": "Demon\u7476\u7476",
        "jgId": "xiuren",
        "jgName": "\u79c0\u4eba\u7f51",
        "href": "http://d.duotuwang.com/2019/10/09/18190/",
        "count": 36,
        "start": 1,
        "hasMtTag": 1,
        "hasJgTag": 1,
        "mtCount": 2,
        "jgCount": 750
    },
    {
        "name": "[XIUREN]\u79c0\u4eba\u7f51 No.1686 \u7476\u554a\u6447\u7684\u7476",
        "src": "http://d.duotuwang.com/2019/09/19/17978/0.jpg",
        "mtId": "c8af28b95411d539",
        "mtName": "\u7476\u554a\u6447\u7684\u7476",
        "jgId": "xiuren",
        "jgName": "\u79c0\u4eba\u7f51",
        "href": "http://d.duotuwang.com/2019/09/19/17978/",
        "count": 32,
        "start": 1,
        "hasMtTag": 1,
        "hasJgTag": 1,
        "mtCount": 2,
        "jgCount": 750
    },
    {
        "name": "[XIUREN]\u79c0\u4eba\u7f51 No.1571 \u7476\u554a\u6447\u7684\u7476",
        "src": "http://d.duotuwang.com/2019/07/25/17267/0.jpg",
        "mtId": "c8af28b95411d539",
        "mtName": "\u7476\u554a\u6447\u7684\u7476",
        "jgId": "xiuren",
        "jgName": "\u79c0\u4eba\u7f51",
        "href": "http://d.duotuwang.com/2019/07/25/17267/",
        "count": 36,
        "start": 1,
        "hasMtTag": 1,
        "hasJgTag": 1,
        "mtCount": 2,
        "jgCount": 750
    },
    {
        "name": "[XIUREN]\u79c0\u4eba\u7f51 No.1481 \u7476\u554a\u6447\u7684\u7476",
        "src": "http://d.duotuwang.com/2019/06/03/16721/0.jpg",
        "mtId": "c8af28b95411d539",
        "mtName": "\u7476\u554a\u6447\u7684\u7476",
        "jgId": "xiuren",
        "jgName": "\u79c0\u4eba\u7f51",
        "href": "http://d.duotuwang.com/2019/06/03/16721/",
        "count": 48,
        "start": 1,
        "hasMtTag": 1,
        "hasJgTag": 1,
        "mtCount": 2,
        "jgCount": 750
    }
]