[
    {
        "name": "[MFStar]\u6a21\u8303\u5b66\u9662 VOL.458 \u90d1\u9896\u59d7Bev",
        "src": "http://d.duotuwang.com/2021/02/20/24232/0.jpg",
        "mtId": "69a179c472dcbd6e",
        "mtName": "\u90d1\u9896\u59d7Bev",
        "jgId": "mfstar",
        "jgName": "\u6a21\u8303\u5b66\u9662",
        "href": "http://d.duotuwang.com/2021/02/20/24232/",
        "count": 53,
        "start": 1,
        "hasMtTag": 1,
        "hasJgTag": 1,
        "mtCount": 7,
        "jgCount": 94
    },
    {
        "name": "[MFStar]\u6a21\u8303\u5b66\u9662 VOL.457 \u6c34\u6c34er",
        "src": "http://d.duotuwang.com/2021/02/08/23994/0.jpg",
        "mtId": "910db67707bbf8bc",
        "mtName": "\u6c34\u6c34er",
        "jgId": "mfstar",
        "jgName": "\u6a21\u8303\u5b66\u9662",
        "href": "http://d.duotuwang.com/2021/02/08/23994/",
        "count": 51,
        "start": 1,
        "hasMtTag": 1,
        "hasJgTag": 1,
        "mtCount": 3,
        "jgCount": 94
    },
    {
        "name": "[MFStar]\u6a21\u8303\u5b66\u9662 VOL.456 \u5a60\u5a60\u4e48",
        "src": "http://d.duotuwang.com/2021/02/07/23993/0.jpg",
        "mtId": "2edf9f936d38a612",
        "mtName": "\u5a60\u5a60\u4e48",
        "jgId": "mfstar",
        "jgName": "\u6a21\u8303\u5b66\u9662",
        "href": "http://d.duotuwang.com/2021/02/07/23993/",
        "count": 47,
        "start": 1,
        "hasMtTag": 1,
        "hasJgTag": 1,
        "mtCount": 2,
        "jgCount": 94
    },
    {
        "name": "[MFStar]\u6a21\u8303\u5b66\u9662 VOL.455 \u6c34\u6c34er",
        "src": "http://d.duotuwang.com/2021/02/05/23992/0.jpg",
        "mtId": "910db67707bbf8bc",
        "mtName": "\u6c34\u6c34er",
        "jgId": "mfstar",
        "jgName": "\u6a21\u8303\u5b66\u9662",
        "href": "http://d.duotuwang.com/2021/02/05/23992/",
        "count": 68,
        "start": 1,
        "hasMtTag": 1,
        "hasJgTag": 1,
        "mtCount": 3,
        "jgCount": 94
    },
    {
        "name": "[MFStar]\u6a21\u8303\u5b66\u9662 VOL.454 \u90d1\u9896\u59d7",
        "src": "http://d.duotuwang.com/2021/02/04/23991/0.jpg",
        "mtId": "69a179c472dcbd6e",
        "mtName": "\u90d1\u9896\u59d7",
        "jgId": "mfstar",
        "jgName": "\u6a21\u8303\u5b66\u9662",
        "href": "http://d.duotuwang.com/2021/02/04/23991/",
        "count": 34,
        "start": 1,
        "hasMtTag": 1,
        "hasJgTag": 1,
        "mtCount": 7,
        "jgCount": 94
    },
    {
        "name": "[MFStar]\u6a21\u8303\u5b66\u9662 VOL.453 Laura\u82cf\u96e8\u5f64",
        "src": "http://d.duotuwang.com/2021/02/03/23990/0.jpg",
        "mtId": "c346195bab386a86",
        "mtName": "Laura\u82cf\u96e8\u5f64",
        "jgId": "mfstar",
        "jgName": "\u6a21\u8303\u5b66\u9662",
        "href": "http://d.duotuwang.com/2021/02/03/23990/",
        "count": 43,
        "start": 1,
        "hasMtTag": 1,
        "hasJgTag": 1,
        "mtCount": 3,
        "jgCount": 94
    }
]