[
    {
        "name": "[MFStar]\u6a21\u8303\u5b66\u9662 VOL.446 \u5b89\u742aYee",
        "src": "http://d.duotuwang.com/2021/01/25/23983/0.jpg",
        "mtId": "3c8510afc7b34156",
        "mtName": "\u5b89\u742aYee",
        "jgId": "mfstar",
        "jgName": "\u6a21\u8303\u5b66\u9662",
        "href": "http://d.duotuwang.com/2021/01/25/23983/",
        "count": 50,
        "start": 1,
        "hasMtTag": 1,
        "hasJgTag": 1,
        "mtCount": 2,
        "jgCount": 94
    },
    {
        "name": "[MFStar]\u6a21\u8303\u5b66\u9662 VOL.445 \u5a1c\u6bd4",
        "src": "http://d.duotuwang.com/2021/01/22/23982/0.jpg",
        "mtId": "5928eab0a363c51b",
        "mtName": "\u5a1c\u6bd4",
        "jgId": "mfstar",
        "jgName": "\u6a21\u8303\u5b66\u9662",
        "href": "http://d.duotuwang.com/2021/01/22/23982/",
        "count": 44,
        "start": 1,
        "hasMtTag": 1,
        "hasJgTag": 1,
        "mtCount": 5,
        "jgCount": 94
    },
    {
        "name": "[MFStar]\u6a21\u8303\u5b66\u9662 VOL.444 fairy\u5982\u6b4c",
        "src": "http://d.duotuwang.com/2021/01/21/23821/0.jpg",
        "mtId": "f4ae050e165dd4b4",
        "mtName": "fairy\u5982\u6b4c",
        "jgId": "mfstar",
        "jgName": "\u6a21\u8303\u5b66\u9662",
        "href": "http://d.duotuwang.com/2021/01/21/23821/",
        "count": 39,
        "start": 1,
        "hasMtTag": 1,
        "hasJgTag": 1,
        "mtCount": 4,
        "jgCount": 94
    },
    {
        "name": "[MFStar]\u6a21\u8303\u5b66\u9662 VOL.443 \u6843\u9999\u5b50",
        "src": "http://d.duotuwang.com/2021/01/20/23820/0.jpg",
        "mtId": "a4de9ab1825d3a60",
        "mtName": "\u6843\u9999\u5b50",
        "jgId": "mfstar",
        "jgName": "\u6a21\u8303\u5b66\u9662",
        "href": "http://d.duotuwang.com/2021/01/20/23820/",
        "count": 41,
        "start": 1,
        "hasMtTag": 1,
        "hasJgTag": 1,
        "mtCount": 2,
        "jgCount": 94
    },
    {
        "name": "[MFStar]\u6a21\u8303\u5b66\u9662 VOL.442 \u5c0f\u6ce2\u591a",
        "src": "http://d.duotuwang.com/2021/01/19/23819/0.jpg",
        "mtId": "7abadde93417b597",
        "mtName": "\u5c0f\u6ce2\u591a",
        "jgId": "mfstar",
        "jgName": "\u6a21\u8303\u5b66\u9662",
        "href": "http://d.duotuwang.com/2021/01/19/23819/",
        "count": 49,
        "start": 1,
        "hasMtTag": 1,
        "hasJgTag": 1,
        "mtCount": 3,
        "jgCount": 94
    },
    {
        "name": "[MFStar]\u6a21\u8303\u5b66\u9662 VOL.441 \u65b9\u5b50\u8431",
        "src": "http://d.duotuwang.com/2021/01/18/23818/0.jpg",
        "mtId": "9987f205a66cb83f",
        "mtName": "\u65b9\u5b50\u8431",
        "jgId": "mfstar",
        "jgName": "\u6a21\u8303\u5b66\u9662",
        "href": "http://d.duotuwang.com/2021/01/18/23818/",
        "count": 58,
        "start": 1,
        "hasMtTag": 1,
        "hasJgTag": 1,
        "mtCount": 13,
        "jgCount": 94
    }
]