[
    {
        "name": "[MFStar]\u6a21\u8303\u5b66\u9662 VOL.392 \u65b9\u5b50\u8431",
        "src": "http://d.duotuwang.com/2020/09/23/22398/0.jpg",
        "mtId": "9987f205a66cb83f",
        "mtName": "\u65b9\u5b50\u8431",
        "jgId": "mfstar",
        "jgName": "\u6a21\u8303\u5b66\u9662",
        "href": "http://d.duotuwang.com/2020/09/23/22398/",
        "count": 56,
        "start": 1,
        "hasMtTag": 1,
        "hasJgTag": 1,
        "mtCount": 13,
        "jgCount": 94
    },
    {
        "name": "[MFStar]\u6a21\u8303\u5b66\u9662 VOL.391 \u97e9\u9759\u5b89",
        "src": "http://d.duotuwang.com/2020/09/22/22335/0.jpg",
        "mtId": "85406606b185affd",
        "mtName": "\u97e9\u9759\u5b89",
        "jgId": "mfstar",
        "jgName": "\u6a21\u8303\u5b66\u9662",
        "href": "http://d.duotuwang.com/2020/09/22/22335/",
        "count": 59,
        "start": 1,
        "hasMtTag": 1,
        "hasJgTag": 1,
        "mtCount": 5,
        "jgCount": 94
    },
    {
        "name": "[MFStar]\u6a21\u8303\u5b66\u9662 VOL.390 yoo\u4f18\u4f18",
        "src": "http://d.duotuwang.com/2020/09/21/22334/0.jpg",
        "mtId": "eb786dcb99b97985",
        "mtName": "yoo\u4f18\u4f18",
        "jgId": "mfstar",
        "jgName": "\u6a21\u8303\u5b66\u9662",
        "href": "http://d.duotuwang.com/2020/09/21/22334/",
        "count": 67,
        "start": 1,
        "hasMtTag": 1,
        "hasJgTag": 1,
        "mtCount": 6,
        "jgCount": 94
    },
    {
        "name": "[MFStar]\u6a21\u8303\u5b66\u9662 VOL.389 \u63c9\u63c9\u8089\u8089",
        "src": "http://d.duotuwang.com/2020/09/18/22333/0.jpg",
        "mtId": "d04bffc1e07c7aa3",
        "mtName": "\u63c9\u63c9\u8089\u8089",
        "jgId": "mfstar",
        "jgName": "\u6a21\u8303\u5b66\u9662",
        "href": "http://d.duotuwang.com/2020/09/18/22333/",
        "count": 54,
        "start": 1,
        "hasMtTag": 1,
        "hasJgTag": 1,
        "mtCount": 1,
        "jgCount": 94
    },
    {
        "name": "[MFStar]\u6a21\u8303\u5b66\u9662 VOL.388 \u65b9\u5b50\u8431",
        "src": "http://d.duotuwang.com/2020/09/17/22332/0.jpg",
        "mtId": "9987f205a66cb83f",
        "mtName": "\u65b9\u5b50\u8431",
        "jgId": "mfstar",
        "jgName": "\u6a21\u8303\u5b66\u9662",
        "href": "http://d.duotuwang.com/2020/09/17/22332/",
        "count": 76,
        "start": 1,
        "hasMtTag": 1,
        "hasJgTag": 1,
        "mtCount": 13,
        "jgCount": 94
    },
    {
        "name": "[MFStar]\u6a21\u8303\u5b66\u9662 VOL.387 \u5c0f\u5976\u74f6\u545c\u545c",
        "src": "http://d.duotuwang.com/2020/09/16/22106/0.jpg",
        "mtId": "4b7b846f8dd02ffb",
        "mtName": "\u5c0f\u5976\u74f6\u545c\u545c",
        "jgId": "mfstar",
        "jgName": "\u6a21\u8303\u5b66\u9662",
        "href": "http://d.duotuwang.com/2020/09/16/22106/",
        "count": 66,
        "start": 1,
        "hasMtTag": 1,
        "hasJgTag": 1,
        "mtCount": 7,
        "jgCount": 94
    }
]