[
    {
        "name": "[MFStar]\u6a21\u8303\u5b66\u9662 VOL.380 \u4e45\u4e45Aimee",
        "src": "http://d.duotuwang.com/2020/09/02/21836/0.jpg",
        "mtId": "e9e2057cd6e2887d",
        "mtName": "\u4e45\u4e45Aimee",
        "jgId": "mfstar",
        "jgName": "\u6a21\u8303\u5b66\u9662",
        "href": "http://d.duotuwang.com/2020/09/02/21836/",
        "count": 50,
        "start": 1,
        "hasMtTag": 1,
        "hasJgTag": 1,
        "mtCount": 7,
        "jgCount": 94
    },
    {
        "name": "[MFStar]\u6a21\u8303\u5b66\u9662 VOL.379 \u6587\u82aejeninfer",
        "src": "http://d.duotuwang.com/2020/08/31/21835/0.jpg",
        "mtId": "dd1e9e2e1b5b9138",
        "mtName": "\u6587\u82aejeninfer",
        "jgId": "mfstar",
        "jgName": "\u6a21\u8303\u5b66\u9662",
        "href": "http://d.duotuwang.com/2020/08/31/21835/",
        "count": 47,
        "start": 1,
        "hasMtTag": 1,
        "hasJgTag": 1,
        "mtCount": 4,
        "jgCount": 94
    },
    {
        "name": "[MFStar]\u6a21\u8303\u5b66\u9662 VOL.378 yoo\u4f18\u4f18",
        "src": "http://d.duotuwang.com/2020/08/28/21834/0.jpg",
        "mtId": "eb786dcb99b97985",
        "mtName": "yoo\u4f18\u4f18",
        "jgId": "mfstar",
        "jgName": "\u6a21\u8303\u5b66\u9662",
        "href": "http://d.duotuwang.com/2020/08/28/21834/",
        "count": 68,
        "start": 1,
        "hasMtTag": 1,
        "hasJgTag": 1,
        "mtCount": 6,
        "jgCount": 94
    },
    {
        "name": "[MFStar]\u6a21\u8303\u5b66\u9662 VOL.377 Zz\u53ea\u53ea",
        "src": "http://d.duotuwang.com/2020/08/27/21833/0.jpg",
        "jgId": "mfstar",
        "jgName": "\u6a21\u8303\u5b66\u9662",
        "href": "http://d.duotuwang.com/2020/08/27/21833/",
        "count": 45,
        "start": 1,
        "hasMtTag": 0,
        "hasJgTag": 1,
        "jgCount": 94
    },
    {
        "name": "[MFStar]\u6a21\u8303\u5b66\u9662 VOL.376 \u5357\u6653\u68a6",
        "src": "http://d.duotuwang.com/2020/08/26/21832/0.jpg",
        "mtId": "42717bf00440a9a3",
        "mtName": "\u5357\u6653\u68a6",
        "jgId": "mfstar",
        "jgName": "\u6a21\u8303\u5b66\u9662",
        "href": "http://d.duotuwang.com/2020/08/26/21832/",
        "count": 41,
        "start": 1,
        "hasMtTag": 1,
        "hasJgTag": 1,
        "mtCount": 1,
        "jgCount": 94
    },
    {
        "name": "[MFStar]\u6a21\u8303\u5b66\u9662 VOL.375 \u4ed3\u4e95\u4f18\u9999",
        "src": "http://d.duotuwang.com/2020/08/25/21657/0.jpg",
        "mtId": "3734ba1c3fb8c9ed",
        "mtName": "\u4ed3\u4e95\u4f18\u9999",
        "jgId": "mfstar",
        "jgName": "\u6a21\u8303\u5b66\u9662",
        "href": "http://d.duotuwang.com/2020/08/25/21657/",
        "count": 66,
        "start": 1,
        "hasMtTag": 1,
        "hasJgTag": 1,
        "mtCount": 9,
        "jgCount": 94
    }
]