[
    {
        "name": "[MFStar]\u6a21\u8303\u5b66\u9662 VOL.284 \u827e\u8389Evelyn",
        "src": "http://d.duotuwang.com/2020/03/10/19854/0.jpg",
        "mtId": "25b9d9de60147a4d",
        "mtName": "Evelyn\u827e\u8389",
        "jgId": "mfstar",
        "jgName": "\u6a21\u8303\u5b66\u9662",
        "href": "http://d.duotuwang.com/2020/03/10/19854/",
        "count": 63,
        "start": 1,
        "hasMtTag": 1,
        "hasJgTag": 1,
        "mtCount": 8,
        "jgCount": 94
    },
    {
        "name": "[MFStar]\u6a21\u8303\u5b66\u9662 VOL.283 \u7cef\u7f8e\u5b50Mini",
        "src": "http://d.duotuwang.com/2020/03/09/19826/0.jpg",
        "mtId": "f4543e3a7d545391",
        "mtName": "\u7cef\u7f8e\u5b50Mini",
        "jgId": "mfstar",
        "jgName": "\u6a21\u8303\u5b66\u9662",
        "href": "http://d.duotuwang.com/2020/03/09/19826/",
        "count": 68,
        "start": 1,
        "hasMtTag": 1,
        "hasJgTag": 1,
        "mtCount": 19,
        "jgCount": 94
    },
    {
        "name": "[MFStar]\u6a21\u8303\u5b66\u9662 VOL.282 \u5f90\u5fae\u5faemia",
        "src": "http://d.duotuwang.com/2020/03/06/19835/0.jpg",
        "mtId": "b676514ad570d0d2",
        "mtName": "\u5f90\u5fae\u5faemia",
        "jgId": "mfstar",
        "jgName": "\u6a21\u8303\u5b66\u9662",
        "href": "http://d.duotuwang.com/2020/03/06/19835/",
        "count": 55,
        "start": 1,
        "hasMtTag": 1,
        "hasJgTag": 1,
        "mtCount": 8,
        "jgCount": 94
    },
    {
        "name": "[MFStar]\u6a21\u8303\u5b66\u9662 VOL.281 Dreamy\u5c0f\u4e54",
        "src": "http://d.duotuwang.com/2020/03/05/19842/0.jpg",
        "mtId": "92316d0e0bb84801",
        "mtName": "Dreamy\u5c0f\u4e54",
        "jgId": "mfstar",
        "jgName": "\u6a21\u8303\u5b66\u9662",
        "href": "http://d.duotuwang.com/2020/03/05/19842/",
        "count": 49,
        "start": 1,
        "hasMtTag": 1,
        "hasJgTag": 1,
        "mtCount": 5,
        "jgCount": 94
    },
    {
        "name": "[MFStar]\u6a21\u8303\u5b66\u9662 VOL.280 \u7389\u5154miki",
        "src": "http://d.duotuwang.com/2020/03/04/19759/0.jpg",
        "mtId": "e7e5da8fd6f60683",
        "mtName": "\u7389\u5154miki",
        "jgId": "mfstar",
        "jgName": "\u6a21\u8303\u5b66\u9662",
        "href": "http://d.duotuwang.com/2020/03/04/19759/",
        "count": 69,
        "start": 1,
        "hasMtTag": 1,
        "hasJgTag": 1,
        "mtCount": 8,
        "jgCount": 94
    },
    {
        "name": "[MFStar]\u6a21\u8303\u5b66\u9662 VOL.279 \u674e\u53ef\u53ef",
        "src": "http://d.duotuwang.com/2020/03/03/19771/0.jpg",
        "mtId": "96518f0e72ae0445",
        "mtName": "\u674e\u53ef\u53ef",
        "jgId": "mfstar",
        "jgName": "\u6a21\u8303\u5b66\u9662",
        "href": "http://d.duotuwang.com/2020/03/03/19771/",
        "count": 41,
        "start": 1,
        "hasMtTag": 1,
        "hasJgTag": 1,
        "mtCount": 5,
        "jgCount": 94
    }
]