[
    {
        "name": "[MFStar]\u6a21\u8303\u5b66\u9662 VOL.537 \u738b\u871c",
        "src": "http://d.duotuwang.com/2021/10/20/27006/0.jpg",
        "mtId": "18eefba787a3e166",
        "mtName": "\u738b\u871c",
        "jgId": "mfstar",
        "jgName": "\u6a21\u8303\u5b66\u9662",
        "href": "http://d.duotuwang.com/2021/10/20/27006/",
        "count": 42,
        "start": 1,
        "hasMtTag": 1,
        "hasJgTag": 1,
        "mtCount": 1,
        "jgCount": 94
    },
    {
        "name": "[MFStar]\u6a21\u8303\u5b66\u9662 VOL.536 \u4f73\u4f73\u5d3d\u5d3d",
        "src": "http://d.duotuwang.com/2021/10/18/27005/0.jpg",
        "mtId": "ef2c08c4c68c124f",
        "mtName": "\u4f73\u4f73\u5d3d\u5d3d",
        "jgId": "mfstar",
        "jgName": "\u6a21\u8303\u5b66\u9662",
        "href": "http://d.duotuwang.com/2021/10/18/27005/",
        "count": 48,
        "start": 1,
        "hasMtTag": 1,
        "hasJgTag": 1,
        "mtCount": 1,
        "jgCount": 94
    },
    {
        "name": "[MFStar]\u6a21\u8303\u5b66\u9662 VOL.535 \u827e\u5c14\u838eelsa",
        "src": "http://d.duotuwang.com/2021/10/15/27004/0.jpg",
        "mtId": "e29556eba0e7e965",
        "mtName": "\u827e\u5c14\u838eelsa",
        "jgId": "mfstar",
        "jgName": "\u6a21\u8303\u5b66\u9662",
        "href": "http://d.duotuwang.com/2021/10/15/27004/",
        "count": 40,
        "start": 1,
        "hasMtTag": 1,
        "hasJgTag": 1,
        "mtCount": 1,
        "jgCount": 94
    },
    {
        "name": "[MFStar]\u6a21\u8303\u5b66\u9662 VOL.534 \u8521\u6587\u94b0Abby",
        "src": "http://d.duotuwang.com/2021/10/11/26872/0.jpg",
        "mtId": "3e6deddba3f39c78",
        "mtName": "\u8521\u6587\u94b0Angle",
        "jgId": "mfstar",
        "jgName": "\u6a21\u8303\u5b66\u9662",
        "href": "http://d.duotuwang.com/2021/10/11/26872/",
        "count": 50,
        "start": 1,
        "hasMtTag": 1,
        "hasJgTag": 1,
        "mtCount": 4,
        "jgCount": 94
    },
    {
        "name": "[MFStar]\u6a21\u8303\u5b66\u9662 VOL.533 77qiqi",
        "src": "http://d.duotuwang.com/2021/09/13/26515/0.jpg",
        "mtId": "2ba1c304befe2320",
        "mtName": "77qiqi",
        "jgId": "mfstar",
        "jgName": "\u6a21\u8303\u5b66\u9662",
        "href": "http://d.duotuwang.com/2021/09/13/26515/",
        "count": 50,
        "start": 1,
        "hasMtTag": 1,
        "hasJgTag": 1,
        "mtCount": 2,
        "jgCount": 94
    },
    {
        "name": "[MFStar]\u6a21\u8303\u5b66\u9662 VOL.532 \u4e00\u9897\u751c\u86cb\u9ec4a",
        "src": "http://d.duotuwang.com/2021/09/07/26514/0.jpg",
        "mtId": "1e531aa4c2b8e6f7",
        "mtName": "\u4e00\u9897\u751c\u86cb\u9ec4a",
        "jgId": "mfstar",
        "jgName": "\u6a21\u8303\u5b66\u9662",
        "href": "http://d.duotuwang.com/2021/09/07/26514/",
        "count": 56,
        "start": 1,
        "hasMtTag": 1,
        "hasJgTag": 1,
        "mtCount": 5,
        "jgCount": 94
    }
]