[
    {
        "name": "[MFStar]\u6a21\u8303\u5b66\u9662 VOL.139 \u59d7\u59d7",
        "src": "http://d.duotuwang.com/2018/08/16/9545/0.jpg",
        "jgId": "mfstar",
        "jgName": "\u6a21\u8303\u5b66\u9662",
        "href": "http://d.duotuwang.com/2018/08/16/9545/",
        "count": 46,
        "start": 1,
        "hasMtTag": 0,
        "hasJgTag": 1,
        "jgCount": 94
    },
    {
        "name": "[MFStar]\u6a21\u8303\u5b66\u9662 VOL.138 \u674e\u53ef\u53ef",
        "src": "http://d.duotuwang.com/2018/08/13/9523/0.jpg",
        "mtId": "96518f0e72ae0445",
        "mtName": "\u674e\u53ef\u53ef",
        "jgId": "mfstar",
        "jgName": "\u6a21\u8303\u5b66\u9662",
        "href": "http://d.duotuwang.com/2018/08/13/9523/",
        "count": 41,
        "start": 1,
        "hasMtTag": 1,
        "hasJgTag": 1,
        "mtCount": 5,
        "jgCount": 94
    },
    {
        "name": "[MFStar]\u6a21\u8303\u5b66\u9662 VOL.137 \u6817\u5b50Riz",
        "src": "http://d.duotuwang.com/2018/08/09/9477/0.jpg",
        "mtId": "92316d0e0bb84801",
        "mtName": "\u6817\u5b50Riz",
        "jgId": "mfstar",
        "jgName": "\u6a21\u8303\u5b66\u9662",
        "href": "http://d.duotuwang.com/2018/08/09/9477/",
        "count": 43,
        "start": 1,
        "hasMtTag": 1,
        "hasJgTag": 1,
        "mtCount": 5,
        "jgCount": 94
    },
    {
        "name": "[MFStar]\u6a21\u8303\u5b66\u9662 VOL.136 \u738b\u6893\u7ae5Doirs",
        "src": "http://d.duotuwang.com/2018/08/06/9445/0.jpg",
        "mtId": "4b452f26993899d6",
        "mtName": "\u738b\u6893\u7ae5Doirs",
        "jgId": "mfstar",
        "jgName": "\u6a21\u8303\u5b66\u9662",
        "href": "http://d.duotuwang.com/2018/08/06/9445/",
        "count": 43,
        "start": 1,
        "hasMtTag": 1,
        "hasJgTag": 1,
        "mtCount": 1,
        "jgCount": 94
    },
    {
        "name": "[MFStar]\u6a21\u8303\u5b66\u9662 VOL.134 \u6e29\u5fc3\u6021",
        "src": "http://d.duotuwang.com/2018/07/31/9425/0.jpg",
        "mtId": "735e57c1277ecc66",
        "mtName": "\u6e29\u5fc3\u6021",
        "jgId": "mfstar",
        "jgName": "\u6a21\u8303\u5b66\u9662",
        "href": "http://d.duotuwang.com/2018/07/31/9425/",
        "count": 33,
        "start": 1,
        "hasMtTag": 1,
        "hasJgTag": 1,
        "mtCount": 9,
        "jgCount": 94
    },
    {
        "name": "[MFStar]\u6a21\u8303\u5b66\u9662 VOL.133 \u738b\u96e8\u7eaf",
        "src": "http://d.duotuwang.com/2018/07/23/9376/0.jpg",
        "mtId": "6a5d00e535915ee5",
        "mtName": "\u738b\u96e8\u7eaf",
        "jgId": "mfstar",
        "jgName": "\u6a21\u8303\u5b66\u9662",
        "href": "http://d.duotuwang.com/2018/07/23/9376/",
        "count": 37,
        "start": 1,
        "hasMtTag": 1,
        "hasJgTag": 1,
        "mtCount": 60,
        "jgCount": 94
    }
]