[
    {
        "name": "[LEEHEE EXPRESS] LEHF-024 Son.J",
        "src": "http://d.duotuwang.com/2020/02/24/27776/0.jpg",
        "mtId": "08c22bbfc341e414",
        "mtName": "LEEHEEEXPRESS",
        "href": "http://d.duotuwang.com/2020/02/24/27776/",
        "count": 48,
        "start": 1,
        "hasMtTag": 1,
        "hasJgTag": 0,
        "mtCount": 12
    }
]