{
    "name": "\u7279\u6218\u8363\u8000",
    "zy": "\u6768\u6d0b,\u674e\u4e00\u6850,\u848b\u7490\u971e,\u9ad8\u946b,\u5b5f\u963f\u8d5b,\u848b\u9f99,\u5468\u7267\u8335,\u5218\u7855,\u90ed\u6d3a\u5b87,\u5434\u5065",
    "year": "2022",
    "jiList": [
        {
            "name": "\u7b2c01\u96c6",
            "url": "https://new.iskcd.com/20220405/A70I0ndu/index.m3u8"
        },
        {
            "name": "\u7b2c02\u96c6",
            "url": "https://new.iskcd.com/20220406/CcuZPDVg/index.m3u8"
        },
        {
            "name": "\u7b2c03\u96c6",
            "url": "https://new.iskcd.com/20220406/olHs7yxS/index.m3u8"
        },
        {
            "name": "\u7b2c04\u96c6",
            "url": "https://new.iskcd.com/20220407/K5DaQTR9/index.m3u8"
        },
        {
            "name": "\u7b2c05\u96c6",
            "url": "https://new.iskcd.com/20220407/OnmTb9aL/index.m3u8"
        },
        {
            "name": "\u7b2c06\u96c6",
            "url": "https://new.iskcd.com/20220408/YIlVN93c/index.m3u8"
        },
        {
            "name": "\u7b2c07\u96c6",
            "url": "https://new.iskcd.com/20220408/lUhsJBuG/index.m3u8"
        },
        {
            "name": "\u7b2c08\u96c6",
            "url": "https://new.iskcd.com/20220409/r9a9wMbA/index.m3u8"
        },
        {
            "name": "\u7b2c09\u96c6",
            "url": "https://new.iskcd.com/20220410/FRx9I2On/index.m3u8"
        },
        {
            "name": "\u7b2c10\u96c6",
            "url": "https://new.iskcd.com/20220410/mJg7o6rZ/index.m3u8"
        },
        {
            "name": "\u7b2c11\u96c6",
            "url": "https://new.iskcd.com/20220411/QA9SbL6Y/index.m3u8"
        },
        {
            "name": "\u7b2c12\u96c6",
            "url": "https://new.iskcd.com/20220411/bCSojQwf/index.m3u8"
        },
        {
            "name": "\u7b2c13\u96c6",
            "url": "https://new.iskcd.com/20220412/cOn2niPS/index.m3u8"
        },
        {
            "name": "\u7b2c14\u96c6",
            "url": "https://new.iskcd.com/20220412/93gX6aPJ/index.m3u8"
        },
        {
            "name": "\u7b2c15\u96c6",
            "url": "https://new.iskcd.com/20220413/pPwk9DSf/index.m3u8"
        },
        {
            "name": "\u7b2c16\u96c6",
            "url": "https://new.iskcd.com/20220413/lJiYiGOX/index.m3u8"
        },
        {
            "name": "\u7b2c17\u96c6",
            "url": "https://new.iskcd.com/20220414/BgKY7M0n/index.m3u8"
        },
        {
            "name": "\u7b2c18\u96c6",
            "url": "https://new.iskcd.com/20220414/uj4UqHi1/index.m3u8"
        },
        {
            "name": "\u7b2c19\u96c6",
            "url": "https://new.iskcd.com/20220415/pQzsSKZV/index.m3u8"
        },
        {
            "name": "\u7b2c20\u96c6",
            "url": "https://new.iskcd.com/20220415/pFX65U0Q/index.m3u8"
        },
        {
            "name": "\u7b2c21\u96c6",
            "url": "https://new.iskcd.com/20220416/oQGq34Jb/index.m3u8"
        },
        {
            "name": "\u7b2c22\u96c6",
            "url": "https://new.iskcd.com/20220417/ZjxC4pPh/index.m3u8"
        },
        {
            "name": "\u7b2c23\u96c6",
            "url": "https://new.iskcd.com/20220417/aGb9wZvq/index.m3u8"
        },
        {
            "name": "\u7b2c24\u96c6",
            "url": "https://new.iskcd.com/20220418/aMz424Jk/index.m3u8"
        },
        {
            "name": "\u7b2c25\u96c6",
            "url": "https://new.iskcd.com/20220418/jifNK8yd/index.m3u8"
        },
        {
            "name": "\u7b2c26\u96c6",
            "url": "https://new.iskcd.com/20220419/4rXrUO7x/index.m3u8"
        },
        {
            "name": "\u7b2c27\u96c6",
            "url": "https://new.iskcd.com/20220419/EItyZGgS/index.m3u8"
        },
        {
            "name": "\u7b2c28\u96c6",
            "url": "https://new.iskcd.com/20220420/ZVHUmlyH/index.m3u8"
        },
        {
            "name": "\u7b2c29\u96c6",
            "url": "https://new.iskcd.com/20220420/GBqJjjqr/index.m3u8"
        },
        {
            "name": "\u7b2c30\u96c6",
            "url": "https://new.iskcd.com/20220421/Nx6IqGs2/index.m3u8"
        },
        {
            "name": "\u7b2c31\u96c6",
            "url": "https://new.iskcd.com/20220421/5WDC75pO/index.m3u8"
        },
        {
            "name": "\u7b2c32\u96c6",
            "url": "https://new.iskcd.com/20220422/C9vrc9w5/index.m3u8"
        },
        {
            "name": "\u7b2c33\u96c6",
            "url": "https://new.iskcd.com/20220422/LrUXySv7/index.m3u8"
        },
        {
            "name": "\u7b2c34\u96c6",
            "url": "https://new.iskcd.com/20220423/ROM2ri8N/index.m3u8"
        },
        {
            "name": "\u7b2c35\u96c6",
            "url": "https://new.iskcd.com/20220424/kRvSsRfd/index.m3u8"
        },
        {
            "name": "\u7b2c36\u96c6",
            "url": "https://new.iskcd.com/20220424/i5zmnHRT/index.m3u8"
        },
        {
            "name": "\u7b2c37\u96c6",
            "url": "https://new.iskcd.com/20220425/FszN5Al5/index.m3u8"
        },
        {
            "name": "\u7b2c38\u96c6",
            "url": "https://new.iskcd.com/20220425/5oa5YD3d/index.m3u8"
        },
        {
            "name": "\u7b2c39\u96c6",
            "url": "https://new.iskcd.com/20220426/Fw52UXyZ/index.m3u8"
        },
        {
            "name": "\u7b2c40\u96c6",
            "url": "https://new.iskcd.com/20220426/kA2fNqDK/index.m3u8"
        },
        {
            "name": "\u7b2c41\u96c6",
            "url": "https://new.iskcd.com/20220427/BS7lbpaU/index.m3u8"
        },
        {
            "name": "\u7b2c42\u96c6",
            "url": "https://new.iskcd.com/20220427/fuwhwtjr/index.m3u8"
        },
        {
            "name": "\u7b2c43\u96c6",
            "url": "https://new.iskcd.com/20220428/5P1Di1lW/index.m3u8"
        },
        {
            "name": "\u7b2c44\u96c6",
            "url": "https://new.iskcd.com/20220428/Z7A2oDZa/index.m3u8"
        },
        {
            "name": "\u7b2c45\u96c6",
            "url": "https://new.iskcd.com/20220429/KmnQFbBS/index.m3u8"
        }
    ]
}