[
    {
        "id": "663075093",
        "title": "\u3010\u725b\u5c0f\u8611\u83c7\u3011\u4e0d\u4f1a\u592a\u60f3\u6211\u5427\uff01",
        "src": "http://v-huya-img2.msstatic.com/screenshot/2207/663075093/99.jpg?x-oss-process=style/460x268&amp;amp;v=c3cbc9f69b2aea3cf72094a1ed0fff8a1645081679",
        "url": "http://videotx-platform.cdn.huya.com/1048585/1433563807/35958155/b474ae7dfe2f8c62ca006bf3c6b39735.m3u8?bitrate=2038&client=106&definition=1300&pid=1433563807&scene=vod&vid=663075093"
    },
    {
        "id": "661015805",
        "title": "\u3010\u725b\u5c0f\u8611\u83c7\u3011\u613f\u4f60\u5e26\u7740\u4e00\u9897\u8d64\u8bda\u7684\u5fc3\uff0c\u671d\u7740\u660e\u4eae\u7684\u5730\u65b9\uff0c\u7528\u529b\u751f\u957f\u3002",
        "src": "http://v-huya-img2.msstatic.com/screenshot/2207/661015805/99.jpg?x-oss-process=style/460x268&amp;amp;v=5b32401206edc1ef3e5d0a3394f2c6561644813659",
        "url": "http://videotx-platform.cdn.huya.com/1048585/1433563807/35842593/7d7781c9726c02288c21c5c03cbcc165.m3u8?bitrate=1674&client=106&definition=1300&pid=1433563807&scene=vod&vid=661015805"
    },
    {
        "id": "661014793",
        "title": "\u3010\u725b\u5c0f\u8611\u83c7\u3011\u5f88\u60f3\u77e5\u9053\u4f60\u73b0\u5728\u7684\u6d88\u606f\uff0c\u4e0d\u6e05\u695a\u81ea\u5df1\u73b0\u5728\u662f\u600e\u6837\u7684\u5fc3\u60c5\u3002",
        "src": "http://v-huya-img2.msstatic.com/screenshot/2207/661014793/99.jpg?x-oss-process=style/460x268&amp;amp;v=9d7d9438e3527780c2c85c198aaad2e91644813547",
        "url": "http://videotx-platform.cdn.huya.com/1048585/1433563807/35842543/3a210211c6e364f5d2fae45fa07f20dd.m3u8?bitrate=2085&client=106&definition=1300&pid=1433563807&scene=vod&vid=661014793"
    },
    {
        "id": "661013967",
        "title": "\u3010\u725b\u5c0f\u8611\u83c7\u3011\u60c5\u4eba\u8282\u5feb\u4e50",
        "src": "http://v-huya-img2.msstatic.com/screenshot/2207/661013967/99.jpg?x-oss-process=style/460x268&amp;amp;v=95d14201cba753abeaae518c9d62550a1644813360",
        "url": "http://videotx-platform.cdn.huya.com/1048585/1433563807/35842503/63653341e8ba310bb4bc0bd1e4dbc446.m3u8?bitrate=2069&client=106&definition=1300&pid=1433563807&scene=vod&vid=661013967"
    },
    {
        "id": "660345795",
        "title": "\u3010\u725b\u5c0f\u8611\u83c7\u3011\u6709\u591a\u5c11\u4eba\u60f3\u6211\u4e86",
        "src": "http://v-huya-img2.msstatic.com/screenshot/2206/660345795/99.jpg?x-oss-process=style/460x268&amp;amp;v=a50c788155f262f8601f8c5fe36404ce1644724046",
        "url": "http://videohw-platform.cdn.huya.com/1048585/1615255773/35804469/b875a3b0b2a18b8e8fa89e14ecea42e3.m3u8?bitrate=2101&client=106&definition=1300&pid=1433563807&scene=vod&vid=660345795"
    },
    {
        "id": "659020759",
        "title": "\u3010\u725b\u5c0f\u8611\u83c7\u3011\u65f6\u5149\u834f\u82d2\uff0c\u5bf9\u81ea\u5df1\u597d\u70b9\uff0c\u4e00\u8f88\u5b50\u4e0d\u957f\uff0c\u5bf9\u522b\u4eba\u597d\u70b9\uff0c\u4e0b\u8f88\u5b50\u4e0d\u4e00\u5b9a\u80fd\u9047\u89c1\u3002",
        "src": "http://v-huya-img2.msstatic.com/screenshot/2206/659020759/99.jpg?x-oss-process=style/460x268&amp;amp;v=df2671ebbfe5c0912c5bdc3b9e9903e91644550573",
        "url": "http://videotx-platform.cdn.huya.com/1048585/1433563807/35726909/25c62370ecde3f348e9067206eccdef9.m3u8?bitrate=2088&client=106&definition=1300&pid=1433563807&scene=vod&vid=659020759"
    },
    {
        "id": "655223159",
        "title": "\u3010\u725b\u5c0f\u8611\u83c7\u3011\u4e0d\u4ee5\u7269\u559c\uff0c\u4e0d\u4ee5\u5df1\u60b2\uff0c\u6cf0\u7136\u82e5\u5904\uff0c\u51b7\u6696\u81ea\u5c1d\u3002",
        "src": "http://v-huya-img2.msstatic.com/screenshot/2205/655223159/99.jpg?x-oss-process=style/460x268&amp;amp;v=6813ecf5519282370832d0910b888a111644031127",
        "url": "http://videohw-platform.cdn.huya.com/1048585/1433563807/35525925/c1e66477f1f0f37ab651e1ffd84ce855.m3u8?bitrate=2008&client=106&definition=1300&pid=1433563807&scene=vod&vid=655223159"
    },
    {
        "id": "655222669",
        "title": "\u3010\u725b\u5c0f\u8611\u83c7\u3011\u7eb5\u7136\u7e41\u534e\u4e09\u5343\uff0c\u770b\u6de1\u5373\u662f\u4e91\u70df\uff0c\u4efb\u51ed\u70e6\u607c\u65e0\u6570\uff0c\u60f3\u5f00\u4fbf\u662f\u6674\u5929\u3002",
        "src": "http://v-huya-img2.msstatic.com/screenshot/2205/655222669/99.jpg?x-oss-process=style/460x268&amp;amp;v=208d86832016c1db95a22acc7fc618351644030999",
        "url": "http://videotx-platform.cdn.huya.com/1048585/1433563807/35525905/065886aebca85004473740004bb7fd51.m3u8?bitrate=2112&client=106&definition=1300&pid=1433563807&scene=vod&vid=655222669"
    },
    {
        "id": "657128691",
        "title": "\u3010\u725b\u5c0f\u8611\u83c7\u3011\u725b\u5c0f\u8611\u83c7\u5728\u8fd9\u91cc\u7ed9\u4ed6\u5bb6\u62dc\u4e2a\u665a\u665a\u665a\u665a\u665a\u5e74\u4e86~~~",
        "src": "http://v-huya-img2.msstatic.com/screenshot/2206/657128691/99.jpg?x-oss-process=style/460x268&amp;amp;v=0ff5cd177e6673adfb22caf2d6197e371644302320",
        "url": "http://videotx-platform.cdn.huya.com/1048585/1433563807/35622403/1a9f5745f634b00199039961ae4fd939.m3u8?bitrate=1654&client=106&definition=1300&pid=1433563807&scene=vod&vid=657128691"
    },
    {
        "id": "655221801",
        "title": "\u3010\u725b\u5c0f\u8611\u83c7\u3011\u613f\u6240\u6709\u7684\u4e49\u65e0\u53cd\u987e\uff0c\u90fd\u80fd\u6362\u6765\u6d41\u661f\u822c\u7684\u707f\u70c2\u3002",
        "src": "http://v-huya-img2.msstatic.com/screenshot/2205/655221801/99.jpg?x-oss-process=style/460x268&amp;amp;v=4c04b44ae5fb0f6d3c91eeda619023321644030859",
        "url": "http://videohw-platform.cdn.huya.com/1048585/1433563807/35525851/4d2aad2a3b48c03704986742308e691e.m3u8?bitrate=2127&client=106&definition=1300&pid=1433563807&scene=vod&vid=655221801"
    },
    {
        "id": "655221427",
        "title": "\u3010\u725b\u5c0f\u8611\u83c7\u3011\u603b\u6709\u4eba\u4f1a\u5e7c\u7a1a\u5230\u966a\u4f60\u5403\u8df3\u8df3\u7cd6\uff0c\u6d6a\u6f2b\u5230\u966a\u4f60\u770b\u5915\u9633\u3002",
        "src": "http://v-huya-img2.msstatic.com/screenshot/2205/655221427/99.jpg?x-oss-process=style/460x268&amp;amp;v=09248a56d029a2227ed590657a2cfe941644030754",
        "url": "http://videobd-platform.cdn.huya.com/1048585/1433563807/35525837/c7b55e48eccaad73a5e4b690bcaa3778.m3u8?bitrate=2126&client=106&definition=1300&pid=1433563807&scene=vod&vid=655221427"
    },
    {
        "id": "655220629",
        "title": "\u3010\u725b\u5c0f\u8611\u83c7\u3011\u6d77\u4e0a\u6708\u662f\u5929\u4e0a\u6708\uff0c \u773c\u524d\u4eba\u662f\u5fc3\u4e0a\u4eba\u3002\u5411\u6765\u5fc3\u662f\u770b\u5ba2\u5fc3 \uff0c\u5948\u4f55\u4eba\u662f\u5267\u4e2d\u4eba\u3002",
        "src": "http://v-huya-img2.msstatic.com/screenshot/2205/655220629/99.jpg?x-oss-process=style/460x268&amp;amp;v=e9d10c91cae112757cdaa0ec6b14b3711644030656",
        "url": "http://videobd-platform.cdn.huya.com/1048585/1433563807/35525805/01b6f5263374cd863d3081310015ea8d.m3u8?bitrate=2100&client=106&definition=1300&pid=1433563807&scene=vod&vid=655220629"
    },
    {
        "id": "655219883",
        "title": "\u3010\u725b\u5c0f\u8611\u83c7\u3011\u613f\u6211\u4eec\u957f\u5927\uff0c\u5076\u5c14\u53ef\u7231\uff0c\u59cb\u7ec8\u88ab\u7231\uff01",
        "src": "http://v-huya-img2.msstatic.com/screenshot/2205/655219883/99.jpg?x-oss-process=style/460x268&amp;amp;v=37d45d0e2a3ca4c99d952b6310b1e81d1644030586",
        "url": "http://videotx-platform.cdn.huya.com/1048585/1433563807/35525777/0033a13f5aae645647c120a800de440c.m3u8?bitrate=1946&client=106&definition=1300&pid=1433563807&scene=vod&vid=655219883"
    },
    {
        "id": "655218873",
        "title": "\u3010\u725b\u5c0f\u8611\u83c7\u3011\u5e74\u5c11\u662f\u5915\u9633\uff0c\u5f20\u626c\u7684\u5f25\u6f2b\u5929\u8fb9\uff0c\u9752\u6625\u662f\u9ec4\u660f\uff0c\u843d\u5e55\u4e2d\u8fd8\u6709\u5e0c\u671b\u3002",
        "src": "http://v-huya-img2.msstatic.com/screenshot/2205/655218873/99.jpg?x-oss-process=style/460x268&amp;amp;v=1e658c31fc2ae5a484b1ec8d103157181644030371",
        "url": "http://videobd-platform.cdn.huya.com/1048585/1433563807/35525743/e80c9c772edc0c0893d31b459d5eb40d.m3u8?bitrate=2105&client=106&definition=1300&pid=1433563807&scene=vod&vid=655218873"
    },
    {
        "id": "649230911",
        "title": "\u3010\u725b\u5c0f\u8611\u83c7\u3011\u613f\u6211\u4eec\u957f\u5927\uff0c\u5076\u5c14\u53ef\u7231\uff0c\u59cb\u7ec8\u88ab\u7231\uff01",
        "src": "http://v-huya-img2.msstatic.com/screenshot/2204/649230911/99.jpg?x-oss-process=style/460x268&amp;amp;v=eb2adfa9e52dcb3fb2e6ed80793f74ef1643172952",
        "url": "http://videobd-platform.cdn.huya.com/1048585/1433563807/35227509/970f38ac30ae7fd7f5dff7aecfd1f017.m3u8?bitrate=2083&client=106&definition=1300&pid=1433563807&scene=vod&vid=649230911"
    }
]