[
    {
        "id": "606662371",
        "title": "\u3010\u725b\u5c0f\u8611\u83c7\u3011\u6211\u4e00\u5b9a\u4f1a\u56de\u6765\u7684 \u4e0d\u8981\u60f3\u6211\u54e6\uff01\u2014Soundclash",
        "src": "http://v-huya-img2.msstatic.com/screenshot/2145/606662371/99.jpg?x-oss-process=style/460x268&amp;amp;v=2befc6603c0ede9d54a3b776cf18fa291636773476",
        "url": "http://videohw-platform.cdn.huya.com/1048585/1433563807/31370551/6cb63678f3039134b2e43c01fe8d49ec.m3u8?bitrate=2018&client=106&definition=1300&pid=1433563807&scene=vod&vid=606662371"
    },
    {
        "id": "605702335",
        "title": "\u3010\u725b\u5c0f\u8611\u83c7\u3011\u5fc3\u4eea\u4e45\u4e86 \u5c31\u4f1a\u6ca6\u9677\uff01\uff01--\u300a\u5f20\u706f\u7ed3\u5f69\u300b",
        "src": "http://v-huya-img2.msstatic.com/screenshot/2145/605702335/99.jpg?x-oss-process=style/460x268&amp;amp;v=63a9f3fc7a448d80e1eadb44b2c851a11636617219",
        "url": "http://videotx-platform.cdn.huya.com/1048585/1433563807/31262213/134c9614553e1036d15fd4fe5015d99d.m3u8?bitrate=1995&client=106&definition=1300&pid=1433563807&scene=vod&vid=605702335"
    },
    {
        "id": "605691113",
        "title": "\u3010\u725b\u5c0f\u8611\u83c7\u3011\u6211\u4eec\u66fd\u672a\u9057\u5fd8\u56e0\u6b64\u4ece\u672a\u544a\u522b--98k",
        "src": "http://v-huya-img2.msstatic.com/screenshot/2145/605691113/99.jpg?x-oss-process=style/460x268&amp;amp;v=59f8a8d6d0f38f4ec72b6ffd145d26731636615434",
        "url": "http://videohw-platform.cdn.huya.com/1048585/1433563807/31261041/77547ee1df28a9d86ea05d6e691d07ad.m3u8?bitrate=1711&client=106&definition=1300&pid=1433563807&scene=vod&vid=605691113"
    },
    {
        "id": "605251391",
        "title": "\u3010\u725b\u5c0f\u8611\u83c7\u3011\u5fc3\u52a8\u662f\u4f60 \u5fc3\u5b89\u662f\u4f60--",
        "src": "http://v-huya-img2.msstatic.com/screenshot/2145/605251391/99.jpg?x-oss-process=style/460x268&amp;amp;v=ca2aa0e447ebfdcf6ec4e140cf9946c31636540187",
        "url": "http://videobd-platform.cdn.huya.com/1048585/1433563807/31217247/416242f23a7f01c50803560d481fd0b8.m3u8?bitrate=1996&client=106&definition=1300&pid=1433563807&scene=vod&vid=605251391"
    },
    {
        "id": "605126439",
        "title": "\u3010\u725b\u5c0f\u8611\u83c7\u3011\u6ca1\u4ec0\u4e48\u672c\u4e8b\u5c31\u60f3\u628a\u559c\u6b22\u7684\u4eba\u641e\u5230\u624b",
        "src": "http://v-huya-img2.msstatic.com/screenshot/2145/605126439/99.jpg?x-oss-process=style/460x268&amp;amp;v=ccbe5fd47394940f425c0b0ea627a5ef1636521295",
        "url": "http://videohw-platform.cdn.huya.com/1048585/1433563807/31198933/e723bd0ea15602cfff9359ffbda36c78.m3u8?bitrate=1877&client=106&definition=1300&pid=1433563807&scene=vod&vid=605126439"
    },
    {
        "id": "602605611",
        "title": "\u3010\u725b\u5c0f\u8611\u83c7\u3011\u4e0d\u5fd9 \u4f60\u8bf4 \u6211\u5728\u542c  \u300aSexy Papi\u300b",
        "src": "http://v-huya-img2.msstatic.com/screenshot/2144/602605611/99.jpg?x-oss-process=style/460x268&amp;amp;v=b797703bdc3b8676893fb81bc979e4781636106509",
        "url": "http://videohw-platform.cdn.huya.com/1048585/1433563807/30950109/fd5d70ff3089878e2eb7fe0ded863ae8.m3u8?bitrate=1402&client=106&definition=1300&pid=1433563807&scene=vod&vid=602605611"
    },
    {
        "id": "602600555",
        "title": "\u3010\u725b\u5c0f\u8611\u83c7\u3011\u548c\u4f60\u8dcc\u8dcc\u6253\u6253\u957f\u5927 \u548c\u4f60\u78e8\u78e8\u8e6d\u8e6d\u53d8\u8001--\u300a\u65e7\u68a6\u4e00\u573a\u300b",
        "src": "http://v-huya-img2.msstatic.com/screenshot/2144/602600555/99.jpg?x-oss-process=style/460x268&amp;amp;amp;amp;v=09edd18b28bbfe903790c366ac8f52a81636105755",
        "url": "http://videohw-platform.cdn.huya.com/1048585/1433563807/30949561/fc5fc71c468d1c223fb7f60af66fd6a4.m3u8?bitrate=2040&client=106&definition=1300&pid=1433563807&scene=vod&vid=602600555"
    },
    {
        "id": "602452797",
        "title": "\u3010\u725b\u5c0f\u8611\u83c7\u3011\u6709\u4ec0\u4e48\u4e0d\u61c2  \u5c3d\u7ba1\u543b\u6211--The Boys",
        "src": "http://v-huya-img2.msstatic.com/screenshot/2144/602452797/99.jpg?x-oss-process=style/460x268&amp;amp;v=8fa6effa5879fc2503b252706997baef1636081695",
        "url": "http://videobd-platform.cdn.huya.com/1048585/1433563807/30935539/428ab8c3b711efc7e148e58e90472eb9.m3u8?bitrate=2020&client=106&definition=1300&pid=1433563807&scene=vod&vid=602452797"
    },
    {
        "id": "602592507",
        "title": "\u3010\u725b\u5c0f\u8611\u83c7\u3011\u5c0f\u624b\u4e00\u7275 \u6211\u4fe9\u751c\u751c  ---\u957f\u5b89\u57ce",
        "src": "http://v-huya-img2.msstatic.com/screenshot/2144/602592507/99.jpg?x-oss-process=style/460x268&amp;amp;v=9eb1a6351a21a6c2f145b9520bb3a33c1636104840",
        "url": "http://videotx-platform.cdn.huya.com/1048585/1433563807/30948659/cb38e9d03c5d7db078cde8f6c17b8491.m3u8?bitrate=1499&client=106&definition=1300&pid=1433563807&scene=vod&vid=602592507"
    },
    {
        "id": "601904495",
        "title": "\u3010\u725b\u5c0f\u8611\u83c7\u3011\u8fd9\u662f\u5149 \u4e00\u675f\u5149 \u90a3\u9ebd\u95ea\u4eae",
        "src": "http://v-huya-img2.msstatic.com/screenshot/2144/601904495/99.jpg?x-oss-process=style/460x268&amp;amp;v=b404260c4f4439102138d24a2db707081636003732",
        "url": "http://videotx-platform.cdn.huya.com/1048585/1433563807/30838583/bb9d6674dbeb67be8cfcd4684ebc2aae.m3u8?bitrate=1566&client=106&definition=1300&pid=1433563807&scene=vod&vid=601904495"
    },
    {
        "id": "602587135",
        "title": "\u3010\u725b\u5c0f\u8611\u83c7\u3011\u6211\u56de\u6765\u4e86\uff01\uff01\u60f3\u6211\u4e86\u6ca1\uff1f\uff1f",
        "src": "http://v-huya-img2.msstatic.com/screenshot/2144/602587135/99.jpg?x-oss-process=style/460x268&amp;amp;v=4e51d9146a2b363d30235eeafe1539741636103928",
        "url": "http://videohw-platform.cdn.huya.com/1048585/1433563807/30948121/4a9d14b36077dc9e812ba3971f671ade.m3u8?bitrate=1761&client=106&definition=1300&pid=1433563807&scene=vod&vid=602587135"
    },
    {
        "id": "601443107",
        "title": "\u3010\u725b\u5c0f\u8611\u83c7\u3011\u6211\u60f3\u4f60\u7231\u6211 \u8fd9\u4e5f\u592a\u5351\u5fae\u4e86\u5427\uff01\uff01",
        "src": "http://v-huya-img2.msstatic.com/screenshot/2144/601443107/99.jpg?x-oss-process=style/460x268&amp;amp;v=f503a70022382f66548e3383a1a1c37b1635928101",
        "url": "http://videotx-platform.cdn.huya.com/1048585/1199524960314/30793885/c6f1066ab8a762b908c8f35e782b1fd6.m3u8?bitrate=1788&client=106&definition=1300&pid=1433563807&scene=vod&vid=601443107"
    },
    {
        "id": "600286721",
        "title": "\u3010\u725b\u5c0f\u8611\u83c7\u3011\u5f53\u670b\u53cb\u5427\uff01\u5f88\u4e45\u7684\u670b\u53cb-Anasthasia",
        "src": "http://v-huya-img2.msstatic.com/screenshot/2144/600286721/99.jpg?x-oss-process=style/460x268&amp;amp;v=3e8b7a03a28c9a97457c1801e33600a81635743301",
        "url": "http://videotx-platform.cdn.huya.com/1048585/1433563807/30644655/16fb89c0f90ac3809733b8b1c14d7fab.m3u8?bitrate=2002&client=106&definition=1300&pid=1433563807&scene=vod&vid=600286721"
    },
    {
        "id": "600283335",
        "title": "\u3010\u725b\u5c0f\u8611\u83c7\u3011\u5373\u4f7f\u4e0d\u5728\u8eab\u8fb9\u4e5f\u5ff5\u5ff5\u4e0d\u5fd8---Hai Ph\u00fat H\u01a1n",
        "src": "http://v-huya-img2.msstatic.com/screenshot/2144/600283335/99.jpg?x-oss-process=style/460x268&amp;amp;v=bd07225f60442830775628fd50d873c21635742874",
        "url": "http://videohw-platform.cdn.huya.com/1048585/1433563807/30644303/b4e8e6759284fab78e76d3cfd460cd63.m3u8?bitrate=1886&client=106&definition=1300&pid=1433563807&scene=vod&vid=600283335"
    },
    {
        "id": "598791631",
        "title": "\u3010\u725b\u5c0f\u8611\u83c7\u3011\u6211\u7684\u559c\u6b22\u5199\u5728\u98ce\u91cc \u4ece\u6b64\u6574\u4e2a\u4e16\u754c\u90fd\u662f\u4f60  --Honey",
        "src": "http://v-huya-img2.msstatic.com/screenshot/2143/598791631/99.jpg?x-oss-process=style/460x268&amp;amp;v=67146ae7616f0ccd8a0f3e3827193e671635493531",
        "url": "http://videotx-platform.cdn.huya.com/1048585/1820930786/30520655/107b6bf4e3d7d6dfbfbd917c56b66731.m3u8?bitrate=1720&client=106&definition=1300&pid=1433563807&scene=vod&vid=598791631"
    }
]