[
    {
        "name": "[UGirlsAPP]\u7231\u5c24\u7269 No.1838 \u9648\u4ea6\u83f2 \u591c\u7cbe\u7075\u7684\u543b",
        "src": "http://d.duotuwang.com/2020/06/06/20831/0.jpg",
        "mtId": "d33062c2a89bc491",
        "mtName": "\u9648\u4ea6\u83f2",
        "jgId": "ugirlsapp",
        "jgName": "\u7231\u5c24\u7269",
        "href": "http://d.duotuwang.com/2020/06/06/20831/",
        "count": 35,
        "start": 1,
        "hasMtTag": 1,
        "hasJgTag": 1,
        "mtCount": 2,
        "jgCount": 397
    },
    {
        "name": "[toutiaogirls]\u5934\u6761\u5973\u795e 2020-02-18 \u9648\u4ea6\u83f2 \u82f9\u679c\u5b9d\u5b9d",
        "src": "http://d.duotuwang.com/2020/02/18/19706/0.jpg",
        "mtId": "d33062c2a89bc491",
        "mtName": "\u9648\u4ea6\u83f2",
        "jgId": "toutiaogirls",
        "jgName": "\u5934\u6761\u5973\u795e",
        "href": "http://d.duotuwang.com/2020/02/18/19706/",
        "count": 21,
        "start": 1,
        "hasMtTag": 1,
        "hasJgTag": 1,
        "mtCount": 2,
        "jgCount": 133
    },
    {
        "name": "[toutiaogirls]\u5934\u6761\u5973\u795e 2020-02-14 \u9648\u4ea6\u83f2 \u840c\u840c\u54d2\u60c5\u4eba\u8282",
        "src": "http://d.duotuwang.com/2020/02/14/19644/0.jpg",
        "mtId": "d33062c2a89bc491",
        "mtName": "\u9648\u4ea6\u83f2",
        "jgId": "toutiaogirls",
        "jgName": "\u5934\u6761\u5973\u795e",
        "href": "http://d.duotuwang.com/2020/02/14/19644/",
        "count": 29,
        "start": 1,
        "hasMtTag": 1,
        "hasJgTag": 1,
        "mtCount": 2,
        "jgCount": 133
    },
    {
        "name": "[toutiaogirls]\u5934\u6761\u5973\u795e 2020-02-05 \u9648\u4ea6\u83f2 \u4e1d\u871c\u4f17\u7b79\u4e4b\u53ef\u7231\u5973\u4ec6",
        "src": "http://d.duotuwang.com/2020/02/05/19639/0.jpg",
        "mtId": "d33062c2a89bc491",
        "mtName": "\u9648\u4ea6\u83f2",
        "jgId": "toutiaogirls",
        "jgName": "\u5934\u6761\u5973\u795e",
        "href": "http://d.duotuwang.com/2020/02/05/19639/",
        "count": 10,
        "start": 1,
        "hasMtTag": 1,
        "hasJgTag": 1,
        "mtCount": 2,
        "jgCount": 133
    },
    {
        "name": "[toutiaogirls]\u5934\u6761\u5973\u795e 2019-12-06 \u9648\u4ea6\u83f2 \u6211\u662f\u5154\u5973\u90ce",
        "src": "http://d.duotuwang.com/2019/12/06/18911/0.jpg",
        "mtId": "d33062c2a89bc491",
        "mtName": "\u9648\u4ea6\u83f2",
        "jgId": "toutiaogirls",
        "jgName": "\u5934\u6761\u5973\u795e",
        "href": "http://d.duotuwang.com/2019/12/06/18911/",
        "count": 12,
        "start": 1,
        "hasMtTag": 1,
        "hasJgTag": 1,
        "mtCount": 2,
        "jgCount": 133
    },
    {
        "name": "[toutiaogirls]\u5934\u6761\u5973\u795e 2019-04-01 \u83ab\u6653\u5e0c&\u9648\u4ea6\u83f2&\u7384\u5b50 \u5927\u97e9\u822a\u7a7a\u7a7a\u59d0",
        "src": "http://d.duotuwang.com/2019/04/01/15879/0.jpg",
        "mtId": "ffa36322de545d57",
        "mtName": "\u83ab\u6653\u5e0c",
        "jgId": "toutiaogirls",
        "jgName": "\u5934\u6761\u5973\u795e",
        "href": "http://d.duotuwang.com/2019/04/01/15879/",
        "count": 34,
        "start": 1,
        "hasMtTag": 1,
        "hasJgTag": 1,
        "mtCount": 2,
        "jgCount": 133
    }
]