[
    {
        "name": "[toutiaogirls]\u5934\u6761\u5973\u795e 2018-07-03 \u9648\u4ea6\u83f2\u537f\u672c\u4f73\u4eba2",
        "src": "http://d.duotuwang.com/2018/07/03/9282/0.jpg",
        "mtId": "d33062c2a89bc491",
        "mtName": "\u9648\u4ea6\u83f2",
        "jgId": "toutiaogirls",
        "jgName": "\u5934\u6761\u5973\u795e",
        "href": "http://d.duotuwang.com/2018/07/03/9282/",
        "count": 26,
        "start": 1,
        "hasMtTag": 1,
        "hasJgTag": 1,
        "mtCount": 2,
        "jgCount": 133
    },
    {
        "name": "[toutiaogirls]\u5934\u6761\u5973\u795e 2018-07-02 \u9648\u4ea6\u83f2\u537f\u672c\u4f73\u4eba",
        "src": "http://d.duotuwang.com/2018/07/02/9281/0.jpg",
        "mtId": "d33062c2a89bc491",
        "mtName": "\u9648\u4ea6\u83f2",
        "jgId": "toutiaogirls",
        "jgName": "\u5934\u6761\u5973\u795e",
        "href": "http://d.duotuwang.com/2018/07/02/9281/",
        "count": 57,
        "start": 1,
        "hasMtTag": 1,
        "hasJgTag": 1,
        "mtCount": 2,
        "jgCount": 133
    },
    {
        "name": "[toutiaogirls]\u5934\u6761\u5973\u795e 2018-06-30 \u9648\u4ea6\u83f2\u51b0\u96ea\u7d20\u4eba",
        "src": "http://d.duotuwang.com/2018/06/30/9249/0.jpg",
        "mtId": "d33062c2a89bc491",
        "mtName": "\u9648\u4ea6\u83f2",
        "jgId": "toutiaogirls",
        "jgName": "\u5934\u6761\u5973\u795e",
        "href": "http://d.duotuwang.com/2018/06/30/9249/",
        "count": 24,
        "start": 1,
        "hasMtTag": 1,
        "hasJgTag": 1,
        "mtCount": 2,
        "jgCount": 133
    },
    {
        "name": "[UGirlsAPP]\u7231\u5c24\u7269 No.1036 \u9648\u4ea6\u83f2",
        "src": "http://d.duotuwang.com/2018/03/21/8369/0.jpg",
        "mtId": "d33062c2a89bc491",
        "mtName": "\u9648\u4ea6\u83f2",
        "jgId": "ugirlsapp",
        "jgName": "\u7231\u5c24\u7269",
        "href": "http://d.duotuwang.com/2018/03/21/8369/",
        "count": 40,
        "start": 1,
        "hasMtTag": 1,
        "hasJgTag": 1,
        "mtCount": 2,
        "jgCount": 397
    },
    {
        "name": "[QingDouKe]\u9752\u8c46\u5ba2 2017-07-28 \u9648\u4ea6\u83f2",
        "src": "http://d.duotuwang.com/2017/07/28/5360/0.jpg",
        "mtId": "d33062c2a89bc491",
        "mtName": "\u9648\u4ea6\u83f2",
        "jgId": "qingdouke",
        "jgName": "\u9752\u8c46\u5ba2",
        "href": "http://d.duotuwang.com/2017/07/28/5360/",
        "count": 53,
        "start": 1,
        "hasMtTag": 1,
        "hasJgTag": 1,
        "mtCount": 2,
        "jgCount": 23
    }
]