[
    {
        "id": "441116883",
        "title": "\u65b0\u8d35\u5983\u9189\u9152",
        "src": "http://v-huya-img.huya.com/2101/441116883/99-460x268.jpg?v=576337b50675b5bc346b5a35cb8badaf1611650341",
        "url": "http://huya-w20.huya.com/2101/441116883/1300/3e503335410445a5296dca6154543116.m3u8?bitrate=1303&client=23&definition=1300&pid=973550099&scene=vod&vid=441116883"
    },
    {
        "id": "441115159",
        "title": "\u554a\u54c8\u54c8\u6709\u65f6\u5019",
        "src": "http://v-huya-img.huya.com/2101/441115159/99-460x268.jpg?v=9b3f64f3d9ae4f0fa41a5649a346c5741611650624",
        "url": "http://huya-w10.huya.com/2101/441115159/1300/ef034162538ea668153f9c49baf70884.m3u8?bitrate=1308&client=23&definition=1300&pid=973550099&scene=vod&vid=441115159"
    },
    {
        "id": "423150065",
        "title": "\u5979\u7684\u80cc\u540e\u6709\u4f60",
        "src": "http://v-huya-img.huya.com/2049/423150065/99-460x268.jpg",
        "url": "http://huya-w10.huya.com/2049/423150065/1300/c0ae5b4ca7eec7764ed823fe3942ff89.m3u8?bitrate=176&client=23&definition=1300&pid=973550099&scene=vod&vid=423150065"
    },
    {
        "id": "395897077",
        "title": "\u821e\u5ae3\u795d\u5927\u5bb6\u4e2d\u79cb\u5feb\u4e50",
        "src": "http://v-huya-img.huya.com/2040/395897077/99-460x268.jpg?v=cef8b0696d06c4dc817307ef8fbf6d311601543317",
        "url": "http://huya-w21.huya.com/2040/395897077/1300/67346ebf9d42c629b6e07d6cc0233a3e.m3u8?bitrate=1086&client=70&definition=1300&pid=973550099&scene=vod&vid=395897077"
    },
    {
        "id": "351664824",
        "title": "\u4e00\u751f\u6709\u7231",
        "src": "http://v-huya-img.huya.com/2025/351664824/99-460x268.jpg?v=7865151c605c02053c377cbae55fe3c51601541913",
        "url": "http://huya-w10.huya.com/2025/351664824/1300/7a8c46d3064736a15794d1d8fc7765b7.m3u8?bitrate=1245&client=70&definition=1300&pid=973550099&scene=vod&vid=351664824"
    },
    {
        "id": "395885869",
        "title": "\u821e\u5ae3\u2014\u4e00\u66f2\u53e4\u98ce\u9001\u7ed9\u4f60",
        "src": "http://v-huya-img.huya.com/2040/395885869/99-460x268.jpg?v=8fe1f1e18bafb88610e877ecba0e1ff81601541731",
        "url": "http://huya-w10.huya.com/2040/395885869/1300/c3f76a71b4edd82160ac1626c3c6b5e3.m3u8?bitrate=1311&client=70&definition=1300&pid=973550099&scene=vod&vid=395885869"
    },
    {
        "id": "394373365",
        "title": "\u90fd\u559c\u6b22\u65b0\u9c9c\u7684",
        "src": "http://v-huya-img.huya.com/2039/394373365/99-460x268.jpg",
        "url": "http://huya-w20.huya.com/2039/394373365/1300/54ec7030cdb65164e30e959b8ef6fed0.m3u8?bitrate=571&client=23&definition=1300&pid=973550099&scene=vod&vid=394373365"
    },
    {
        "id": "394373917",
        "title": "\u662f\u5440\u3002\u4f60\u66ff\u6211\u8bf4\u4e86\u4ec0\u4e48",
        "src": "http://v-huya-img.huya.com/2039/394373917/99-460x268.jpg",
        "url": "http://huya-w20.huya.com/2039/394373917/1300/59968c1c36b2328c406f3cc003e0e9ea.m3u8?bitrate=497&client=23&definition=1300&pid=973550099&scene=vod&vid=394373917"
    },
    {
        "id": "394373671",
        "title": "\u6211\u53ef\u4ee5\u65e0\u7406\u53d6\u95f9\u5417",
        "src": "http://v-huya-img.huya.com/2039/394373671/99-460x268.jpg",
        "url": "http://huya-w20.huya.com/2039/394373671/1300/1f90a41b9bff4c06f03009f7eb7b07f9.m3u8?bitrate=496&client=23&definition=1300&pid=973550099&scene=vod&vid=394373671"
    },
    {
        "id": "394373353",
        "title": "\u4e0d\u8981\u8bae\u8bba\u6211",
        "src": "http://v-huya-img.huya.com/2039/394373353/99-460x268.jpg",
        "url": "http://huya-w20.huya.com/2039/394373353/1300/3817ee216e36d980d892583feb56c400.m3u8?bitrate=654&client=23&definition=1300&pid=973550099&scene=vod&vid=394373353"
    },
    {
        "id": "394373167",
        "title": "\u4f60\u89c1\u8fc7\u5417\u9f99\u5377\u98ce",
        "src": "http://v-huya-img.huya.com/2039/394373167/99-460x268.jpg",
        "url": "http://huya-w21.huya.com/2039/394373167/1300/f4437cf61e86e948abf064f091bbbfb8.m3u8?bitrate=744&client=23&definition=1300&pid=973550099&scene=vod&vid=394373167"
    },
    {
        "id": "392959293",
        "title": "\u4f73\u4eba\uff0c\u4f55\u5904\u53bb",
        "src": "http://v-huya-img.huya.com/2039/392959293/99-460x268.jpg",
        "url": "http://huya-w20.huya.com/2039/392959293/1300/63fea31605169045db240c458fd1d973.m3u8?bitrate=844&client=23&definition=1300&pid=973550099&scene=vod&vid=392959293"
    },
    {
        "id": "392957701",
        "title": "\u6211\u662f\u4e0d\u662f\u4f60\u7406\u60f3\u7684\u5973\u670b\u53cb",
        "src": "http://v-huya-img.huya.com/2039/392957701/99-460x268.jpg",
        "url": "http://huya-w10.huya.com/2039/392957701/1300/485e6edc6ff85df877a7ff55f2110943.m3u8?bitrate=662&client=23&definition=1300&pid=973550099&scene=vod&vid=392957701"
    },
    {
        "id": "392958621",
        "title": "\u620f\u7cbe",
        "src": "http://v-huya-img.huya.com/2039/392958621/99-460x268.jpg",
        "url": "http://huya-w10.huya.com/2039/392958621/1300/25d603fe95ae7fc66f9fbeff16cb8562.m3u8?bitrate=901&client=23&definition=1300&pid=973550099&scene=vod&vid=392958621"
    },
    {
        "id": "389729133",
        "title": "\u662f\u5fc3\u52a8\u5417",
        "src": "http://v-huya-img.huya.com/2038/389729133/99-460x268.jpg",
        "url": "http://huya-w20.huya.com/2038/389729133/1300/068ffb46e798c590aeb8cc48c87b9f4f.m3u8?bitrate=738&client=23&definition=1300&pid=973550099&scene=vod&vid=389729133"
    }
]