[
    {
        "id": "584404119",
        "title": "\u70ed\u821e\u4e2d\uff08\u795d\u5927\u5bb6\u56fd\u5e86\u5feb\u4e50\u54e6\uff09\u3010\u821e\u5ae3\u554a\u3011",
        "src": "http://v-huya-img2.msstatic.com/screenshot/2139/584404119/99.jpg?x-oss-process=style/460x268&amp;amp;v=db6376e9b8598337342484d4a55a7bf81633071305",
        "url": "http://videohw-platform.cdn.huya.com/1048585/973550099/28954937/945762d6aac154832638b3674c89945a.m3u8?bitrate=2066&client=106&definition=1300&pid=973550099&scene=vod&vid=584404119"
    },
    {
        "id": "583906179",
        "title": "\u70ed\u821e\u4e2d\u3010\u821e\u5ae3\u554a\u3011",
        "src": "http://v-huya-img2.msstatic.com/screenshot/2139/583906179/99.jpg?x-oss-process=style/460x268&amp;amp;v=3187988a0b14236303e475e9d0b7ff0a1632988510",
        "url": "http://videotx-platform.cdn.huya.com/1048585/973550099/28900051/ab3c13218852fc3f71a662fcae86782e.m3u8?bitrate=2100&client=106&definition=1300&pid=973550099&scene=vod&vid=583906179"
    },
    {
        "id": "582514767",
        "title": "\u70ed\u821e\u4e2d\u3010\u821e\u5ae3\u554a\u3011",
        "src": "http://v-huya-img2.msstatic.com/screenshot/2139/582514767/99.jpg?x-oss-process=style/460x268&amp;amp;v=64911f3c1f0f845ffbbf78f3faaf61691632744660",
        "url": "http://videohw-platform.cdn.huya.com/1048585/973550099/28769943/0d429bce0ca1b47b18438a451cc9e0dc.m3u8?bitrate=1478&client=106&definition=1300&pid=973550099&scene=vod&vid=582514767"
    },
    {
        "id": "581352891",
        "title": "\u70ed\u821e\u4e2d\u3010\u821e\u5ae3\u554a\u3011",
        "src": "http://v-huya-img2.msstatic.com/screenshot/2138/581352891/99.jpg?x-oss-process=style/460x268&amp;amp;v=2e3fdc196288d671e208816dd213a4cc1632555495",
        "url": "http://videotx-platform.cdn.huya.com/1048585/973550099/28640655/3443a76c2f2147c82cd6f265a56019a4.m3u8?bitrate=2072&client=106&definition=1300&pid=973550099&scene=vod&vid=581352891"
    },
    {
        "id": "580782925",
        "title": "\u70ed\u821e\u4e2d\u3010\u821e\u5ae3\u554a\u3011",
        "src": "http://v-huya-img2.msstatic.com/screenshot/2138/580782925/99.jpg?x-oss-process=style/460x268&amp;amp;v=8dd16c20322a89ae3b742d25aa7948051632462892",
        "url": "http://videotx-platform.cdn.huya.com/1048585/973550099/28587661/b9bb844aa129c0dfe2fa2d9f458eee60.m3u8?bitrate=2112&client=106&definition=1300&pid=973550099&scene=vod&vid=580782925"
    },
    {
        "id": "580309795",
        "title": "\u70ed\u821e\u4e2d\u3010\u821e\u5ae3\u554a\u3011",
        "src": "http://v-huya-img2.msstatic.com/screenshot/2138/580309795/99.jpg?x-oss-process=style/460x268&amp;amp;v=5f06dd38f9b3bf9cfc71464a485281071632383730",
        "url": "http://videohw-platform.cdn.huya.com/1048585/973550099/28547359/96385c7a8eb4420f1443a72c2173c63c.m3u8?bitrate=2109&client=106&definition=1300&pid=973550099&scene=vod&vid=580309795"
    },
    {
        "id": "578886115",
        "title": "\u4e00\u5e74\u4e00\u4e2d\u79cb \u795d\u5927\u5bb6\u4e2d\u79cb\u8282\u5feb\u4e50\u54e6\u3010\u821e\u5ae3\u554a \u3011",
        "src": "http://v-huya-img2.msstatic.com/screenshot/2138/578886115/99.jpg?x-oss-process=style/460x268&amp;amp;v=96d21f158240130caf53d94c034ee7a91632139927",
        "url": "http://videohw-platform.cdn.huya.com/1048585/973550099/28426785/f6caf4aa357f418b23080b084806b26c.m3u8?bitrate=2099&client=106&definition=1300&pid=973550099&scene=vod&vid=578886115"
    },
    {
        "id": "577853881",
        "title": "\u56db\u500d\u5feb\u4e50\u3010\u821e\u5ae3\u554a\u3011",
        "src": "http://v-huya-img2.msstatic.com/screenshot/2137/577853881/99.jpg?x-oss-process=style/460x268&amp;amp;v=a9f7a7f0324b04124c9c038e24d3996a1631973737",
        "url": "http://videotx-platform.cdn.huya.com/1048585/973550099/28344869/d5e068f2e866b570aa347b71cf287229.m3u8?bitrate=2107&client=106&definition=1300&pid=973550099&scene=vod&vid=577853881"
    },
    {
        "id": "576081865",
        "title": "\u4e3a\u4e86\u5fc3\u60c5\u6109\u60a6\u5efa\u8bae\u591a\u770b\u51e0\u904d\u3010\u821e\u5ae3\u554a\u3011",
        "src": "http://v-huya-img2.msstatic.com/screenshot/2137/576081865/99.jpg?x-oss-process=style/460x268&amp;amp;v=110212153555615b8f9c2763123baa1a1631698483",
        "url": "http://videohw-platform.cdn.huya.com/1048585/973550099/28157687/5b3329c01de617b8b5e78281072b6b0d.m3u8?bitrate=1895&client=106&definition=1300&pid=973550099&scene=vod&vid=576081865"
    },
    {
        "id": "575670783",
        "title": "\u70ed\u821e\u4e2d\u3010\u821e\u5ae3\u554a\u3011",
        "src": "http://v-huya-img2.msstatic.com/screenshot/2137/575670783/99.jpg?x-oss-process=style/460x268&amp;amp;v=1ec3105542685583dd0ea4c2049ac72d1631625782",
        "url": "http://videohw-platform.cdn.huya.com/1048585/973550099/28120993/972cdcf69b24abc7cdb88b1de03d59ef.m3u8?bitrate=2032&client=106&definition=1300&pid=973550099&scene=vod&vid=575670783"
    },
    {
        "id": "575524835",
        "title": "\u6709\u6211\u8fd9\u6837\u7684\u5973\u670b\u53cb \u4f60\u51e0\u70b9\u56de\u5bb6\uff1f\u3010\u821e\u5ae3\u554a\u3011",
        "src": "http://v-huya-img2.msstatic.com/screenshot/2137/575524835/99.jpg?x-oss-process=style/460x268&amp;amp;v=66d991bae53be892251e4204ec8619de1631606938",
        "url": "http://videohw-platform.cdn.huya.com/1048585/973550099/28108495/38683f6bdf124808855445e23f1745bd.m3u8?bitrate=1814&client=106&definition=1300&pid=973550099&scene=vod&vid=575524835"
    },
    {
        "id": "540967911",
        "title": "\u6211\u53d1\u5e03\u4e86\u4e00\u4e2a\u65b0\u89c6\u9891\uff0c\u5feb\u6765\u56f4\u89c2\u5427\uff01",
        "src": "http://v-huya-img2.msstatic.com/screenshot/2128/540967911/99.jpg?x-oss-process=style/460x268",
        "url": "http://huya-w21.huya.com/2128/540967911/1300/696e62b6b4a9757b997dad01a3ae8ead.m3u8?bitrate=322&client=23&definition=1300&pid=973550099&scene=vod&vid=540967911"
    },
    {
        "id": "540967257",
        "title": "\u65e0\u91cf",
        "src": "http://v-huya-img2.msstatic.com/screenshot/2128/540967257/99.jpg?x-oss-process=style/460x268",
        "url": "http://huya-w20.huya.com/2128/540967257/1300/13930e8c2dfe5cec073a97c06a749abc.m3u8?bitrate=322&client=23&definition=1300&pid=973550099&scene=vod&vid=540967257"
    },
    {
        "id": "540966833",
        "title": "\u5fa1",
        "src": "http://v-huya-img2.msstatic.com/screenshot/2128/540966833/99.jpg?x-oss-process=style/460x268",
        "url": "http://huya-w20.huya.com/2128/540966833/1300/8d63d42066fccc13512b89f91dc0a491.m3u8?bitrate=268&client=23&definition=1300&pid=973550099&scene=vod&vid=540966833"
    },
    {
        "id": "540966503",
        "title": "\u989d",
        "src": "http://v-huya-img2.msstatic.com/screenshot/2128/540966503/99.jpg?x-oss-process=style/460x268",
        "url": "http://huya-w10.huya.com/2128/540966503/1300/007e4f89ac7ba06fee16e5d251db9359.m3u8?bitrate=420&client=23&definition=1300&pid=973550099&scene=vod&vid=540966503"
    }
]