[
    {
        "name": "[YALAYI]\u96c5\u62c9\u4f0a Y816 \u7a0b\u5c0f\u8776 \u767d\u8272\u604b\u4eba",
        "src": "http://d.duotuwang.com/2021/07/19/25929/0.jpg",
        "mtId": "63263d1c03311bfc",
        "mtName": "\u7a0b\u5c0f\u8776",
        "jgId": "yalayi",
        "jgName": "\u96c5\u62c9\u4f0a",
        "href": "http://d.duotuwang.com/2021/07/19/25929/",
        "count": 40,
        "start": 1,
        "hasMtTag": 1,
        "hasJgTag": 1,
        "mtCount": 2,
        "jgCount": 156
    },
    {
        "name": "[YALAYI]\u96c5\u62c9\u4f0a Y789 \u7a0b\u5c0f\u8776 \u5f53\u5e74\u60c5",
        "src": "http://d.duotuwang.com/2021/04/21/24893/0.jpg",
        "mtId": "63263d1c03311bfc",
        "mtName": "\u7a0b\u5c0f\u8776",
        "jgId": "yalayi",
        "jgName": "\u96c5\u62c9\u4f0a",
        "href": "http://d.duotuwang.com/2021/04/21/24893/",
        "count": 41,
        "start": 1,
        "hasMtTag": 1,
        "hasJgTag": 1,
        "mtCount": 2,
        "jgCount": 156
    },
    {
        "name": "[YALAYI]\u96c5\u62c9\u4f0a Y786 \u7a0b\u5c0f\u8776 \u7f8e\u597d\u65f6\u5149",
        "src": "http://d.duotuwang.com/2021/04/14/24890/0.jpg",
        "mtId": "63263d1c03311bfc",
        "mtName": "\u7a0b\u5c0f\u8776",
        "jgId": "yalayi",
        "jgName": "\u96c5\u62c9\u4f0a",
        "href": "http://d.duotuwang.com/2021/04/14/24890/",
        "count": 41,
        "start": 1,
        "hasMtTag": 1,
        "hasJgTag": 1,
        "mtCount": 2,
        "jgCount": 156
    }
]