[
    {
        "id": "669511587",
        "title": "\u97e9\u821e",
        "src": "https://v-huya-img2.msstatic.com/ai/cover/669511587/000.jpg?x-oss-process=style/460x268",
        "url": "http://videotx-platform.cdn.huya.com/1048585/1199593365692/36325449/4327c7470be50ab8fffe90e8bc34d79d.m3u8?bitrate=2094&client=106&definition=1300&pid=1199593365692&scene=vod&vid=669511587"
    },
    {
        "id": "673625411",
        "title": "\u738b\u82af\u6069\u56fd\u98ce\u821e#\u4e00\u821e\u60ca\u9e3f#",
        "src": "https://v-huya-img2.msstatic.com/ai/cover/673625411/001.jpg?x-oss-process=style/460x268",
        "url": "http://videotx-platform.cdn.huya.com/1048585/1199593365692/36594435/475b01433d49f80bbf9180f567bdff11.m3u8?bitrate=2081&client=106&definition=1300&pid=1199593365692&scene=vod&vid=673625411"
    },
    {
        "id": "644136119",
        "title": "\u97e9\u821e",
        "src": "https://v-huya-img2.msstatic.com/ai/cover/644136119/001.jpg?x-oss-process=style/460x268",
        "url": "http://videohw-platform.cdn.huya.com/1048585/1199593365692/34934795/9df69bde1ea529eb6a4c6451418b5b5b.m3u8?bitrate=2083&client=106&definition=1300&pid=1199593365692&scene=vod&vid=644136119"
    },
    {
        "id": "634230373",
        "title": "\u70ed\u821e",
        "src": "https://v-huya-img2.msstatic.com/ai/cover/634230373/002.jpg?x-oss-process=style/460x268",
        "url": "http://videohw-platform.cdn.huya.com/1048585/1199593365692/34397765/885d555a1e3ab60555092e39f0a1cdf0.m3u8?bitrate=2026&client=106&definition=1300&pid=1199593365692&scene=vod&vid=634230373"
    },
    {
        "id": "630600971",
        "title": "\u97e9\u821e",
        "src": "https://v-huya-img2.msstatic.com/ai/cover/630600971/002.jpg?x-oss-process=style/460x268",
        "url": "http://videobd-platform.cdn.huya.com/1048585/1199593365692/34076311/c1a80c530ca7b28ad5b5fe77245905cd.m3u8?bitrate=2078&client=106&definition=1300&pid=1199593365692&scene=vod&vid=630600971"
    },
    {
        "id": "630601909",
        "title": "\u97e9\u821e",
        "src": "https://v-huya-img2.msstatic.com/ai/cover/630601909/002.jpg?x-oss-process=style/460x268",
        "url": "http://videobd-platform.cdn.huya.com/1048585/1199593365692/34076361/73a16f3c40a5059fba1b85eeb400d1d8.m3u8?bitrate=2079&client=106&definition=1300&pid=1199593365692&scene=vod&vid=630601909"
    },
    {
        "id": "630599201",
        "title": "\u97e9\u821e",
        "src": "https://v-huya-img2.msstatic.com/ai/cover/630599201/002.jpg?x-oss-process=style/460x268",
        "url": "http://videotx-platform.cdn.huya.com/1048585/1199593365692/34076133/db78ccf3158409e18b529a06d8a837bc.m3u8?bitrate=2059&client=106&definition=1300&pid=1199593365692&scene=vod&vid=630599201"
    },
    {
        "id": "630184117",
        "title": "\u97e9\u821e",
        "src": "https://v-huya-img2.msstatic.com/ai/cover/630184117/001.jpg?x-oss-process=style/460x268",
        "url": "http://videotx-platform.cdn.huya.com/1048585/1199593365692/34040873/58a60b237a0de71b01b1e011f4b78eb5.m3u8?bitrate=2093&client=106&definition=1300&pid=1199593365692&scene=vod&vid=630184117"
    },
    {
        "id": "630183713",
        "title": "\u97e9\u821e",
        "src": "https://v-huya-img2.msstatic.com/screenshot/2152/630183713/100.jpg?x-oss-process=style/460x268",
        "url": "http://videotx-platform.cdn.huya.com/1048585/1199593365692/34040859/0b9a47e69ca7b2cb6eb1a5cff1a285f1.m3u8?bitrate=2097&client=106&definition=1300&pid=1199593365692&scene=vod&vid=630183713"
    },
    {
        "id": "629821797",
        "title": "\u3010\u91d1\u82af\u6069\u3011\u4f60\u4f1a\u4e3a\u8c01\u795e\u9b42\u98a0\u5012\uff0c\u6069\uff1f",
        "src": "https://v-huya-img2.msstatic.com/2151/629821797/1.jpg?x-oss-process=style/460x268",
        "url": "http://videohw-platform.cdn.huya.com/1048585/59a91b252545dcc3e53b1e831b45d090/34019201/e964bb7ded83ee3ffadc69191ff0d572.m3u8?bitrate=2115&client=14&definition=1300&pid=1199593365692&scene=vod&vid=629821797"
    },
    {
        "id": "621430843",
        "title": "\u6211\u53d1\u5e03\u4e86\u4e00\u4e2a\u65b0\u89c6\u9891\uff0c\u5feb\u6765\u56f4\u89c2\u5427\uff01",
        "src": "https://v-huya-img2.msstatic.com/screenshot/2149/621430843/100.jpg?x-oss-process=style/460x268",
        "url": "http://videobd-platform.cdn.huya.com/1048585/1199593365692/32846309/c055e5d13ca4efe45a69eef635818c9e.m3u8?bitrate=2086&client=106&definition=1300&pid=1199593365692&scene=vod&vid=621430843"
    },
    {
        "id": "621429751",
        "title": "\u97e9\u821e",
        "src": "https://v-huya-img2.msstatic.com/ai/cover/621429751/001.jpg?x-oss-process=style/460x268",
        "url": "http://videotx-platform.cdn.huya.com/1048585/1199593365692/32846215/0bf60375ea5d769873da9349aa9433cd.m3u8?bitrate=2092&client=106&definition=1300&pid=1199593365692&scene=vod&vid=621429751"
    },
    {
        "id": "621428911",
        "title": "\u97e9\u821e",
        "src": "https://v-huya-img2.msstatic.com/ai/cover/621428911/001.jpg?x-oss-process=style/460x268",
        "url": "http://videobd-platform.cdn.huya.com/1048585/1199593365692/32846131/860f02bc937dc0038ba099bb64235d0a.m3u8?bitrate=2043&client=106&definition=1300&pid=1199593365692&scene=vod&vid=621428911"
    },
    {
        "id": "621425771",
        "title": "\u97e9\u821e",
        "src": "https://v-huya-img2.msstatic.com/ai/cover/621425771/001.jpg?x-oss-process=style/460x268",
        "url": "http://videotx-platform.cdn.huya.com/1048585/1199593365692/32845945/c69af4c7952e547fcb8fa386bfa29958.m3u8?bitrate=2094&client=106&definition=1300&pid=1199593365692&scene=vod&vid=621425771"
    },
    {
        "id": "621302971",
        "title": "\u97e9\u821e",
        "src": "https://v-huya-img2.msstatic.com/ai/cover/621302971/000.jpg?x-oss-process=style/460x268",
        "url": "http://videobd-platform.cdn.huya.com/1048585/1199593365692/32833433/5ce5adfeca85d5868ea771091b67e0dc.m3u8?bitrate=2035&client=106&definition=1300&pid=1199593365692&scene=vod&vid=621302971"
    }
]