[
    {
        "name": "[EugeneSnap] Alinee - Alinee Bot",
        "src": "http://d.duotuwang.com/2021/04/27/29573/0.jpg",
        "mtId": "24b5db5477d331d1",
        "mtName": "EugeneSnap",
        "href": "http://d.duotuwang.com/2021/04/27/29573/",
        "count": 61,
        "start": 1,
        "hasMtTag": 1,
        "hasJgTag": 0,
        "mtCount": 1
    }
]