[
    {
        "name": "[IMISS]\u7231\u871c\u793e VOL.170 \u829d\u829dBooty",
        "src": "http://d.duotuwang.com/2017/06/10/3945/0.jpg",
        "mtId": "8fe458bd9af7ab1d",
        "mtName": "\u829d\u829dBooty",
        "jgId": "imiss",
        "jgName": "\u7231\u871c\u793e",
        "href": "http://d.duotuwang.com/2017/06/10/3945/",
        "count": 38,
        "start": 1,
        "hasMtTag": 1,
        "hasJgTag": 1,
        "mtCount": 56,
        "jgCount": 116
    },
    {
        "name": "[HuaYan]\u82b1\u306e\u989c VOL.038 \u829d\u829dBooty",
        "src": "http://d.duotuwang.com/2017/05/31/3845/0.jpg",
        "mtId": "8fe458bd9af7ab1d",
        "mtName": "\u829d\u829dBooty",
        "jgId": "huayan",
        "jgName": "\u82b1\u306e\u989c",
        "href": "http://d.duotuwang.com/2017/05/31/3845/",
        "count": 52,
        "start": 1,
        "hasMtTag": 1,
        "hasJgTag": 1,
        "mtCount": 56,
        "jgCount": 13
    },
    {
        "name": "[LeYuan]\u661f\u4e50\u56ed VOL.038 \u829d\u829dBooty",
        "src": "http://d.duotuwang.com/2017/05/09/3981/0.jpg",
        "mtId": "8fe458bd9af7ab1d",
        "mtName": "\u829d\u829dBooty",
        "jgId": "leyuan",
        "jgName": "\u661f\u4e50\u56ed",
        "href": "http://d.duotuwang.com/2017/05/09/3981/",
        "count": 68,
        "start": 1,
        "hasMtTag": 1,
        "hasJgTag": 1,
        "mtCount": 56,
        "jgCount": 8
    },
    {
        "name": "[LeYuan]\u661f\u4e50\u56ed VOL.036 \u829d\u829dBooty",
        "src": "http://d.duotuwang.com/2017/04/28/3979/0.jpg",
        "mtId": "8fe458bd9af7ab1d",
        "mtName": "\u829d\u829dBooty",
        "jgId": "leyuan",
        "jgName": "\u661f\u4e50\u56ed",
        "href": "http://d.duotuwang.com/2017/04/28/3979/",
        "count": 54,
        "start": 1,
        "hasMtTag": 1,
        "hasJgTag": 1,
        "mtCount": 56,
        "jgCount": 8
    },
    {
        "name": "[HuaYan]\u82b1\u306e\u989c VOL.034 \u829d\u829dBooty",
        "src": "http://d.duotuwang.com/2017/04/08/3736/0.jpg",
        "mtId": "8fe458bd9af7ab1d",
        "mtName": "\u829d\u829dBooty",
        "jgId": "huayan",
        "jgName": "\u82b1\u306e\u989c",
        "href": "http://d.duotuwang.com/2017/04/08/3736/",
        "count": 55,
        "start": 1,
        "hasMtTag": 1,
        "hasJgTag": 1,
        "mtCount": 56,
        "jgCount": 13
    },
    {
        "name": "[HuaYan]\u82b1\u306e\u989c VOL.031 \u829d\u829dBooty",
        "src": "http://d.duotuwang.com/2017/03/09/3646/0.jpg",
        "mtId": "8fe458bd9af7ab1d",
        "mtName": "\u829d\u829dBooty",
        "jgId": "huayan",
        "jgName": "\u82b1\u306e\u989c",
        "href": "http://d.duotuwang.com/2017/03/09/3646/",
        "count": 58,
        "start": 1,
        "hasMtTag": 1,
        "hasJgTag": 1,
        "mtCount": 56,
        "jgCount": 13
    }
]