[
    {
        "name": "[XIUREN]\u79c0\u4eba\u7f51 No.1453 \u6e29\u5fc3\u6021",
        "src": "http://d.duotuwang.com/2019/05/16/16500/0.jpg",
        "mtId": "735e57c1277ecc66",
        "mtName": "\u6e29\u5fc3\u6021",
        "jgId": "xiuren",
        "jgName": "\u79c0\u4eba\u7f51",
        "href": "http://d.duotuwang.com/2019/05/16/16500/",
        "count": 35,
        "start": 1,
        "hasMtTag": 1,
        "hasJgTag": 1,
        "mtCount": 9,
        "jgCount": 750
    },
    {
        "name": "[toutiaogirls]\u5934\u6761\u5973\u795e 2019-04-27 \u6e29\u5fc3\u6021 \u7389\u85fb\u524d\u00b7\u79d8\u4e66\u72d0COSPLAY",
        "src": "http://d.duotuwang.com/2019/04/27/16454/0.jpg",
        "mtId": "735e57c1277ecc66",
        "mtName": "\u6e29\u5fc3\u6021",
        "jgId": "toutiaogirls",
        "jgName": "\u5934\u6761\u5973\u795e",
        "href": "http://d.duotuwang.com/2019/04/27/16454/",
        "count": 33,
        "start": 1,
        "hasMtTag": 1,
        "hasJgTag": 1,
        "mtCount": 9,
        "jgCount": 133
    },
    {
        "name": "[YouWu]\u5c24\u7269\u9986 VOL.143 \u6e29\u5fc3\u6021",
        "src": "http://d.duotuwang.com/2019/04/22/16162/0.jpg",
        "mtId": "735e57c1277ecc66",
        "mtName": "\u6e29\u5fc3\u6021",
        "jgId": "youwu",
        "jgName": "\u5c24\u7269\u9986",
        "href": "http://d.duotuwang.com/2019/04/22/16162/",
        "count": 34,
        "start": 1,
        "hasMtTag": 1,
        "hasJgTag": 1,
        "mtCount": 9,
        "jgCount": 29
    },
    {
        "name": "[XIUREN]\u79c0\u4eba\u7f51 No.1403 \u6e29\u5fc3\u6021",
        "src": "http://d.duotuwang.com/2019/04/18/16103/0.jpg",
        "mtId": "735e57c1277ecc66",
        "mtName": "\u6e29\u5fc3\u6021",
        "jgId": "xiuren",
        "jgName": "\u79c0\u4eba\u7f51",
        "href": "http://d.duotuwang.com/2019/04/18/16103/",
        "count": 40,
        "start": 1,
        "hasMtTag": 1,
        "hasJgTag": 1,
        "mtCount": 9,
        "jgCount": 750
    },
    {
        "name": "[toutiaogirls]\u5934\u6761\u5973\u795e 2019-03-08 \u6e29\u5fc3\u6021 \u4e09\u516b\u5973\u795e\u8282\u7279\u520a-\u738b\u8005\u7504\u59ec",
        "src": "http://d.duotuwang.com/2019/03/08/11083/0.jpg",
        "mtId": "735e57c1277ecc66",
        "mtName": "\u6e29\u5fc3\u6021",
        "jgId": "toutiaogirls",
        "jgName": "\u5934\u6761\u5973\u795e",
        "href": "http://d.duotuwang.com/2019/03/08/11083/",
        "count": 9,
        "start": 1,
        "hasMtTag": 1,
        "hasJgTag": 1,
        "mtCount": 9,
        "jgCount": 133
    },
    {
        "name": "[PDLONE]\u6f58\u591a\u62c9 No.339 \u6e29\u920a\u6021",
        "src": "http://d.duotuwang.com/2019/02/10/14886/0.jpg",
        "mtId": "735e57c1277ecc66",
        "mtName": "\u6e29\u5fc3\u6021",
        "jgId": "pdlone",
        "jgName": "\u6f58\u591a\u62c9",
        "href": "http://d.duotuwang.com/2019/02/10/14886/",
        "count": 35,
        "start": 1,
        "hasMtTag": 1,
        "hasJgTag": 1,
        "mtCount": 9,
        "jgCount": 30
    }
]