[
    {
        "name": "[XIUREN]\u79c0\u4eba\u7f51 No.1186 \u6e29\u5fc3\u6021",
        "src": "http://d.duotuwang.com/2018/10/11/9792/0.jpg",
        "mtId": "735e57c1277ecc66",
        "mtName": "\u6e29\u5fc3\u6021",
        "jgId": "xiuren",
        "jgName": "\u79c0\u4eba\u7f51",
        "href": "http://d.duotuwang.com/2018/10/11/9792/",
        "count": 39,
        "start": 1,
        "hasMtTag": 1,
        "hasJgTag": 1,
        "mtCount": 9,
        "jgCount": 750
    },
    {
        "name": "[YouWu]\u5c24\u7269\u9986 VOL.117 \u6e29\u5fc3\u6021",
        "src": "http://d.duotuwang.com/2018/09/13/9676/0.jpg",
        "mtId": "735e57c1277ecc66",
        "mtName": "\u6e29\u5fc3\u6021",
        "jgId": "youwu",
        "jgName": "\u5c24\u7269\u9986",
        "href": "http://d.duotuwang.com/2018/09/13/9676/",
        "count": 38,
        "start": 1,
        "hasMtTag": 1,
        "hasJgTag": 1,
        "mtCount": 9,
        "jgCount": 29
    },
    {
        "name": "[YouWu]\u5c24\u7269\u9986 VOL.108 \u6e29\u5fc3\u6021",
        "src": "http://d.duotuwang.com/2018/08/06/9446/0.jpg",
        "mtId": "735e57c1277ecc66",
        "mtName": "\u6e29\u5fc3\u6021",
        "jgId": "youwu",
        "jgName": "\u5c24\u7269\u9986",
        "href": "http://d.duotuwang.com/2018/08/06/9446/",
        "count": 42,
        "start": 1,
        "hasMtTag": 1,
        "hasJgTag": 1,
        "mtCount": 9,
        "jgCount": 29
    },
    {
        "name": "[MFStar]\u6a21\u8303\u5b66\u9662 VOL.134 \u6e29\u5fc3\u6021",
        "src": "http://d.duotuwang.com/2018/07/31/9425/0.jpg",
        "mtId": "735e57c1277ecc66",
        "mtName": "\u6e29\u5fc3\u6021",
        "jgId": "mfstar",
        "jgName": "\u6a21\u8303\u5b66\u9662",
        "href": "http://d.duotuwang.com/2018/07/31/9425/",
        "count": 33,
        "start": 1,
        "hasMtTag": 1,
        "hasJgTag": 1,
        "mtCount": 9,
        "jgCount": 94
    },
    {
        "name": "[YouMei]\u5c24\u7f8e No.034 \u6e29\u5fc3\u6021 \u6346\u7ed1\u306e\u8bf1\u60d1 \u9b45\u60d1\u9500\u9b42\u4e3a\u4e4b\u7740\u8ff7",
        "src": "http://d.duotuwang.com/2018/07/12/10491/0.jpg",
        "mtId": "735e57c1277ecc66",
        "mtName": "\u6e29\u5fc3\u6021",
        "jgId": "youmei",
        "jgName": "\u5c24\u7f8e\u7f51",
        "href": "http://d.duotuwang.com/2018/07/12/10491/",
        "count": 29,
        "start": 1,
        "hasMtTag": 1,
        "hasJgTag": 1,
        "mtCount": 9,
        "jgCount": 47
    },
    {
        "name": "[MyGirl]\u7f8e\u5a9b\u9986 VOL.288 \u6e29\u5fc3\u6021",
        "src": "http://d.duotuwang.com/2018/06/19/9195/0.jpg",
        "mtId": "735e57c1277ecc66",
        "mtName": "\u6e29\u5fc3\u6021",
        "jgId": "mygirl",
        "jgName": "\u7f8e\u5a9b\u9986",
        "href": "http://d.duotuwang.com/2018/06/19/9195/",
        "count": 62,
        "start": 1,
        "hasMtTag": 1,
        "hasJgTag": 1,
        "mtCount": 9,
        "jgCount": 110
    }
]