[
    {
        "name": "[MyGirl]\u7f8e\u5a9b\u9986 Vol.020 \u5357\u6e58baby",
        "src": "http://d.duotuwang.com/2014/08/19/1839/0.jpg",
        "mtId": "62712181fe9202c0",
        "mtName": "\u5357\u6e58baby",
        "jgId": "mygirl",
        "jgName": "\u7f8e\u5a9b\u9986",
        "href": "http://d.duotuwang.com/2014/08/19/1839/",
        "count": 59,
        "start": 1,
        "hasMtTag": 1,
        "hasJgTag": 1,
        "mtCount": 2,
        "jgCount": 110
    },
    {
        "name": "[MyGirl]\u7f8e\u5a9b\u9986 Vol.019 \u5218\u96ea\u59aeVerna",
        "src": "http://d.duotuwang.com/2014/08/18/531/0.jpg",
        "mtId": "614605a1c4d7848d",
        "mtName": "\u5218\u96ea\u59aeVerna",
        "jgId": "mygirl",
        "jgName": "\u7f8e\u5a9b\u9986",
        "href": "http://d.duotuwang.com/2014/08/18/531/",
        "count": 62,
        "start": 1,
        "hasMtTag": 1,
        "hasJgTag": 1,
        "mtCount": 2,
        "jgCount": 110
    },
    {
        "name": "[MyGirl]\u7f8e\u5a9b\u9986 Vol.018 \u4e8e\u5927\u5c0f\u59d0AYU",
        "src": "http://d.duotuwang.com/2014/08/18/1838/0.jpg",
        "mtId": "d3ce92301780802d",
        "mtName": "\u4e8e\u5927\u5c0f\u59d0AYU",
        "jgId": "mygirl",
        "jgName": "\u7f8e\u5a9b\u9986",
        "href": "http://d.duotuwang.com/2014/08/18/1838/",
        "count": 58,
        "start": 1,
        "hasMtTag": 1,
        "hasJgTag": 1,
        "mtCount": 3,
        "jgCount": 110
    },
    {
        "name": "[MyGirl]\u7f8e\u5a9b\u9986 Vol.017 \u738b\u99a8\u7476yanni 2/2",
        "src": "http://d.duotuwang.com/2014/08/18/530/02.jpg",
        "mtId": "ee305435592cf245",
        "mtName": "\u738b\u99a8\u7476yanni",
        "jgId": "mygirl",
        "jgName": "\u7f8e\u5a9b\u9986",
        "href": "http://d.duotuwang.com/2014/08/18/530/",
        "count": 62,
        "start": 61,
        "hasMtTag": 1,
        "hasJgTag": 1,
        "mtCount": 29,
        "jgCount": 110
    },
    {
        "name": "[MyGirl]\u7f8e\u5a9b\u9986 Vol.017 \u738b\u99a8\u7476yanni 1/2",
        "src": "http://d.duotuwang.com/2014/08/18/530/01.jpg",
        "mtId": "ee305435592cf245",
        "mtName": "\u738b\u99a8\u7476yanni",
        "jgId": "mygirl",
        "jgName": "\u7f8e\u5a9b\u9986",
        "href": "http://d.duotuwang.com/2014/08/18/530/",
        "count": 60,
        "start": 1,
        "hasMtTag": 1,
        "hasJgTag": 1,
        "mtCount": 29,
        "jgCount": 110
    },
    {
        "name": "[MyGirl]\u7f8e\u5a9b\u9986 Vol.016 Barbie\u53ef\u513f 2/2",
        "src": "http://d.duotuwang.com/2014/08/18/529/02.jpg",
        "mtId": "6ded6be4a79e57ac",
        "mtName": "Barbie\u53ef\u513f",
        "jgId": "mygirl",
        "jgName": "\u7f8e\u5a9b\u9986",
        "href": "http://d.duotuwang.com/2014/08/18/529/",
        "count": 54,
        "start": 56,
        "hasMtTag": 1,
        "hasJgTag": 1,
        "mtCount": 38,
        "jgCount": 110
    }
]