[
    {
        "name": "[MyGirl]\u7f8e\u5a9b\u9986 VOL.630 \u7eee\u91cc\u5609ula",
        "src": "http://d.duotuwang.com/2022/02/26/28920/0.jpg",
        "mtId": "4ebc33c7dadc04af",
        "mtName": "\u7eee\u91cc\u5609ula",
        "jgId": "mygirl",
        "jgName": "\u7f8e\u5a9b\u9986",
        "href": "http://d.duotuwang.com/2022/02/26/28920/",
        "count": 59,
        "start": 1,
        "hasMtTag": 1,
        "hasJgTag": 1,
        "mtCount": 27,
        "jgCount": 110
    },
    {
        "name": "[MyGirl]\u7f8e\u5a9b\u9986 VOL.629 \u5a9b\u5a9b\u9171belle",
        "src": "http://d.duotuwang.com/2022/02/24/28703/0.jpg",
        "mtId": "cd808c587a640182",
        "mtName": "\u5a9b\u5a9b\u9171belle",
        "jgId": "mygirl",
        "jgName": "\u7f8e\u5a9b\u9986",
        "href": "http://d.duotuwang.com/2022/02/24/28703/",
        "count": 64,
        "start": 1,
        "hasMtTag": 1,
        "hasJgTag": 1,
        "mtCount": 4,
        "jgCount": 110
    },
    {
        "name": "[MyGirl]\u7f8e\u5a9b\u9986 VOL.628 \u7f8e\u6843\u9171",
        "src": "http://d.duotuwang.com/2022/02/22/28571/0.jpg",
        "mtId": "cf5d6952fd864281",
        "mtName": "\u7f8e\u6843\u9171",
        "jgId": "mygirl",
        "jgName": "\u7f8e\u5a9b\u9986",
        "href": "http://d.duotuwang.com/2022/02/22/28571/",
        "count": 57,
        "start": 1,
        "hasMtTag": 1,
        "hasJgTag": 1,
        "mtCount": 7,
        "jgCount": 110
    },
    {
        "name": "[MyGirl]\u7f8e\u5a9b\u9986 VOL.627 \u5a9b\u5a9b\u9171belle",
        "src": "http://d.duotuwang.com/2022/02/17/28570/0.jpg",
        "mtId": "cd808c587a640182",
        "mtName": "\u5a9b\u5a9b\u9171belle",
        "jgId": "mygirl",
        "jgName": "\u7f8e\u5a9b\u9986",
        "href": "http://d.duotuwang.com/2022/02/17/28570/",
        "count": 57,
        "start": 1,
        "hasMtTag": 1,
        "hasJgTag": 1,
        "mtCount": 4,
        "jgCount": 110
    },
    {
        "name": "[MyGirl]\u7f8e\u5a9b\u9986 VOL.626 \u7f8e\u6843\u9171 2/2",
        "src": "http://d.duotuwang.com/2022/02/11/28648/0.jpg",
        "mtId": "cf5d6952fd864281",
        "mtName": "\u7f8e\u6843\u9171",
        "jgId": "mygirl",
        "jgName": "\u7f8e\u5a9b\u9986",
        "href": "http://d.duotuwang.com/2022/02/11/28648/",
        "count": 49,
        "start": 64,
        "hasMtTag": 1,
        "hasJgTag": 1,
        "mtCount": 7,
        "jgCount": 110
    },
    {
        "name": "[MyGirl]\u7f8e\u5a9b\u9986 VOL.626 \u7f8e\u6843\u9171 1/2",
        "src": "http://d.duotuwang.com/2022/02/11/28465/0.jpg",
        "mtId": "cf5d6952fd864281",
        "mtName": "\u7f8e\u6843\u9171",
        "jgId": "mygirl",
        "jgName": "\u7f8e\u5a9b\u9986",
        "href": "http://d.duotuwang.com/2022/02/11/28465/",
        "count": 63,
        "start": 1,
        "hasMtTag": 1,
        "hasJgTag": 1,
        "mtCount": 7,
        "jgCount": 110
    }
]