[
    {
        "name": "[MyGirl]\u7f8e\u5a9b\u9986 VOL.484 Carina\u68a6\u7eee",
        "src": "http://d.duotuwang.com/2021/01/26/23995/0.jpg",
        "mtId": "4ebc33c7dadc04af",
        "mtName": "Carina\u68a6\u7eee",
        "jgId": "mygirl",
        "jgName": "\u7f8e\u5a9b\u9986",
        "href": "http://d.duotuwang.com/2021/01/26/23995/",
        "count": 82,
        "start": 1,
        "hasMtTag": 1,
        "hasJgTag": 1,
        "mtCount": 27,
        "jgCount": 110
    },
    {
        "name": "[MyGirl]\u7f8e\u5a9b\u9986 VOL.483 \u7eee\u91cc\u5609ula",
        "src": "http://d.duotuwang.com/2021/01/21/23830/0.jpg",
        "mtId": "4ebc33c7dadc04af",
        "mtName": "\u7eee\u91cc\u5609ula",
        "jgId": "mygirl",
        "jgName": "\u7f8e\u5a9b\u9986",
        "href": "http://d.duotuwang.com/2021/01/21/23830/",
        "count": 31,
        "start": 1,
        "hasMtTag": 1,
        "hasJgTag": 1,
        "mtCount": 27,
        "jgCount": 110
    },
    {
        "name": "[MyGirl]\u7f8e\u5a9b\u9986 VOL.482 \u738b\u99a8\u7476yanni",
        "src": "http://d.duotuwang.com/2021/01/20/23829/0.jpg",
        "mtId": "ee305435592cf245",
        "mtName": "\u738b\u99a8\u7476yanni",
        "jgId": "mygirl",
        "jgName": "\u7f8e\u5a9b\u9986",
        "href": "http://d.duotuwang.com/2021/01/20/23829/",
        "count": 63,
        "start": 1,
        "hasMtTag": 1,
        "hasJgTag": 1,
        "mtCount": 29,
        "jgCount": 110
    },
    {
        "name": "[MyGirl]\u7f8e\u5a9b\u9986 VOL.481 Carina\u68a6\u7eee",
        "src": "http://d.duotuwang.com/2021/01/19/23828/0.jpg",
        "mtId": "4ebc33c7dadc04af",
        "mtName": "Carina\u68a6\u7eee",
        "jgId": "mygirl",
        "jgName": "\u7f8e\u5a9b\u9986",
        "href": "http://d.duotuwang.com/2021/01/19/23828/",
        "count": 90,
        "start": 1,
        "hasMtTag": 1,
        "hasJgTag": 1,
        "mtCount": 27,
        "jgCount": 110
    },
    {
        "name": "[MyGirl]\u7f8e\u5a9b\u9986 VOL.480 \u5510\u742a\u513f",
        "src": "http://d.duotuwang.com/2021/01/18/23827/0.jpg",
        "mtId": "918d2d26ebb13369",
        "mtName": "\u5510\u742a\u513f",
        "jgId": "mygirl",
        "jgName": "\u7f8e\u5a9b\u9986",
        "href": "http://d.duotuwang.com/2021/01/18/23827/",
        "count": 50,
        "start": 1,
        "hasMtTag": 1,
        "hasJgTag": 1,
        "mtCount": 7,
        "jgCount": 110
    },
    {
        "name": "[MyGirl]\u7f8e\u5a9b\u9986 VOL.479 \u5510\u742a\u513f",
        "src": "http://d.duotuwang.com/2021/01/15/23826/0.jpg",
        "mtId": "918d2d26ebb13369",
        "mtName": "\u5510\u742a\u513f",
        "jgId": "mygirl",
        "jgName": "\u7f8e\u5a9b\u9986",
        "href": "http://d.duotuwang.com/2021/01/15/23826/",
        "count": 54,
        "start": 1,
        "hasMtTag": 1,
        "hasJgTag": 1,
        "mtCount": 7,
        "jgCount": 110
    }
]