[
    {
        "name": "[MyGirl]\u7f8e\u5a9b\u9986 VOL.424 \u7cef\u7f8e\u5b50Mini",
        "src": "http://d.duotuwang.com/2020/01/09/19224/0.jpg",
        "mtId": "f4543e3a7d545391",
        "mtName": "\u7cef\u7f8e\u5b50Mini",
        "jgId": "mygirl",
        "jgName": "\u7f8e\u5a9b\u9986",
        "href": "http://d.duotuwang.com/2020/01/09/19224/",
        "count": 60,
        "start": 1,
        "hasMtTag": 1,
        "hasJgTag": 1,
        "mtCount": 19,
        "jgCount": 110
    },
    {
        "name": "[MyGirl]\u7f8e\u5a9b\u9986 VOL.423 \u6731\u53ef\u513fFlower",
        "src": "http://d.duotuwang.com/2020/01/08/19192/0.jpg",
        "mtId": "6ded6be4a79e57ac",
        "mtName": "Flower\u6731\u53ef\u513f",
        "jgId": "mygirl",
        "jgName": "\u7f8e\u5a9b\u9986",
        "href": "http://d.duotuwang.com/2020/01/08/19192/",
        "count": 40,
        "start": 1,
        "hasMtTag": 1,
        "hasJgTag": 1,
        "mtCount": 38,
        "jgCount": 110
    },
    {
        "name": "[MyGirl]\u7f8e\u5a9b\u9986 VOL.422 \u7cef\u7f8e\u5b50Mini",
        "src": "http://d.duotuwang.com/2020/01/07/19202/0.jpg",
        "mtId": "f4543e3a7d545391",
        "mtName": "\u7cef\u7f8e\u5b50Mini",
        "jgId": "mygirl",
        "jgName": "\u7f8e\u5a9b\u9986",
        "href": "http://d.duotuwang.com/2020/01/07/19202/",
        "count": 46,
        "start": 1,
        "hasMtTag": 1,
        "hasJgTag": 1,
        "mtCount": 19,
        "jgCount": 110
    },
    {
        "name": "[MyGirl]\u7f8e\u5a9b\u9986 VOL.421 \u7cef\u7f8e\u5b50Mini",
        "src": "http://d.duotuwang.com/2020/01/03/19185/0.jpg",
        "mtId": "f4543e3a7d545391",
        "mtName": "\u7cef\u7f8e\u5b50Mini",
        "jgId": "mygirl",
        "jgName": "\u7f8e\u5a9b\u9986",
        "href": "http://d.duotuwang.com/2020/01/03/19185/",
        "count": 72,
        "start": 1,
        "hasMtTag": 1,
        "hasJgTag": 1,
        "mtCount": 19,
        "jgCount": 110
    },
    {
        "name": "[MyGirl]\u7f8e\u5a9b\u9986 VOL.420 \u7eee\u91cc\u5609ula",
        "src": "http://d.duotuwang.com/2020/01/02/19119/0.jpg",
        "mtId": "4ebc33c7dadc04af",
        "mtName": "\u7eee\u91cc\u5609ula",
        "jgId": "mygirl",
        "jgName": "\u7f8e\u5a9b\u9986",
        "href": "http://d.duotuwang.com/2020/01/02/19119/",
        "count": 40,
        "start": 1,
        "hasMtTag": 1,
        "hasJgTag": 1,
        "mtCount": 27,
        "jgCount": 110
    },
    {
        "name": "[MyGirl]\u7f8e\u5a9b\u9986 VOL.419 \u6731\u53ef\u513fFlower",
        "src": "http://d.duotuwang.com/2019/12/31/19126/0.jpg",
        "mtId": "6ded6be4a79e57ac",
        "mtName": "Flower\u6731\u53ef\u513f",
        "jgId": "mygirl",
        "jgName": "\u7f8e\u5a9b\u9986",
        "href": "http://d.duotuwang.com/2019/12/31/19126/",
        "count": 40,
        "start": 1,
        "hasMtTag": 1,
        "hasJgTag": 1,
        "mtCount": 38,
        "jgCount": 110
    }
]