[
    {
        "name": "[MyGirl]\u7f8e\u5a9b\u9986 VOL.340 \u5f90\u5fae\u5faemia",
        "src": "http://d.duotuwang.com/2019/01/09/10324/0.jpg",
        "mtId": "b676514ad570d0d2",
        "mtName": "\u5f90\u5fae\u5faemia",
        "jgId": "mygirl",
        "jgName": "\u7f8e\u5a9b\u9986",
        "href": "http://d.duotuwang.com/2019/01/09/10324/",
        "count": 40,
        "start": 1,
        "hasMtTag": 1,
        "hasJgTag": 1,
        "mtCount": 8,
        "jgCount": 110
    },
    {
        "name": "[MyGirl]\u7f8e\u5a9b\u9986 VOL.339 \u6817\u5b50Riz",
        "src": "http://d.duotuwang.com/2019/01/04/10323/0.jpg",
        "mtId": "92316d0e0bb84801",
        "mtName": "\u6817\u5b50Riz",
        "jgId": "mygirl",
        "jgName": "\u7f8e\u5a9b\u9986",
        "href": "http://d.duotuwang.com/2019/01/04/10323/",
        "count": 40,
        "start": 1,
        "hasMtTag": 1,
        "hasJgTag": 1,
        "mtCount": 5,
        "jgCount": 110
    },
    {
        "name": "[MyGirl]\u7f8e\u5a9b\u9986 VOL.338 \u5c0f\u5c24\u5948",
        "src": "http://d.duotuwang.com/2018/12/27/10240/0.jpg",
        "mtId": "ebef91bb28e0661a",
        "mtName": "\u5c0f\u5c24\u5948",
        "jgId": "mygirl",
        "jgName": "\u7f8e\u5a9b\u9986",
        "href": "http://d.duotuwang.com/2018/12/27/10240/",
        "count": 49,
        "start": 1,
        "hasMtTag": 1,
        "hasJgTag": 1,
        "mtCount": 7,
        "jgCount": 110
    },
    {
        "name": "[MyGirl]\u7f8e\u5a9b\u9986 VOL.337 \u80e1\u6da6\u66e6201712",
        "src": "http://d.duotuwang.com/2018/12/24/10227/0.jpg",
        "mtId": "81213f7452535abd",
        "mtName": "\u80e1\u6da6\u66e6",
        "jgId": "mygirl",
        "jgName": "\u7f8e\u5a9b\u9986",
        "href": "http://d.duotuwang.com/2018/12/24/10227/",
        "count": 37,
        "start": 1,
        "hasMtTag": 1,
        "hasJgTag": 1,
        "mtCount": 1,
        "jgCount": 110
    },
    {
        "name": "[MyGirl]\u7f8e\u5a9b\u9986 VOL.336 \u72d0\u5c0f\u5996Baby",
        "src": "http://d.duotuwang.com/2018/12/19/10202/0.jpg",
        "mtId": "95dd74dd04f5b2c5",
        "mtName": "\u72d0\u5c0f\u5996Baby",
        "jgId": "mygirl",
        "jgName": "\u7f8e\u5a9b\u9986",
        "href": "http://d.duotuwang.com/2018/12/19/10202/",
        "count": 40,
        "start": 1,
        "hasMtTag": 1,
        "hasJgTag": 1,
        "mtCount": 2,
        "jgCount": 110
    },
    {
        "name": "[MyGirl]\u7f8e\u5a9b\u9986 VOL.335 SOLO-\u5c39\u83f2",
        "src": "http://d.duotuwang.com/2018/12/17/10180/0.jpg",
        "mtId": "eaa19160eb9a4e36",
        "mtName": "SOLO-\u5c39\u83f2",
        "jgId": "mygirl",
        "jgName": "\u7f8e\u5a9b\u9986",
        "href": "http://d.duotuwang.com/2018/12/17/10180/",
        "count": 52,
        "start": 1,
        "hasMtTag": 1,
        "hasJgTag": 1,
        "mtCount": 22,
        "jgCount": 110
    }
]