[
    {
        "name": "[MyGirl]\u7f8e\u5a9b\u9986 VOL.607 \u6c34\u6c34er",
        "src": "http://d.duotuwang.com/2021/10/20/27010/0.jpg",
        "mtId": "910db67707bbf8bc",
        "mtName": "\u6c34\u6c34er",
        "jgId": "mygirl",
        "jgName": "\u7f8e\u5a9b\u9986",
        "href": "http://d.duotuwang.com/2021/10/20/27010/",
        "count": 60,
        "start": 1,
        "hasMtTag": 1,
        "hasJgTag": 1,
        "mtCount": 3,
        "jgCount": 110
    },
    {
        "name": "[MyGirl]\u7f8e\u5a9b\u9986 VOL.606 \u7eee\u91cc\u5609ula",
        "src": "http://d.duotuwang.com/2021/10/19/27009/0.jpg",
        "mtId": "4ebc33c7dadc04af",
        "mtName": "\u7eee\u91cc\u5609ula",
        "jgId": "mygirl",
        "jgName": "\u7f8e\u5a9b\u9986",
        "href": "http://d.duotuwang.com/2021/10/19/27009/",
        "count": 70,
        "start": 1,
        "hasMtTag": 1,
        "hasJgTag": 1,
        "mtCount": 27,
        "jgCount": 110
    },
    {
        "name": "[MyGirl]\u7f8e\u5a9b\u9986 VOL.605 \u7f8e\u6843\u9171",
        "src": "http://d.duotuwang.com/2021/10/18/27008/0.jpg",
        "mtId": "cf5d6952fd864281",
        "mtName": "\u7f8e\u6843\u9171",
        "jgId": "mygirl",
        "jgName": "\u7f8e\u5a9b\u9986",
        "href": "http://d.duotuwang.com/2021/10/18/27008/",
        "count": 86,
        "start": 1,
        "hasMtTag": 1,
        "hasJgTag": 1,
        "mtCount": 7,
        "jgCount": 110
    },
    {
        "name": "[MyGirl]\u7f8e\u5a9b\u9986 VOL.604 \u7eee\u91cc\u5609ula",
        "src": "http://d.duotuwang.com/2021/10/15/27007/0.jpg",
        "mtId": "4ebc33c7dadc04af",
        "mtName": "\u7eee\u91cc\u5609ula",
        "jgId": "mygirl",
        "jgName": "\u7f8e\u5a9b\u9986",
        "href": "http://d.duotuwang.com/2021/10/15/27007/",
        "count": 70,
        "start": 1,
        "hasMtTag": 1,
        "hasJgTag": 1,
        "mtCount": 27,
        "jgCount": 110
    },
    {
        "name": "[MyGirl]\u7f8e\u5a9b\u9986 VOL.603 \u6c34\u6c34er",
        "src": "http://d.duotuwang.com/2021/10/13/26878/0.jpg",
        "mtId": "910db67707bbf8bc",
        "mtName": "\u6c34\u6c34er",
        "jgId": "mygirl",
        "jgName": "\u7f8e\u5a9b\u9986",
        "href": "http://d.duotuwang.com/2021/10/13/26878/",
        "count": 70,
        "start": 1,
        "hasMtTag": 1,
        "hasJgTag": 1,
        "mtCount": 3,
        "jgCount": 110
    },
    {
        "name": "[MyGirl]\u7f8e\u5a9b\u9986 VOL.602 \u7f8e\u6843\u9171",
        "src": "http://d.duotuwang.com/2021/10/12/26877/0.jpg",
        "mtId": "cf5d6952fd864281",
        "mtName": "\u7f8e\u6843\u9171",
        "jgId": "mygirl",
        "jgName": "\u7f8e\u5a9b\u9986",
        "href": "http://d.duotuwang.com/2021/10/12/26877/",
        "count": 80,
        "start": 1,
        "hasMtTag": 1,
        "hasJgTag": 1,
        "mtCount": 7,
        "jgCount": 110
    }
]