[
    {
        "name": "[MyGirl]\u7f8e\u5a9b\u9986 VOL.262 \u6653\u831csunny",
        "src": "http://d.duotuwang.com/2017/09/18/6112/0.jpg",
        "mtId": "8a0d4fd3e6097e92",
        "mtName": "\u6653\u831csunny",
        "jgId": "mygirl",
        "jgName": "\u7f8e\u5a9b\u9986",
        "href": "http://d.duotuwang.com/2017/09/18/6112/",
        "count": 74,
        "start": 1,
        "hasMtTag": 1,
        "hasJgTag": 1,
        "mtCount": 3,
        "jgCount": 110
    },
    {
        "name": "[MyGirl]\u7f8e\u5a9b\u9986 VOL.261 \u7eee\u91cc\u5609ula",
        "src": "http://d.duotuwang.com/2017/09/08/6088/0.jpg",
        "mtId": "4ebc33c7dadc04af",
        "mtName": "\u7eee\u91cc\u5609ula",
        "jgId": "mygirl",
        "jgName": "\u7f8e\u5a9b\u9986",
        "href": "http://d.duotuwang.com/2017/09/08/6088/",
        "count": 50,
        "start": 1,
        "hasMtTag": 1,
        "hasJgTag": 1,
        "mtCount": 27,
        "jgCount": 110
    },
    {
        "name": "[MyGirl]\u7f8e\u5a9b\u9986 VOL.260 \u4e8e\u5927\u4e54",
        "src": "http://d.duotuwang.com/2017/08/30/5805/0.jpg",
        "mtId": "ad1aa4a550353def",
        "mtName": "\u4e8e\u5927\u4e54",
        "jgId": "mygirl",
        "jgName": "\u7f8e\u5a9b\u9986",
        "href": "http://d.duotuwang.com/2017/08/30/5805/",
        "count": 48,
        "start": 1,
        "hasMtTag": 1,
        "hasJgTag": 1,
        "mtCount": 1,
        "jgCount": 110
    },
    {
        "name": "[MyGirl]\u7f8e\u5a9b\u9986 VOL.259 \u5510\u742a\u513fil",
        "src": "http://d.duotuwang.com/2017/08/14/5483/0.jpg",
        "mtId": "918d2d26ebb13369",
        "mtName": "\u5510\u742a\u513fil",
        "jgId": "mygirl",
        "jgName": "\u7f8e\u5a9b\u9986",
        "href": "http://d.duotuwang.com/2017/08/14/5483/",
        "count": 60,
        "start": 1,
        "hasMtTag": 1,
        "hasJgTag": 1,
        "mtCount": 7,
        "jgCount": 110
    },
    {
        "name": "[MyGirl]\u7f8e\u5a9b\u9986 VOL.258 \u5510\u742a\u513fil",
        "src": "http://d.duotuwang.com/2017/08/01/5429/0.jpg",
        "mtId": "918d2d26ebb13369",
        "mtName": "\u5510\u742a\u513fil",
        "jgId": "mygirl",
        "jgName": "\u7f8e\u5a9b\u9986",
        "href": "http://d.duotuwang.com/2017/08/01/5429/",
        "count": 49,
        "start": 1,
        "hasMtTag": 1,
        "hasJgTag": 1,
        "mtCount": 7,
        "jgCount": 110
    },
    {
        "name": "[MyGirl]\u7f8e\u5a9b\u9986 VOL.257 \u6653\u831csunny",
        "src": "http://d.duotuwang.com/2017/07/24/5241/0.jpg",
        "mtId": "8a0d4fd3e6097e92",
        "mtName": "\u6653\u831csunny",
        "jgId": "mygirl",
        "jgName": "\u7f8e\u5a9b\u9986",
        "href": "http://d.duotuwang.com/2017/07/24/5241/",
        "count": 46,
        "start": 1,
        "hasMtTag": 1,
        "hasJgTag": 1,
        "mtCount": 3,
        "jgCount": 110
    }
]