[
    {
        "name": "[MyGirl]\u7f8e\u5a9b\u9986 VOL.238 \u6d1b\u5343\u6800baby",
        "src": "http://d.duotuwang.com/2017/01/18/2045/0.jpg",
        "mtId": "3db949f153765e79",
        "mtName": "\u6d1b\u5343\u6800baby",
        "jgId": "mygirl",
        "jgName": "\u7f8e\u5a9b\u9986",
        "href": "http://d.duotuwang.com/2017/01/18/2045/",
        "count": 46,
        "start": 1,
        "hasMtTag": 1,
        "hasJgTag": 1,
        "mtCount": 1,
        "jgCount": 110
    },
    {
        "name": "[MyGirl]\u7f8e\u5a9b\u9986 VOL.237 \u5510\u742a\u513fBeauty",
        "src": "http://d.duotuwang.com/2017/01/09/1994/0.jpg",
        "mtId": "918d2d26ebb13369",
        "mtName": "\u5510\u742a\u513fBeauty",
        "jgId": "mygirl",
        "jgName": "\u7f8e\u5a9b\u9986",
        "href": "http://d.duotuwang.com/2017/01/09/1994/",
        "count": 51,
        "start": 1,
        "hasMtTag": 1,
        "hasJgTag": 1,
        "mtCount": 7,
        "jgCount": 110
    },
    {
        "name": "[MyGirl]\u7f8e\u5a9b\u9986 VOL.236 \u5510\u742a\u513fBeauty",
        "src": "http://d.duotuwang.com/2017/01/01/2010/0.jpg",
        "mtId": "918d2d26ebb13369",
        "mtName": "\u5510\u742a\u513fBeauty",
        "jgId": "mygirl",
        "jgName": "\u7f8e\u5a9b\u9986",
        "href": "http://d.duotuwang.com/2017/01/01/2010/",
        "count": 50,
        "start": 1,
        "hasMtTag": 1,
        "hasJgTag": 1,
        "mtCount": 7,
        "jgCount": 110
    },
    {
        "name": "[MyGirl]\u7f8e\u5a9b\u9986 VOL.235 \u8bb8\u8bfaSabrina",
        "src": "http://d.duotuwang.com/2016/11/29/1927/0.jpg",
        "mtId": "e0dff1632aae7d02",
        "mtName": "\u8bb8\u8bfaSabrina",
        "jgId": "mygirl",
        "jgName": "\u7f8e\u5a9b\u9986",
        "href": "http://d.duotuwang.com/2016/11/29/1927/",
        "count": 42,
        "start": 1,
        "hasMtTag": 1,
        "hasJgTag": 1,
        "mtCount": 11,
        "jgCount": 110
    },
    {
        "name": "[MyGirl]\u7f8e\u5a9b\u9986 VOL.234 vetiver\u5609\u5b9d\u8d1d\u513f",
        "src": "http://d.duotuwang.com/2016/11/18/1827/0.jpg",
        "mtId": "533f6a03bdf553df",
        "mtName": "vetiver\u5609\u5b9d\u8d1d\u513f",
        "jgId": "mygirl",
        "jgName": "\u7f8e\u5a9b\u9986",
        "href": "http://d.duotuwang.com/2016/11/18/1827/",
        "count": 59,
        "start": 1,
        "hasMtTag": 1,
        "hasJgTag": 1,
        "mtCount": 7,
        "jgCount": 110
    },
    {
        "name": "[MyGirl]\u7f8e\u5a9b\u9986 VOL.233 \u8bb8\u8bfaSabrina",
        "src": "http://d.duotuwang.com/2016/10/28/1757/0.jpg",
        "mtId": "e0dff1632aae7d02",
        "mtName": "\u8bb8\u8bfaSabrina",
        "jgId": "mygirl",
        "jgName": "\u7f8e\u5a9b\u9986",
        "href": "http://d.duotuwang.com/2016/10/28/1757/",
        "count": 64,
        "start": 1,
        "hasMtTag": 1,
        "hasJgTag": 1,
        "mtCount": 11,
        "jgCount": 110
    }
]