[
    {
        "name": "[MyGirl]\u7f8e\u5a9b\u9986 VOL.196 Yuli\u9ec4\u4f73\u4e3d",
        "src": "http://d.duotuwang.com/2016/03/15/1312/0.jpg",
        "mtId": "cd8eab76e06d68e2",
        "mtName": "Yuli\u9ec4\u4f73\u4e3d",
        "jgId": "mygirl",
        "jgName": "\u7f8e\u5a9b\u9986",
        "href": "http://d.duotuwang.com/2016/03/15/1312/",
        "count": 53,
        "start": 1,
        "hasMtTag": 1,
        "hasJgTag": 1,
        "mtCount": 1,
        "jgCount": 110
    },
    {
        "name": "[MyGirl]\u7f8e\u5a9b\u9986 VOL.195 \u8d75\u5c0f\u7c73Kitty",
        "src": "http://d.duotuwang.com/2016/03/08/1282/0.jpg",
        "mtId": "584f16e805c0ecc3",
        "mtName": "\u8d75\u5c0f\u7c73Kitty",
        "jgId": "mygirl",
        "jgName": "\u7f8e\u5a9b\u9986",
        "href": "http://d.duotuwang.com/2016/03/08/1282/",
        "count": 69,
        "start": 1,
        "hasMtTag": 1,
        "hasJgTag": 1,
        "mtCount": 7,
        "jgCount": 110
    },
    {
        "name": "[MyGirl]\u7f8e\u5a9b\u9986 VOL.194 \u4e01\u7b71\u5357",
        "src": "http://d.duotuwang.com/2016/03/01/1865/0.jpg",
        "mtId": "fb5e1d8fd1e6d14d",
        "mtName": "\u4e01\u7b71\u5357",
        "jgId": "mygirl",
        "jgName": "\u7f8e\u5a9b\u9986",
        "href": "http://d.duotuwang.com/2016/03/01/1865/",
        "count": 53,
        "start": 1,
        "hasMtTag": 1,
        "hasJgTag": 1,
        "mtCount": 3,
        "jgCount": 110
    },
    {
        "name": "[MyGirl]\u7f8e\u5a9b\u9986 VOL.193 \u65b0\u4eba",
        "src": "http://d.duotuwang.com/2016/02/23/1262/0.jpg",
        "jgId": "mygirl",
        "jgName": "\u7f8e\u5a9b\u9986",
        "href": "http://d.duotuwang.com/2016/02/23/1262/",
        "count": 56,
        "start": 1,
        "hasMtTag": 0,
        "hasJgTag": 1,
        "jgCount": 110
    },
    {
        "name": "[MyGirl]\u7f8e\u5a9b\u9986 VOL.192 \u718a\u5416BOBO",
        "src": "http://d.duotuwang.com/2016/02/14/1236/0.jpg",
        "mtId": "14ef7c57e2b40037",
        "mtName": "\u718a\u5416BOBO",
        "jgId": "mygirl",
        "jgName": "\u7f8e\u5a9b\u9986",
        "href": "http://d.duotuwang.com/2016/02/14/1236/",
        "count": 55,
        "start": 1,
        "hasMtTag": 1,
        "hasJgTag": 1,
        "mtCount": 5,
        "jgCount": 110
    },
    {
        "name": "[MyGirl]\u7f8e\u5a9b\u9986 VOL.191 \u718a\u5416BOBO",
        "src": "http://d.duotuwang.com/2016/02/02/1248/0.jpg",
        "mtId": "14ef7c57e2b40037",
        "mtName": "\u718a\u5416BOBO",
        "jgId": "mygirl",
        "jgName": "\u7f8e\u5a9b\u9986",
        "href": "http://d.duotuwang.com/2016/02/02/1248/",
        "count": 67,
        "start": 1,
        "hasMtTag": 1,
        "hasJgTag": 1,
        "mtCount": 5,
        "jgCount": 110
    }
]