[
    {
        "name": "[MyGirl]\u7f8e\u5a9b\u9986 VOL.184 Ellie\u827e\u6817\u6817",
        "src": "http://d.duotuwang.com/2015/12/22/1163/0.jpg",
        "mtId": "b4581a982e96eae7",
        "mtName": "Ellie\u827e\u6817\u6817",
        "jgId": "mygirl",
        "jgName": "\u7f8e\u5a9b\u9986",
        "href": "http://d.duotuwang.com/2015/12/22/1163/",
        "count": 42,
        "start": 1,
        "hasMtTag": 1,
        "hasJgTag": 1,
        "mtCount": 3,
        "jgCount": 110
    },
    {
        "name": "[MyGirl]\u7f8e\u5a9b\u9986 VOL.183 \u679c\u513fVictoria",
        "src": "http://d.duotuwang.com/2015/12/18/1171/0.jpg",
        "mtId": "fc1868c8a652655f",
        "mtName": "\u679c\u513fVictoria",
        "jgId": "mygirl",
        "jgName": "\u7f8e\u5a9b\u9986",
        "href": "http://d.duotuwang.com/2015/12/18/1171/",
        "count": 52,
        "start": 1,
        "hasMtTag": 1,
        "hasJgTag": 1,
        "mtCount": 29,
        "jgCount": 110
    },
    {
        "name": "[MyGirl]\u7f8e\u5a9b\u9986 VOL.182 \u718a\u5416BOBO",
        "src": "http://d.duotuwang.com/2015/12/15/1141/0.jpg",
        "mtId": "14ef7c57e2b40037",
        "mtName": "\u718a\u5416BOBO",
        "jgId": "mygirl",
        "jgName": "\u7f8e\u5a9b\u9986",
        "href": "http://d.duotuwang.com/2015/12/15/1141/",
        "count": 55,
        "start": 1,
        "hasMtTag": 1,
        "hasJgTag": 1,
        "mtCount": 5,
        "jgCount": 110
    },
    {
        "name": "[MyGirl]\u7f8e\u5a9b\u9986 VOL.181 \u674e\u96ea\u5a77Anna",
        "src": "http://d.duotuwang.com/2015/12/05/1117/0.jpg",
        "mtId": "6525efd7e20fde2e",
        "mtName": "\u674e\u96ea\u5a77Anna",
        "jgId": "mygirl",
        "jgName": "\u7f8e\u5a9b\u9986",
        "href": "http://d.duotuwang.com/2015/12/05/1117/",
        "count": 60,
        "start": 1,
        "hasMtTag": 1,
        "hasJgTag": 1,
        "mtCount": 2,
        "jgCount": 110
    },
    {
        "name": "[MyGirl]\u7f8e\u5a9b\u9986 VOL.180 Evelyn\u827e\u8389",
        "src": "http://d.duotuwang.com/2015/12/02/1125/0.jpg",
        "mtId": "25b9d9de60147a4d",
        "mtName": "Evelyn\u827e\u8389",
        "jgId": "mygirl",
        "jgName": "\u7f8e\u5a9b\u9986",
        "href": "http://d.duotuwang.com/2015/12/02/1125/",
        "count": 60,
        "start": 1,
        "hasMtTag": 1,
        "hasJgTag": 1,
        "mtCount": 8,
        "jgCount": 110
    },
    {
        "name": "[MyGirl]\u7f8e\u5a9b\u9986 VOL.179 \u718a\u5416BOBO",
        "src": "http://d.duotuwang.com/2015/11/30/1129/0.jpg",
        "mtId": "14ef7c57e2b40037",
        "mtName": "\u718a\u5416BOBO",
        "jgId": "mygirl",
        "jgName": "\u7f8e\u5a9b\u9986",
        "href": "http://d.duotuwang.com/2015/11/30/1129/",
        "count": 52,
        "start": 1,
        "hasMtTag": 1,
        "hasJgTag": 1,
        "mtCount": 5,
        "jgCount": 110
    }
]