[
    {
        "name": "[MyGirl]\u7f8e\u5a9b\u9986 VOL.136 moa\u5c0f\u59d0",
        "src": "http://d.duotuwang.com/2015/08/03/888/0.jpg",
        "mtId": "ff4c1b7dfb3c2eff",
        "mtName": "Moa\u5c0f\u59d0",
        "jgId": "mygirl",
        "jgName": "\u7f8e\u5a9b\u9986",
        "href": "http://d.duotuwang.com/2015/08/03/888/",
        "count": 61,
        "start": 1,
        "hasMtTag": 1,
        "hasJgTag": 1,
        "mtCount": 1,
        "jgCount": 110
    },
    {
        "name": "[MyGirl]\u7f8e\u5a9b\u9986 VOL.135 \u674e\u96ea\u5a77Anna",
        "src": "http://d.duotuwang.com/2015/08/02/890/0.jpg",
        "mtId": "6525efd7e20fde2e",
        "mtName": "\u674e\u96ea\u5a77Anna",
        "jgId": "mygirl",
        "jgName": "\u7f8e\u5a9b\u9986",
        "href": "http://d.duotuwang.com/2015/08/02/890/",
        "count": 51,
        "start": 1,
        "hasMtTag": 1,
        "hasJgTag": 1,
        "mtCount": 2,
        "jgCount": 110
    },
    {
        "name": "[MyGirl]\u7f8e\u5a9b\u9986 VOL.134 \u5218\u5a05\u5e0c",
        "src": "http://d.duotuwang.com/2015/07/13/844/0.jpg",
        "mtId": "23dd723114851316",
        "mtName": "\u5218\u5a05\u5e0c",
        "jgId": "mygirl",
        "jgName": "\u7f8e\u5a9b\u9986",
        "href": "http://d.duotuwang.com/2015/07/13/844/",
        "count": 66,
        "start": 1,
        "hasMtTag": 1,
        "hasJgTag": 1,
        "mtCount": 4,
        "jgCount": 110
    },
    {
        "name": "[MyGirl]\u7f8e\u5a9b\u9986 VOL.133 \u4f58\u8d1d\u62c9bella",
        "src": "http://d.duotuwang.com/2015/07/11/847/0.jpg",
        "mtId": "77da4d2b1d53f5fa",
        "mtName": "\u4f58\u8d1d\u62c9bella",
        "jgId": "mygirl",
        "jgName": "\u7f8e\u5a9b\u9986",
        "href": "http://d.duotuwang.com/2015/07/11/847/",
        "count": 66,
        "start": 1,
        "hasMtTag": 1,
        "hasJgTag": 1,
        "mtCount": 9,
        "jgCount": 110
    },
    {
        "name": "[MyGirl]\u7f8e\u5a9b\u9986 VOL.132 Moa\u5c0f\u59d0",
        "src": "http://d.duotuwang.com/2015/07/10/849/0.jpg",
        "mtId": "ff4c1b7dfb3c2eff",
        "mtName": "Moa\u5c0f\u59d0",
        "jgId": "mygirl",
        "jgName": "\u7f8e\u5a9b\u9986",
        "href": "http://d.duotuwang.com/2015/07/10/849/",
        "count": 30,
        "start": 1,
        "hasMtTag": 1,
        "hasJgTag": 1,
        "mtCount": 1,
        "jgCount": 110
    },
    {
        "name": "[MyGirl]\u7f8e\u5a9b\u9986 VOL.131 \u590f\u7476baby",
        "src": "http://d.duotuwang.com/2015/07/09/852/0.jpg",
        "mtId": "7d8577ab1206064d",
        "mtName": "\u590f\u7476baby",
        "jgId": "mygirl",
        "jgName": "\u7f8e\u5a9b\u9986",
        "href": "http://d.duotuwang.com/2015/07/09/852/",
        "count": 54,
        "start": 1,
        "hasMtTag": 1,
        "hasJgTag": 1,
        "mtCount": 2,
        "jgCount": 110
    }
]