[
    {
        "name": "[MyGirl]\u7f8e\u5a9b\u9986 VOL.130 \u732b\u672camy",
        "src": "http://d.duotuwang.com/2015/07/08/816/0.jpg",
        "mtId": "0c4ea84793303a1e",
        "mtName": "\u732b\u672camy",
        "jgId": "mygirl",
        "jgName": "\u7f8e\u5a9b\u9986",
        "href": "http://d.duotuwang.com/2015/07/08/816/",
        "count": 30,
        "start": 1,
        "hasMtTag": 1,
        "hasJgTag": 1,
        "mtCount": 1,
        "jgCount": 110
    },
    {
        "name": "[MyGirl]\u7f8e\u5a9b\u9986 VOL.129 \u590f\u5c0f\u79cb\u79cb\u79cb",
        "src": "http://d.duotuwang.com/2015/07/05/817/0.jpg",
        "mtId": "2db3bbd39f3dcb2c",
        "mtName": "\u590f\u5c0f\u79cb\u79cb\u79cb",
        "jgId": "mygirl",
        "jgName": "\u7f8e\u5a9b\u9986",
        "href": "http://d.duotuwang.com/2015/07/05/817/",
        "count": 53,
        "start": 1,
        "hasMtTag": 1,
        "hasJgTag": 1,
        "mtCount": 5,
        "jgCount": 110
    },
    {
        "name": "[MyGirl]\u7f8e\u5a9b\u9986 VOL.128 \u745e\u838eTrista",
        "src": "http://d.duotuwang.com/2015/07/02/819/0.jpg",
        "mtId": "3ef53c820ead4ae8",
        "mtName": "\u745e\u838eTrista",
        "jgId": "mygirl",
        "jgName": "\u7f8e\u5a9b\u9986",
        "href": "http://d.duotuwang.com/2015/07/02/819/",
        "count": 51,
        "start": 1,
        "hasMtTag": 1,
        "hasJgTag": 1,
        "mtCount": 2,
        "jgCount": 110
    },
    {
        "name": "[MyGirl]\u7f8e\u5a9b\u9986 VOL.127 \u674e\u96ea\u5a77Anna",
        "src": "http://d.duotuwang.com/2015/07/01/823/0.jpg",
        "mtId": "6525efd7e20fde2e",
        "mtName": "\u674e\u96ea\u5a77Anna",
        "jgId": "mygirl",
        "jgName": "\u7f8e\u5a9b\u9986",
        "href": "http://d.duotuwang.com/2015/07/01/823/",
        "count": 53,
        "start": 1,
        "hasMtTag": 1,
        "hasJgTag": 1,
        "mtCount": 2,
        "jgCount": 110
    },
    {
        "name": "[MyGirl]\u7f8e\u5a9b\u9986 VOL.126 \u4f58\u8d1d\u62c9bella",
        "src": "http://d.duotuwang.com/2015/06/29/828/0.jpg",
        "mtId": "77da4d2b1d53f5fa",
        "mtName": "\u4f58\u8d1d\u62c9bella",
        "jgId": "mygirl",
        "jgName": "\u7f8e\u5a9b\u9986",
        "href": "http://d.duotuwang.com/2015/06/29/828/",
        "count": 50,
        "start": 1,
        "hasMtTag": 1,
        "hasJgTag": 1,
        "mtCount": 9,
        "jgCount": 110
    },
    {
        "name": "[MyGirl]\u7f8e\u5a9b\u9986 VOL.125 \u590f\u5c0f\u79cb\u79cb\u79cb",
        "src": "http://d.duotuwang.com/2015/06/28/831/0.jpg",
        "mtId": "2db3bbd39f3dcb2c",
        "mtName": "\u590f\u5c0f\u79cb\u79cb\u79cb",
        "jgId": "mygirl",
        "jgName": "\u7f8e\u5a9b\u9986",
        "href": "http://d.duotuwang.com/2015/06/28/831/",
        "count": 68,
        "start": 1,
        "hasMtTag": 1,
        "hasJgTag": 1,
        "mtCount": 5,
        "jgCount": 110
    }
]