[
    {
        "name": "[MyGirl]\u7f8e\u5a9b\u9986 Vol.118 \u590f\u7476baby",
        "src": "http://d.duotuwang.com/2015/05/22/769/0.jpg",
        "mtId": "7d8577ab1206064d",
        "mtName": "\u590f\u7476baby",
        "jgId": "mygirl",
        "jgName": "\u7f8e\u5a9b\u9986",
        "href": "http://d.duotuwang.com/2015/05/22/769/",
        "count": 51,
        "start": 1,
        "hasMtTag": 1,
        "hasJgTag": 1,
        "mtCount": 2,
        "jgCount": 110
    },
    {
        "name": "[MyGirl]\u7f8e\u5a9b\u9986 Vol.117 \u5f90\u5c0f\u5b9dJessie",
        "src": "http://d.duotuwang.com/2015/04/28/746/0.jpg",
        "mtId": "493fef343c3b4a6d",
        "mtName": "\u5f90\u5c0f\u5b9dJessie",
        "jgId": "mygirl",
        "jgName": "\u7f8e\u5a9b\u9986",
        "href": "http://d.duotuwang.com/2015/04/28/746/",
        "count": 40,
        "start": 1,
        "hasMtTag": 1,
        "hasJgTag": 1,
        "mtCount": 1,
        "jgCount": 110
    },
    {
        "name": "[MyGirl]\u7f8e\u5a9b\u9986 Vol.116 \u5f90\u5c0f\u5b9dJessie",
        "src": "http://d.duotuwang.com/2015/04/25/742/0.jpg",
        "mtId": "493fef343c3b4a6d",
        "mtName": "\u5f90\u5c0f\u5b9dJessie",
        "jgId": "mygirl",
        "jgName": "\u7f8e\u5a9b\u9986",
        "href": "http://d.duotuwang.com/2015/04/25/742/",
        "count": 40,
        "start": 1,
        "hasMtTag": 1,
        "hasJgTag": 1,
        "mtCount": 1,
        "jgCount": 110
    },
    {
        "name": "[MyGirl]\u7f8e\u5a9b\u9986 Vol.115 \u5218\u98de\u513fFaye",
        "src": "http://d.duotuwang.com/2015/04/09/726/0.jpg",
        "mtId": "3c9330d6c0723be7",
        "mtName": "\u5218\u98de\u513fFaye",
        "jgId": "mygirl",
        "jgName": "\u7f8e\u5a9b\u9986",
        "href": "http://d.duotuwang.com/2015/04/09/726/",
        "count": 59,
        "start": 1,
        "hasMtTag": 1,
        "hasJgTag": 1,
        "mtCount": 7,
        "jgCount": 110
    },
    {
        "name": "[MyGirl]\u7f8e\u5a9b\u9986 Vol.114 \u739b\u9c81\u90a3Manuela",
        "src": "http://d.duotuwang.com/2015/04/08/1863/0.jpg",
        "mtId": "9d11048fdd58d534",
        "mtName": "\u739b\u9c81\u90a3Manuela",
        "jgId": "mygirl",
        "jgName": "\u7f8e\u5a9b\u9986",
        "href": "http://d.duotuwang.com/2015/04/08/1863/",
        "count": 61,
        "start": 1,
        "hasMtTag": 1,
        "hasJgTag": 1,
        "mtCount": 1,
        "jgCount": 110
    },
    {
        "name": "[MyGirl]\u7f8e\u5a9b\u9986 Vol.113 \u738b\u99a8\u7476yanni",
        "src": "http://d.duotuwang.com/2015/04/06/721/0.jpg",
        "mtId": "ee305435592cf245",
        "mtName": "\u738b\u99a8\u7476yanni",
        "jgId": "mygirl",
        "jgName": "\u7f8e\u5a9b\u9986",
        "href": "http://d.duotuwang.com/2015/04/06/721/",
        "count": 61,
        "start": 1,
        "hasMtTag": 1,
        "hasJgTag": 1,
        "mtCount": 29,
        "jgCount": 110
    }
]