[
    {
        "name": "[UGirlsAPP]\u7231\u5c24\u7269 No.2296 \u91d1\u91d1 \u7231\u7684\u65e0\u9650\u5faa\u73af",
        "src": "http://d.duotuwang.com/2022/03/12/28909/0.jpg",
        "mtId": "62f90ad8a3828d69",
        "mtName": "\u91d1\u91d1",
        "jgId": "ugirlsapp",
        "jgName": "\u7231\u5c24\u7269",
        "href": "http://d.duotuwang.com/2022/03/12/28909/",
        "count": 35,
        "start": 1,
        "hasMtTag": 1,
        "hasJgTag": 1,
        "mtCount": 1,
        "jgCount": 397
    },
    {
        "name": "[UGirlsAPP]\u7231\u5c24\u7269 No.2223 \u91d1\u91d1 \u8fc7\u76ee\u4e0d\u5fd8\u7684\u4f60",
        "src": "http://d.duotuwang.com/2021/11/26/27653/0.jpg",
        "mtId": "62f90ad8a3828d69",
        "mtName": "\u91d1\u91d1",
        "jgId": "ugirlsapp",
        "jgName": "\u7231\u5c24\u7269",
        "href": "http://d.duotuwang.com/2021/11/26/27653/",
        "count": 35,
        "start": 1,
        "hasMtTag": 1,
        "hasJgTag": 1,
        "mtCount": 1,
        "jgCount": 397
    },
    {
        "name": "[UGirlsAPP]\u7231\u5c24\u7269 No.1930 \u91d1\u91d1 \u62db\u724c\u5c24\u7269",
        "src": "http://d.duotuwang.com/2020/10/08/22385/0.jpg",
        "mtId": "62f90ad8a3828d69",
        "mtName": "\u91d1\u91d1",
        "jgId": "ugirlsapp",
        "jgName": "\u7231\u5c24\u7269",
        "href": "http://d.duotuwang.com/2020/10/08/22385/",
        "count": 35,
        "start": 1,
        "hasMtTag": 1,
        "hasJgTag": 1,
        "mtCount": 1,
        "jgCount": 397
    },
    {
        "name": "[UGirlsAPP]\u7231\u5c24\u7269 No.1859 \u91d1\u91d1 \u4eab\u7528\u66a7\u6627",
        "src": "http://d.duotuwang.com/2020/07/05/20976/0.jpg",
        "mtId": "62f90ad8a3828d69",
        "mtName": "\u91d1\u91d1",
        "jgId": "ugirlsapp",
        "jgName": "\u7231\u5c24\u7269",
        "href": "http://d.duotuwang.com/2020/07/05/20976/",
        "count": 35,
        "start": 1,
        "hasMtTag": 1,
        "hasJgTag": 1,
        "mtCount": 1,
        "jgCount": 397
    },
    {
        "name": "[UGirlsAPP]\u7231\u5c24\u7269 No.1602 \u91d1\u91d1 \u7231\u7684\u65e0\u9650\u5faa\u73af",
        "src": "http://d.duotuwang.com/2019/10/08/18217/0.jpg",
        "mtId": "62f90ad8a3828d69",
        "mtName": "\u91d1\u91d1",
        "jgId": "ugirlsapp",
        "jgName": "\u7231\u5c24\u7269",
        "href": "http://d.duotuwang.com/2019/10/08/18217/",
        "count": 34,
        "start": 1,
        "hasMtTag": 1,
        "hasJgTag": 1,
        "mtCount": 1,
        "jgCount": 397
    }
]