[
    {
        "name": "[ROSI\u5199\u771f]10\u60c5\u8da3\u7cfb\u5217023",
        "src": "http://d.duotuwang.com/2015/11/30/14466/0.jpg",
        "jgId": "rosiqq",
        "jgName": "ROSI\u60c5\u8da3",
        "href": "http://d.duotuwang.com/2015/11/30/14466/",
        "count": 31,
        "start": 1,
        "hasMtTag": 0,
        "hasJgTag": 1,
        "jgCount": 9
    },
    {
        "name": "[ROSI\u5199\u771f]10\u60c5\u8da3\u7cfb\u5217022",
        "src": "http://d.duotuwang.com/2015/11/26/14467/0.jpg",
        "jgId": "rosiqq",
        "jgName": "ROSI\u60c5\u8da3",
        "href": "http://d.duotuwang.com/2015/11/26/14467/",
        "count": 48,
        "start": 1,
        "hasMtTag": 0,
        "hasJgTag": 1,
        "jgCount": 9
    },
    {
        "name": "[ROSI\u5199\u771f]10\u60c5\u8da3\u7cfb\u5217021",
        "src": "http://d.duotuwang.com/2015/11/23/14468/0.jpg",
        "jgId": "rosiqq",
        "jgName": "ROSI\u60c5\u8da3",
        "href": "http://d.duotuwang.com/2015/11/23/14468/",
        "count": 28,
        "start": 1,
        "hasMtTag": 0,
        "hasJgTag": 1,
        "jgCount": 9
    },
    {
        "name": "[ROSI\u5199\u771f]10\u60c5\u8da3\u7cfb\u5217020",
        "src": "http://d.duotuwang.com/2015/11/18/14469/0.jpg",
        "jgId": "rosiqq",
        "jgName": "ROSI\u60c5\u8da3",
        "href": "http://d.duotuwang.com/2015/11/18/14469/",
        "count": 36,
        "start": 1,
        "hasMtTag": 0,
        "hasJgTag": 1,
        "jgCount": 9
    },
    {
        "name": "[ROSI\u5199\u771f]10\u60c5\u8da3\u7cfb\u5217019",
        "src": "http://d.duotuwang.com/2015/11/14/14470/0.jpg",
        "jgId": "rosiqq",
        "jgName": "ROSI\u60c5\u8da3",
        "href": "http://d.duotuwang.com/2015/11/14/14470/",
        "count": 69,
        "start": 1,
        "hasMtTag": 0,
        "hasJgTag": 1,
        "jgCount": 9
    },
    {
        "name": "[ROSI\u5199\u771f]10\u60c5\u8da3\u7cfb\u5217018",
        "src": "http://d.duotuwang.com/2015/11/09/14471/0.jpg",
        "jgId": "rosiqq",
        "jgName": "ROSI\u60c5\u8da3",
        "href": "http://d.duotuwang.com/2015/11/09/14471/",
        "count": 31,
        "start": 1,
        "hasMtTag": 0,
        "hasJgTag": 1,
        "jgCount": 9
    }
]