[
    {
        "name": "[ROSI\u5199\u771f]10\u60c5\u8da3\u7cfb\u5217017",
        "src": "http://d.duotuwang.com/2015/11/02/14724/0.jpg",
        "jgId": "rosiqq",
        "jgName": "ROSI\u60c5\u8da3",
        "href": "http://d.duotuwang.com/2015/11/02/14724/",
        "count": 79,
        "start": 1,
        "hasMtTag": 0,
        "hasJgTag": 1,
        "jgCount": 9
    },
    {
        "name": "[ROSI\u5199\u771f]10\u60c5\u8da3\u7cfb\u5217016",
        "src": "http://d.duotuwang.com/2015/10/27/14450/0.jpg",
        "jgId": "rosiqq",
        "jgName": "ROSI\u60c5\u8da3",
        "href": "http://d.duotuwang.com/2015/10/27/14450/",
        "count": 30,
        "start": 1,
        "hasMtTag": 0,
        "hasJgTag": 1,
        "jgCount": 9
    },
    {
        "name": "[ROSI\u5199\u771f]10\u60c5\u8da3\u7cfb\u5217015",
        "src": "http://d.duotuwang.com/2015/10/20/14451/0.jpg",
        "jgId": "rosiqq",
        "jgName": "ROSI\u60c5\u8da3",
        "href": "http://d.duotuwang.com/2015/10/20/14451/",
        "count": 52,
        "start": 1,
        "hasMtTag": 0,
        "hasJgTag": 1,
        "jgCount": 9
    },
    {
        "name": "[ROSI\u5199\u771f]10\u60c5\u8da3\u7cfb\u5217014",
        "src": "http://d.duotuwang.com/2015/09/15/14452/0.jpg",
        "jgId": "rosiqq",
        "jgName": "ROSI\u60c5\u8da3",
        "href": "http://d.duotuwang.com/2015/09/15/14452/",
        "count": 38,
        "start": 1,
        "hasMtTag": 0,
        "hasJgTag": 1,
        "jgCount": 9
    },
    {
        "name": "[ROSI\u5199\u771f]10\u60c5\u8da3\u7cfb\u5217013",
        "src": "http://d.duotuwang.com/2015/09/09/14453/0.jpg",
        "jgId": "rosiqq",
        "jgName": "ROSI\u60c5\u8da3",
        "href": "http://d.duotuwang.com/2015/09/09/14453/",
        "count": 31,
        "start": 1,
        "hasMtTag": 0,
        "hasJgTag": 1,
        "jgCount": 9
    },
    {
        "name": "[ROSI\u5199\u771f]10\u60c5\u8da3\u7cfb\u5217012",
        "src": "http://d.duotuwang.com/2015/06/29/14454/0.jpg",
        "jgId": "rosiqq",
        "jgName": "ROSI\u60c5\u8da3",
        "href": "http://d.duotuwang.com/2015/06/29/14454/",
        "count": 49,
        "start": 1,
        "hasMtTag": 0,
        "hasJgTag": 1,
        "jgCount": 9
    }
]