[
    {
        "name": "[MiStar]\u9b45\u598d\u793e VOL.086 Nicole\u59ae\u53ef",
        "src": "http://d.duotuwang.com/2016/05/27/1450/0.jpg",
        "mtId": "740443a710a3af55",
        "mtName": "Nicole\u59ae\u53ef",
        "jgId": "mistar",
        "jgName": "\u9b45\u598d\u793e",
        "href": "http://d.duotuwang.com/2016/05/27/1450/",
        "count": 50,
        "start": 1,
        "hasMtTag": 1,
        "hasJgTag": 1,
        "mtCount": 1,
        "jgCount": 55
    },
    {
        "name": "[MiStar]\u9b45\u598d\u793e VOL.040 Nicole\u59ae\u53ef",
        "src": "http://d.duotuwang.com/2015/10/27/1069/0.jpg",
        "mtId": "740443a710a3af55",
        "mtName": "Nicole\u59ae\u53ef",
        "jgId": "mistar",
        "jgName": "\u9b45\u598d\u793e",
        "href": "http://d.duotuwang.com/2015/10/27/1069/",
        "count": 60,
        "start": 1,
        "hasMtTag": 1,
        "hasJgTag": 1,
        "mtCount": 1,
        "jgCount": 55
    }
]