[
    {
        "name": "[MiStar]\u9b45\u598d\u793e VOL.064 Cheryl\u9752\u6811",
        "src": "http://d.duotuwang.com/2016/03/02/1288/0.jpg",
        "mtId": "e198f565d0da3712",
        "mtName": "Cheryl\u9752\u6811",
        "jgId": "mistar",
        "jgName": "\u9b45\u598d\u793e",
        "href": "http://d.duotuwang.com/2016/03/02/1288/",
        "count": 45,
        "start": 1,
        "hasMtTag": 1,
        "hasJgTag": 1,
        "mtCount": 8,
        "jgCount": 55
    },
    {
        "name": "[FEILIN]\u55f2\u56e1\u56e1 VOL.027 Cheryl\u9752\u6811",
        "src": "http://d.duotuwang.com/2016/02/24/1258/0.jpg",
        "mtId": "e198f565d0da3712",
        "mtName": "Cheryl\u9752\u6811",
        "jgId": "feilin",
        "jgName": "\u55f2\u56e1\u56e1",
        "href": "http://d.duotuwang.com/2016/02/24/1258/",
        "count": 53,
        "start": 1,
        "hasMtTag": 1,
        "hasJgTag": 1,
        "mtCount": 8,
        "jgCount": 61
    },
    {
        "name": "[MFStar]\u6a21\u8303\u5b66\u9662 VOL.045 Cheryl\u9752\u6811",
        "src": "http://d.duotuwang.com/2016/02/15/1890/0.jpg",
        "mtId": "e198f565d0da3712",
        "mtName": "Cheryl\u9752\u6811",
        "jgId": "mfstar",
        "jgName": "\u6a21\u8303\u5b66\u9662",
        "href": "http://d.duotuwang.com/2016/02/15/1890/",
        "count": 50,
        "start": 1,
        "hasMtTag": 1,
        "hasJgTag": 1,
        "mtCount": 8,
        "jgCount": 94
    },
    {
        "name": "[FEILIN]\u55f2\u56e1\u56e1 VOL.020 Cheryl\u9752\u6811",
        "src": "http://d.duotuwang.com/2015/12/22/1164/0.jpg",
        "mtId": "e198f565d0da3712",
        "mtName": "Cheryl\u9752\u6811",
        "jgId": "feilin",
        "jgName": "\u55f2\u56e1\u56e1",
        "href": "http://d.duotuwang.com/2015/12/22/1164/",
        "count": 60,
        "start": 1,
        "hasMtTag": 1,
        "hasJgTag": 1,
        "mtCount": 8,
        "jgCount": 61
    },
    {
        "name": "[FEILIN]\u55f2\u56e1\u56e1 VOL.018 Cheryl\u9752\u6811",
        "src": "http://d.duotuwang.com/2015/12/14/1144/0.jpg",
        "mtId": "e198f565d0da3712",
        "mtName": "Cheryl\u9752\u6811",
        "jgId": "feilin",
        "jgName": "\u55f2\u56e1\u56e1",
        "href": "http://d.duotuwang.com/2015/12/14/1144/",
        "count": 48,
        "start": 1,
        "hasMtTag": 1,
        "hasJgTag": 1,
        "mtCount": 8,
        "jgCount": 61
    },
    {
        "name": "[TGod]\u63a8\u5973\u795e 2015-12-03 Cheryl\u9752\u6811",
        "src": "http://d.duotuwang.com/2015/12/03/2412/0.jpg",
        "mtId": "e198f565d0da3712",
        "mtName": "Cheryl\u9752\u6811",
        "jgId": "tgod",
        "jgName": "\u63a8\u5973\u795e",
        "href": "http://d.duotuwang.com/2015/12/03/2412/",
        "count": 44,
        "start": 1,
        "hasMtTag": 1,
        "hasJgTag": 1,
        "mtCount": 8,
        "jgCount": 78
    }
]