[
    {
        "name": "[YouMi]\u5c24\u871c 2021.09.23 \u56e2\u56e2",
        "src": "http://d.duotuwang.com/2021/09/23/26690/0.jpg",
        "mtId": "86d0ab4ed68ebfcb",
        "mtName": "\u56e2\u56e2",
        "jgId": "youmiabc",
        "jgName": "\u5c24\u871c",
        "href": "http://d.duotuwang.com/2021/09/23/26690/",
        "count": 34,
        "start": 1,
        "hasMtTag": 1,
        "hasJgTag": 1,
        "mtCount": 2,
        "jgCount": 79
    },
    {
        "name": "[YouMei]\u5c24\u7f8e \u56e2\u56e2 \u795d\u541b\u597d\u68a6",
        "src": "http://d.duotuwang.com/2020/02/11/19654/0.jpg",
        "mtId": "86d0ab4ed68ebfcb",
        "mtName": "\u56e2\u56e2",
        "jgId": "youmei",
        "jgName": "\u5c24\u7f8e\u7f51",
        "href": "http://d.duotuwang.com/2020/02/11/19654/",
        "count": 34,
        "start": 1,
        "hasMtTag": 1,
        "hasJgTag": 1,
        "mtCount": 2,
        "jgCount": 47
    },
    {
        "name": "[YouMei]\u5c24\u7f8e \u56e2\u56e2 \u9ad8\u6311\u5a9a\u5a18",
        "src": "http://d.duotuwang.com/2020/02/05/19565/0.jpg",
        "mtId": "86d0ab4ed68ebfcb",
        "mtName": "\u56e2\u56e2",
        "jgId": "youmei",
        "jgName": "\u5c24\u7f8e\u7f51",
        "href": "http://d.duotuwang.com/2020/02/05/19565/",
        "count": 37,
        "start": 1,
        "hasMtTag": 1,
        "hasJgTag": 1,
        "mtCount": 2,
        "jgCount": 47
    },
    {
        "name": "[YouMei]\u5c24\u7f8e \u56e2\u56e2 \u6625\u5fc3\u6fc0\u8361",
        "src": "http://d.duotuwang.com/2020/01/15/19352/0.jpg",
        "mtId": "86d0ab4ed68ebfcb",
        "mtName": "\u56e2\u56e2",
        "jgId": "youmei",
        "jgName": "\u5c24\u7f8e\u7f51",
        "href": "http://d.duotuwang.com/2020/01/15/19352/",
        "count": 33,
        "start": 1,
        "hasMtTag": 1,
        "hasJgTag": 1,
        "mtCount": 2,
        "jgCount": 47
    },
    {
        "name": "[YouMei]\u5c24\u7f8e \u56e2\u56e2 \u73a9\u6ce5\u4e73\u5a18",
        "src": "http://d.duotuwang.com/2020/01/01/19254/0.jpg",
        "mtId": "86d0ab4ed68ebfcb",
        "mtName": "\u56e2\u56e2",
        "jgId": "youmei",
        "jgName": "\u5c24\u7f8e\u7f51",
        "href": "http://d.duotuwang.com/2020/01/01/19254/",
        "count": 44,
        "start": 1,
        "hasMtTag": 1,
        "hasJgTag": 1,
        "mtCount": 2,
        "jgCount": 47
    },
    {
        "name": "[toutiaogirls]\u5934\u6761\u5973\u795e 2019-08-03 \u56e2\u56e2 \u7f8e\u5f0f\u5927\u599e",
        "src": "http://d.duotuwang.com/2019/08/03/17626/0.jpg",
        "mtId": "86d0ab4ed68ebfcb",
        "mtName": "\u56e2\u56e2",
        "jgId": "toutiaogirls",
        "jgName": "\u5934\u6761\u5973\u795e",
        "href": "http://d.duotuwang.com/2019/08/03/17626/",
        "count": 6,
        "start": 1,
        "hasMtTag": 1,
        "hasJgTag": 1,
        "mtCount": 2,
        "jgCount": 133
    }
]