[
    {
        "name": "[UGirlsAPP]\u7231\u5c24\u7269 No.258 \u91d1\u5b50\u7199",
        "src": "http://d.duotuwang.com/2016/02/01/4622/0.jpg",
        "mtId": "a65042b8f8912450",
        "mtName": "\u91d1\u5b50\u7199",
        "jgId": "ugirlsapp",
        "jgName": "\u7231\u5c24\u7269",
        "href": "http://d.duotuwang.com/2016/02/01/4622/",
        "count": 40,
        "start": 1,
        "hasMtTag": 1,
        "hasJgTag": 1,
        "mtCount": 2,
        "jgCount": 397
    },
    {
        "name": "[UGirlsAPP]\u7231\u5c24\u7269 No.252 Miko&\u91d1\u5b50\u7199&\u82cf\u8fea",
        "src": "http://d.duotuwang.com/2016/01/26/4583/0.jpg",
        "mtId": "5864c434258103b6",
        "mtName": "Miko",
        "jgId": "ugirlsapp",
        "jgName": "\u7231\u5c24\u7269",
        "href": "http://d.duotuwang.com/2016/01/26/4583/",
        "count": 40,
        "start": 1,
        "hasMtTag": 1,
        "hasJgTag": 1,
        "mtCount": 2,
        "jgCount": 397
    },
    {
        "name": "[UGirls]\u5c24\u679c\u7f51 U143 \u91d1\u5b50\u7199 \u7231\u7684\u793c\u7269",
        "src": "http://d.duotuwang.com/2015/12/25/3150/0.jpg",
        "mtId": "a65042b8f8912450",
        "mtName": "\u91d1\u5b50\u7199",
        "jgId": "ugirls",
        "jgName": "\u5c24\u679c\u7f51",
        "href": "http://d.duotuwang.com/2015/12/25/3150/",
        "count": 66,
        "start": 1,
        "hasMtTag": 1,
        "hasJgTag": 1,
        "mtCount": 2,
        "jgCount": 79
    },
    {
        "name": "[UGirlsAPP]\u7231\u5c24\u7269 No.173 \u91d1\u5b50\u7199&\u987e\u6b23\u6021&\u4e48\u4e48",
        "src": "http://d.duotuwang.com/2015/11/06/4517/0.jpg",
        "mtId": "a65042b8f8912450",
        "mtName": "\u91d1\u5b50\u7199",
        "jgId": "ugirlsapp",
        "jgName": "\u7231\u5c24\u7269",
        "href": "http://d.duotuwang.com/2015/11/06/4517/",
        "count": 40,
        "start": 1,
        "hasMtTag": 1,
        "hasJgTag": 1,
        "mtCount": 2,
        "jgCount": 397
    },
    {
        "name": "[UGirls]\u5c24\u679c\u7f51 T010 \u91d1\u5b50\u7199 \u76ae\u8349\u5408\u8f91",
        "src": "http://d.duotuwang.com/2015/06/19/3098/0.jpg",
        "mtId": "a65042b8f8912450",
        "mtName": "\u91d1\u5b50\u7199",
        "jgId": "ugirls",
        "jgName": "\u5c24\u679c\u7f51",
        "href": "http://d.duotuwang.com/2015/06/19/3098/",
        "count": 65,
        "start": 1,
        "hasMtTag": 1,
        "hasJgTag": 1,
        "mtCount": 2,
        "jgCount": 79
    },
    {
        "name": "[UGirls]\u5c24\u679c\u7f51 E051 \u91d1\u5b50\u7199",
        "src": "http://d.duotuwang.com/2014/10/31/3048/0.jpg",
        "mtId": "a65042b8f8912450",
        "mtName": "\u91d1\u5b50\u7199",
        "jgId": "ugirls",
        "jgName": "\u5c24\u679c\u7f51",
        "href": "http://d.duotuwang.com/2014/10/31/3048/",
        "count": 45,
        "start": 1,
        "hasMtTag": 1,
        "hasJgTag": 1,
        "mtCount": 2,
        "jgCount": 79
    }
]