[
    {
        "id": "673498261",
        "title": "\u70ed\u821e\u4e2d\u3010\u4f50\u4f50\u3011",
        "src": "http://v-huya-img2.msstatic.com/screenshot/2209/673498261/99.jpg?x-oss-process=style/460x268&amp;amp;v=ac82c6de8531168bf9a83355e2b351731646473151",
        "url": "http://videobd-platform.cdn.huya.com/1048585/1337563611/36583013/946134b6233eee4c9d0293953bc1f669.m3u8?bitrate=2126&client=106&definition=1300&pid=1337563611&scene=vod&vid=673498261"
    },
    {
        "id": "672492233",
        "title": "#\u4e00\u821e\u60ca\u9e3f#\u70ed\u821e\u4e2d\u3010\u4f50\u4f50\u3011",
        "src": "http://v-huya-img2.msstatic.com/screenshot/2209/672492233/99.jpg?x-oss-process=style/460x268&amp;amp;v=851c3ca5d0bb3387ea0097546a1a27e91646304913",
        "url": "http://videotx-platform.cdn.huya.com/1048585/1337563611/36503211/68913e94c5b62048cb20449ddb713411.m3u8?bitrate=2150&client=106&definition=1300&pid=1337563611&scene=vod&vid=672492233"
    },
    {
        "id": "671961487",
        "title": "\u70ed\u821e\u4e2d\u3010\u4f50\u4f50\u3011",
        "src": "http://v-huya-img2.msstatic.com/screenshot/2209/671961487/99.jpg?x-oss-process=style/460x268&amp;amp;v=90096e1512e320b4f6420e7c17eb47151646224094",
        "url": "http://videohw-platform.cdn.huya.com/1048585/1337563611/36467609/7ef6aad1c30a9978834c584e7aac2560.m3u8?bitrate=2136&client=106&definition=1300&pid=1337563611&scene=vod&vid=671961487"
    },
    {
        "id": "671248449",
        "title": "\u70ed\u821e\u4e2d\u3010\u4f50\u4f50\u3011",
        "src": "http://v-huya-img2.msstatic.com/screenshot/2209/671248449/99.jpg?x-oss-process=style/460x268&amp;amp;v=4027a4844e18b23e60d04ff1600b610b1646133222",
        "url": "http://videohw-platform.cdn.huya.com/1048585/1337563611/36423569/57db94882d877b4ab04b1077732e8a1f.m3u8?bitrate=2158&client=106&definition=1300&pid=1337563611&scene=vod&vid=671248449"
    },
    {
        "id": "667871759",
        "title": "\u70ed\u821e\u4e2d\u3010\u4f50\u4f50\u3011",
        "src": "http://v-huya-img2.msstatic.com/screenshot/2208/667871759/99.jpg?x-oss-process=style/460x268&amp;amp;v=15ec9c719607375366c98565cc868dd71645696045",
        "url": "http://videohw-platform.cdn.huya.com/1048585/1337563611/36228859/2c2d40f4236441dd89462e353ba17887.m3u8?bitrate=2137&client=106&definition=1300&pid=1337563611&scene=vod&vid=667871759"
    },
    {
        "id": "667301593",
        "title": "\u70ed\u821e\u4e2d\u3010\u4f50\u4f50\u3011",
        "src": "http://v-huya-img2.msstatic.com/screenshot/2208/667301593/99.jpg?x-oss-process=style/460x268&amp;amp;v=ce831d307271f5bc7cdc52f066154af71645620634",
        "url": "http://videotx-platform.cdn.huya.com/1048585/1337563611/36196737/0a51adac06b76a8f1bdba074573ae62c.m3u8?bitrate=2138&client=106&definition=1300&pid=1337563611&scene=vod&vid=667301593"
    },
    {
        "id": "666510861",
        "title": "\u70ed\u821e\u4e2d\u3010\u4f50\u4f50\u3011",
        "src": "http://v-huya-img2.msstatic.com/screenshot/2208/666510861/99.jpg?x-oss-process=style/460x268&amp;amp;v=63777652a2bd790f790a7e3619010c151645522664",
        "url": "http://videohw-platform.cdn.huya.com/1048585/1337563611/36142783/f261559e990e27efdfb488896b7cafc5.m3u8?bitrate=2140&client=106&definition=1300&pid=1337563611&scene=vod&vid=666510861"
    },
    {
        "id": "665615193",
        "title": "\u70ed\u821e\u4e2d\u3010\u4f50\u4f50\u3011",
        "src": "http://v-huya-img2.msstatic.com/screenshot/2208/665615193/99.jpg?x-oss-process=style/460x268&amp;amp;v=23895fd663261649680fd2dce489df881645436406",
        "url": "http://videohw-platform.cdn.huya.com/1048585/1337563611/36104311/405555468d885d14ff3265dad7f6f8a4.m3u8?bitrate=2119&client=106&definition=1300&pid=1337563611&scene=vod&vid=665615193"
    },
    {
        "id": "663947569",
        "title": "\u70ed\u821e\u4e2d\u3010\u4f50\u4f50\u3011",
        "src": "http://v-huya-img2.msstatic.com/screenshot/2207/663947569/99.jpg?x-oss-process=style/460x268&amp;amp;v=ae5e8741aee6b844483eda00fe58f7b71645260450",
        "url": "http://videotx-platform.cdn.huya.com/1048585/1337563611/36031385/fe7518b730951f6c106381f54a5ee0d6.m3u8?bitrate=2175&client=106&definition=1300&pid=1337563611&scene=vod&vid=663947569"
    },
    {
        "id": "663071625",
        "title": "\u70ed\u821e\u4e2d\u3010\u4f50\u4f50\u3011",
        "src": "http://v-huya-img2.msstatic.com/screenshot/2207/663071625/99.jpg?x-oss-process=style/460x268&amp;amp;v=93795b5c3b3fef3074e36e061a7d3c551645081510",
        "url": "http://videohw-platform.cdn.huya.com/1048585/1337563611/35958029/a228830563ee878a70bd81c672ab7dd0.m3u8?bitrate=2107&client=106&definition=1300&pid=1337563611&scene=vod&vid=663071625"
    },
    {
        "id": "662388875",
        "title": "\u70ed\u821e\u4e2d\u3010\u4f50\u4f50\u3011",
        "src": "http://v-huya-img2.msstatic.com/screenshot/2207/662388875/99.jpg?x-oss-process=style/460x268&amp;amp;v=ad5e58df077effc8722663f1926cc0f91644994737",
        "url": "http://videohw-platform.cdn.huya.com/1048585/1337563611/35920639/a3aaeb3856d21d920fe3b808a030e3df.m3u8?bitrate=2127&client=106&definition=1300&pid=1337563611&scene=vod&vid=662388875"
    },
    {
        "id": "661879213",
        "title": "\u70ed\u821e\u4e2d\u3010\u4f50\u4f50\u3011",
        "src": "http://v-huya-img2.msstatic.com/screenshot/2207/661879213/99.jpg?x-oss-process=style/460x268&amp;amp;v=84b227174effe290838e6f9f1658a2ab1644925024",
        "url": "http://videotx-platform.cdn.huya.com/1048585/1337563611/35892629/9e33fb865af6382cd205bdd5d60f045a.m3u8?bitrate=2117&client=106&definition=1300&pid=1337563611&scene=vod&vid=661879213"
    },
    {
        "id": "661118615",
        "title": "\u70ed\u821e\u4e2d\u3010\u4f50\u4f50\u3011",
        "src": "http://v-huya-img2.msstatic.com/screenshot/2207/661118615/99.jpg?x-oss-process=style/460x268&amp;amp;v=ceca59766c4a289e204e2a8dcdf80afb1644827511",
        "url": "http://videotx-platform.cdn.huya.com/1048585/1337563611/35849089/f8ab821567d6591b7ff16a89d6db52e6.m3u8?bitrate=2119&client=106&definition=1300&pid=1337563611&scene=vod&vid=661118615"
    },
    {
        "id": "659301861",
        "title": "\u70ed\u821e\u4e2d\u3010\u4f50\u4f50\u3011",
        "src": "http://v-huya-img2.msstatic.com/screenshot/2206/659301861/99.jpg?x-oss-process=style/460x268&amp;amp;v=47e7c20d589f2ac68f31e015b64e20581644584226",
        "url": "http://videohw-platform.cdn.huya.com/1048585/1337563611/35745559/6d2e028b738f54dcc003b0904dea8da8.m3u8?bitrate=2117&client=106&definition=1300&pid=1337563611&scene=vod&vid=659301861"
    },
    {
        "id": "659101683",
        "title": "\u70ed\u821e\u4e2d\u3010\u4f50\u4f50\u3011",
        "src": "http://v-huya-img2.msstatic.com/screenshot/2206/659101683/99.jpg?x-oss-process=style/460x268&amp;amp;v=5f0e31a37985d92c7e6976a8582df4a71644562365",
        "url": "http://videobd-platform.cdn.huya.com/1048585/1337563611/35732793/2f27061a563dfe5ec06be295df3681a8.m3u8?bitrate=2123&client=106&definition=1300&pid=1337563611&scene=vod&vid=659101683"
    }
]