[
    {
        "name": "[MiStar]\u9b45\u598d\u793e VOL.078 \u7a0b\u5c0f\u70e6\u4e0d\u70e6",
        "src": "http://d.duotuwang.com/2016/04/25/1393/0.jpg",
        "mtId": "dac11d91352f90c5",
        "mtName": "\u7a0b\u5c0f\u70e6\u4e0d\u70e6",
        "jgId": "mistar",
        "jgName": "\u9b45\u598d\u793e",
        "href": "http://d.duotuwang.com/2016/04/25/1393/",
        "count": 50,
        "start": 1,
        "hasMtTag": 1,
        "hasJgTag": 1,
        "mtCount": 3,
        "jgCount": 55
    },
    {
        "name": "[MiStar]\u9b45\u598d\u793e VOL.068 \u7a0b\u5c0f\u70e6\u4e0d\u70e6",
        "src": "http://d.duotuwang.com/2016/03/16/1309/0.jpg",
        "mtId": "dac11d91352f90c5",
        "mtName": "\u7a0b\u5c0f\u70e6\u4e0d\u70e6",
        "jgId": "mistar",
        "jgName": "\u9b45\u598d\u793e",
        "href": "http://d.duotuwang.com/2016/03/16/1309/",
        "count": 60,
        "start": 1,
        "hasMtTag": 1,
        "hasJgTag": 1,
        "mtCount": 3,
        "jgCount": 55
    },
    {
        "name": "[MiStar]\u9b45\u598d\u793e VOL.063 \u7a0b\u5c0f\u70e6\u4e0d\u70e6",
        "src": "http://d.duotuwang.com/2016/02/26/1295/0.jpg",
        "mtId": "dac11d91352f90c5",
        "mtName": "\u7a0b\u5c0f\u70e6\u4e0d\u70e6",
        "jgId": "mistar",
        "jgName": "\u9b45\u598d\u793e",
        "href": "http://d.duotuwang.com/2016/02/26/1295/",
        "count": 60,
        "start": 1,
        "hasMtTag": 1,
        "hasJgTag": 1,
        "mtCount": 3,
        "jgCount": 55
    },
    {
        "name": "[IMISS]\u7231\u871c\u793e VOL.067 \u7a0b\u5c0f\u70e6\u4e0d\u70e6",
        "src": "http://d.duotuwang.com/2016/02/14/1275/0.jpg",
        "mtId": "dac11d91352f90c5",
        "mtName": "\u7a0b\u5c0f\u70e6\u4e0d\u70e6",
        "jgId": "imiss",
        "jgName": "\u7231\u871c\u793e",
        "href": "http://d.duotuwang.com/2016/02/14/1275/",
        "count": 54,
        "start": 1,
        "hasMtTag": 1,
        "hasJgTag": 1,
        "mtCount": 3,
        "jgCount": 116
    },
    {
        "name": "[IMISS]\u7231\u871c\u793e VOL.059 \u7a0b\u5c0f\u70e6\u4e0d\u70e6",
        "src": "http://d.duotuwang.com/2016/01/14/1205/0.jpg",
        "mtId": "dac11d91352f90c5",
        "mtName": "\u7a0b\u5c0f\u70e6\u4e0d\u70e6",
        "jgId": "imiss",
        "jgName": "\u7231\u871c\u793e",
        "href": "http://d.duotuwang.com/2016/01/14/1205/",
        "count": 55,
        "start": 1,
        "hasMtTag": 1,
        "hasJgTag": 1,
        "mtCount": 3,
        "jgCount": 116
    },
    {
        "name": "[IMISS]\u7231\u871c\u793e VOL.057 \u7a0b\u5c0f\u70e6\u4e0d\u70e6",
        "src": "http://d.duotuwang.com/2016/01/05/1180/0.jpg",
        "mtId": "dac11d91352f90c5",
        "mtName": "\u7a0b\u5c0f\u70e6\u4e0d\u70e6",
        "jgId": "imiss",
        "jgName": "\u7231\u871c\u793e",
        "href": "http://d.duotuwang.com/2016/01/05/1180/",
        "count": 55,
        "start": 1,
        "hasMtTag": 1,
        "hasJgTag": 1,
        "mtCount": 3,
        "jgCount": 116
    }
]