[
    {
        "name": "[UGirlsAPP]\u7231\u5c24\u7269 No.1909 \u53f6\u5b50 \u4e8b\u53f6\u6709\u6210",
        "src": "http://d.duotuwang.com/2020/09/13/22017/0.jpg",
        "mtId": "b8559edbd73e19d2",
        "mtName": "\u53f6\u5b50",
        "jgId": "ugirlsapp",
        "jgName": "\u7231\u5c24\u7269",
        "href": "http://d.duotuwang.com/2020/09/13/22017/",
        "count": 35,
        "start": 1,
        "hasMtTag": 1,
        "hasJgTag": 1,
        "mtCount": 1,
        "jgCount": 397
    },
    {
        "name": "[UGirlsAPP]\u7231\u5c24\u7269 No.1854 \u53f6\u5b50 \u590f\u5929\u590f\u751c",
        "src": "http://d.duotuwang.com/2020/06/28/20971/0.jpg",
        "mtId": "b8559edbd73e19d2",
        "mtName": "\u53f6\u5b50",
        "jgId": "ugirlsapp",
        "jgName": "\u7231\u5c24\u7269",
        "href": "http://d.duotuwang.com/2020/06/28/20971/",
        "count": 35,
        "start": 1,
        "hasMtTag": 1,
        "hasJgTag": 1,
        "mtCount": 1,
        "jgCount": 397
    },
    {
        "name": "[YouMei]\u5c24\u7f8e No.061 \u53f6\u5b50 \u6027\u611f\u732b\u5a18\u6027\u611f\u64a9\u4eba\u7684\u7761\u8863",
        "src": "http://d.duotuwang.com/2018/10/09/10517/0.jpg",
        "mtId": "b8559edbd73e19d2",
        "mtName": "\u53f6\u5b50",
        "jgId": "youmei",
        "jgName": "\u5c24\u7f8e\u7f51",
        "href": "http://d.duotuwang.com/2018/10/09/10517/",
        "count": 19,
        "start": 1,
        "hasMtTag": 1,
        "hasJgTag": 1,
        "mtCount": 1,
        "jgCount": 47
    },
    {
        "name": "[UGirls]\u5c24\u679c\u7f51 U307 \u53f6\u5b50",
        "src": "http://d.duotuwang.com/2017/09/22/6038/0.jpg",
        "mtId": "b8559edbd73e19d2",
        "mtName": "\u53f6\u5b50",
        "jgId": "ugirls",
        "jgName": "\u5c24\u679c\u7f51",
        "href": "http://d.duotuwang.com/2017/09/22/6038/",
        "count": 65,
        "start": 1,
        "hasMtTag": 1,
        "hasJgTag": 1,
        "mtCount": 1,
        "jgCount": 79
    },
    {
        "name": "[UGirlsAPP]\u7231\u5c24\u7269 No.851 \u53f6\u5b50",
        "src": "http://d.duotuwang.com/2017/09/15/6017/0.jpg",
        "mtId": "b8559edbd73e19d2",
        "mtName": "\u53f6\u5b50",
        "jgId": "ugirlsapp",
        "jgName": "\u7231\u5c24\u7269",
        "href": "http://d.duotuwang.com/2017/09/15/6017/",
        "count": 40,
        "start": 1,
        "hasMtTag": 1,
        "hasJgTag": 1,
        "mtCount": 1,
        "jgCount": 397
    }
]