[
    {
        "name": "[UXING]\u4f18\u661f\u9986 VOL.059 \u7329\u4e00",
        "src": "http://d.duotuwang.com/2017/07/27/5442/0.jpg",
        "mtId": "aa018fe08a695c0e",
        "mtName": "\u7329\u4e00",
        "jgId": "uxing",
        "jgName": "\u4f18\u661f\u9986",
        "href": "http://d.duotuwang.com/2017/07/27/5442/",
        "count": 40,
        "start": 1,
        "hasMtTag": 1,
        "hasJgTag": 1,
        "mtCount": 3,
        "jgCount": 10
    },
    {
        "name": "[XIUREN]\u79c0\u4eba\u7f51 No.764 \u7329\u4e00",
        "src": "http://d.duotuwang.com/2017/06/05/3927/0.jpg",
        "mtId": "aa018fe08a695c0e",
        "mtName": "\u7329\u4e00",
        "jgId": "xiuren",
        "jgName": "\u79c0\u4eba\u7f51",
        "href": "http://d.duotuwang.com/2017/06/05/3927/",
        "count": 40,
        "start": 1,
        "hasMtTag": 1,
        "hasJgTag": 1,
        "mtCount": 3,
        "jgCount": 750
    },
    {
        "name": "[UXING]\u4f18\u661f\u9986 VOL.052 \u7329\u4e00",
        "src": "http://d.duotuwang.com/2017/05/09/3838/0.jpg",
        "mtId": "aa018fe08a695c0e",
        "mtName": "\u7329\u4e00",
        "jgId": "uxing",
        "jgName": "\u4f18\u661f\u9986",
        "href": "http://d.duotuwang.com/2017/05/09/3838/",
        "count": 43,
        "start": 1,
        "hasMtTag": 1,
        "hasJgTag": 1,
        "mtCount": 3,
        "jgCount": 10
    },
    {
        "name": "[MyGirl]\u7f8e\u5a9b\u9986 VOL.243 \u7329\u4e00",
        "src": "http://d.duotuwang.com/2017/04/01/3708/0.jpg",
        "mtId": "aa018fe08a695c0e",
        "mtName": "\u7329\u4e00",
        "jgId": "mygirl",
        "jgName": "\u7f8e\u5a9b\u9986",
        "href": "http://d.duotuwang.com/2017/04/01/3708/",
        "count": 62,
        "start": 1,
        "hasMtTag": 1,
        "hasJgTag": 1,
        "mtCount": 3,
        "jgCount": 110
    },
    {
        "name": "[MiStar]\u9b45\u598d\u793e VOL.140 \u7329\u4e00",
        "src": "http://d.duotuwang.com/2016/12/05/1916/0.jpg",
        "mtId": "aa018fe08a695c0e",
        "mtName": "\u7329\u4e00",
        "jgId": "mistar",
        "jgName": "\u9b45\u598d\u793e",
        "href": "http://d.duotuwang.com/2016/12/05/1916/",
        "count": 50,
        "start": 1,
        "hasMtTag": 1,
        "hasJgTag": 1,
        "mtCount": 3,
        "jgCount": 55
    },
    {
        "name": "[MiStar]\u9b45\u598d\u793e VOL.133 \u7329\u4e00",
        "src": "http://d.duotuwang.com/2016/11/15/1796/0.jpg",
        "mtId": "aa018fe08a695c0e",
        "mtName": "\u7329\u4e00",
        "jgId": "mistar",
        "jgName": "\u9b45\u598d\u793e",
        "href": "http://d.duotuwang.com/2016/11/15/1796/",
        "count": 46,
        "start": 1,
        "hasMtTag": 1,
        "hasJgTag": 1,
        "mtCount": 3,
        "jgCount": 55
    }
]