[
    {
        "name": "[XIUREN]\u79c0\u4eba\u7f51 No.1351 \u5b8b-KiKi",
        "src": "http://d.duotuwang.com/2019/02/25/10762/0.jpg",
        "mtId": "4d58fddeaf850335",
        "mtName": "\u5b8b-KiKi",
        "jgId": "xiuren",
        "jgName": "\u79c0\u4eba\u7f51",
        "href": "http://d.duotuwang.com/2019/02/25/10762/",
        "count": 94,
        "start": 1,
        "hasMtTag": 1,
        "hasJgTag": 1,
        "mtCount": 8,
        "jgCount": 750
    },
    {
        "name": "[XIUREN\u79c0\u4eba\u7f51] No.1327 \u5b8b-KiKi",
        "src": "http://d.duotuwang.com/2019/02/01/10448/0.jpg",
        "mtId": "4d58fddeaf850335",
        "mtName": "\u5b8b-KiKi",
        "jgId": "xiuren",
        "jgName": "\u79c0\u4eba\u7f51",
        "href": "http://d.duotuwang.com/2019/02/01/10448/",
        "count": 43,
        "start": 1,
        "hasMtTag": 1,
        "hasJgTag": 1,
        "mtCount": 8,
        "jgCount": 750
    },
    {
        "name": "[XIUREN]\u79c0\u4eba\u7f51 No.1288 \u5b8b-KiKi",
        "src": "http://d.duotuwang.com/2018/12/26/10249/0.jpg",
        "mtId": "4d58fddeaf850335",
        "mtName": "\u5b8b-KiKi",
        "jgId": "xiuren",
        "jgName": "\u79c0\u4eba\u7f51",
        "href": "http://d.duotuwang.com/2018/12/26/10249/",
        "count": 40,
        "start": 1,
        "hasMtTag": 1,
        "hasJgTag": 1,
        "mtCount": 8,
        "jgCount": 750
    },
    {
        "name": "[XIUREN]\u79c0\u4eba\u7f51 No.1265 \u5b8b-KiKi",
        "src": "http://d.duotuwang.com/2018/12/13/10161/0.jpg",
        "mtId": "4d58fddeaf850335",
        "mtName": "\u5b8b-KiKi",
        "jgId": "xiuren",
        "jgName": "\u79c0\u4eba\u7f51",
        "href": "http://d.duotuwang.com/2018/12/13/10161/",
        "count": 44,
        "start": 1,
        "hasMtTag": 1,
        "hasJgTag": 1,
        "mtCount": 8,
        "jgCount": 750
    },
    {
        "name": "[XIUREN]\u79c0\u4eba\u7f51 No.1242 \u5b8b-KiKi",
        "src": "http://d.duotuwang.com/2018/11/27/10097/0.jpg",
        "mtId": "4d58fddeaf850335",
        "mtName": "\u5b8b-KiKi",
        "jgId": "xiuren",
        "jgName": "\u79c0\u4eba\u7f51",
        "href": "http://d.duotuwang.com/2018/11/27/10097/",
        "count": 39,
        "start": 1,
        "hasMtTag": 1,
        "hasJgTag": 1,
        "mtCount": 8,
        "jgCount": 750
    },
    {
        "name": "[XIUREN]\u79c0\u4eba\u7f51 No.1202 \u5b8b-KiKi",
        "src": "http://d.duotuwang.com/2018/10/22/9811/0.jpg",
        "mtId": "4d58fddeaf850335",
        "mtName": "\u5b8b-KiKi",
        "jgId": "xiuren",
        "jgName": "\u79c0\u4eba\u7f51",
        "href": "http://d.duotuwang.com/2018/10/22/9811/",
        "count": 40,
        "start": 1,
        "hasMtTag": 1,
        "hasJgTag": 1,
        "mtCount": 8,
        "jgCount": 750
    }
]