[
    {
        "name": "[XIUREN]\u79c0\u4eba\u7f51 No.856 \u5b8b-KiKi",
        "src": "http://d.duotuwang.com/2017/11/27/6422/0.jpg",
        "mtId": "4d58fddeaf850335",
        "mtName": "\u5b8b-KiKi",
        "jgId": "xiuren",
        "jgName": "\u79c0\u4eba\u7f51",
        "href": "http://d.duotuwang.com/2017/11/27/6422/",
        "count": 38,
        "start": 1,
        "hasMtTag": 1,
        "hasJgTag": 1,
        "mtCount": 8,
        "jgCount": 750
    },
    {
        "name": "[HuaYang]\u82b1\u6f3eshow VOL.015 \u5b8b-KiKi",
        "src": "http://d.duotuwang.com/2017/11/10/6378/0.jpg",
        "mtId": "4d58fddeaf850335",
        "mtName": "\u5b8b-KiKi",
        "jgId": "huayang",
        "jgName": "\u82b1\u6f3eshow",
        "href": "http://d.duotuwang.com/2017/11/10/6378/",
        "count": 44,
        "start": 1,
        "hasMtTag": 1,
        "hasJgTag": 1,
        "mtCount": 8,
        "jgCount": 86
    },
    {
        "name": "[YOUMI]\u5c24\u871c\u835f VOL.079 \u5b8b-KiKi",
        "src": "http://d.duotuwang.com/2017/11/08/6387/0.jpg",
        "mtId": "4d58fddeaf850335",
        "mtName": "\u5b8b-KiKi",
        "jgId": "youmi",
        "jgName": "\u5c24\u871c\u835f",
        "href": "http://d.duotuwang.com/2017/11/08/6387/",
        "count": 44,
        "start": 1,
        "hasMtTag": 1,
        "hasJgTag": 1,
        "mtCount": 8,
        "jgCount": 143
    },
    {
        "name": "[XIUREN]\u79c0\u4eba\u7f51 No.842 \u5b8b-KiKi",
        "src": "http://d.duotuwang.com/2017/11/01/6365/0.jpg",
        "mtId": "4d58fddeaf850335",
        "mtName": "\u5b8b-KiKi",
        "jgId": "xiuren",
        "jgName": "\u79c0\u4eba\u7f51",
        "href": "http://d.duotuwang.com/2017/11/01/6365/",
        "count": 45,
        "start": 1,
        "hasMtTag": 1,
        "hasJgTag": 1,
        "mtCount": 8,
        "jgCount": 750
    },
    {
        "name": "[HuaYang]\u82b1\u6f3eshow VOL.013 \u5b8b-KiKi",
        "src": "http://d.duotuwang.com/2017/10/27/6341/0.jpg",
        "mtId": "4d58fddeaf850335",
        "mtName": "\u5b8b-KiKi",
        "jgId": "huayang",
        "jgName": "\u82b1\u6f3eshow",
        "href": "http://d.duotuwang.com/2017/10/27/6341/",
        "count": 41,
        "start": 1,
        "hasMtTag": 1,
        "hasJgTag": 1,
        "mtCount": 8,
        "jgCount": 86
    },
    {
        "name": "[XIUREN]\u79c0\u4eba\u7f51 No.838 \u5b8b-KiKi",
        "src": "http://d.duotuwang.com/2017/10/25/6350/0.jpg",
        "mtId": "4d58fddeaf850335",
        "mtName": "\u5b8b-KiKi",
        "jgId": "xiuren",
        "jgName": "\u79c0\u4eba\u7f51",
        "href": "http://d.duotuwang.com/2017/10/25/6350/",
        "count": 41,
        "start": 1,
        "hasMtTag": 1,
        "hasJgTag": 1,
        "mtCount": 8,
        "jgCount": 750
    }
]