[
    {
        "name": "[MyGirl]\u7f8e\u5a9b\u9986 Vol.028 \u7f8e\u5b9dmerry",
        "src": "http://d.duotuwang.com/2014/08/22/538/0.jpg",
        "mtId": "3ae244a7497cebb1",
        "mtName": "\u7f8e\u5b9dmerry",
        "jgId": "mygirl",
        "jgName": "\u7f8e\u5a9b\u9986",
        "href": "http://d.duotuwang.com/2014/08/22/538/",
        "count": 42,
        "start": 1,
        "hasMtTag": 1,
        "hasJgTag": 1,
        "mtCount": 2,
        "jgCount": 110
    }
]