[
    {
        "name": "[XIUREN]\u79c0\u4eba\u7f51 No.3387 \u9c7c\u5b50\u9171Fish",
        "src": "http://d.duotuwang.com/2021/05/08/25016/0.jpg",
        "mtId": "2606e0481db6777f",
        "mtName": "\u9c7c\u5b50\u9171Fish",
        "jgId": "xiuren",
        "jgName": "\u79c0\u4eba\u7f51",
        "href": "http://d.duotuwang.com/2021/05/08/25016/",
        "count": 84,
        "start": 1,
        "hasMtTag": 1,
        "hasJgTag": 1,
        "mtCount": 16,
        "jgCount": 750
    },
    {
        "name": "[XIUREN]\u79c0\u4eba\u7f51 No.3339 \u9c7c\u5b50\u9171Fish",
        "src": "http://d.duotuwang.com/2021/04/23/24968/0.jpg",
        "mtId": "2606e0481db6777f",
        "mtName": "\u9c7c\u5b50\u9171Fish",
        "jgId": "xiuren",
        "jgName": "\u79c0\u4eba\u7f51",
        "href": "http://d.duotuwang.com/2021/04/23/24968/",
        "count": 74,
        "start": 1,
        "hasMtTag": 1,
        "hasJgTag": 1,
        "mtCount": 16,
        "jgCount": 750
    },
    {
        "name": "[XIUREN]\u79c0\u4eba\u7f51 No.3312 \u9c7c\u5b50\u9171Fish",
        "src": "http://d.duotuwang.com/2021/04/15/24856/0.jpg",
        "mtId": "2606e0481db6777f",
        "mtName": "\u9c7c\u5b50\u9171Fish",
        "jgId": "xiuren",
        "jgName": "\u79c0\u4eba\u7f51",
        "href": "http://d.duotuwang.com/2021/04/15/24856/",
        "count": 69,
        "start": 1,
        "hasMtTag": 1,
        "hasJgTag": 1,
        "mtCount": 16,
        "jgCount": 750
    },
    {
        "name": "[XIUREN]\u79c0\u4eba\u7f51 No.3289 \u9c7c\u5b50\u9171Fish",
        "src": "http://d.duotuwang.com/2021/04/09/24750/0.jpg",
        "mtId": "2606e0481db6777f",
        "mtName": "\u9c7c\u5b50\u9171Fish",
        "jgId": "xiuren",
        "jgName": "\u79c0\u4eba\u7f51",
        "href": "http://d.duotuwang.com/2021/04/09/24750/",
        "count": 62,
        "start": 1,
        "hasMtTag": 1,
        "hasJgTag": 1,
        "mtCount": 16,
        "jgCount": 750
    },
    {
        "name": "[XIUREN]\u79c0\u4eba\u7f51 No.3249 \u9c7c\u5b50\u9171Fish",
        "src": "http://d.duotuwang.com/2021/03/26/24515/0.jpg",
        "mtId": "2606e0481db6777f",
        "mtName": "\u9c7c\u5b50\u9171Fish",
        "jgId": "xiuren",
        "jgName": "\u79c0\u4eba\u7f51",
        "href": "http://d.duotuwang.com/2021/03/26/24515/",
        "count": 82,
        "start": 1,
        "hasMtTag": 1,
        "hasJgTag": 1,
        "mtCount": 16,
        "jgCount": 750
    },
    {
        "name": "[XIUREN]\u79c0\u4eba\u7f51 No.3196 \u9c7c\u5b50\u9171Fish",
        "src": "http://d.duotuwang.com/2021/03/12/24462/0.jpg",
        "mtId": "2606e0481db6777f",
        "mtName": "\u9c7c\u5b50\u9171Fish",
        "jgId": "xiuren",
        "jgName": "\u79c0\u4eba\u7f51",
        "href": "http://d.duotuwang.com/2021/03/12/24462/",
        "count": 62,
        "start": 1,
        "hasMtTag": 1,
        "hasJgTag": 1,
        "mtCount": 16,
        "jgCount": 750
    }
]