{
    "name": "\u6211\u4eec\u7684\u5a5a\u59fb",
    "zy": "\u767d\u767e\u4f55,\u4f5f\u5927\u4e3a,\u848b\u6b23,\u9ad8\u53f6,\u738b\u9a81,\u662f\u5b89,\u5f20\u54f2\u534e,\u66f9\u66e6\u6587,\u5f20\u6668\u5149,\u90ac\u541b\u6885,\u4f5f\u60a6,\u90d1\u5408\u60e0\u5b50,\u90dd\u5e73,\u7530\u5c0f\u6d01,\u6768\u65b0\u9e23,\u8c2d\u51ef,\u8d75\u8fbe",
    "year": "2022",
    "jiList": [
        {
            "name": "\u7b2c01\u96c6",
            "url": "https://v.v1kd.com/20220223/KZAsEPO2/index.m3u8"
        },
        {
            "name": "\u7b2c02\u96c6",
            "url": "https://v.v1kd.com/20220223/oJRjzOHK/index.m3u8"
        },
        {
            "name": "\u7b2c03\u96c6",
            "url": "https://v.v1kd.com/20220223/hLtG88u4/index.m3u8"
        },
        {
            "name": "\u7b2c04\u96c6",
            "url": "https://v.v1kd.com/20220223/NvaxcGpm/index.m3u8"
        },
        {
            "name": "\u7b2c05\u96c6",
            "url": "https://v.v1kd.com/20220223/bud24d4I/index.m3u8"
        },
        {
            "name": "\u7b2c06\u96c6",
            "url": "https://v.v1kd.com/20220223/8oauw3nj/index.m3u8"
        },
        {
            "name": "\u7b2c07\u96c6",
            "url": "https://v.v1kd.com/20220224/Mu4CtNAe/index.m3u8"
        },
        {
            "name": "\u7b2c08\u96c6",
            "url": "https://v.v1kd.com/20220224/4IhVbS82/index.m3u8"
        },
        {
            "name": "\u7b2c09\u96c6",
            "url": "https://v.v1kd.com/20220225/rAyxzct1/index.m3u8"
        },
        {
            "name": "\u7b2c10\u96c6",
            "url": "https://v.v1kd.com/20220225/VP270IaD/index.m3u8"
        },
        {
            "name": "\u7b2c11\u96c6",
            "url": "https://v.v1kd.com/20220226/qs0DKIL0/index.m3u8"
        },
        {
            "name": "\u7b2c12\u96c6",
            "url": "https://v.v1kd.com/20220227/p11GU8fE/index.m3u8"
        },
        {
            "name": "\u7b2c13\u96c6",
            "url": "https://v.v1kd.com/20220227/3TBA2uMP/index.m3u8"
        },
        {
            "name": "\u7b2c14\u96c6",
            "url": "https://v.v1kd.com/20220228/ESodffPJ/index.m3u8"
        },
        {
            "name": "\u7b2c15\u96c6",
            "url": "https://v.v1kd.com/20220228/MPILAmKS/index.m3u8"
        },
        {
            "name": "\u7b2c16\u96c6",
            "url": "https://v.v1kd.com/20220301/TKsdHhzm/index.m3u8"
        },
        {
            "name": "\u7b2c17\u96c6",
            "url": "https://v.v1kd.com/20220301/3oBWIgSw/index.m3u8"
        },
        {
            "name": "\u7b2c18\u96c6",
            "url": "https://v.v1kd.com/20220303/lQzU1Eu0/index.m3u8"
        },
        {
            "name": "\u7b2c19\u96c6",
            "url": "https://v.v1kd.com/20220303/kI6mmIoD/index.m3u8"
        },
        {
            "name": "\u7b2c20\u96c6",
            "url": "https://v.v1kd.com/20220303/IrWjGgLw/index.m3u8"
        },
        {
            "name": "\u7b2c21\u96c6",
            "url": "https://v.v1kd.com/20220303/xwVXnbge/index.m3u8"
        },
        {
            "name": "\u7b2c22\u96c6",
            "url": "https://v.v1kd.com/20220305/rHRoP3ji/index.m3u8"
        },
        {
            "name": "\u7b2c23\u96c6",
            "url": "https://v.v1kd.com/20220306/U3VfxRkq/index.m3u8"
        },
        {
            "name": "\u7b2c24\u96c6",
            "url": "https://v.v1kd.com/20220306/EIF2VTke/index.m3u8"
        },
        {
            "name": "\u7b2c25\u96c6",
            "url": "https://v.v1kd.com/20220307/pMww96u7/index.m3u8"
        },
        {
            "name": "\u7b2c26\u96c6",
            "url": "https://v.v1kd.com/20220307/C4XyeIuj/index.m3u8"
        },
        {
            "name": "\u7b2c27\u96c6",
            "url": "https://v.v1kd.com/20220308/iF7EDhhS/index.m3u8"
        },
        {
            "name": "\u7b2c28\u96c6",
            "url": "https://v.v1kd.com/20220308/RT89m8S5/index.m3u8"
        },
        {
            "name": "\u7b2c29\u96c6",
            "url": "https://v.v1kd.com/20220309/sXJ0HGgm/index.m3u8"
        },
        {
            "name": "\u7b2c30\u96c6",
            "url": "https://v.v1kd.com/20220309/z5tJR2Z6/index.m3u8"
        },
        {
            "name": "\u7b2c31\u96c6",
            "url": "https://v.v1kd.com/20220310/0bcL8mCQ/index.m3u8"
        },
        {
            "name": "\u7b2c32\u96c6",
            "url": "https://v.v1kd.com/20220310/0r5Q47VW/index.m3u8"
        },
        {
            "name": "\u7b2c33\u96c6",
            "url": "https://v.v1kd.com/20220311/NlAnf4ld/index.m3u8"
        },
        {
            "name": "\u7b2c34\u96c6",
            "url": "https://v.v1kd.com/20220311/KyJdzmUu/index.m3u8"
        },
        {
            "name": "\u7b2c35\u96c6",
            "url": "https://v.v1kd.com/20220312/z95JIalk/index.m3u8"
        },
        {
            "name": "\u7b2c36\u96c6",
            "url": "https://v.v1kd.com/20220314/qrLXHsCu/index.m3u8"
        },
        {
            "name": "\u7b2c37\u96c6",
            "url": "https://v.v1kd.com/20220314/f5pMav9L/index.m3u8"
        },
        {
            "name": "\u7b2c38\u96c6",
            "url": "https://v.v1kd.com/20220315/iipVJWFX/index.m3u8"
        }
    ]
}