[
    {
        "id": "630246775",
        "title": "\u3010\u66b4\u5bcc\u5c0f\u5976\u864e\u3011\u613f\u6211\u7684\u7231\u60c5\u50cf\u9633\u5149\u4e00\u6837\u5305\u56f4\u7740\u4f60\uff0c\u53c8\u7ed9\u4f60\u5149\u8f89\u707f\u70c2\u7684\u81ea\u7531\u3002",
        "src": "http://v-huya-img2.msstatic.com/screenshot/2152/630246775/99.jpg?x-oss-process=style/460x268&amp;amp;v=6b1d5cd46332d4a3b8bd6111ef1559581640659922",
        "url": "http://videotx-platform.cdn.huya.com/1048585/1279538662909/34049137/dbb55565fb3aec813c9f725cdb05777d.m3u8?bitrate=2130&client=106&definition=1300&pid=1279538662909&scene=vod&vid=630246775"
    },
    {
        "id": "628247897",
        "title": "\u3010\u66b4\u5bcc\u5c0f\u5976\u864e\u3011 \u9047\u89c1\u4f60\u4e4b\u524d\u5c71\u662f\u5c71 \u4e4b\u540e\u6211\u4eec\u5171\u8d74\u5deb\u5c71",
        "src": "http://v-huya-img2.msstatic.com/screenshot/2151/628247897/99.jpg?x-oss-process=style/460x268&amp;amp;v=9adbefe0e9e41d6cc97df84ca1d2b3d61640322014",
        "url": "http://videohw-platform.cdn.huya.com/1048585/1279538662909/33897063/970385ab047dfe9ace39bd6ddef934db.m3u8?bitrate=2117&client=106&definition=1300&pid=1279538662909&scene=vod&vid=628247897"
    },
    {
        "id": "626721323",
        "title": "\u3010\u66b4\u5bcc\u5c0f\u5976\u864e\u3011#\u82b1\u5f0f\u8fc7\u5723\u8bde#",
        "src": "http://v-huya-img2.msstatic.com/screenshot/2151/626721323/99.jpg?x-oss-process=style/460x268&amp;amp;v=f0afda02151e02523555a85cf3d10d911640081806",
        "url": "http://videotx-platform.cdn.huya.com/1048585/1279538662909/33653779/6d91c6c25b2f7a1a52ddd37bf2e09e53.m3u8?bitrate=1655&client=106&definition=1300&pid=1279538662909&scene=vod&vid=626721323"
    },
    {
        "id": "624746003",
        "title": "\u3010\u66b4\u5bcc\u5c0f\u5976\u864e\u3011\u6211\u7231\u8fd9\u4e2a\u4e16\u754c \u66f4\u7231\u4f60",
        "src": "http://v-huya-img2.msstatic.com/screenshot/2150/624746003/99.jpg?x-oss-process=style/460x268&amp;amp;v=d32f9c9a341e3ed0f6da5da3b5d3233e1639798654",
        "url": "http://videohw-platform.cdn.huya.com/1048585/1279538662909/33210011/90c7ad36b967a8d671870abfc947bf13.m3u8?bitrate=2146&client=106&definition=1300&pid=1279538662909&scene=vod&vid=624746003"
    },
    {
        "id": "617446009",
        "title": "\u3010\u66b4\u5bcc\u5c0f\u5976\u864e\u3011\u4f60\u662f\u4e16\u754c\u4e0a\u6700\u53ef\u7231\u7684\u5c0f\u661f\u661f\uff0c\u6211\u7231\u4e86\u6574\u4e2a\u5b87\u5b99\uff0c\u53ea\u4e3a\u8ddf\u4f60\u78b0\u5934\u3002",
        "src": "http://v-huya-img2.msstatic.com/screenshot/2148/617446009/99.jpg?x-oss-process=style/460x268&amp;amp;v=b482cc8cb43c78c150abd44133ef5a2c1638602932",
        "url": "http://videohw-platform.cdn.huya.com/1048585/1279538662909/32465205/d59c9761e6b47352546ecda3d7dbedee.m3u8?bitrate=2012&client=106&definition=1300&pid=1279538662909&scene=vod&vid=617446009"
    },
    {
        "id": "615908973",
        "title": "\u3010\u66b4\u5bcc\u5c0f\u5976\u864e\u3011\u80e1\u601d\u4e71\u60f3\u5c31\u662f\u6211\u7231\u4f60\u7684\u8bc1\u660e",
        "src": "http://v-huya-img2.msstatic.com/screenshot/2148/615908973/99.jpg?x-oss-process=style/460x268&amp;amp;v=7dd6bb9ef9f05f0fb305648d9a3186161638346113",
        "url": "http://videohw-platform.cdn.huya.com/1048585/1279538662909/32324407/214583e007460ada6a5177bb1d91460d.m3u8?bitrate=2006&client=106&definition=1300&pid=1279538662909&scene=vod&vid=615908973"
    },
    {
        "id": "615821273",
        "title": "\u3010\u66b4\u5bcc\u5c0f\u5976\u864e\u3011#\u51ac\u5929\u4e0d\u8981\u8d56\u5e8a\u4e86#\u4f60\u5feb\u6765\u54c4\u4eba\u5bb6\u8d77\u5e8a\u561b~",
        "src": "http://v-huya-img2.msstatic.com/screenshot/2148/615821273/99.jpg?x-oss-process=style/460x268&amp;amp;v=8df4221730d06d8efc548911ae6960a11638330868",
        "url": "http://videohw-platform.cdn.huya.com/1048585/1279538662909/32312217/39b6ecd5ed1484591b5aad1261b0397a.m3u8?bitrate=2189&client=106&definition=1300&pid=1279538662909&scene=vod&vid=615821273"
    }
]