[
    {
        "name": "[YALAYI]\u96c5\u62c9\u4f0a Y833 \u591a\u9999\u5b50 \u5c0f\u61a9",
        "src": "http://d.duotuwang.com/2021/09/01/26462/0.jpg",
        "mtId": "79fefdb1081c5f99",
        "mtName": "\u591a\u9999\u5b50",
        "jgId": "yalayi",
        "jgName": "\u96c5\u62c9\u4f0a",
        "href": "http://d.duotuwang.com/2021/09/01/26462/",
        "count": 33,
        "start": 1,
        "hasMtTag": 1,
        "hasJgTag": 1,
        "mtCount": 2,
        "jgCount": 156
    },
    {
        "name": "[YALAYI]\u96c5\u62c9\u4f0a Y714 \u591a\u9999\u5b50 \u81ea\u5a31",
        "src": "http://d.duotuwang.com/2020/10/16/22808/0.jpg",
        "mtId": "79fefdb1081c5f99",
        "mtName": "\u591a\u9999\u5b50",
        "jgId": "yalayi",
        "jgName": "\u96c5\u62c9\u4f0a",
        "href": "http://d.duotuwang.com/2020/10/16/22808/",
        "count": 34,
        "start": 1,
        "hasMtTag": 1,
        "hasJgTag": 1,
        "mtCount": 2,
        "jgCount": 156
    },
    {
        "name": "[MFStar]\u6a21\u8303\u5b66\u9662 VOL.236 \u591a\u9999\u5b50",
        "src": "http://d.duotuwang.com/2019/12/03/18774/0.jpg",
        "mtId": "79fefdb1081c5f99",
        "mtName": "\u591a\u9999\u5b50",
        "jgId": "mfstar",
        "jgName": "\u6a21\u8303\u5b66\u9662",
        "href": "http://d.duotuwang.com/2019/12/03/18774/",
        "count": 40,
        "start": 1,
        "hasMtTag": 1,
        "hasJgTag": 1,
        "mtCount": 2,
        "jgCount": 94
    },
    {
        "name": "[YALAYI]\u96c5\u62c9\u4f0a Y033 \u591a\u9999\u5b50 \u5815\u843d\u5929\u4f7f",
        "src": "http://d.duotuwang.com/2018/12/26/15919/0.jpg",
        "mtId": "79fefdb1081c5f99",
        "mtName": "\u591a\u9999\u5b50",
        "jgId": "yalayi",
        "jgName": "\u96c5\u62c9\u4f0a",
        "href": "http://d.duotuwang.com/2018/12/26/15919/",
        "count": 37,
        "start": 1,
        "hasMtTag": 1,
        "hasJgTag": 1,
        "mtCount": 2,
        "jgCount": 156
    },
    {
        "name": "[YALAYI]\u96c5\u62c9\u4f0a Y032 \u591a\u9999\u5b50 \u548c\u670d\u5973\u4f18",
        "src": "http://d.duotuwang.com/2018/11/25/15887/0.jpg",
        "mtId": "79fefdb1081c5f99",
        "mtName": "\u591a\u9999\u5b50",
        "jgId": "yalayi",
        "jgName": "\u96c5\u62c9\u4f0a",
        "href": "http://d.duotuwang.com/2018/11/25/15887/",
        "count": 39,
        "start": 1,
        "hasMtTag": 1,
        "hasJgTag": 1,
        "mtCount": 2,
        "jgCount": 156
    },
    {
        "name": "[XIUREN]\u79c0\u4eba\u7f51 No.1218 \u591a\u9999\u5b50",
        "src": "http://d.duotuwang.com/2018/11/05/9896/0.jpg",
        "mtId": "79fefdb1081c5f99",
        "mtName": "\u591a\u9999\u5b50",
        "jgId": "xiuren",
        "jgName": "\u79c0\u4eba\u7f51",
        "href": "http://d.duotuwang.com/2018/11/05/9896/",
        "count": 45,
        "start": 1,
        "hasMtTag": 1,
        "hasJgTag": 1,
        "mtCount": 2,
        "jgCount": 750
    }
]