[
    {
        "name": "[UGirlsAPP]\u7231\u5c24\u7269 No.2274 \u989c\u989c \u679c\u8272\u5929\u9999",
        "src": "http://d.duotuwang.com/2022/02/07/28372/0.jpg",
        "mtId": "fd925a404fd7d11d",
        "mtName": "\u989c\u989c",
        "jgId": "ugirlsapp",
        "jgName": "\u7231\u5c24\u7269",
        "href": "http://d.duotuwang.com/2022/02/07/28372/",
        "count": 35,
        "start": 1,
        "hasMtTag": 1,
        "hasJgTag": 1,
        "mtCount": 1,
        "jgCount": 397
    },
    {
        "name": "[UGirlsAPP]\u7231\u5c24\u7269 No.1301 \u989c\u989c \u989c\u6740",
        "src": "http://d.duotuwang.com/2018/12/11/10136/0.jpg",
        "mtId": "fd925a404fd7d11d",
        "mtName": "\u989c\u989c",
        "jgId": "ugirlsapp",
        "jgName": "\u7231\u5c24\u7269",
        "href": "http://d.duotuwang.com/2018/12/11/10136/",
        "count": 35,
        "start": 1,
        "hasMtTag": 1,
        "hasJgTag": 1,
        "mtCount": 1,
        "jgCount": 397
    },
    {
        "name": "[UGirlsAPP]\u7231\u5c24\u7269 No.1120 \u989c\u989c",
        "src": "http://d.duotuwang.com/2018/06/13/9142/0.jpg",
        "mtId": "fd925a404fd7d11d",
        "mtName": "\u989c\u989c",
        "jgId": "ugirlsapp",
        "jgName": "\u7231\u5c24\u7269",
        "href": "http://d.duotuwang.com/2018/06/13/9142/",
        "count": 35,
        "start": 1,
        "hasMtTag": 1,
        "hasJgTag": 1,
        "mtCount": 1,
        "jgCount": 397
    }
]