[
    {
        "name": "[YouMi]\u5c24\u871c 2021.02.28 \u5f20\u96e8\u840c",
        "src": "http://d.duotuwang.com/2021/02/28/24621/0.jpg",
        "mtId": "f3366c5dc0e9677b",
        "mtName": "\u5f20\u96e8\u840c",
        "jgId": "youmiabc",
        "jgName": "\u5c24\u871c",
        "href": "http://d.duotuwang.com/2021/02/28/24621/",
        "count": 30,
        "start": 1,
        "hasMtTag": 1,
        "hasJgTag": 1,
        "mtCount": 10,
        "jgCount": 79
    },
    {
        "name": "[XIUREN]\u79c0\u4eba\u7f51 No.3117 \u840c\u6c49\u836fbaby&\u5f20\u96e8\u840c",
        "src": "http://d.duotuwang.com/2021/02/22/24293/0.jpg",
        "mtId": "830ea5862a484115",
        "mtName": "\u840c\u6c49\u836fbaby",
        "jgId": "xiuren",
        "jgName": "\u79c0\u4eba\u7f51",
        "href": "http://d.duotuwang.com/2021/02/22/24293/",
        "count": 49,
        "start": 1,
        "hasMtTag": 1,
        "hasJgTag": 1,
        "mtCount": 17,
        "jgCount": 750
    },
    {
        "name": "[XIUREN]\u79c0\u4eba\u7f51 No.3077 \u5f20\u96e8\u840c",
        "src": "http://d.duotuwang.com/2021/02/03/24082/0.jpg",
        "mtId": "f3366c5dc0e9677b",
        "mtName": "\u5f20\u96e8\u840c",
        "jgId": "xiuren",
        "jgName": "\u79c0\u4eba\u7f51",
        "href": "http://d.duotuwang.com/2021/02/03/24082/",
        "count": 57,
        "start": 1,
        "hasMtTag": 1,
        "hasJgTag": 1,
        "mtCount": 10,
        "jgCount": 750
    },
    {
        "name": "[XIUREN]\u79c0\u4eba\u7f51 No.3018 \u5f20\u96e8\u840c",
        "src": "http://d.duotuwang.com/2021/01/19/23922/0.jpg",
        "mtId": "f3366c5dc0e9677b",
        "mtName": "\u5f20\u96e8\u840c",
        "jgId": "xiuren",
        "jgName": "\u79c0\u4eba\u7f51",
        "href": "http://d.duotuwang.com/2021/01/19/23922/",
        "count": 37,
        "start": 1,
        "hasMtTag": 1,
        "hasJgTag": 1,
        "mtCount": 10,
        "jgCount": 750
    },
    {
        "name": "[XIUREN]\u79c0\u4eba\u7f51 No.2906 \u840c\u6c49\u836fbaby&\u5f20\u96e8\u840c",
        "src": "http://d.duotuwang.com/2020/12/17/23549/0.jpg",
        "mtId": "830ea5862a484115",
        "mtName": "\u840c\u6c49\u836fbaby",
        "jgId": "xiuren",
        "jgName": "\u79c0\u4eba\u7f51",
        "href": "http://d.duotuwang.com/2020/12/17/23549/",
        "count": 58,
        "start": 1,
        "hasMtTag": 1,
        "hasJgTag": 1,
        "mtCount": 17,
        "jgCount": 750
    },
    {
        "name": "[XIUREN]\u79c0\u4eba\u7f51 No.2896 \u5f20\u96e8\u840c",
        "src": "http://d.duotuwang.com/2020/12/15/23539/0.jpg",
        "mtId": "f3366c5dc0e9677b",
        "mtName": "\u5f20\u96e8\u840c",
        "jgId": "xiuren",
        "jgName": "\u79c0\u4eba\u7f51",
        "href": "http://d.duotuwang.com/2020/12/15/23539/",
        "count": 45,
        "start": 1,
        "hasMtTag": 1,
        "hasJgTag": 1,
        "mtCount": 10,
        "jgCount": 750
    }
]