[
    {
        "id": "584564711",
        "title": "\u3010\u6b23\u5b9d\u3011\u9047\u5230\u4f60\uff1d\u4e09\u751f\u6709\u5e78[Mark]",
        "src": "http://v-huya-img2.msstatic.com/screenshot/2139/584564711/99.jpg?x-oss-process=style/460x268&amp;amp;v=5909252581076dbc44389eee87dc7fbd1633093543",
        "url": "http://videotx-platform.cdn.huya.com/1048585/1625511954/28971317/9fad309f43adae193a18831c870fcd35.m3u8?bitrate=2068&client=106&definition=1300&pid=1625511954&scene=vod&vid=584564711"
    },
    {
        "id": "584563249",
        "title": "\u3010\u6b23\u5b9d\u3011Oh\uff01\u6211\u7684\u5c0f\u5fc3\u810f\uff01Get You out of My Head",
        "src": "http://v-huya-img2.msstatic.com/screenshot/2139/584563249/99.jpg?x-oss-process=style/460x268&amp;amp;v=75b61ed3af4bd3f838a7dd81cd4e1d921633093457",
        "url": "http://videobd-platform.cdn.huya.com/1048585/1625511954/28971211/3facbd9ed1135caaf15acc1e28f105a9.m3u8?bitrate=2059&client=106&definition=1300&pid=1625511954&scene=vod&vid=584563249"
    },
    {
        "id": "583109225",
        "title": "\u3010\u6b23\u5b9d\u3011\u4f55\u4ee5\u89e3\u5fe7\uff0c\u552f\u6709\u8fd9\u91cc\uff01[Such a Whore]",
        "src": "http://v-huya-img2.msstatic.com/screenshot/2139/583109225/99.jpg?x-oss-process=style/460x268&amp;amp;v=075e4347fc4837d28a55e951cba295a71632840930",
        "url": "http://videotx-platform.cdn.huya.com/1048585/1625511954/28823057/8f6f46526896298f6a6288a578e31dae.m3u8?bitrate=2064&client=106&definition=1300&pid=1625511954&scene=vod&vid=583109225"
    },
    {
        "id": "582598403",
        "title": "\u3010\u6b23\u5b9d\u3011\u82cf\u5582\u82cf\u5582\u82cf\u5582\uff01\uff01\uff01[Sway]",
        "src": "http://v-huya-img2.msstatic.com/screenshot/2139/582598403/99.jpg?x-oss-process=style/460x268&amp;amp;v=07dc89ac14cc139bd9fdbb6f64c852021632753773",
        "url": "http://videohw-platform.cdn.huya.com/1048585/1625511954/28776273/683f6f2c314ad4f63a4e512b2c5d6d43.m3u8?bitrate=2065&client=106&definition=1300&pid=1625511954&scene=vod&vid=582598403"
    },
    {
        "id": "582016015",
        "title": "\u3010\u6b23\u5b9d\u3011\u4e0d\u613f\u5931\u671b\uff0c\u6240\u4ee5\uff0c\u4f60\u6765\u5427~[\ube60\ube60\ube60 (Bar Bar Bar) ]",
        "src": "http://v-huya-img2.msstatic.com/screenshot/2138/582016015/99.jpg?x-oss-process=style/460x268&amp;amp;v=d531cfbaedd74670c715c2d39b3d79f91632658532",
        "url": "http://videotx-platform.cdn.huya.com/1048585/1625511954/28726915/d75fd0d4bb0cd45a51032cea266cde59.m3u8?bitrate=2069&client=106&definition=1300&pid=1625511954&scene=vod&vid=582016015"
    },
    {
        "id": "580958095",
        "title": "\u3010\u6b23\u5b9d\u3011\u8fd9\u98ce\u683c\u4f60\u518d\u4e0d\u559c\u6b22\uff0c\u90a3\u6211\u7ee7\u7eed\u6362\uff01[Premonition]",
        "src": "http://v-huya-img2.msstatic.com/screenshot/2138/580958095/99.jpg?x-oss-process=style/460x268&amp;amp;v=bf4cdb1d633b79f740e1b12129cfe7001632487483",
        "url": "http://videohw-platform.cdn.huya.com/1048585/1625511954/28605813/b8ab4c9e68c23b9086b05dd2f39c35f8.m3u8?bitrate=2070&client=106&definition=1300&pid=1625511954&scene=vod&vid=580958095"
    },
    {
        "id": "580453897",
        "title": "\u3010\u6b23\u5b9d\u3011\u6211\u6ef4\u4e2a\u4e56\u4e56\uff0c\u8fd9\u662f\u8c01\u5bb6\u7684\uff01[\u732b\u6b65\u8f7b\u6084]",
        "src": "http://v-huya-img2.msstatic.com/screenshot/2138/580453897/99.jpg?x-oss-process=style/460x268&amp;amp;v=e99c063b1e4925b95e63df26727099791632402842",
        "url": "http://videotx-platform.cdn.huya.com/1048585/1625511954/28562853/4e0d95eb3c2029b79642c9661e346d8e.m3u8?bitrate=2054&client=106&definition=1300&pid=1625511954&scene=vod&vid=580453897"
    },
    {
        "id": "580007787",
        "title": "\u3010\u6b23\u5b9d\u3011NoNoNo\uff0c\u4e0d\u662f\u6211\u4e0d\u60f3\u4f60\uff0c\u662f\u6211\u60f3\u4f60\u53ef\u4f60\u4e0d\u6765\uff01",
        "src": "http://v-huya-img2.msstatic.com/screenshot/2138/580007787/99.jpg?x-oss-process=style/460x268&amp;amp;v=d5c16595fbd2f9a274244a39205ce4681632322937",
        "url": "http://videotx-platform.cdn.huya.com/1048585/1625511954/28521523/8401b0c346f153652df416c6883af82a.m3u8?bitrate=2083&client=106&definition=1300&pid=1625511954&scene=vod&vid=580007787"
    },
    {
        "id": "578302385",
        "title": "\u3010\u6b23\u5b9d\u3011\u7ed9\u4e2a\u673a\u4f1a\uff0c\u8ba9\u6211\u505a\u4f60\u7684\u5fc3\u4e0a\u4eba[Make You Hustle]",
        "src": "http://v-huya-img2.msstatic.com/screenshot/2137/578302385/99.jpg?x-oss-process=style/460x268&amp;amp;v=a8b6c68b30a8841a40f1a28a4f8f06891632048160",
        "url": "http://videohw-platform.cdn.huya.com/1048585/1625511954/28380401/f919ab072c3af0f327ca82247fa4f7b5.m3u8?bitrate=2076&client=106&definition=1300&pid=1625511954&scene=vod&vid=578302385"
    },
    {
        "id": "577985857",
        "title": "\u3010\u6b23\u5b9d\u3011\u6ca1\u6709\u6211~\u662f\u4e07\u4e07\u4e0d\u884c\u7684\u54e6\uff01[Big big big big big]",
        "src": "http://v-huya-img2.msstatic.com/screenshot/2137/577985857/99.jpg?x-oss-process=style/460x268&amp;amp;v=7c61359fae63074ce08275bf3089e9b51631986627",
        "url": "http://videohw-platform.cdn.huya.com/1048585/1625511954/28352521/3fa451e8747a1fe0503b2dd2c60cffc1.m3u8?bitrate=2046&client=106&definition=1300&pid=1625511954&scene=vod&vid=577985857"
    },
    {
        "id": "577277811",
        "title": "\u3010\u6b23\u5b9d\u3011\u4f1a\u4e0d\u4f1a\u6709\u5e05\u6c14\u7684\u4eba\u6765\u770b\u6211\uff1f[Fresh Off The Grill]",
        "src": "http://v-huya-img2.msstatic.com/screenshot/2137/577277811/99.jpg?x-oss-process=style/460x268&amp;amp;v=a9eddea45f9793e2c7b14de5f076a9e01631885485",
        "url": "http://videotx-platform.cdn.huya.com/1048585/1625511954/28273951/9a8ab8e611d8b208e2c7d77d7c577104.m3u8?bitrate=1949&client=106&definition=1300&pid=1625511954&scene=vod&vid=577277811"
    },
    {
        "id": "575190527",
        "title": "\u3010\u6b23\u5b9d\u3011\u8fd9\u8c01\u9876\u5f97\u4f4f\u5440\uff01[\ub0b4\uac00 \uc6c3\ub294\uac8c \uc544\ub2c8\uc57c]",
        "src": "http://v-huya-img2.msstatic.com/screenshot/2137/575190527/99.jpg?x-oss-process=style/460x268&amp;amp;v=47c284f7629861f36470e554986fb8ed1631544404",
        "url": "http://videotx-platform.cdn.huya.com/1048585/1625511954/28077583/b0449cece27bb18272dde89be28723fa.m3u8?bitrate=2084&client=106&definition=1300&pid=1625511954&scene=vod&vid=575190527"
    },
    {
        "id": "573194959",
        "title": "\u3010\u6b23\u5b9d\u3011\u5fd8\u4e0d\u6389\u7684\u4eba\u5c31\u662f\u661f\u661f\uff0c\u6240\u4ee5\u661f\u661f\u4f60\u4ec0\u4e48\u65f6\u5019\u6765\uff1f[Roly Poly]",
        "src": "http://v-huya-img2.msstatic.com/screenshot/2136/573194959/99.jpg?x-oss-process=style/460x268&amp;amp;v=8156ffd099510d4a64e45e77cf63a72c1631358483",
        "url": "http://videotx-platform.cdn.huya.com/1048585/1625511954/27888131/f71879b3a0f9d126d572851271001991.m3u8?bitrate=2079&client=106&definition=1300&pid=1625511954&scene=vod&vid=573194959"
    },
    {
        "id": "573195349",
        "title": "\u76db\u4e16\u6b23\u5b9d\u2014\u6027\u611f\u97e9\u821e",
        "src": "http://v-huya-img2.msstatic.com/screenshot/2136/573195349/99.jpg?x-oss-process=style/460x268&amp;amp;amp;amp;v=1844562314ed062367c89ba3b5765b921631240173",
        "url": "http://videohw-platform.cdn.huya.com/1048585/1625511954/27888181/8bc3676a4da20d9a6f8f2ae14d7b8413.m3u8?bitrate=2018&client=106&definition=1300&pid=1625511954&scene=vod&vid=573195349"
    },
    {
        "id": "572396133",
        "title": "\u3010\u6b23\u5b9d\u3011blingbling\u7684\u773c\u91cc\u90fd\u662f\u4f60\u2764\ub108 \ubc16\uc5d0 \ubab0\ub77c",
        "src": "http://v-huya-img2.msstatic.com/screenshot/2136/572396133/99.jpg?x-oss-process=style/460x268&amp;amp;v=bd4aded5434a3ba770f3fa1f46168d901631110788",
        "url": "http://videotx-platform.cdn.huya.com/1048585/1625511954/27816117/5b3957d602d3b6bf984a97aba1a56566.m3u8?bitrate=2043&client=106&definition=1300&pid=1625511954&scene=vod&vid=572396133"
    }
]