[
    {
        "name": "[TGod]\u63a8\u5973\u795e 2016-04-24 \u9896\u83b9\u513fYY",
        "src": "http://d.duotuwang.com/2016/04/24/2538/0.jpg",
        "mtId": "9104e8966c1a5d5e",
        "mtName": "\u9896\u83b9\u513fYY",
        "jgId": "tgod",
        "jgName": "\u63a8\u5973\u795e",
        "href": "http://d.duotuwang.com/2016/04/24/2538/",
        "count": 40,
        "start": 1,
        "hasMtTag": 1,
        "hasJgTag": 1,
        "mtCount": 1,
        "jgCount": 78
    }
]