[
    {
        "name": "[YALAYI]\u96c5\u62c9\u4f0a Y466 \u52a0\u5948 \u5c0f\u53ef\u7231",
        "src": "http://d.duotuwang.com/2019/11/20/18688/0.jpg",
        "mtId": "8bff8db367358f27",
        "mtName": "\u52a0\u5948",
        "jgId": "yalayi",
        "jgName": "\u96c5\u62c9\u4f0a",
        "href": "http://d.duotuwang.com/2019/11/20/18688/",
        "count": 46,
        "start": 1,
        "hasMtTag": 1,
        "hasJgTag": 1,
        "mtCount": 1,
        "jgCount": 156
    },
    {
        "name": "[PDLONE]\u6f58\u591a\u62c9 No.485 \u52a0\u5948",
        "src": "http://d.duotuwang.com/2019/11/13/18555/0.jpg",
        "mtId": "8bff8db367358f27",
        "mtName": "\u52a0\u5948",
        "jgId": "pdlone",
        "jgName": "\u6f58\u591a\u62c9",
        "href": "http://d.duotuwang.com/2019/11/13/18555/",
        "count": 42,
        "start": 1,
        "hasMtTag": 1,
        "hasJgTag": 1,
        "mtCount": 1,
        "jgCount": 30
    },
    {
        "name": "[YALAYI]\u96c5\u62c9\u4f0a Y441 \u52a0\u5948 \u505a\u6211\u7684\u732b",
        "src": "http://d.duotuwang.com/2019/10/26/18336/0.jpg",
        "mtId": "8bff8db367358f27",
        "mtName": "\u52a0\u5948",
        "jgId": "yalayi",
        "jgName": "\u96c5\u62c9\u4f0a",
        "href": "http://d.duotuwang.com/2019/10/26/18336/",
        "count": 42,
        "start": 1,
        "hasMtTag": 1,
        "hasJgTag": 1,
        "mtCount": 1,
        "jgCount": 156
    },
    {
        "name": "[YALAYI]\u96c5\u62c9\u4f0a Y394 \u52a0\u5948 \u60c5\u6df1\u6df1",
        "src": "http://d.duotuwang.com/2019/09/08/17885/0.jpg",
        "mtId": "8bff8db367358f27",
        "mtName": "\u52a0\u5948",
        "jgId": "yalayi",
        "jgName": "\u96c5\u62c9\u4f0a",
        "href": "http://d.duotuwang.com/2019/09/08/17885/",
        "count": 41,
        "start": 1,
        "hasMtTag": 1,
        "hasJgTag": 1,
        "mtCount": 1,
        "jgCount": 156
    }
]