[
    {
        "name": "[XIUREN]\u79c0\u4eba\u7f51 No.613 \u51b7\u6708yuer",
        "src": "http://d.duotuwang.com/2016/10/10/1717/0.jpg",
        "mtId": "663d7e922146aac6",
        "mtName": "\u51b7\u6708yuer",
        "jgId": "xiuren",
        "jgName": "\u79c0\u4eba\u7f51",
        "href": "http://d.duotuwang.com/2016/10/10/1717/",
        "count": 81,
        "start": 1,
        "hasMtTag": 1,
        "hasJgTag": 1,
        "mtCount": 3,
        "jgCount": 750
    },
    {
        "name": "[XIUREN]\u79c0\u4eba\u7f51 No.607 \u51b7\u6708yuer",
        "src": "http://d.duotuwang.com/2016/10/05/1731/0.jpg",
        "mtId": "663d7e922146aac6",
        "mtName": "\u51b7\u6708yuer",
        "jgId": "xiuren",
        "jgName": "\u79c0\u4eba\u7f51",
        "href": "http://d.duotuwang.com/2016/10/05/1731/",
        "count": 70,
        "start": 1,
        "hasMtTag": 1,
        "hasJgTag": 1,
        "mtCount": 3,
        "jgCount": 750
    },
    {
        "name": "[TGod]\u63a8\u5973\u795e 2016-07-08 \u4f0d\u6708yuer",
        "src": "http://d.duotuwang.com/2016/07/08/2637/0.jpg",
        "mtId": "663d7e922146aac6",
        "mtName": "\u4f0d\u6708yuer",
        "jgId": "tgod",
        "jgName": "\u63a8\u5973\u795e",
        "href": "http://d.duotuwang.com/2016/07/08/2637/",
        "count": 69,
        "start": 1,
        "hasMtTag": 1,
        "hasJgTag": 1,
        "mtCount": 3,
        "jgCount": 78
    },
    {
        "name": "[TGod]\u63a8\u5973\u795e 2016-05-27 \u4f0d\u6708yuer",
        "src": "http://d.duotuwang.com/2016/05/27/2573/0.jpg",
        "mtId": "663d7e922146aac6",
        "mtName": "\u4f0d\u6708yuer",
        "jgId": "tgod",
        "jgName": "\u63a8\u5973\u795e",
        "href": "http://d.duotuwang.com/2016/05/27/2573/",
        "count": 46,
        "start": 1,
        "hasMtTag": 1,
        "hasJgTag": 1,
        "mtCount": 3,
        "jgCount": 78
    },
    {
        "name": "[TGod]\u63a8\u5973\u795e 2016-04-11 \u4f0d\u6708yuer",
        "src": "http://d.duotuwang.com/2016/04/11/2551/0.jpg",
        "mtId": "663d7e922146aac6",
        "mtName": "\u4f0d\u6708yuer",
        "jgId": "tgod",
        "jgName": "\u63a8\u5973\u795e",
        "href": "http://d.duotuwang.com/2016/04/11/2551/",
        "count": 51,
        "start": 1,
        "hasMtTag": 1,
        "hasJgTag": 1,
        "mtCount": 3,
        "jgCount": 78
    },
    {
        "name": "[TGod]\u63a8\u5973\u795e 2016-04-02 \u4f0d\u6708yuer",
        "src": "http://d.duotuwang.com/2016/04/02/2526/0.jpg",
        "mtId": "663d7e922146aac6",
        "mtName": "\u4f0d\u6708yuer",
        "jgId": "tgod",
        "jgName": "\u63a8\u5973\u795e",
        "href": "http://d.duotuwang.com/2016/04/02/2526/",
        "count": 42,
        "start": 1,
        "hasMtTag": 1,
        "hasJgTag": 1,
        "mtCount": 3,
        "jgCount": 78
    }
]