[
    {
        "name": "[toutiaogirls]\u5934\u6761\u5973\u795e 2019-01-27 \u6613\u9633 \u6211\u7684\u83ab\u59ae\u5361\u00b7\u6613\u9633\u00b7\u8d1d\u9c81\u5947",
        "src": "http://d.duotuwang.com/2019/01/27/10362/0.jpg",
        "mtId": "ed0ba549510c68da",
        "mtName": "\u6613\u9633",
        "jgId": "toutiaogirls",
        "jgName": "\u5934\u6761\u5973\u795e",
        "href": "http://d.duotuwang.com/2019/01/27/10362/",
        "count": 22,
        "start": 1,
        "hasMtTag": 1,
        "hasJgTag": 1,
        "mtCount": 10,
        "jgCount": 133
    },
    {
        "name": "[toutiaogirls]\u5934\u6761\u5973\u795e 2019-01-27 \u6613\u9633 \u53cc\u624b\u63a7\u7403",
        "src": "http://d.duotuwang.com/2019/01/27/10363/0.jpg",
        "mtId": "ed0ba549510c68da",
        "mtName": "\u6613\u9633",
        "jgId": "toutiaogirls",
        "jgName": "\u5934\u6761\u5973\u795e",
        "href": "http://d.duotuwang.com/2019/01/27/10363/",
        "count": 9,
        "start": 1,
        "hasMtTag": 1,
        "hasJgTag": 1,
        "mtCount": 10,
        "jgCount": 133
    },
    {
        "name": "[HuaYang]\u82b1\u6f3eshow VOL.111 \u6613\u9633Silvia",
        "src": "http://d.duotuwang.com/2019/01/24/10377/0.jpg",
        "mtId": "ed0ba549510c68da",
        "mtName": "\u6613\u9633",
        "jgId": "huayang",
        "jgName": "\u82b1\u6f3eshow",
        "href": "http://d.duotuwang.com/2019/01/24/10377/",
        "count": 43,
        "start": 1,
        "hasMtTag": 1,
        "hasJgTag": 1,
        "mtCount": 10,
        "jgCount": 86
    },
    {
        "name": "[XIUREN\u79c0\u4eba\u7f51] No.1319 \u6613\u9633Silvia",
        "src": "http://d.duotuwang.com/2019/01/23/10403/0.jpg",
        "mtId": "ed0ba549510c68da",
        "mtName": "\u6613\u9633",
        "jgId": "xiuren",
        "jgName": "\u79c0\u4eba\u7f51",
        "href": "http://d.duotuwang.com/2019/01/23/10403/",
        "count": 45,
        "start": 1,
        "hasMtTag": 1,
        "hasJgTag": 1,
        "mtCount": 10,
        "jgCount": 750
    },
    {
        "name": "[YOUMI]\u5c24\u871c\u835f VOL.260 \u6613\u9633Silvia",
        "src": "http://d.duotuwang.com/2019/01/11/10341/0.jpg",
        "mtId": "ed0ba549510c68da",
        "mtName": "\u6613\u9633",
        "jgId": "youmi",
        "jgName": "\u5c24\u871c\u835f",
        "href": "http://d.duotuwang.com/2019/01/11/10341/",
        "count": 45,
        "start": 1,
        "hasMtTag": 1,
        "hasJgTag": 1,
        "mtCount": 10,
        "jgCount": 143
    },
    {
        "name": "[YouMei]\u5c24\u7f8e No.079 \u6613\u9633 \u719f\u5973\u7684\u7a81\u88ad \u9b54\u9b3c\u8eab\u6750\u6b32\u706b\u9ad8\u5347",
        "src": "http://d.duotuwang.com/2018/11/29/10535/0.jpg",
        "mtId": "ed0ba549510c68da",
        "mtName": "\u6613\u9633",
        "jgId": "youmei",
        "jgName": "\u5c24\u7f8e\u7f51",
        "href": "http://d.duotuwang.com/2018/11/29/10535/",
        "count": 20,
        "start": 1,
        "hasMtTag": 1,
        "hasJgTag": 1,
        "mtCount": 10,
        "jgCount": 47
    }
]