[
    {
        "name": "[XIUREN]\u79c0\u4eba\u7f51 No.2585 \u6dfc\u6dfc\u5c0f\u59d0\u59d0\u5440",
        "src": "http://d.duotuwang.com/2020/09/22/22357/0.jpg",
        "mtId": "ad8e2a5d128c00bb",
        "mtName": "\u6dfc\u6dfc\u5c0f\u59d0\u59d0\u5440",
        "jgId": "xiuren",
        "jgName": "\u79c0\u4eba\u7f51",
        "href": "http://d.duotuwang.com/2020/09/22/22357/",
        "count": 36,
        "start": 1,
        "hasMtTag": 1,
        "hasJgTag": 1,
        "mtCount": 2,
        "jgCount": 750
    },
    {
        "name": "[XIUREN]\u79c0\u4eba\u7f51 No.2561 \u6dfc\u6dfc\u5c0f\u59d0\u59d0\u5440",
        "src": "http://d.duotuwang.com/2020/09/15/22134/0.jpg",
        "mtId": "ad8e2a5d128c00bb",
        "mtName": "\u6dfc\u6dfc\u5c0f\u59d0\u59d0\u5440",
        "jgId": "xiuren",
        "jgName": "\u79c0\u4eba\u7f51",
        "href": "http://d.duotuwang.com/2020/09/15/22134/",
        "count": 39,
        "start": 1,
        "hasMtTag": 1,
        "hasJgTag": 1,
        "mtCount": 2,
        "jgCount": 750
    },
    {
        "name": "[XIUREN]\u79c0\u4eba\u7f51 No.2504 \u6dfc\u6dfc\u5c0f\u59d0\u59d0\u5440",
        "src": "http://d.duotuwang.com/2020/08/31/21865/0.jpg",
        "mtId": "ad8e2a5d128c00bb",
        "mtName": "\u6dfc\u6dfc\u5c0f\u59d0\u59d0\u5440",
        "jgId": "xiuren",
        "jgName": "\u79c0\u4eba\u7f51",
        "href": "http://d.duotuwang.com/2020/08/31/21865/",
        "count": 35,
        "start": 1,
        "hasMtTag": 1,
        "hasJgTag": 1,
        "mtCount": 2,
        "jgCount": 750
    },
    {
        "name": "[XIUREN]\u79c0\u4eba\u7f51 No.2485 \u6dfc\u6dfc\u5c0f\u59d0\u59d0\u5440",
        "src": "http://d.duotuwang.com/2020/08/25/21696/0.jpg",
        "mtId": "ad8e2a5d128c00bb",
        "mtName": "\u6dfc\u6dfc\u5c0f\u59d0\u59d0\u5440",
        "jgId": "xiuren",
        "jgName": "\u79c0\u4eba\u7f51",
        "href": "http://d.duotuwang.com/2020/08/25/21696/",
        "count": 32,
        "start": 1,
        "hasMtTag": 1,
        "hasJgTag": 1,
        "mtCount": 2,
        "jgCount": 750
    },
    {
        "name": "[XIUREN]\u79c0\u4eba\u7f51 No.2467 \u6dfc\u6dfc\u5c0f\u59d0\u59d0\u5440",
        "src": "http://d.duotuwang.com/2020/08/20/21680/0.jpg",
        "mtId": "ad8e2a5d128c00bb",
        "mtName": "\u6dfc\u6dfc\u5c0f\u59d0\u59d0\u5440",
        "jgId": "xiuren",
        "jgName": "\u79c0\u4eba\u7f51",
        "href": "http://d.duotuwang.com/2020/08/20/21680/",
        "count": 35,
        "start": 1,
        "hasMtTag": 1,
        "hasJgTag": 1,
        "mtCount": 2,
        "jgCount": 750
    },
    {
        "name": "[XIUREN]\u79c0\u4eba\u7f51 No.2371 \u6dfc\u6dfc\u5c0f\u59d0\u59d0\u5440",
        "src": "http://d.duotuwang.com/2020/07/27/21351/0.jpg",
        "mtId": "ad8e2a5d128c00bb",
        "mtName": "\u6dfc\u6dfc\u5c0f\u59d0\u59d0\u5440",
        "jgId": "xiuren",
        "jgName": "\u79c0\u4eba\u7f51",
        "href": "http://d.duotuwang.com/2020/07/27/21351/",
        "count": 43,
        "start": 1,
        "hasMtTag": 1,
        "hasJgTag": 1,
        "mtCount": 2,
        "jgCount": 750
    }
]