[
    {
        "name": "[PDLONE]\u6f58\u591a\u62c9 No.249 \u6c34\u82b1\u513f",
        "src": "http://d.duotuwang.com/2019/12/08/18868/0.jpg",
        "mtId": "d9856ac4d9a1d68b",
        "mtName": "\u6c34\u82b1\u513f",
        "jgId": "pdlone",
        "jgName": "\u6f58\u591a\u62c9",
        "href": "http://d.duotuwang.com/2019/12/08/18868/",
        "count": 40,
        "start": 1,
        "hasMtTag": 1,
        "hasJgTag": 1,
        "mtCount": 2,
        "jgCount": 30
    },
    {
        "name": "[YALAYI]\u96c5\u62c9\u4f0a Y061 \u6c34\u82b1\u513f \u767d\u8272\u6854\u6897\u82b1",
        "src": "http://d.duotuwang.com/2019/03/20/15973/0.jpg",
        "mtId": "d9856ac4d9a1d68b",
        "mtName": "\u6c34\u82b1\u513f",
        "jgId": "yalayi",
        "jgName": "\u96c5\u62c9\u4f0a",
        "href": "http://d.duotuwang.com/2019/03/20/15973/",
        "count": 44,
        "start": 1,
        "hasMtTag": 1,
        "hasJgTag": 1,
        "mtCount": 2,
        "jgCount": 156
    },
    {
        "name": "[YALAYI]\u96c5\u62c9\u4f0a Y068 \u6c34\u82b1\u513f \u84dd\u5e18\u5e7d\u68a6",
        "src": "http://d.duotuwang.com/2019/01/28/15956/0.jpg",
        "mtId": "d9856ac4d9a1d68b",
        "mtName": "\u6c34\u82b1\u513f",
        "jgId": "yalayi",
        "jgName": "\u96c5\u62c9\u4f0a",
        "href": "http://d.duotuwang.com/2019/01/28/15956/",
        "count": 58,
        "start": 1,
        "hasMtTag": 1,
        "hasJgTag": 1,
        "mtCount": 2,
        "jgCount": 156
    },
    {
        "name": "[YALAYI]\u96c5\u62c9\u4f0a Y045 \u6c34\u82b1\u513f \u9189\u5fc3\u5c11\u5973",
        "src": "http://d.duotuwang.com/2019/01/14/15958/0.jpg",
        "mtId": "d9856ac4d9a1d68b",
        "mtName": "\u6c34\u82b1\u513f",
        "jgId": "yalayi",
        "jgName": "\u96c5\u62c9\u4f0a",
        "href": "http://d.duotuwang.com/2019/01/14/15958/",
        "count": 44,
        "start": 1,
        "hasMtTag": 1,
        "hasJgTag": 1,
        "mtCount": 2,
        "jgCount": 156
    },
    {
        "name": "[PartyCat]\u8f70\u8db4\u732b VOL.254 \u6c34\u82b1\u513f",
        "src": "http://d.duotuwang.com/2018/10/13/17418/0.jpg",
        "mtId": "d9856ac4d9a1d68b",
        "mtName": "\u6c34\u82b1\u513f",
        "jgId": "partycat",
        "jgName": "\u8f70\u8db4\u732b",
        "href": "http://d.duotuwang.com/2018/10/13/17418/",
        "count": 44,
        "start": 1,
        "hasMtTag": 1,
        "hasJgTag": 1,
        "mtCount": 2,
        "jgCount": 33
    },
    {
        "name": "[PartyCat]\u8f70\u8db4\u732b VOL.253 \u6c34\u82b1\u513f",
        "src": "http://d.duotuwang.com/2018/10/11/17419/0.jpg",
        "mtId": "d9856ac4d9a1d68b",
        "mtName": "\u6c34\u82b1\u513f",
        "jgId": "partycat",
        "jgName": "\u8f70\u8db4\u732b",
        "href": "http://d.duotuwang.com/2018/10/11/17419/",
        "count": 43,
        "start": 1,
        "hasMtTag": 1,
        "hasJgTag": 1,
        "mtCount": 2,
        "jgCount": 33
    }
]