[
    {
        "name": "[Pure Media] Vol.10 Jisu_A",
        "src": "http://d.duotuwang.com/2020/02/12/29997/0.jpg",
        "mtId": "0863e388f319a3e1",
        "mtName": "PureMedia",
        "href": "http://d.duotuwang.com/2020/02/12/29997/",
        "count": 78,
        "start": 1,
        "hasMtTag": 1,
        "hasJgTag": 0,
        "mtCount": 6
    }
]