[
    {
        "name": "[IMISS]\u7231\u871c\u793e VOL.699 LindaLinda",
        "src": "http://d.duotuwang.com/2022/09/15/31379/0.jpg",
        "mtId": "7b70f8115e60a9df",
        "mtName": "LindaLinda",
        "jgId": "imiss",
        "jgName": "\u7231\u871c\u793e",
        "href": "http://d.duotuwang.com/2022/09/15/31379/",
        "count": 36,
        "start": 1,
        "hasMtTag": 1,
        "hasJgTag": 1,
        "mtCount": 3,
        "jgCount": 116
    },
    {
        "name": "[IMISS]\u7231\u871c\u793e VOL.698 SISY\u601d",
        "src": "http://d.duotuwang.com/2022/09/13/31235/0.jpg",
        "mtId": "f844c94faa76ede5",
        "mtName": "SISY\u601d",
        "jgId": "imiss",
        "jgName": "\u7231\u871c\u793e",
        "href": "http://d.duotuwang.com/2022/09/13/31235/",
        "count": 36,
        "start": 1,
        "hasMtTag": 1,
        "hasJgTag": 1,
        "mtCount": 4,
        "jgCount": 116
    },
    {
        "name": "[IMISS]\u7231\u871c\u793e VOL.697 Lavinia\u8089\u8089 & LindaLinda",
        "src": "http://d.duotuwang.com/2022/09/08/31234/0.jpg",
        "mtId": "e618f72f851c7483",
        "mtName": "Lavinia\u8089\u8089",
        "jgId": "imiss",
        "jgName": "\u7231\u871c\u793e",
        "href": "http://d.duotuwang.com/2022/09/08/31234/",
        "count": 44,
        "start": 1,
        "hasMtTag": 1,
        "hasJgTag": 1,
        "mtCount": 16,
        "jgCount": 116
    },
    {
        "name": "[IMISS]\u7231\u871c\u793e VOL.696 Lavinia\u8089\u8089",
        "src": "http://d.duotuwang.com/2022/09/01/31111/0.jpg",
        "mtId": "e618f72f851c7483",
        "mtName": "Lavinia\u8089\u8089",
        "jgId": "imiss",
        "jgName": "\u7231\u871c\u793e",
        "href": "http://d.duotuwang.com/2022/09/01/31111/",
        "count": 36,
        "start": 1,
        "hasMtTag": 1,
        "hasJgTag": 1,
        "mtCount": 16,
        "jgCount": 116
    },
    {
        "name": "[IMISS]\u7231\u871c\u793e VOL.695 \u5c0f\u72d0\u72f8Kathryn",
        "src": "http://d.duotuwang.com/2022/08/29/31110/0.jpg",
        "mtId": "1af99fe3a3315233",
        "mtName": "\u5c0f\u72d0\u72f8Kathryn",
        "jgId": "imiss",
        "jgName": "\u7231\u871c\u793e",
        "href": "http://d.duotuwang.com/2022/08/29/31110/",
        "count": 54,
        "start": 1,
        "hasMtTag": 1,
        "hasJgTag": 1,
        "mtCount": 9,
        "jgCount": 116
    },
    {
        "name": "[IMISS]\u7231\u871c\u793e VOL.694 Vanessa",
        "src": "http://d.duotuwang.com/2022/08/23/30975/0.jpg",
        "mtId": "ec7704580d4d51c8",
        "mtName": "Vanessa",
        "jgId": "imiss",
        "jgName": "\u7231\u871c\u793e",
        "href": "http://d.duotuwang.com/2022/08/23/30975/",
        "count": 64,
        "start": 1,
        "hasMtTag": 1,
        "hasJgTag": 1,
        "mtCount": 5,
        "jgCount": 116
    }
]