[
    {
        "name": "[IMISS]\u7231\u871c\u793e VOL.011 Sandy\u9648\u5929\u626c",
        "src": "http://d.duotuwang.com/2015/08/09/877/0.jpg",
        "mtId": "138ca4e00f17a6a7",
        "mtName": "Sandy\u9648\u5929\u626c",
        "jgId": "imiss",
        "jgName": "\u7231\u871c\u793e",
        "href": "http://d.duotuwang.com/2015/08/09/877/",
        "count": 51,
        "start": 1,
        "hasMtTag": 1,
        "hasJgTag": 1,
        "mtCount": 2,
        "jgCount": 116
    },
    {
        "name": "[IMISS]\u7231\u871c\u793e VOL.010 \u9648\u6f47",
        "src": "http://d.duotuwang.com/2015/08/08/879/0.jpg",
        "mtId": "f84faabe2adbf535",
        "mtName": "\u9648\u6f47",
        "jgId": "imiss",
        "jgName": "\u7231\u871c\u793e",
        "href": "http://d.duotuwang.com/2015/08/08/879/",
        "count": 71,
        "start": 1,
        "hasMtTag": 1,
        "hasJgTag": 1,
        "mtCount": 1,
        "jgCount": 116
    },
    {
        "name": "[IMISS]\u7231\u871c\u793e VOL.009 \u6a02\u6a02Mango",
        "src": "http://d.duotuwang.com/2015/08/04/886/0.jpg",
        "mtId": "fa0a78d98104eacc",
        "mtName": "\u6a02\u6a02Mango",
        "jgId": "imiss",
        "jgName": "\u7231\u871c\u793e",
        "href": "http://d.duotuwang.com/2015/08/04/886/",
        "count": 55,
        "start": 1,
        "hasMtTag": 1,
        "hasJgTag": 1,
        "mtCount": 2,
        "jgCount": 116
    },
    {
        "name": "[IMISS]\u7231\u871c\u793e VOL.008 \u598d\u598dYanyan",
        "src": "http://d.duotuwang.com/2015/07/29/895/0.jpg",
        "mtId": "41742e35e4087a37",
        "mtName": "\u598d\u598dYanyan",
        "jgId": "imiss",
        "jgName": "\u7231\u871c\u793e",
        "href": "http://d.duotuwang.com/2015/07/29/895/",
        "count": 76,
        "start": 1,
        "hasMtTag": 1,
        "hasJgTag": 1,
        "mtCount": 1,
        "jgCount": 116
    },
    {
        "name": "[IMISS]\u7231\u871c\u793e VOL.007 \u6a02\u6a02Mango",
        "src": "http://d.duotuwang.com/2015/07/22/868/0.jpg",
        "mtId": "fa0a78d98104eacc",
        "mtName": "\u6a02\u6a02Mango",
        "jgId": "imiss",
        "jgName": "\u7231\u871c\u793e",
        "href": "http://d.duotuwang.com/2015/07/22/868/",
        "count": 59,
        "start": 1,
        "hasMtTag": 1,
        "hasJgTag": 1,
        "mtCount": 2,
        "jgCount": 116
    },
    {
        "name": "[IMISS]\u7231\u871c\u793e VOL.006 \u77f3\u5fc3\u742a",
        "src": "http://d.duotuwang.com/2015/07/16/839/0.jpg",
        "mtId": "56a3425269fde697",
        "mtName": "\u77f3\u5fc3\u742a",
        "jgId": "imiss",
        "jgName": "\u7231\u871c\u793e",
        "href": "http://d.duotuwang.com/2015/07/16/839/",
        "count": 52,
        "start": 1,
        "hasMtTag": 1,
        "hasJgTag": 1,
        "mtCount": 2,
        "jgCount": 116
    }
]