[
    {
        "name": "[IMISS]\u7231\u871c\u793e VOL.005 \u77f3\u5fc3\u742a",
        "src": "http://d.duotuwang.com/2015/07/08/853/0.jpg",
        "mtId": "56a3425269fde697",
        "mtName": "\u77f3\u5fc3\u742a",
        "jgId": "imiss",
        "jgName": "\u7231\u871c\u793e",
        "href": "http://d.duotuwang.com/2015/07/08/853/",
        "count": 62,
        "start": 1,
        "hasMtTag": 1,
        "hasJgTag": 1,
        "mtCount": 2,
        "jgCount": 116
    },
    {
        "name": "[IMISS]\u7231\u871c\u793e VOL.004 \u6a21\u7279\u5408\u96c6",
        "src": "http://d.duotuwang.com/2015/07/04/818/0.jpg",
        "jgId": "imiss",
        "jgName": "\u7231\u871c\u793e",
        "href": "http://d.duotuwang.com/2015/07/04/818/",
        "count": 58,
        "start": 1,
        "hasMtTag": 0,
        "hasJgTag": 1,
        "jgCount": 116
    },
    {
        "name": "[IMISS]\u7231\u871c\u793e VOL.003 ALICE\u6881\u7d2b\u8f69",
        "src": "http://d.duotuwang.com/2015/06/30/824/0.jpg",
        "mtId": "e54daf50f5470998",
        "mtName": "ALICE\u6881\u7d2b\u8f69",
        "jgId": "imiss",
        "jgName": "\u7231\u871c\u793e",
        "href": "http://d.duotuwang.com/2015/06/30/824/",
        "count": 61,
        "start": 1,
        "hasMtTag": 1,
        "hasJgTag": 1,
        "mtCount": 1,
        "jgCount": 116
    },
    {
        "name": "[IMISS]\u7231\u871c\u793e VOL.002 \u6a21\u7279\u5408\u96c6",
        "src": "http://d.duotuwang.com/2015/06/28/830/0.jpg",
        "jgId": "imiss",
        "jgName": "\u7231\u871c\u793e",
        "href": "http://d.duotuwang.com/2015/06/28/830/",
        "count": 64,
        "start": 1,
        "hasMtTag": 0,
        "hasJgTag": 1,
        "jgCount": 116
    },
    {
        "name": "[IMISS]\u7231\u871c\u793e VOL.001 \u6653\u831csunny",
        "src": "http://d.duotuwang.com/2015/06/26/796/0.jpg",
        "mtId": "8a0d4fd3e6097e92",
        "mtName": "\u6653\u831csunny",
        "jgId": "imiss",
        "jgName": "\u7231\u871c\u793e",
        "href": "http://d.duotuwang.com/2015/06/26/796/",
        "count": 71,
        "start": 1,
        "hasMtTag": 1,
        "hasJgTag": 1,
        "mtCount": 3,
        "jgCount": 116
    }
]