[
    {
        "name": "[IMISS]\u7231\u871c\u793e VOL.501 \u871c\u6843cc",
        "src": "http://d.duotuwang.com/2020/09/17/22329/0.jpg",
        "mtId": "e4b74da7b59cbb8a",
        "mtName": "\u871c\u6843cc",
        "jgId": "imiss",
        "jgName": "\u7231\u871c\u793e",
        "href": "http://d.duotuwang.com/2020/09/17/22329/",
        "count": 76,
        "start": 1,
        "hasMtTag": 1,
        "hasJgTag": 1,
        "mtCount": 2,
        "jgCount": 116
    },
    {
        "name": "[IMISS]\u7231\u871c\u793e VOL.500 Evon\u9648\u8d5e\u4e4b",
        "src": "http://d.duotuwang.com/2020/09/15/22101/0.jpg",
        "mtId": "9d7aad3058a9b7b9",
        "mtName": "Evon\u9648\u8d5e\u4e4b",
        "jgId": "imiss",
        "jgName": "\u7231\u871c\u793e",
        "href": "http://d.duotuwang.com/2020/09/15/22101/",
        "count": 43,
        "start": 1,
        "hasMtTag": 1,
        "hasJgTag": 1,
        "mtCount": 2,
        "jgCount": 116
    },
    {
        "name": "[IMISS]\u7231\u871c\u793e VOL.499 Angela\u5c0f\u70ed\u5df4",
        "src": "http://d.duotuwang.com/2020/09/14/22100/0.jpg",
        "mtId": "e4d09316d8a9d330",
        "mtName": "\u5c0f\u70ed\u5df4",
        "jgId": "imiss",
        "jgName": "\u7231\u871c\u793e",
        "href": "http://d.duotuwang.com/2020/09/14/22100/",
        "count": 52,
        "start": 1,
        "hasMtTag": 1,
        "hasJgTag": 1,
        "mtCount": 26,
        "jgCount": 116
    },
    {
        "name": "[IMISS]\u7231\u871c\u793e VOL.498 \u6768\u7d2b\u5ae3Cynthia",
        "src": "http://d.duotuwang.com/2020/09/08/22025/0.jpg",
        "mtId": "aca6a5b5e8c338c9",
        "mtName": "\u6768\u7d2b\u5ae3Cynthia",
        "jgId": "imiss",
        "jgName": "\u7231\u871c\u793e",
        "href": "http://d.duotuwang.com/2020/09/08/22025/",
        "count": 54,
        "start": 1,
        "hasMtTag": 1,
        "hasJgTag": 1,
        "mtCount": 6,
        "jgCount": 116
    },
    {
        "name": "[IMISS]\u7231\u871c\u793e VOL.497 Lavinia\u8089\u8089",
        "src": "http://d.duotuwang.com/2020/09/04/22024/0.jpg",
        "mtId": "e618f72f851c7483",
        "mtName": "Lavinia\u8089\u8089",
        "jgId": "imiss",
        "jgName": "\u7231\u871c\u793e",
        "href": "http://d.duotuwang.com/2020/09/04/22024/",
        "count": 59,
        "start": 1,
        "hasMtTag": 1,
        "hasJgTag": 1,
        "mtCount": 16,
        "jgCount": 116
    },
    {
        "name": "[IMISS]\u7231\u871c\u793e VOL.496 evon",
        "src": "http://d.duotuwang.com/2020/08/27/21831/0.jpg",
        "mtId": "9d7aad3058a9b7b9",
        "mtName": "Evon\u9648\u8d5e\u4e4b",
        "jgId": "imiss",
        "jgName": "\u7231\u871c\u793e",
        "href": "http://d.duotuwang.com/2020/08/27/21831/",
        "count": 65,
        "start": 1,
        "hasMtTag": 1,
        "hasJgTag": 1,
        "mtCount": 2,
        "jgCount": 116
    }
]