[
    {
        "name": "[IMISS]\u7231\u871c\u793e VOL.479 Angela\u5c0f\u70ed\u5df4",
        "src": "http://d.duotuwang.com/2020/07/06/21066/0.jpg",
        "mtId": "e4d09316d8a9d330",
        "mtName": "\u5c0f\u70ed\u5df4",
        "jgId": "imiss",
        "jgName": "\u7231\u871c\u793e",
        "href": "http://d.duotuwang.com/2020/07/06/21066/",
        "count": 64,
        "start": 1,
        "hasMtTag": 1,
        "hasJgTag": 1,
        "mtCount": 26,
        "jgCount": 116
    },
    {
        "name": "[IMISS]\u7231\u871c\u793e VOL.478 Lavinia\u8089\u8089&LindaLinda",
        "src": "http://d.duotuwang.com/2020/07/03/21065/0.jpg",
        "mtId": "e618f72f851c7483",
        "mtName": "Lavinia",
        "jgId": "imiss",
        "jgName": "\u7231\u871c\u793e",
        "href": "http://d.duotuwang.com/2020/07/03/21065/",
        "count": 73,
        "start": 1,
        "hasMtTag": 1,
        "hasJgTag": 1,
        "mtCount": 16,
        "jgCount": 116
    },
    {
        "name": "[IMISS]\u7231\u871c\u793e VOL.477 \u4e5d\u6708\u751f__",
        "src": "http://d.duotuwang.com/2020/07/02/21060/0.jpg",
        "mtId": "edbcdd7f8a1f1507",
        "mtName": "\u4e5d\u6708\u751f__",
        "jgId": "imiss",
        "jgName": "\u7231\u871c\u793e",
        "href": "http://d.duotuwang.com/2020/07/02/21060/",
        "count": 68,
        "start": 1,
        "hasMtTag": 1,
        "hasJgTag": 1,
        "mtCount": 10,
        "jgCount": 116
    },
    {
        "name": "[IMISS]\u7231\u871c\u793e VOL.476 \u65b9\u5b50\u8431",
        "src": "http://d.duotuwang.com/2020/07/01/21059/0.jpg",
        "mtId": "9987f205a66cb83f",
        "mtName": "\u65b9\u5b50\u8431",
        "jgId": "imiss",
        "jgName": "\u7231\u871c\u793e",
        "href": "http://d.duotuwang.com/2020/07/01/21059/",
        "count": 47,
        "start": 1,
        "hasMtTag": 1,
        "hasJgTag": 1,
        "mtCount": 13,
        "jgCount": 116
    },
    {
        "name": "[IMISS]\u7231\u871c\u793e VOL.475 Lavinia\u8089\u8089",
        "src": "http://d.duotuwang.com/2020/06/30/21058/0.jpg",
        "mtId": "e618f72f851c7483",
        "mtName": "Lavinia",
        "jgId": "imiss",
        "jgName": "\u7231\u871c\u793e",
        "href": "http://d.duotuwang.com/2020/06/30/21058/",
        "count": 52,
        "start": 1,
        "hasMtTag": 1,
        "hasJgTag": 1,
        "mtCount": 16,
        "jgCount": 116
    },
    {
        "name": "[IMISS]\u7231\u871c\u793e VOL.474 LindaLinda",
        "src": "http://d.duotuwang.com/2020/06/29/21012/0.jpg",
        "mtId": "7b70f8115e60a9df",
        "mtName": "LindaLinda",
        "jgId": "imiss",
        "jgName": "\u7231\u871c\u793e",
        "href": "http://d.duotuwang.com/2020/06/29/21012/",
        "count": 60,
        "start": 1,
        "hasMtTag": 1,
        "hasJgTag": 1,
        "mtCount": 3,
        "jgCount": 116
    }
]