[
    {
        "name": "[IMISS]\u7231\u871c\u793e VOL.401 Lavinia",
        "src": "http://d.duotuwang.com/2019/11/18/18628/0.jpg",
        "mtId": "e618f72f851c7483",
        "mtName": "Lavinia",
        "jgId": "imiss",
        "jgName": "\u7231\u871c\u793e",
        "href": "http://d.duotuwang.com/2019/11/18/18628/",
        "count": 42,
        "start": 1,
        "hasMtTag": 1,
        "hasJgTag": 1,
        "mtCount": 16,
        "jgCount": 116
    },
    {
        "name": "[IMISS]\u7231\u871c\u793e VOL.400 \u829d\u829dBooty",
        "src": "http://d.duotuwang.com/2019/11/15/18638/0.jpg",
        "mtId": "8fe458bd9af7ab1d",
        "mtName": "\u829d\u829dBooty",
        "jgId": "imiss",
        "jgName": "\u7231\u871c\u793e",
        "href": "http://d.duotuwang.com/2019/11/15/18638/",
        "count": 49,
        "start": 1,
        "hasMtTag": 1,
        "hasJgTag": 1,
        "mtCount": 56,
        "jgCount": 116
    },
    {
        "name": "[IMISS]\u7231\u871c\u793e VOL.399 \u5c0f\u4e5d\u6708",
        "src": "http://d.duotuwang.com/2019/11/14/18569/0.jpg",
        "mtId": "edbcdd7f8a1f1507",
        "mtName": "\u5c0f\u4e5d\u6708",
        "jgId": "imiss",
        "jgName": "\u7231\u871c\u793e",
        "href": "http://d.duotuwang.com/2019/11/14/18569/",
        "count": 42,
        "start": 1,
        "hasMtTag": 1,
        "hasJgTag": 1,
        "mtCount": 10,
        "jgCount": 116
    },
    {
        "name": "[IMISS]\u7231\u871c\u793e VOL.398 luvian\u672c\u80fd",
        "src": "http://d.duotuwang.com/2019/11/12/18585/0.jpg",
        "mtId": "3d328f09629342c4",
        "mtName": "luvian\u672c\u80fd",
        "jgId": "imiss",
        "jgName": "\u7231\u871c\u793e",
        "href": "http://d.duotuwang.com/2019/11/12/18585/",
        "count": 51,
        "start": 1,
        "hasMtTag": 1,
        "hasJgTag": 1,
        "mtCount": 6,
        "jgCount": 116
    },
    {
        "name": "[IMISS]\u7231\u871c\u793e VOL.397 Carry",
        "src": "http://d.duotuwang.com/2019/11/07/18493/0.jpg",
        "mtId": "eaba1ecd7edb60f2",
        "mtName": "Carry",
        "jgId": "imiss",
        "jgName": "\u7231\u871c\u793e",
        "href": "http://d.duotuwang.com/2019/11/07/18493/",
        "count": 54,
        "start": 1,
        "hasMtTag": 1,
        "hasJgTag": 1,
        "mtCount": 9,
        "jgCount": 116
    },
    {
        "name": "[IMISS]\u7231\u871c\u793e VOL.396 \u5ae3\u513f",
        "src": "http://d.duotuwang.com/2019/11/05/18479/0.jpg",
        "mtId": "0cf4d78ee9df45b0",
        "mtName": "\u5ae3\u513f",
        "jgId": "imiss",
        "jgName": "\u7231\u871c\u793e",
        "href": "http://d.duotuwang.com/2019/11/05/18479/",
        "count": 45,
        "start": 1,
        "hasMtTag": 1,
        "hasJgTag": 1,
        "mtCount": 1,
        "jgCount": 116
    }
]