[
    {
        "name": "[IMISS]\u7231\u871c\u793e VOL.268 Arlie",
        "src": "http://d.duotuwang.com/2018/07/23/9377/0.jpg",
        "mtId": "82bc52ead41b04a4",
        "mtName": "Arlie",
        "jgId": "imiss",
        "jgName": "\u7231\u871c\u793e",
        "href": "http://d.duotuwang.com/2018/07/23/9377/",
        "count": 41,
        "start": 1,
        "hasMtTag": 1,
        "hasJgTag": 1,
        "mtCount": 1,
        "jgCount": 116
    },
    {
        "name": "[IMISS]\u7231\u871c\u793e VOL.267 \u5468\u4e8e\u5e0c",
        "src": "http://d.duotuwang.com/2018/07/20/9348/0.jpg",
        "mtId": "de6bdb42ece2255f",
        "mtName": "\u5468\u4e8e\u5e0c",
        "jgId": "imiss",
        "jgName": "\u7231\u871c\u793e",
        "href": "http://d.duotuwang.com/2018/07/20/9348/",
        "count": 28,
        "start": 1,
        "hasMtTag": 1,
        "hasJgTag": 1,
        "mtCount": 59,
        "jgCount": 116
    },
    {
        "name": "[IMISS]\u7231\u871c\u793e VOL.266 \u6c99\u6708\u513f",
        "src": "http://d.duotuwang.com/2018/07/18/9361/0.jpg",
        "jgId": "imiss",
        "jgName": "\u7231\u871c\u793e",
        "href": "http://d.duotuwang.com/2018/07/18/9361/",
        "count": 32,
        "start": 1,
        "hasMtTag": 0,
        "hasJgTag": 1,
        "jgCount": 116
    },
    {
        "name": "[IMISS]\u7231\u871c\u793e VOL.265 \u7eef\u6708\u6a31-Cherry",
        "src": "http://d.duotuwang.com/2018/07/17/9364/0.jpg",
        "mtId": "85e55daf35c53f9e",
        "mtName": "\u7eef\u6708\u6a31-Cherry",
        "jgId": "imiss",
        "jgName": "\u7231\u871c\u793e",
        "href": "http://d.duotuwang.com/2018/07/17/9364/",
        "count": 52,
        "start": 1,
        "hasMtTag": 1,
        "hasJgTag": 1,
        "mtCount": 26,
        "jgCount": 116
    },
    {
        "name": "[IMISS]\u7231\u871c\u793e VOL.264 \u5468\u4e8e\u5e0c",
        "src": "http://d.duotuwang.com/2018/07/12/9306/0.jpg",
        "mtId": "de6bdb42ece2255f",
        "mtName": "\u5468\u4e8e\u5e0c",
        "jgId": "imiss",
        "jgName": "\u7231\u871c\u793e",
        "href": "http://d.duotuwang.com/2018/07/12/9306/",
        "count": 45,
        "start": 1,
        "hasMtTag": 1,
        "hasJgTag": 1,
        "mtCount": 59,
        "jgCount": 116
    },
    {
        "name": "[IMISS]\u7231\u871c\u793e VOL.263 \u7eef\u6708\u6a31-Cherry",
        "src": "http://d.duotuwang.com/2018/07/10/9315/0.jpg",
        "mtId": "85e55daf35c53f9e",
        "mtName": "\u7eef\u6708\u6a31-Cherry",
        "jgId": "imiss",
        "jgName": "\u7231\u871c\u793e",
        "href": "http://d.duotuwang.com/2018/07/10/9315/",
        "count": 48,
        "start": 1,
        "hasMtTag": 1,
        "hasJgTag": 1,
        "mtCount": 26,
        "jgCount": 116
    }
]