[
    {
        "name": "[IMISS]\u7231\u871c\u793e VOL.256 \u5c0f\u72d0\u72f8Sica",
        "src": "http://d.duotuwang.com/2018/06/20/9189/0.jpg",
        "mtId": "1af99fe3a3315233",
        "mtName": "\u5c0f\u72d0\u72f8Sica",
        "jgId": "imiss",
        "jgName": "\u7231\u871c\u793e",
        "href": "http://d.duotuwang.com/2018/06/20/9189/",
        "count": 37,
        "start": 1,
        "hasMtTag": 1,
        "hasJgTag": 1,
        "mtCount": 9,
        "jgCount": 116
    },
    {
        "name": "[IMISS]\u7231\u871c\u793e VOL.255 \u5c0f\u72d0\u72f8Sica",
        "src": "http://d.duotuwang.com/2018/06/15/9163/0.jpg",
        "mtId": "1af99fe3a3315233",
        "mtName": "\u5c0f\u72d0\u72f8Sica",
        "jgId": "imiss",
        "jgName": "\u7231\u871c\u793e",
        "href": "http://d.duotuwang.com/2018/06/15/9163/",
        "count": 32,
        "start": 1,
        "hasMtTag": 1,
        "hasJgTag": 1,
        "mtCount": 9,
        "jgCount": 116
    },
    {
        "name": "[IMISS]\u7231\u871c\u793e VOL.254 \u8bb8\u8bfaSabrina",
        "src": "http://d.duotuwang.com/2018/06/13/9125/0.jpg",
        "mtId": "e0dff1632aae7d02",
        "mtName": "\u8bb8\u8bfaSabrina",
        "jgId": "imiss",
        "jgName": "\u7231\u871c\u793e",
        "href": "http://d.duotuwang.com/2018/06/13/9125/",
        "count": 59,
        "start": 1,
        "hasMtTag": 1,
        "hasJgTag": 1,
        "mtCount": 11,
        "jgCount": 116
    },
    {
        "name": "[IMISS]\u7231\u871c\u793e VOL.253 \u732b\u5b9d",
        "src": "http://d.duotuwang.com/2018/06/13/9127/0.jpg",
        "jgId": "imiss",
        "jgName": "\u7231\u871c\u793e",
        "href": "http://d.duotuwang.com/2018/06/13/9127/",
        "count": 56,
        "start": 1,
        "hasMtTag": 0,
        "hasJgTag": 1,
        "jgCount": 116
    },
    {
        "name": "[IMISS]\u7231\u871c\u793e VOL.252 katrina",
        "src": "http://d.duotuwang.com/2018/06/06/9098/0.jpg",
        "jgId": "imiss",
        "jgName": "\u7231\u871c\u793e",
        "href": "http://d.duotuwang.com/2018/06/06/9098/",
        "count": 42,
        "start": 1,
        "hasMtTag": 0,
        "hasJgTag": 1,
        "jgCount": 116
    },
    {
        "name": "[IMISS]\u7231\u871c\u793e VOL.251 \u738b\u6cab\u513fSaSa",
        "src": "http://d.duotuwang.com/2018/06/05/9103/0.jpg",
        "mtId": "20af7070fc053a79",
        "mtName": "\u738b\u6cab\u513fSaSa",
        "jgId": "imiss",
        "jgName": "\u7231\u871c\u793e",
        "href": "http://d.duotuwang.com/2018/06/05/9103/",
        "count": 36,
        "start": 1,
        "hasMtTag": 1,
        "hasJgTag": 1,
        "mtCount": 1,
        "jgCount": 116
    }
]