[
    {
        "name": "[IMISS]\u7231\u871c\u793e VOL.160 \u5218\u5955\u5b81Lynn",
        "src": "http://d.duotuwang.com/2017/04/05/3705/0.jpg",
        "mtId": "ec60803ccef20d32",
        "mtName": "\u5218\u5955\u5b81Lynn",
        "jgId": "imiss",
        "jgName": "\u7231\u871c\u793e",
        "href": "http://d.duotuwang.com/2017/04/05/3705/",
        "count": 39,
        "start": 1,
        "hasMtTag": 1,
        "hasJgTag": 1,
        "mtCount": 4,
        "jgCount": 116
    },
    {
        "name": "[IMISS]\u7231\u871c\u793e VOL.159 \u6768\u6668\u6668sugar",
        "src": "http://d.duotuwang.com/2017/03/29/3679/0.jpg",
        "mtId": "48bada5e7225ec9f",
        "mtName": "\u6768\u6668\u6668sugar",
        "jgId": "imiss",
        "jgName": "\u7231\u871c\u793e",
        "href": "http://d.duotuwang.com/2017/03/29/3679/",
        "count": 53,
        "start": 1,
        "hasMtTag": 1,
        "hasJgTag": 1,
        "mtCount": 89,
        "jgCount": 116
    },
    {
        "name": "[IMISS]\u7231\u871c\u793e VOL.158 \u6a21\u7279\u5408\u96c6",
        "src": "http://d.duotuwang.com/2017/03/27/3686/0.jpg",
        "jgId": "imiss",
        "jgName": "\u7231\u871c\u793e",
        "href": "http://d.duotuwang.com/2017/03/27/3686/",
        "count": 60,
        "start": 1,
        "hasMtTag": 0,
        "hasJgTag": 1,
        "jgCount": 116
    },
    {
        "name": "[IMISS]\u7231\u871c\u793e VOL.157 \u590f\u7b11\u7b11Summer",
        "src": "http://d.duotuwang.com/2017/03/22/3696/0.jpg",
        "mtId": "d6480340bfb7675c",
        "mtName": "\u590f\u7b11\u7b11Summer",
        "jgId": "imiss",
        "jgName": "\u7231\u871c\u793e",
        "href": "http://d.duotuwang.com/2017/03/22/3696/",
        "count": 61,
        "start": 1,
        "hasMtTag": 1,
        "hasJgTag": 1,
        "mtCount": 3,
        "jgCount": 116
    },
    {
        "name": "[IMISS]\u7231\u871c\u793e VOL.156 Abby\u674e\u96c5",
        "src": "http://d.duotuwang.com/2017/03/21/3661/0.jpg",
        "mtId": "7e50da9de4397e65",
        "mtName": "Abby\u674e\u96c5",
        "jgId": "imiss",
        "jgName": "\u7231\u871c\u793e",
        "href": "http://d.duotuwang.com/2017/03/21/3661/",
        "count": 36,
        "start": 1,
        "hasMtTag": 1,
        "hasJgTag": 1,
        "mtCount": 4,
        "jgCount": 116
    },
    {
        "name": "[IMISS]\u7231\u871c\u793e VOL.155 \u829d\u829dBooty",
        "src": "http://d.duotuwang.com/2017/03/07/3652/0.jpg",
        "mtId": "8fe458bd9af7ab1d",
        "mtName": "\u829d\u829dBooty",
        "jgId": "imiss",
        "jgName": "\u7231\u871c\u793e",
        "href": "http://d.duotuwang.com/2017/03/07/3652/",
        "count": 50,
        "start": 1,
        "hasMtTag": 1,
        "hasJgTag": 1,
        "mtCount": 56,
        "jgCount": 116
    }
]