[
    {
        "name": "[LEEHEEEXPRESS] LEBE-001 G.su",
        "src": "http://d.duotuwang.com/2018/12/09/27604/0.jpg",
        "mtId": "08c22bbfc341e414",
        "mtName": "LEEHEEEXPRESS",
        "href": "http://d.duotuwang.com/2018/12/09/27604/",
        "count": 46,
        "start": 1,
        "hasMtTag": 1,
        "hasJgTag": 0,
        "mtCount": 12
    },
    {
        "name": "[LEEHEE EXPRESS] LESV-001B - LeeHeeun",
        "src": "http://d.duotuwang.com/2018/09/22/31364/0.jpg",
        "mtId": "08c22bbfc341e414",
        "mtName": "LEEHEEEXPRESS",
        "href": "http://d.duotuwang.com/2018/09/22/31364/",
        "count": 49,
        "start": 1,
        "hasMtTag": 1,
        "hasJgTag": 0,
        "mtCount": 12
    },
    {
        "name": "[LEEHEE EXPRESS] LESV-001A - LeeHeeun",
        "src": "http://d.duotuwang.com/2018/09/22/31363/0.jpg",
        "mtId": "08c22bbfc341e414",
        "mtName": "LEEHEEEXPRESS",
        "href": "http://d.duotuwang.com/2018/09/22/31363/",
        "count": 51,
        "start": 1,
        "hasMtTag": 1,
        "hasJgTag": 0,
        "mtCount": 12
    }
]