[
    {
        "name": "[UGirlsAPP]\u7231\u5c24\u7269 NO.056 \u5c0f\u4e5d\u65e5\u65e5",
        "src": "http://d.duotuwang.com/2015/07/13/4400/0.jpg",
        "mtId": "e142e967ada37988",
        "mtName": "\u5c0f\u4e5d\u65e5\u65e5",
        "jgId": "ugirlsapp",
        "jgName": "\u7231\u5c24\u7269",
        "href": "http://d.duotuwang.com/2015/07/13/4400/",
        "count": 40,
        "start": 1,
        "hasMtTag": 1,
        "hasJgTag": 1,
        "mtCount": 1,
        "jgCount": 397
    },
    {
        "name": "[UGirls]\u5c24\u679c\u7f51 E028 \u5c0f\u4e5d\u65e5\u65e5",
        "src": "http://d.duotuwang.com/2014/08/02/3030/0.jpg",
        "mtId": "e142e967ada37988",
        "mtName": "\u5c0f\u4e5d\u65e5\u65e5",
        "jgId": "ugirls",
        "jgName": "\u5c24\u679c\u7f51",
        "href": "http://d.duotuwang.com/2014/08/02/3030/",
        "count": 37,
        "start": 1,
        "hasMtTag": 1,
        "hasJgTag": 1,
        "mtCount": 1,
        "jgCount": 79
    }
]