[
    {
        "name": "[TGod]\u63a8\u5973\u795e 2016-01-21 \u5f90\u598d\u99a8Mandy",
        "src": "http://d.duotuwang.com/2016/01/21/2454/0.jpg",
        "mtId": "8c18e8e4740bb498",
        "mtName": "\u5f90\u598d\u99a8Mandy",
        "jgId": "tgod",
        "jgName": "\u63a8\u5973\u795e",
        "href": "http://d.duotuwang.com/2016/01/21/2454/",
        "count": 38,
        "start": 1,
        "hasMtTag": 1,
        "hasJgTag": 1,
        "mtCount": 2,
        "jgCount": 78
    },
    {
        "name": "[TGod]\u63a8\u5973\u795e 2015-12-03 \u5f90\u598d\u99a8Mandy",
        "src": "http://d.duotuwang.com/2015/12/03/2410/0.jpg",
        "mtId": "8c18e8e4740bb498",
        "mtName": "\u5f90\u598d\u99a8Mandy",
        "jgId": "tgod",
        "jgName": "\u63a8\u5973\u795e",
        "href": "http://d.duotuwang.com/2015/12/03/2410/",
        "count": 53,
        "start": 1,
        "hasMtTag": 1,
        "hasJgTag": 1,
        "mtCount": 2,
        "jgCount": 78
    },
    {
        "name": "[TGod]\u63a8\u5973\u795e 2015-11-28 \u5f90\u598d\u99a8Mandy",
        "src": "http://d.duotuwang.com/2015/11/28/2414/0.jpg",
        "mtId": "8c18e8e4740bb498",
        "mtName": "\u5f90\u598d\u99a8Mandy",
        "jgId": "tgod",
        "jgName": "\u63a8\u5973\u795e",
        "href": "http://d.duotuwang.com/2015/11/28/2414/",
        "count": 42,
        "start": 1,
        "hasMtTag": 1,
        "hasJgTag": 1,
        "mtCount": 2,
        "jgCount": 78
    },
    {
        "name": "[TGod]\u63a8\u5973\u795e 2015-11-24 \u5f90\u598d\u99a8Mandy",
        "src": "http://d.duotuwang.com/2015/11/24/2418/0.jpg",
        "mtId": "8c18e8e4740bb498",
        "mtName": "\u5f90\u598d\u99a8Mandy",
        "jgId": "tgod",
        "jgName": "\u63a8\u5973\u795e",
        "href": "http://d.duotuwang.com/2015/11/24/2418/",
        "count": 46,
        "start": 1,
        "hasMtTag": 1,
        "hasJgTag": 1,
        "mtCount": 2,
        "jgCount": 78
    },
    {
        "name": "[TGod]\u63a8\u5973\u795e 2015-11-12 \u5f90\u598d\u99a8Mandy",
        "src": "http://d.duotuwang.com/2015/11/12/2392/0.jpg",
        "mtId": "8c18e8e4740bb498",
        "mtName": "\u5f90\u598d\u99a8Mandy",
        "jgId": "tgod",
        "jgName": "\u63a8\u5973\u795e",
        "href": "http://d.duotuwang.com/2015/11/12/2392/",
        "count": 50,
        "start": 1,
        "hasMtTag": 1,
        "hasJgTag": 1,
        "mtCount": 2,
        "jgCount": 78
    },
    {
        "name": "[TGod]\u63a8\u5973\u795e 2015-11-04 \u5f90\u598d\u99a8Mandy",
        "src": "http://d.duotuwang.com/2015/11/04/2398/0.jpg",
        "mtId": "8c18e8e4740bb498",
        "mtName": "\u5f90\u598d\u99a8Mandy",
        "jgId": "tgod",
        "jgName": "\u63a8\u5973\u795e",
        "href": "http://d.duotuwang.com/2015/11/04/2398/",
        "count": 42,
        "start": 1,
        "hasMtTag": 1,
        "hasJgTag": 1,
        "mtCount": 2,
        "jgCount": 78
    }
]