[
    {
        "name": "[CANDY]\u7cd6\u679c\u753b\u62a5 VOL.022 \u674e\u5b93\u513f",
        "src": "http://d.duotuwang.com/2017/05/11/3833/0.jpg",
        "mtId": "bd5953142f24cb0a",
        "mtName": "\u674e\u5b93\u513f",
        "jgId": "candy",
        "jgName": "\u7cd6\u679c\u753b\u62a5",
        "href": "http://d.duotuwang.com/2017/05/11/3833/",
        "count": 58,
        "start": 1,
        "hasMtTag": 1,
        "hasJgTag": 1,
        "mtCount": 5,
        "jgCount": 15
    },
    {
        "name": "[YouWu]\u5c24\u7269\u9986 VOL.055 \u674e\u5b93\u513f",
        "src": "http://d.duotuwang.com/2017/05/02/4004/0.jpg",
        "mtId": "bd5953142f24cb0a",
        "mtName": "\u674e\u5b93\u513f",
        "jgId": "youwu",
        "jgName": "\u5c24\u7269\u9986",
        "href": "http://d.duotuwang.com/2017/05/02/4004/",
        "count": 48,
        "start": 1,
        "hasMtTag": 1,
        "hasJgTag": 1,
        "mtCount": 5,
        "jgCount": 29
    },
    {
        "name": "[YouWu]\u5c24\u7269\u9986 VOL.052 \u674e\u5b93\u513f",
        "src": "http://d.duotuwang.com/2017/02/21/2191/0.jpg",
        "mtId": "bd5953142f24cb0a",
        "mtName": "\u674e\u5b93\u513f",
        "jgId": "youwu",
        "jgName": "\u5c24\u7269\u9986",
        "href": "http://d.duotuwang.com/2017/02/21/2191/",
        "count": 64,
        "start": 1,
        "hasMtTag": 1,
        "hasJgTag": 1,
        "mtCount": 5,
        "jgCount": 29
    },
    {
        "name": "[YouWu]\u5c24\u7269\u9986 VOL.041 \u674e\u5b93\u513f",
        "src": "http://d.duotuwang.com/2016/12/20/1959/0.jpg",
        "mtId": "bd5953142f24cb0a",
        "mtName": "\u674e\u5b93\u513f",
        "jgId": "youwu",
        "jgName": "\u5c24\u7269\u9986",
        "href": "http://d.duotuwang.com/2016/12/20/1959/",
        "count": 53,
        "start": 1,
        "hasMtTag": 1,
        "hasJgTag": 1,
        "mtCount": 5,
        "jgCount": 29
    },
    {
        "name": "[XIUREN]\u79c0\u4eba\u7f51 No.638 \u674e\u5b93\u513f",
        "src": "http://d.duotuwang.com/2016/11/16/1793/0.jpg",
        "mtId": "bd5953142f24cb0a",
        "mtName": "\u674e\u5b93\u513f",
        "jgId": "xiuren",
        "jgName": "\u79c0\u4eba\u7f51",
        "href": "http://d.duotuwang.com/2016/11/16/1793/",
        "count": 61,
        "start": 1,
        "hasMtTag": 1,
        "hasJgTag": 1,
        "mtCount": 5,
        "jgCount": 750
    },
    {
        "name": "[YouWu]\u5c24\u7269\u9986 VOL.035 \u674e\u5b93\u513f",
        "src": "http://d.duotuwang.com/2016/10/11/1753/0.jpg",
        "mtId": "bd5953142f24cb0a",
        "mtName": "\u674e\u5b93\u513f",
        "jgId": "youwu",
        "jgName": "\u5c24\u7269\u9986",
        "href": "http://d.duotuwang.com/2016/10/11/1753/",
        "count": 50,
        "start": 1,
        "hasMtTag": 1,
        "hasJgTag": 1,
        "mtCount": 5,
        "jgCount": 29
    }
]