[
    {
        "name": "[UGirlsAPP]\u7231\u5c24\u7269 No.1837 \u738b\u7fca\u6db5 \u96ea\u5929\u4f7f",
        "src": "http://d.duotuwang.com/2020/06/05/20781/0.jpg",
        "mtId": "829f48f5ca61f176",
        "mtName": "\u738b\u7fca\u6db5",
        "jgId": "ugirlsapp",
        "jgName": "\u7231\u5c24\u7269",
        "href": "http://d.duotuwang.com/2020/06/05/20781/",
        "count": 35,
        "start": 1,
        "hasMtTag": 1,
        "hasJgTag": 1,
        "mtCount": 1,
        "jgCount": 397
    },
    {
        "name": "[UGirlsAPP]\u7231\u5c24\u7269 No.1746 \u738b\u7fca\u6db5 \u96ea\u5929\u4f7f",
        "src": "http://d.duotuwang.com/2020/02/29/19806/0.jpg",
        "mtId": "829f48f5ca61f176",
        "mtName": "\u738b\u7fca\u6db5",
        "jgId": "ugirlsapp",
        "jgName": "\u7231\u5c24\u7269",
        "href": "http://d.duotuwang.com/2020/02/29/19806/",
        "count": 35,
        "start": 1,
        "hasMtTag": 1,
        "hasJgTag": 1,
        "mtCount": 1,
        "jgCount": 397
    },
    {
        "name": "[UGirls]\u5c24\u679c\u7f51 U392 \u738b\u7fca\u6db5",
        "src": "http://d.duotuwang.com/2018/08/22/9507/0.jpg",
        "mtId": "829f48f5ca61f176",
        "mtName": "\u738b\u7fca\u6db5",
        "jgId": "ugirls",
        "jgName": "\u5c24\u679c\u7f51",
        "href": "http://d.duotuwang.com/2018/08/22/9507/",
        "count": 65,
        "start": 1,
        "hasMtTag": 1,
        "hasJgTag": 1,
        "mtCount": 1,
        "jgCount": 79
    },
    {
        "name": "[UGirlsAPP]\u7231\u5c24\u7269 No.1185 \u738b\u7fca\u6db5 \u7f8e\u4eba\u5c71\u6c34\u56fe",
        "src": "http://d.duotuwang.com/2018/08/17/9499/0.jpg",
        "mtId": "829f48f5ca61f176",
        "mtName": "\u738b\u7fca\u6db5",
        "jgId": "ugirlsapp",
        "jgName": "\u7231\u5c24\u7269",
        "href": "http://d.duotuwang.com/2018/08/17/9499/",
        "count": 35,
        "start": 1,
        "hasMtTag": 1,
        "hasJgTag": 1,
        "mtCount": 1,
        "jgCount": 397
    }
]