[
    {
        "name": "[XIUREN]\u79c0\u4eba\u7f51 No.888 \u7384\u5b50",
        "src": "http://d.duotuwang.com/2018/01/05/8119/0.jpg",
        "mtId": "96b4696740fbbe72",
        "mtName": "\u7384\u5b50",
        "jgId": "xiuren",
        "jgName": "\u79c0\u4eba\u7f51",
        "href": "http://d.duotuwang.com/2018/01/05/8119/",
        "count": 51,
        "start": 1,
        "hasMtTag": 1,
        "hasJgTag": 1,
        "mtCount": 5,
        "jgCount": 750
    }
]