[
    {
        "name": "\u98ce\u4e4b\u9886\u57df VOL.0116",
        "src": "http://d.duotuwang.com/2018/11/14/22212/0.jpg",
        "jgId": "fzly",
        "jgName": "\u98ce\u4e4b\u9886\u57df",
        "href": "http://d.duotuwang.com/2018/11/14/22212/",
        "count": 35,
        "start": 1,
        "hasMtTag": 0,
        "hasJgTag": 1,
        "jgCount": 32
    },
    {
        "name": "\u98ce\u4e4b\u9886\u57df VOL.0115",
        "src": "http://d.duotuwang.com/2018/11/13/22211/0.jpg",
        "jgId": "fzly",
        "jgName": "\u98ce\u4e4b\u9886\u57df",
        "href": "http://d.duotuwang.com/2018/11/13/22211/",
        "count": 53,
        "start": 1,
        "hasMtTag": 0,
        "hasJgTag": 1,
        "jgCount": 32
    },
    {
        "name": "\u98ce\u4e4b\u9886\u57df VOL.0114",
        "src": "http://d.duotuwang.com/2018/11/12/22210/0.jpg",
        "jgId": "fzly",
        "jgName": "\u98ce\u4e4b\u9886\u57df",
        "href": "http://d.duotuwang.com/2018/11/12/22210/",
        "count": 49,
        "start": 1,
        "hasMtTag": 0,
        "hasJgTag": 1,
        "jgCount": 32
    },
    {
        "name": "\u98ce\u4e4b\u9886\u57df VOL.0113",
        "src": "http://d.duotuwang.com/2018/11/11/22209/0.jpg",
        "jgId": "fzly",
        "jgName": "\u98ce\u4e4b\u9886\u57df",
        "href": "http://d.duotuwang.com/2018/11/11/22209/",
        "count": 45,
        "start": 1,
        "hasMtTag": 0,
        "hasJgTag": 1,
        "jgCount": 32
    },
    {
        "name": "\u98ce\u4e4b\u9886\u57df VOL.0112",
        "src": "http://d.duotuwang.com/2018/11/10/22208/0.jpg",
        "jgId": "fzly",
        "jgName": "\u98ce\u4e4b\u9886\u57df",
        "href": "http://d.duotuwang.com/2018/11/10/22208/",
        "count": 42,
        "start": 1,
        "hasMtTag": 0,
        "hasJgTag": 1,
        "jgCount": 32
    },
    {
        "name": "\u98ce\u4e4b\u9886\u57df VOL.0111",
        "src": "http://d.duotuwang.com/2018/11/09/22207/0.jpg",
        "jgId": "fzly",
        "jgName": "\u98ce\u4e4b\u9886\u57df",
        "href": "http://d.duotuwang.com/2018/11/09/22207/",
        "count": 48,
        "start": 1,
        "hasMtTag": 0,
        "hasJgTag": 1,
        "jgCount": 32
    }
]