[
    {
        "name": "\u98ce\u4e4b\u9886\u57df VOL.0162",
        "src": "http://d.duotuwang.com/2018/12/30/22258/0.jpg",
        "jgId": "fzly",
        "jgName": "\u98ce\u4e4b\u9886\u57df",
        "href": "http://d.duotuwang.com/2018/12/30/22258/",
        "count": 54,
        "start": 1,
        "hasMtTag": 0,
        "hasJgTag": 1,
        "jgCount": 32
    },
    {
        "name": "\u98ce\u4e4b\u9886\u57df VOL.0161",
        "src": "http://d.duotuwang.com/2018/12/29/22257/0.jpg",
        "jgId": "fzly",
        "jgName": "\u98ce\u4e4b\u9886\u57df",
        "href": "http://d.duotuwang.com/2018/12/29/22257/",
        "count": 50,
        "start": 1,
        "hasMtTag": 0,
        "hasJgTag": 1,
        "jgCount": 32
    },
    {
        "name": "\u98ce\u4e4b\u9886\u57df VOL.0160",
        "src": "http://d.duotuwang.com/2018/12/28/22256/0.jpg",
        "jgId": "fzly",
        "jgName": "\u98ce\u4e4b\u9886\u57df",
        "href": "http://d.duotuwang.com/2018/12/28/22256/",
        "count": 44,
        "start": 1,
        "hasMtTag": 0,
        "hasJgTag": 1,
        "jgCount": 32
    },
    {
        "name": "\u98ce\u4e4b\u9886\u57df VOL.0159",
        "src": "http://d.duotuwang.com/2018/12/27/22255/0.jpg",
        "jgId": "fzly",
        "jgName": "\u98ce\u4e4b\u9886\u57df",
        "href": "http://d.duotuwang.com/2018/12/27/22255/",
        "count": 47,
        "start": 1,
        "hasMtTag": 0,
        "hasJgTag": 1,
        "jgCount": 32
    },
    {
        "name": "\u98ce\u4e4b\u9886\u57df VOL.0158",
        "src": "http://d.duotuwang.com/2018/12/26/22254/0.jpg",
        "jgId": "fzly",
        "jgName": "\u98ce\u4e4b\u9886\u57df",
        "href": "http://d.duotuwang.com/2018/12/26/22254/",
        "count": 50,
        "start": 1,
        "hasMtTag": 0,
        "hasJgTag": 1,
        "jgCount": 32
    },
    {
        "name": "\u98ce\u4e4b\u9886\u57df VOL.0157",
        "src": "http://d.duotuwang.com/2018/12/25/22253/0.jpg",
        "jgId": "fzly",
        "jgName": "\u98ce\u4e4b\u9886\u57df",
        "href": "http://d.duotuwang.com/2018/12/25/22253/",
        "count": 52,
        "start": 1,
        "hasMtTag": 0,
        "hasJgTag": 1,
        "jgCount": 32
    }
]