[
    {
        "name": "[XIUREN]\u79c0\u4eba\u7f51 No.4185 \u58a8\u97e9",
        "src": "http://d.duotuwang.com/2021/11/09/27320/0.jpg",
        "mtId": "f9fe4f87d6cd3ff7",
        "mtName": "\u58a8\u97e9",
        "jgId": "xiuren",
        "jgName": "\u79c0\u4eba\u7f51",
        "href": "http://d.duotuwang.com/2021/11/09/27320/",
        "count": 66,
        "start": 1,
        "hasMtTag": 1,
        "hasJgTag": 1,
        "mtCount": 1,
        "jgCount": 750
    },
    {
        "name": "[MFStar]\u6a21\u8303\u5b66\u9662 VOL.521 \u58a8\u97e9",
        "src": "http://d.duotuwang.com/2021/08/04/26077/0.jpg",
        "mtId": "f9fe4f87d6cd3ff7",
        "mtName": "\u58a8\u97e9",
        "jgId": "mfstar",
        "jgName": "\u6a21\u8303\u5b66\u9662",
        "href": "http://d.duotuwang.com/2021/08/04/26077/",
        "count": 38,
        "start": 1,
        "hasMtTag": 1,
        "hasJgTag": 1,
        "mtCount": 1,
        "jgCount": 94
    },
    {
        "name": "[MFStar]\u6a21\u8303\u5b66\u9662 VOL.512 \u58a8\u97e9",
        "src": "http://d.duotuwang.com/2021/07/12/25802/0.jpg",
        "mtId": "f9fe4f87d6cd3ff7",
        "mtName": "\u58a8\u97e9",
        "jgId": "mfstar",
        "jgName": "\u6a21\u8303\u5b66\u9662",
        "href": "http://d.duotuwang.com/2021/07/12/25802/",
        "count": 49,
        "start": 1,
        "hasMtTag": 1,
        "hasJgTag": 1,
        "mtCount": 1,
        "jgCount": 94
    },
    {
        "name": "[MFStar]\u6a21\u8303\u5b66\u9662 VOL.483 \u58a8\u97e9",
        "src": "http://d.duotuwang.com/2021/04/20/24840/0.jpg",
        "mtId": "f9fe4f87d6cd3ff7",
        "mtName": "\u58a8\u97e9",
        "jgId": "mfstar",
        "jgName": "\u6a21\u8303\u5b66\u9662",
        "href": "http://d.duotuwang.com/2021/04/20/24840/",
        "count": 44,
        "start": 1,
        "hasMtTag": 1,
        "hasJgTag": 1,
        "mtCount": 1,
        "jgCount": 94
    }
]