[
    {
        "name": "[XIUREN]\u79c0\u4eba\u7f51 No.3388 \u90d1\u9896\u59d7Bev",
        "src": "http://d.duotuwang.com/2021/05/10/25017/0.jpg",
        "mtId": "69a179c472dcbd6e",
        "mtName": "\u90d1\u9896\u59d7Bev",
        "jgId": "xiuren",
        "jgName": "\u79c0\u4eba\u7f51",
        "href": "http://d.duotuwang.com/2021/05/10/25017/",
        "count": 48,
        "start": 1,
        "hasMtTag": 1,
        "hasJgTag": 1,
        "mtCount": 7,
        "jgCount": 750
    },
    {
        "name": "[XIAOYU]\u8bed\u753b\u754c VOL.522 \u90d1\u9896\u59d7Bev",
        "src": "http://d.duotuwang.com/2021/05/07/25036/0.jpg",
        "mtId": "69a179c472dcbd6e",
        "mtName": "\u90d1\u9896\u59d7Bev",
        "jgId": "xiaoyu",
        "jgName": "\u8bed\u753b\u754c",
        "href": "http://d.duotuwang.com/2021/05/07/25036/",
        "count": 62,
        "start": 1,
        "hasMtTag": 1,
        "hasJgTag": 1,
        "mtCount": 7,
        "jgCount": 155
    },
    {
        "name": "[XIAOYU]\u8bed\u753b\u754c VOL.518 \u90d1\u9896\u59d7Bev",
        "src": "http://d.duotuwang.com/2021/04/28/24877/0.jpg",
        "mtId": "69a179c472dcbd6e",
        "mtName": "\u90d1\u9896\u59d7Bev",
        "jgId": "xiaoyu",
        "jgName": "\u8bed\u753b\u754c",
        "href": "http://d.duotuwang.com/2021/04/28/24877/",
        "count": 77,
        "start": 1,
        "hasMtTag": 1,
        "hasJgTag": 1,
        "mtCount": 7,
        "jgCount": 155
    },
    {
        "name": "[XIAOYU]\u8bed\u753b\u754c VOL.503 \u90d1\u9896\u59d7Bev",
        "src": "http://d.duotuwang.com/2021/04/07/24771/0.jpg",
        "mtId": "69a179c472dcbd6e",
        "mtName": "\u90d1\u9896\u59d7Bev",
        "jgId": "xiaoyu",
        "jgName": "\u8bed\u753b\u754c",
        "href": "http://d.duotuwang.com/2021/04/07/24771/",
        "count": 58,
        "start": 1,
        "hasMtTag": 1,
        "hasJgTag": 1,
        "mtCount": 7,
        "jgCount": 155
    },
    {
        "name": "[XIAOYU]\u8bed\u753b\u754c VOL.491 \u90d1\u9896\u59d7Bev",
        "src": "http://d.duotuwang.com/2021/03/18/24561/0.jpg",
        "mtId": "69a179c472dcbd6e",
        "mtName": "\u90d1\u9896\u59d7Bev",
        "jgId": "xiaoyu",
        "jgName": "\u8bed\u753b\u754c",
        "href": "http://d.duotuwang.com/2021/03/18/24561/",
        "count": 75,
        "start": 1,
        "hasMtTag": 1,
        "hasJgTag": 1,
        "mtCount": 7,
        "jgCount": 155
    },
    {
        "name": "[MFStar]\u6a21\u8303\u5b66\u9662 VOL.458 \u90d1\u9896\u59d7Bev",
        "src": "http://d.duotuwang.com/2021/02/20/24232/0.jpg",
        "mtId": "69a179c472dcbd6e",
        "mtName": "\u90d1\u9896\u59d7Bev",
        "jgId": "mfstar",
        "jgName": "\u6a21\u8303\u5b66\u9662",
        "href": "http://d.duotuwang.com/2021/02/20/24232/",
        "count": 53,
        "start": 1,
        "hasMtTag": 1,
        "hasJgTag": 1,
        "mtCount": 7,
        "jgCount": 94
    }
]