[
    {
        "name": "[XIAOYU]\u8bed\u753b\u754c VOL.038 Miki\u5154",
        "src": "http://d.duotuwang.com/2019/03/20/14584/0.jpg",
        "mtId": "3beb13dd2c1085db",
        "mtName": "Miki\u5154",
        "jgId": "xiaoyu",
        "jgName": "\u8bed\u753b\u754c",
        "href": "http://d.duotuwang.com/2019/03/20/14584/",
        "count": 51,
        "start": 1,
        "hasMtTag": 1,
        "hasJgTag": 1,
        "mtCount": 2,
        "jgCount": 155
    },
    {
        "name": "[XIAOYU]\u8bed\u753b\u754c VOL.016 Miki\u5154",
        "src": "http://d.duotuwang.com/2019/02/01/10440/0.jpg",
        "mtId": "3beb13dd2c1085db",
        "mtName": "Miki\u5154",
        "jgId": "xiaoyu",
        "jgName": "\u8bed\u753b\u754c",
        "href": "http://d.duotuwang.com/2019/02/01/10440/",
        "count": 51,
        "start": 1,
        "hasMtTag": 1,
        "hasJgTag": 1,
        "mtCount": 2,
        "jgCount": 155
    },
    {
        "name": "[XIAOYU]\u8bed\u753b\u754c VOL.002 Miki\u5154",
        "src": "http://d.duotuwang.com/2019/01/03/10293/0.jpg",
        "mtId": "3beb13dd2c1085db",
        "mtName": "Miki\u5154",
        "jgId": "xiaoyu",
        "jgName": "\u8bed\u753b\u754c",
        "href": "http://d.duotuwang.com/2019/01/03/10293/",
        "count": 62,
        "start": 1,
        "hasMtTag": 1,
        "hasJgTag": 1,
        "mtCount": 2,
        "jgCount": 155
    }
]