[
    {
        "name": "[MiiTao]\u871c\u6843\u793e VOL.061 \u51b0\u9732",
        "src": "http://d.duotuwang.com/2017/04/24/3745/0.jpg",
        "mtId": "64cd2c55a6503271",
        "mtName": "\u51b0\u9732",
        "jgId": "miitao",
        "jgName": "\u871c\u6843\u793e",
        "href": "http://d.duotuwang.com/2017/04/24/3745/",
        "count": 55,
        "start": 1,
        "hasMtTag": 1,
        "hasJgTag": 1,
        "mtCount": 1,
        "jgCount": 25
    },
    {
        "name": "[MiiTao]\u871c\u6843\u793e VOL.060 \u51b0\u9732",
        "src": "http://d.duotuwang.com/2017/04/17/3719/0.jpg",
        "mtId": "64cd2c55a6503271",
        "mtName": "\u51b0\u9732",
        "jgId": "miitao",
        "jgName": "\u871c\u6843\u793e",
        "href": "http://d.duotuwang.com/2017/04/17/3719/",
        "count": 61,
        "start": 1,
        "hasMtTag": 1,
        "hasJgTag": 1,
        "mtCount": 1,
        "jgCount": 25
    }
]