[
    {
        "name": "[UGirlsAPP]\u7231\u5c24\u7269 No.1559 \u60c5\u4eba\u753b\u62a5",
        "src": "http://d.duotuwang.com/2019/08/26/17811/0.jpg",
        "mtId": "cf0d9f99f400fd55",
        "mtName": "\u827e\u9713\u838e",
        "jgId": "ugirlsapp",
        "jgName": "\u7231\u5c24\u7269",
        "href": "http://d.duotuwang.com/2019/08/26/17811/",
        "count": 35,
        "start": 1,
        "hasMtTag": 1,
        "hasJgTag": 1,
        "mtCount": 1,
        "jgCount": 397
    },
    {
        "name": "[UGirlsAPP]\u7231\u5c24\u7269 No.1208 \u827e\u9713\u838e \u5fc3\u82b1\u8def\u653e",
        "src": "http://d.duotuwang.com/2018/09/09/9609/0.jpg",
        "mtId": "cf0d9f99f400fd55",
        "mtName": "\u827e\u9713\u838e",
        "jgId": "ugirlsapp",
        "jgName": "\u7231\u5c24\u7269",
        "href": "http://d.duotuwang.com/2018/09/09/9609/",
        "count": 35,
        "start": 1,
        "hasMtTag": 1,
        "hasJgTag": 1,
        "mtCount": 1,
        "jgCount": 397
    },
    {
        "name": "[UGirls]\u5c24\u679c\u7f51 U298 \u827e\u9713\u838e",
        "src": "http://d.duotuwang.com/2017/08/18/5412/0.jpg",
        "mtId": "cf0d9f99f400fd55",
        "mtName": "\u827e\u9713\u838e",
        "jgId": "ugirls",
        "jgName": "\u5c24\u679c\u7f51",
        "href": "http://d.duotuwang.com/2017/08/18/5412/",
        "count": 65,
        "start": 1,
        "hasMtTag": 1,
        "hasJgTag": 1,
        "mtCount": 1,
        "jgCount": 79
    },
    {
        "name": "[UGirlsAPP]\u7231\u5c24\u7269 No.811 \u827e\u9713\u838e",
        "src": "http://d.duotuwang.com/2017/08/08/5382/0.jpg",
        "mtId": "cf0d9f99f400fd55",
        "mtName": "\u827e\u9713\u838e",
        "jgId": "ugirlsapp",
        "jgName": "\u7231\u5c24\u7269",
        "href": "http://d.duotuwang.com/2017/08/08/5382/",
        "count": 40,
        "start": 1,
        "hasMtTag": 1,
        "hasJgTag": 1,
        "mtCount": 1,
        "jgCount": 397
    },
    {
        "name": "[UGirlsAPP]\u7231\u5c24\u7269 No.779 \u827e\u9713\u838e",
        "src": "http://d.duotuwang.com/2017/07/07/5104/0.jpg",
        "mtId": "cf0d9f99f400fd55",
        "mtName": "\u827e\u9713\u838e",
        "jgId": "ugirlsapp",
        "jgName": "\u7231\u5c24\u7269",
        "href": "http://d.duotuwang.com/2017/07/07/5104/",
        "count": 40,
        "start": 1,
        "hasMtTag": 1,
        "hasJgTag": 1,
        "mtCount": 1,
        "jgCount": 397
    },
    {
        "name": "[UGirlsAPP]\u7231\u5c24\u7269 No.575 \u827e\u9713\u838e",
        "src": "http://d.duotuwang.com/2016/12/14/4926/0.jpg",
        "mtId": "cf0d9f99f400fd55",
        "mtName": "\u827e\u9713\u838e",
        "jgId": "ugirlsapp",
        "jgName": "\u7231\u5c24\u7269",
        "href": "http://d.duotuwang.com/2016/12/14/4926/",
        "count": 40,
        "start": 1,
        "hasMtTag": 1,
        "hasJgTag": 1,
        "mtCount": 1,
        "jgCount": 397
    }
]