[
    {
        "name": "[UGirlsAPP]\u7231\u5c24\u7269 No.1883 \u4e00\u53ea\u9999\u8549\u8239 \u7a7a\u5fc3\u63a2\u68a6",
        "src": "http://d.duotuwang.com/2020/08/08/21408/0.jpg",
        "mtId": "ce7847958c820044",
        "mtName": "\u4e00\u53ea\u9999\u8549\u8239",
        "jgId": "ugirlsapp",
        "jgName": "\u7231\u5c24\u7269",
        "href": "http://d.duotuwang.com/2020/08/08/21408/",
        "count": 35,
        "start": 1,
        "hasMtTag": 1,
        "hasJgTag": 1,
        "mtCount": 1,
        "jgCount": 397
    },
    {
        "name": "[UGirlsAPP]\u7231\u5c24\u7269 No.1820 \u4e00\u53ea\u9999\u8549\u8239 \u871c\u7cd6\u5c0f\u8239",
        "src": "http://d.duotuwang.com/2020/05/13/20595/0.jpg",
        "mtId": "ce7847958c820044",
        "mtName": "\u4e00\u53ea\u9999\u8549\u8239",
        "jgId": "ugirlsapp",
        "jgName": "\u7231\u5c24\u7269",
        "href": "http://d.duotuwang.com/2020/05/13/20595/",
        "count": 35,
        "start": 1,
        "hasMtTag": 1,
        "hasJgTag": 1,
        "mtCount": 1,
        "jgCount": 397
    },
    {
        "name": "[UGirlsAPP]\u7231\u5c24\u7269 No.1740 \u4e00\u53ea\u9999\u8549\u8239 \u5c11\u5973\u7684\u822a\u7ebf",
        "src": "http://d.duotuwang.com/2020/02/23/19717/0.jpg",
        "mtId": "ce7847958c820044",
        "mtName": "\u4e00\u53ea\u9999\u8549\u8239",
        "jgId": "ugirlsapp",
        "jgName": "\u7231\u5c24\u7269",
        "href": "http://d.duotuwang.com/2020/02/23/19717/",
        "count": 35,
        "start": 1,
        "hasMtTag": 1,
        "hasJgTag": 1,
        "mtCount": 1,
        "jgCount": 397
    },
    {
        "name": "[UGirlsAPP]\u7231\u5c24\u7269 No.1644 \u4e00\u53ea\u9999\u8549\u8239 \u8239\u5c3e\u7684\u59d1\u5a18",
        "src": "http://d.duotuwang.com/2019/11/19/18679/0.jpg",
        "mtId": "ce7847958c820044",
        "mtName": "\u4e00\u53ea\u9999\u8549\u8239",
        "jgId": "ugirlsapp",
        "jgName": "\u7231\u5c24\u7269",
        "href": "http://d.duotuwang.com/2019/11/19/18679/",
        "count": 35,
        "start": 1,
        "hasMtTag": 1,
        "hasJgTag": 1,
        "mtCount": 1,
        "jgCount": 397
    },
    {
        "name": "[UGirls]\u5c24\u679c\u7f51 U426 \u4e00\u53ea\u9999\u8549\u8239",
        "src": "http://d.duotuwang.com/2019/06/27/17172/0.jpg",
        "mtId": "ce7847958c820044",
        "mtName": "\u4e00\u53ea\u9999\u8549\u8239",
        "jgId": "ugirls",
        "jgName": "\u5c24\u679c\u7f51",
        "href": "http://d.duotuwang.com/2019/06/27/17172/",
        "count": 65,
        "start": 1,
        "hasMtTag": 1,
        "hasJgTag": 1,
        "mtCount": 1,
        "jgCount": 79
    },
    {
        "name": "[UGirlsAPP]\u7231\u5c24\u7269 No.1483 \u4e00\u53ea\u9999\u8549\u8239 \u8239\u5728\u5fc3\u4e0a\u6e38",
        "src": "http://d.duotuwang.com/2019/06/11/16817/0.jpg",
        "mtId": "ce7847958c820044",
        "mtName": "\u4e00\u53ea\u9999\u8549\u8239",
        "jgId": "ugirlsapp",
        "jgName": "\u7231\u5c24\u7269",
        "href": "http://d.duotuwang.com/2019/06/11/16817/",
        "count": 35,
        "start": 1,
        "hasMtTag": 1,
        "hasJgTag": 1,
        "mtCount": 1,
        "jgCount": 397
    }
]