[
    {
        "name": "[Pure Media] Vol.153 Miho",
        "src": "http://d.duotuwang.com/2022/01/13/30210/0.jpg",
        "mtId": "0863e388f319a3e1",
        "mtName": "PureMedia",
        "href": "http://d.duotuwang.com/2022/01/13/30210/",
        "count": 47,
        "start": 1,
        "hasMtTag": 1,
        "hasJgTag": 0,
        "mtCount": 6
    }
]