[
    {
        "name": "[IMISS]\u7231\u871c\u793e VOL.698 SISY\u601d",
        "src": "http://d.duotuwang.com/2022/09/13/31235/0.jpg",
        "mtId": "f844c94faa76ede5",
        "mtName": "SISY\u601d",
        "jgId": "imiss",
        "jgName": "\u7231\u871c\u793e",
        "href": "http://d.duotuwang.com/2022/09/13/31235/",
        "count": 36,
        "start": 1,
        "hasMtTag": 1,
        "hasJgTag": 1,
        "mtCount": 4,
        "jgCount": 116
    },
    {
        "name": "[IMISS]\u7231\u871c\u793e VOL.689 SISY\u601d",
        "src": "http://d.duotuwang.com/2022/06/21/30239/0.jpg",
        "mtId": "f844c94faa76ede5",
        "mtName": "SISY\u601d",
        "jgId": "imiss",
        "jgName": "\u7231\u871c\u793e",
        "href": "http://d.duotuwang.com/2022/06/21/30239/",
        "count": 40,
        "start": 1,
        "hasMtTag": 1,
        "hasJgTag": 1,
        "mtCount": 4,
        "jgCount": 116
    },
    {
        "name": "[IMISS]\u7231\u871c\u793e VOL.686 SISY\u601d",
        "src": "http://d.duotuwang.com/2022/06/08/30082/0.jpg",
        "mtId": "f844c94faa76ede5",
        "mtName": "SISY\u601d",
        "jgId": "imiss",
        "jgName": "\u7231\u871c\u793e",
        "href": "http://d.duotuwang.com/2022/06/08/30082/",
        "count": 40,
        "start": 1,
        "hasMtTag": 1,
        "hasJgTag": 1,
        "mtCount": 4,
        "jgCount": 116
    },
    {
        "name": "[IMISS]\u7231\u871c\u793e VOL.607 SISY\u601d",
        "src": "http://d.duotuwang.com/2021/06/25/25639/0.jpg",
        "mtId": "f844c94faa76ede5",
        "mtName": "SISY\u601d",
        "jgId": "imiss",
        "jgName": "\u7231\u871c\u793e",
        "href": "http://d.duotuwang.com/2021/06/25/25639/",
        "count": 36,
        "start": 1,
        "hasMtTag": 1,
        "hasJgTag": 1,
        "mtCount": 4,
        "jgCount": 116
    },
    {
        "name": "[IMISS]\u7231\u871c\u793e VOL.584 SISY\u601d",
        "src": "http://d.duotuwang.com/2021/04/27/24836/0.jpg",
        "mtId": "f844c94faa76ede5",
        "mtName": "SISY\u601d",
        "jgId": "imiss",
        "jgName": "\u7231\u871c\u793e",
        "href": "http://d.duotuwang.com/2021/04/27/24836/",
        "count": 72,
        "start": 1,
        "hasMtTag": 1,
        "hasJgTag": 1,
        "mtCount": 4,
        "jgCount": 116
    },
    {
        "name": "[IMISS]\u7231\u871c\u793e VOL.577 SISY\u601d",
        "src": "http://d.duotuwang.com/2021/04/15/24829/0.jpg",
        "mtId": "f844c94faa76ede5",
        "mtName": "SISY\u601d",
        "jgId": "imiss",
        "jgName": "\u7231\u871c\u793e",
        "href": "http://d.duotuwang.com/2021/04/15/24829/",
        "count": 57,
        "start": 1,
        "hasMtTag": 1,
        "hasJgTag": 1,
        "mtCount": 4,
        "jgCount": 116
    }
]