[
    {
        "name": "[SaintPhotoLife] \u7533\u624d\u6069Zenny - Romance",
        "src": "http://d.duotuwang.com/2019/01/26/25596/0.jpg",
        "mtId": "338cf684b6927d79",
        "mtName": "SaintPhotoLife",
        "href": "http://d.duotuwang.com/2019/01/26/25596/",
        "count": 40,
        "start": 1,
        "hasMtTag": 1,
        "hasJgTag": 0,
        "mtCount": 7
    },
    {
        "name": "[SaintPhotoLife] \u7533\u624d\u6069Zenny - Banyan Tree Club & Spa",
        "src": "http://d.duotuwang.com/2018/11/24/27916/0.jpg",
        "mtId": "338cf684b6927d79",
        "mtName": "SaintPhotoLife",
        "href": "http://d.duotuwang.com/2018/11/24/27916/",
        "count": 55,
        "start": 1,
        "hasMtTag": 1,
        "hasJgTag": 0,
        "mtCount": 7
    },
    {
        "name": "[SaintPhotoLife] \u7533\u624d\u6069Zenny - The Blue",
        "src": "http://d.duotuwang.com/2018/08/08/25597/0.jpg",
        "mtId": "338cf684b6927d79",
        "mtName": "SaintPhotoLife",
        "href": "http://d.duotuwang.com/2018/08/08/25597/",
        "count": 40,
        "start": 1,
        "hasMtTag": 1,
        "hasJgTag": 0,
        "mtCount": 7
    }
]