[
    {
        "name": "[YouMi]\u5c24\u871c 2021.01.20 \u7ae5\u82e5\u8f69",
        "src": "http://d.duotuwang.com/2021/01/20/23899/0.jpg",
        "jgId": "youmiabc",
        "jgName": "\u5c24\u871c",
        "href": "http://d.duotuwang.com/2021/01/20/23899/",
        "count": 32,
        "start": 1,
        "hasMtTag": 0,
        "hasJgTag": 1,
        "jgCount": 79
    },
    {
        "name": "[YouMi]\u5c24\u871c 2021.01.19 \u6296\u5a18\u5229\u4e16 \u865e\u7f8e\u4eba",
        "src": "http://d.duotuwang.com/2021/01/19/26651/0.jpg",
        "mtId": "8356114d4df8d319",
        "mtName": "\u6296\u5a18\u5229\u4e16",
        "jgId": "youmiabc",
        "jgName": "\u5c24\u871c",
        "href": "http://d.duotuwang.com/2021/01/19/26651/",
        "count": 16,
        "start": 1,
        "hasMtTag": 1,
        "hasJgTag": 1,
        "mtCount": 7,
        "jgCount": 79
    },
    {
        "name": "[YouMi]\u5c24\u871c \u5468\u6ce2\u513f",
        "src": "http://d.duotuwang.com/2021/01/19/23898/0.jpg",
        "mtId": "3059f6f5b6817546",
        "mtName": "\u5468\u6ce2\u513f",
        "jgId": "youmiabc",
        "jgName": "\u5c24\u871c",
        "href": "http://d.duotuwang.com/2021/01/19/23898/",
        "count": 21,
        "start": 1,
        "hasMtTag": 1,
        "hasJgTag": 1,
        "mtCount": 2,
        "jgCount": 79
    },
    {
        "name": "[YouMi]\u5c24\u871c 2021.01.18 \u6296\u5a18\u5229\u4e16 OL\u767d\u9886\u7b2c\u4e8c\u5f39",
        "src": "http://d.duotuwang.com/2021/01/18/26650/0.jpg",
        "mtId": "8356114d4df8d319",
        "mtName": "\u6296\u5a18\u5229\u4e16",
        "jgId": "youmiabc",
        "jgName": "\u5c24\u871c",
        "href": "http://d.duotuwang.com/2021/01/18/26650/",
        "count": 20,
        "start": 1,
        "hasMtTag": 1,
        "hasJgTag": 1,
        "mtCount": 7,
        "jgCount": 79
    },
    {
        "name": "[YouMi]\u5c24\u871c \u7f8e\u5e78baby",
        "src": "http://d.duotuwang.com/2021/01/18/23897/0.jpg",
        "mtId": "424ae0792a1e7d58",
        "mtName": "\u7f8e\u5e78baby",
        "jgId": "youmiabc",
        "jgName": "\u5c24\u871c",
        "href": "http://d.duotuwang.com/2021/01/18/23897/",
        "count": 30,
        "start": 1,
        "hasMtTag": 1,
        "hasJgTag": 1,
        "mtCount": 2,
        "jgCount": 79
    },
    {
        "name": "[YouMi]\u5c24\u871c 2021.01.17 \u6296\u5a18\u5229\u4e16 \u51ac\u65e5\u6ce1\u6ce1\u6d74",
        "src": "http://d.duotuwang.com/2021/01/17/26649/0.jpg",
        "mtId": "8356114d4df8d319",
        "mtName": "\u6296\u5a18\u5229\u4e16",
        "jgId": "youmiabc",
        "jgName": "\u5c24\u871c",
        "href": "http://d.duotuwang.com/2021/01/17/26649/",
        "count": 20,
        "start": 1,
        "hasMtTag": 1,
        "hasJgTag": 1,
        "mtCount": 7,
        "jgCount": 79
    }
]