[
    {
        "name": "[YouMi]\u5c24\u871c \u674e\u591a\u591a \u9ec4\u660f\u4e4b\u604b",
        "src": "http://d.duotuwang.com/2020/08/24/21616/0.jpg",
        "mtId": "982d3c4c85150f28",
        "mtName": "\u674e\u591a\u591a",
        "jgId": "youmiabc",
        "jgName": "\u5c24\u871c",
        "href": "http://d.duotuwang.com/2020/08/24/21616/",
        "count": 24,
        "start": 1,
        "hasMtTag": 1,
        "hasJgTag": 1,
        "mtCount": 3,
        "jgCount": 79
    },
    {
        "name": "[YouMi]\u5c24\u871c \u82cf\u5c0f\u66fc \u548c\u670d\u5c11\u5973\u306e\u5029\u5f71",
        "src": "http://d.duotuwang.com/2020/08/23/21615/0.jpg",
        "mtId": "4a595ac08e09c195",
        "mtName": "\u82cf\u5c0f\u66fc",
        "jgId": "youmiabc",
        "jgName": "\u5c24\u871c",
        "href": "http://d.duotuwang.com/2020/08/23/21615/",
        "count": 31,
        "start": 1,
        "hasMtTag": 1,
        "hasJgTag": 1,
        "mtCount": 6,
        "jgCount": 79
    },
    {
        "name": "[YouMi]\u5c24\u871c \u5982\u6b4c \u60c5\u8272\u8ff7\u5e7b",
        "src": "http://d.duotuwang.com/2020/08/22/21614/0.jpg",
        "mtId": "46e6676df4e7c0d0",
        "mtName": "\u5982\u6b4c",
        "jgId": "youmiabc",
        "jgName": "\u5c24\u871c",
        "href": "http://d.duotuwang.com/2020/08/22/21614/",
        "count": 28,
        "start": 1,
        "hasMtTag": 1,
        "hasJgTag": 1,
        "mtCount": 3,
        "jgCount": 79
    },
    {
        "name": "[YouMi]\u5c24\u871c \u6167\u96ef \u8680\u9aa8\u53a8\u5a18",
        "src": "http://d.duotuwang.com/2020/08/21/21613/0.jpg",
        "jgId": "youmiabc",
        "jgName": "\u5c24\u871c",
        "href": "http://d.duotuwang.com/2020/08/21/21613/",
        "count": 38,
        "start": 1,
        "hasMtTag": 0,
        "hasJgTag": 1,
        "jgCount": 79
    },
    {
        "name": "[YouMi]\u5c24\u871c \u674e\u627f\u7f8e \u5973\u738b\u306e\u89c4\u5219",
        "src": "http://d.duotuwang.com/2020/08/20/21612/0.jpg",
        "mtId": "01148cf5fcc2a25a",
        "mtName": "\u674e\u627f\u7f8e",
        "jgId": "youmiabc",
        "jgName": "\u5c24\u871c",
        "href": "http://d.duotuwang.com/2020/08/20/21612/",
        "count": 29,
        "start": 1,
        "hasMtTag": 1,
        "hasJgTag": 1,
        "mtCount": 6,
        "jgCount": 79
    },
    {
        "name": "[YouMi]\u5c24\u871c \u9648\u5706\u5706 \u66a7\u6627\u306e\u6d45\u7b11",
        "src": "http://d.duotuwang.com/2020/08/19/21611/0.jpg",
        "mtId": "a51091205bd1f26e",
        "mtName": "\u9648\u5706\u5706",
        "jgId": "youmiabc",
        "jgName": "\u5c24\u871c",
        "href": "http://d.duotuwang.com/2020/08/19/21611/",
        "count": 27,
        "start": 1,
        "hasMtTag": 1,
        "hasJgTag": 1,
        "mtCount": 6,
        "jgCount": 79
    }
]