[
    {
        "name": "[YouMi]\u5c24\u871c \u5982\u6b4c \u5976\u5473\u4e0b\u5348\u8336",
        "src": "http://d.duotuwang.com/2020/07/23/21265/0.jpg",
        "mtId": "46e6676df4e7c0d0",
        "mtName": "\u5982\u6b4c",
        "jgId": "youmiabc",
        "jgName": "\u5c24\u871c",
        "href": "http://d.duotuwang.com/2020/07/23/21265/",
        "count": 18,
        "start": 1,
        "hasMtTag": 1,
        "hasJgTag": 1,
        "mtCount": 3,
        "jgCount": 79
    },
    {
        "name": "[YouMi]\u5c24\u871c \u674e\u591a\u591a \u9759\u8c27\u306e\u4f60",
        "src": "http://d.duotuwang.com/2020/07/22/21264/0.jpg",
        "mtId": "982d3c4c85150f28",
        "mtName": "\u674e\u591a\u591a",
        "jgId": "youmiabc",
        "jgName": "\u5c24\u871c",
        "href": "http://d.duotuwang.com/2020/07/22/21264/",
        "count": 35,
        "start": 1,
        "hasMtTag": 1,
        "hasJgTag": 1,
        "mtCount": 3,
        "jgCount": 79
    },
    {
        "name": "[YouMi]\u5c24\u871c \u9648\u5b87\u66e6 \u5a9a\u773c\u4f20\u60c5",
        "src": "http://d.duotuwang.com/2020/07/21/21263/0.jpg",
        "mtId": "e6191308df24ea26",
        "mtName": "\u9648\u5b87\u66e6",
        "jgId": "youmiabc",
        "jgName": "\u5c24\u871c",
        "href": "http://d.duotuwang.com/2020/07/21/21263/",
        "count": 52,
        "start": 1,
        "hasMtTag": 1,
        "hasJgTag": 1,
        "mtCount": 10,
        "jgCount": 79
    },
    {
        "name": "[YouMi]\u5c24\u871c \u9648\u5706\u5706 \u6628\u591c\u6625\u5bb5",
        "src": "http://d.duotuwang.com/2020/07/20/21119/0.jpg",
        "mtId": "a51091205bd1f26e",
        "mtName": "\u9648\u5706\u5706",
        "jgId": "youmiabc",
        "jgName": "\u5c24\u871c",
        "href": "http://d.duotuwang.com/2020/07/20/21119/",
        "count": 27,
        "start": 1,
        "hasMtTag": 1,
        "hasJgTag": 1,
        "mtCount": 6,
        "jgCount": 79
    },
    {
        "name": "[YouMi]\u5c24\u871c \u4f55\u5609\u9896 \u6668\u98ce\u5439\u62c2",
        "src": "http://d.duotuwang.com/2020/07/19/21118/0.jpg",
        "mtId": "ddcc0f5bf2efada3",
        "mtName": "\u4f55\u5609\u9896",
        "jgId": "youmiabc",
        "jgName": "\u5c24\u871c",
        "href": "http://d.duotuwang.com/2020/07/19/21118/",
        "count": 24,
        "start": 1,
        "hasMtTag": 1,
        "hasJgTag": 1,
        "mtCount": 14,
        "jgCount": 79
    },
    {
        "name": "[YouMi]\u5c24\u871c Jessica",
        "src": "http://d.duotuwang.com/2020/07/18/21117/0.jpg",
        "mtId": "5098c81d4cdc5cb5",
        "mtName": "Jessica",
        "jgId": "youmiabc",
        "jgName": "\u5c24\u871c",
        "href": "http://d.duotuwang.com/2020/07/18/21117/",
        "count": 41,
        "start": 1,
        "hasMtTag": 1,
        "hasJgTag": 1,
        "mtCount": 2,
        "jgCount": 79
    }
]