[
    {
        "name": "[YouMi]\u5c24\u871c \u9648\u5b87\u66e6 \u6cf3\u6c60\u6d3e\u5bf9",
        "src": "http://d.duotuwang.com/2020/07/17/21116/0.jpg",
        "mtId": "e6191308df24ea26",
        "mtName": "\u9648\u5b87\u66e6",
        "jgId": "youmiabc",
        "jgName": "\u5c24\u871c",
        "href": "http://d.duotuwang.com/2020/07/17/21116/",
        "count": 32,
        "start": 1,
        "hasMtTag": 1,
        "hasJgTag": 1,
        "mtCount": 10,
        "jgCount": 79
    },
    {
        "name": "[YouMi]\u5c24\u871c \u5982\u6b4c \u606c\u8272\u751f\u9999",
        "src": "http://d.duotuwang.com/2020/07/16/21115/0.jpg",
        "mtId": "46e6676df4e7c0d0",
        "mtName": "\u5982\u6b4c",
        "jgId": "youmiabc",
        "jgName": "\u5c24\u871c",
        "href": "http://d.duotuwang.com/2020/07/16/21115/",
        "count": 42,
        "start": 1,
        "hasMtTag": 1,
        "hasJgTag": 1,
        "mtCount": 3,
        "jgCount": 79
    },
    {
        "name": "[YouMi]\u5c24\u871c \u7eef\u6708\u6a31-Cherry \u8bf1\u60d1\u5929\u4f7f",
        "src": "http://d.duotuwang.com/2020/07/15/21114/0.jpg",
        "mtId": "85e55daf35c53f9e",
        "mtName": "\u7eef\u6708\u6a31-Cherry",
        "jgId": "youmiabc",
        "jgName": "\u5c24\u871c",
        "href": "http://d.duotuwang.com/2020/07/15/21114/",
        "count": 32,
        "start": 1,
        "hasMtTag": 1,
        "hasJgTag": 1,
        "mtCount": 26,
        "jgCount": 79
    },
    {
        "name": "[YouMi]\u5c24\u871c \u674e\u591a\u591a \u5077\u8840\u5c0f\u62a4\u58eb",
        "src": "http://d.duotuwang.com/2020/07/14/21048/0.jpg",
        "mtId": "982d3c4c85150f28",
        "mtName": "\u674e\u591a\u591a",
        "jgId": "youmiabc",
        "jgName": "\u5c24\u871c",
        "href": "http://d.duotuwang.com/2020/07/14/21048/",
        "count": 25,
        "start": 1,
        "hasMtTag": 1,
        "hasJgTag": 1,
        "mtCount": 3,
        "jgCount": 79
    },
    {
        "name": "[YouMi]\u5c24\u871c \u9648\u5706\u5706 \u6e05\u6668\u7f8e\u4eba",
        "src": "http://d.duotuwang.com/2020/07/13/21047/0.jpg",
        "mtId": "a51091205bd1f26e",
        "mtName": "\u9648\u5706\u5706",
        "jgId": "youmiabc",
        "jgName": "\u5c24\u871c",
        "href": "http://d.duotuwang.com/2020/07/13/21047/",
        "count": 27,
        "start": 1,
        "hasMtTag": 1,
        "hasJgTag": 1,
        "mtCount": 6,
        "jgCount": 79
    },
    {
        "name": "[YouMi]\u5c24\u871c \u5976\u7199\u5b9d\u5b9d \u751c\u751c\u306e\u5b66\u751f\u59b9",
        "src": "http://d.duotuwang.com/2020/07/12/21046/0.jpg",
        "mtId": "98200c1387e68615",
        "mtName": "\u5976\u7199\u5b9d\u5b9d",
        "jgId": "youmiabc",
        "jgName": "\u5c24\u871c",
        "href": "http://d.duotuwang.com/2020/07/12/21046/",
        "count": 31,
        "start": 1,
        "hasMtTag": 1,
        "hasJgTag": 1,
        "mtCount": 1,
        "jgCount": 79
    }
]