[
    {
        "name": "[YouMi]\u5c24\u871c \u9648\u5706\u5706 \u82b1\u60b8\u5c11\u5973",
        "src": "http://d.duotuwang.com/2020/05/16/20678/0.jpg",
        "mtId": "a51091205bd1f26e",
        "mtName": "\u9648\u5706\u5706",
        "jgId": "youmiabc",
        "jgName": "\u5c24\u871c",
        "href": "http://d.duotuwang.com/2020/05/16/20678/",
        "count": 29,
        "start": 1,
        "hasMtTag": 1,
        "hasJgTag": 1,
        "mtCount": 6,
        "jgCount": 79
    },
    {
        "name": "[YouMi]\u5c24\u871c \u7136\u7199 \u5f00\u6625\u4e4b\u7ea6",
        "src": "http://d.duotuwang.com/2020/05/14/20677/0.jpg",
        "mtId": "f87c7fde09e4ab44",
        "mtName": "\u7136\u7199",
        "jgId": "youmiabc",
        "jgName": "\u5c24\u871c",
        "href": "http://d.duotuwang.com/2020/05/14/20677/",
        "count": 52,
        "start": 1,
        "hasMtTag": 1,
        "hasJgTag": 1,
        "mtCount": 1,
        "jgCount": 79
    },
    {
        "name": "[YouMi]\u5c24\u871c \u767d\u5b50\u5ae3 \u7edd\u5bf9\u306e\u7231",
        "src": "http://d.duotuwang.com/2020/05/12/20676/0.jpg",
        "mtId": "ed71948751a1427f",
        "mtName": "\u767d\u5b50\u5ae3",
        "jgId": "youmiabc",
        "jgName": "\u5c24\u871c",
        "href": "http://d.duotuwang.com/2020/05/12/20676/",
        "count": 28,
        "start": 1,
        "hasMtTag": 1,
        "hasJgTag": 1,
        "mtCount": 4,
        "jgCount": 79
    },
    {
        "name": "[YouMi]\u5c24\u871c \u7eef\u6708\u6a31-Cherry \u5348\u540e\u306e\u6021\u60c5",
        "src": "http://d.duotuwang.com/2020/05/10/20597/0.jpg",
        "mtId": "85e55daf35c53f9e",
        "mtName": "\u7eef\u6708\u6a31-Cherry",
        "jgId": "youmiabc",
        "jgName": "\u5c24\u871c",
        "href": "http://d.duotuwang.com/2020/05/10/20597/",
        "count": 27,
        "start": 1,
        "hasMtTag": 1,
        "hasJgTag": 1,
        "mtCount": 26,
        "jgCount": 79
    },
    {
        "name": "[YouMi]\u5c24\u871c Cici \u7761\u8863\u6d3e\u5bf9",
        "src": "http://d.duotuwang.com/2020/05/07/20596/0.jpg",
        "mtId": "99853b65a20cc82c",
        "mtName": "Cici",
        "jgId": "youmiabc",
        "jgName": "\u5c24\u871c",
        "href": "http://d.duotuwang.com/2020/05/07/20596/",
        "count": 28,
        "start": 1,
        "hasMtTag": 1,
        "hasJgTag": 1,
        "mtCount": 2,
        "jgCount": 79
    },
    {
        "name": "[YouMi]\u5c24\u871c \u5b59Amber \u7f20\u7ef5\u631a\u7231",
        "src": "http://d.duotuwang.com/2020/05/06/20508/0.jpg",
        "mtId": "74bd69cde522f5a2",
        "mtName": "\u5b59Amber",
        "jgId": "youmiabc",
        "jgName": "\u5c24\u871c",
        "href": "http://d.duotuwang.com/2020/05/06/20508/",
        "count": 20,
        "start": 1,
        "hasMtTag": 1,
        "hasJgTag": 1,
        "mtCount": 1,
        "jgCount": 79
    }
]