[
    {
        "id": "595314371",
        "title": "\u7528\u56db\u4e2a\u5b57\u5f62\u5bb9\u6211\u3010\u5c0f\u8f6f\u4e0d\u8f6f\u3011",
        "src": "http://v-huya-img2.msstatic.com/screenshot/2142/595314371/99.jpg?x-oss-process=style/460x268&amp;amp;v=13bbe0ff6f525d566bfe94b33ba7b0fa1634909948",
        "url": "http://videobd-platform.cdn.huya.com/1048585/2353166046/30029925/a45d1ff1c71561e90f646696e363d0f4.m3u8?bitrate=2116&client=106&definition=1300&pid=2353166046&scene=vod&vid=595314371"
    },
    {
        "id": "595253865",
        "title": "\u7a81\u51fb\u68c0\u67e5 \u73b0\u5728\u4f60\u53f3\u624b\u6293\u7684\u4ec0\u4e48\uff1f\u3010\u5c0f\u8f6f\u4e0d\u8f6f\u3011",
        "src": "http://v-huya-img2.msstatic.com/screenshot/2142/595253865/99.jpg?x-oss-process=style/460x268&amp;amp;v=baa10d49ab8bb68eec2cb222f576b7391634903430",
        "url": "http://videohw-platform.cdn.huya.com/1048585/2353166046/30021209/83e5278ddd7fbf1cccef4d8e86e0ba1c.m3u8?bitrate=2115&client=106&definition=1300&pid=2353166046&scene=vod&vid=595253865"
    },
    {
        "id": "594776947",
        "title": "\u4f60\u90fd\u4e0d\u8bc4\u8bba  \u8ba9\u6211\u600e\u4e48\u559c\u6b22\u4f60\uff1f\u3010\u5c0f\u8f6f\u4e0d\u8f6f\u3011",
        "src": "http://v-huya-img2.msstatic.com/screenshot/2142/594776947/99.jpg?x-oss-process=style/460x268&amp;amp;v=664ec12ae6fce62e8f6ccaadaba459d51634823211",
        "url": "http://videotx-platform.cdn.huya.com/1048585/2353166046/29950453/dc9ea843f442fa6f1d3df7d47393b922.m3u8?bitrate=2129&client=106&definition=1300&pid=2353166046&scene=vod&vid=594776947"
    },
    {
        "id": "594759465",
        "title": "\u5929\u51b7\u4e86  \u52a0\u6761\u889c\u5b50\u3010\u5c0f\u8f6f\u4e0d\u8f6f\u3011",
        "src": "http://v-huya-img2.msstatic.com/screenshot/2142/594759465/99.jpg?x-oss-process=style/460x268&amp;amp;v=76bacf1a2a048037dacc978b97ff1a901634821478",
        "url": "http://videohw-platform.cdn.huya.com/1048585/2353166046/29948021/73d5d04948b2078468093d9bd0acbed6.m3u8?bitrate=2123&client=106&definition=1300&pid=2353166046&scene=vod&vid=594759465"
    },
    {
        "id": "594179897",
        "title": "\u4ec0\u4e48\u6837\u7684\u7537\u751f\u4e00\u770b\u5c31\u5355\u8eab\uff1f\u3010\u5c0f\u8f6f\u4e0d\u8f6f\u3011",
        "src": "http://v-huya-img2.msstatic.com/screenshot/2142/594179897/99.jpg?x-oss-process=style/460x268&amp;amp;v=61b92f75f278e57f01310b9b2ee365b71634728191",
        "url": "http://videohw-platform.cdn.huya.com/1048585/2353166046/29873149/86d710b5cade23deac622eeb7f4afc9d.m3u8?bitrate=2116&client=106&definition=1300&pid=2353166046&scene=vod&vid=594179897"
    },
    {
        "id": "594614669",
        "title": "\u6240\u4ee5\u6211\u8f6f\u4e0d\u8f6f\uff1f\u3010\u5c0f\u8f6f\u4e0d\u8f6f\u3011",
        "src": "http://v-huya-img2.msstatic.com/screenshot/2142/594614669/99.jpg?x-oss-process=style/460x268&amp;amp;amp;amp;v=6a4286f30c62f9b360a5db63f1822c7d1634805023",
        "url": "http://videotx-platform.cdn.huya.com/1048585/2353166046/29914663/1f968fe46985037ca025fda2f9336ee9.m3u8?bitrate=2112&client=106&definition=1300&pid=2353166046&scene=vod&vid=594614669"
    },
    {
        "id": "593756189",
        "title": "\u6709\u6211\u8fd9\u6837\u7684\u5973\u670b\u53cb \u4f60\u89c9\u5f97\u7ed9\u591a\u5c11\u5f69\u793c\u5408\u9002\uff1f\u3010\u5c0f\u8f6f\u4e0d\u8f6f\u3011",
        "src": "http://v-huya-img2.msstatic.com/screenshot/2142/593756189/99.jpg?x-oss-process=style/460x268&amp;amp;v=95fbf08ed1a774f832a9810c04bb5a741634651114",
        "url": "http://videohw-platform.cdn.huya.com/1048585/2353166046/29833879/ef1df2bda5763768652d31582cec844a.m3u8?bitrate=2125&client=106&definition=1300&pid=2353166046&scene=vod&vid=593756189"
    },
    {
        "id": "594073115",
        "title": "\u6253\u51fa\u201cbb\u201d\u770b\u770b\u662f\u4ec0\u4e48\uff1f\u3010\u5c0f\u8f6f\u4e0d\u8f6f\u3011",
        "src": "http://v-huya-img2.msstatic.com/screenshot/2142/594073115/99.jpg?x-oss-process=style/460x268&amp;amp;v=2d180dcb532eddc822118bf6bf7cc0661634712204",
        "url": "http://videohw-platform.cdn.huya.com/1048585/2353166046/29863073/7889ae9443f2fe3ba72192987761767a.m3u8?bitrate=2116&client=106&definition=1300&pid=2353166046&scene=vod&vid=594073115"
    },
    {
        "id": "593752621",
        "title": "\u70ed\u821e\u4e2d\u3010\u5c0f\u8f6f\u4e0d\u8f6f\u3011",
        "src": "http://v-huya-img2.msstatic.com/screenshot/2142/593752621/99.jpg?x-oss-process=style/460x268&amp;amp;v=4f06ec97ef06a1ff477735f8d49908181634650752",
        "url": "http://videohw-platform.cdn.huya.com/1048585/2353166046/29833463/2cb551af7501f1ef151b854d51d01e46.m3u8?bitrate=2124&client=106&definition=1300&pid=2353166046&scene=vod&vid=593752621"
    },
    {
        "id": "593565025",
        "title": "\u6478\u6478\u6211\u8863\u670d\u7684\u6599\u5b50  \u662f\u4e0d\u662f\u505a\u4f60\u5973\u670b\u53cb\u7684\u6599\u5b50\uff1f\u3010\u5c0f\u8f6f\u4e0d\u8f6f\u3011",
        "src": "http://v-huya-img2.msstatic.com/screenshot/2142/593565025/99.jpg?x-oss-process=style/460x268&amp;amp;v=7280d2c2bae6754d1da1f1dfbd20a6511634624448",
        "url": "http://videohw-platform.cdn.huya.com/1048585/2353166046/29816305/a3c308f44dc8902c0caae5e7bfdd4e13.m3u8?bitrate=2117&client=106&definition=1300&pid=2353166046&scene=vod&vid=593565025"
    },
    {
        "id": "593071155",
        "title": "\u725b\u4ed4\u88e4\u8fd8\u662f\u9ed1\u4e1d\uff1f\u3010\u5c0f\u8f6f\u4e0d\u8f6f\u3011",
        "src": "http://v-huya-img2.msstatic.com/screenshot/2142/593071155/99.jpg?x-oss-process=style/460x268&amp;amp;v=904d37e562773a358e1d1bb33c0e10751634540924",
        "url": "http://videotx-platform.cdn.huya.com/1048585/2353166046/29759055/3e1eec888ae10f4efa7ff0c65b4556ee.m3u8?bitrate=2112&client=106&definition=1300&pid=2353166046&scene=vod&vid=593071155"
    },
    {
        "id": "592239907",
        "title": "\u53c8\u6765\u5b66\u7a7f\u642d\u4e86\uff1f  \u5144\u5f1f\u4eec\u3010\u5c0f\u8f6f\u4e0d\u8f6f\u3011",
        "src": "http://v-huya-img2.msstatic.com/screenshot/2141/592239907/99.jpg?x-oss-process=style/460x268&amp;amp;v=86e37a7ed14fd391621ca94480ffc7011634393520",
        "url": "http://videobd-platform.cdn.huya.com/1048585/2353166046/29682137/c2fdb44b91d945b192f410b00192d1fb.m3u8?bitrate=2117&client=106&definition=1300&pid=2353166046&scene=vod&vid=592239907"
    },
    {
        "id": "592109567",
        "title": "\u3010\u5c0f\u8f6f\u4e0d\u8f6f\u3011",
        "src": "http://v-huya-img2.msstatic.com/screenshot/2141/592109567/99.jpg?x-oss-process=style/460x268&amp;amp;v=335d2805c41c758f3198f6c9ca29f78f1634378244",
        "url": "http://videohw-platform.cdn.huya.com/1048585/2353166046/29668143/57f7ebe9d649de4b906d61a63ed290c0.m3u8?bitrate=2105&client=106&definition=1300&pid=2353166046&scene=vod&vid=592109567"
    },
    {
        "id": "591655011",
        "title": "\u7537\u751f\u54ea\u4e00\u53e5\u8bdd\u53ef\u4ee5\u505a\u5230\u5168\u56fd\u7edf\u4e00\uff1f\u3010\u5c0f\u8f6f\u4e0d\u8f6f\u3011",
        "src": "http://v-huya-img2.msstatic.com/screenshot/2141/591655011/99.jpg?x-oss-process=style/460x268&amp;amp;v=a54c956376d8fe9c16acee1f89acd3b81634300629",
        "url": "http://videotx-platform.cdn.huya.com/1048585/2353166046/29639051/473eedeee1b7f6dde06cfb36b84fff36.m3u8?bitrate=2109&client=106&definition=1300&pid=2353166046&scene=vod&vid=591655011"
    },
    {
        "id": "591564641",
        "title": "\u7537\u751f\u4e0d\u56de\u6d88\u606f\u90fd\u5728\u5e72\u561b\uff1f\u3010\u5c0f\u8f6f\u4e0d\u8f6f\u3011",
        "src": "http://v-huya-img2.msstatic.com/screenshot/2141/591564641/99.jpg?x-oss-process=style/460x268&amp;amp;v=53eaf4e2dee4a19202468d919f664fad1634287636",
        "url": "http://videohw-platform.cdn.huya.com/1048585/2353166046/29633133/14d179531dcc32af1f4e2584e473c6a8.m3u8?bitrate=2123&client=106&definition=1300&pid=2353166046&scene=vod&vid=591564641"
    }
]