[
    {
        "name": "[FEILIN]\u55f2\u56e1\u56e1 VOL.404 \u738b\u5a49\u60a0Queen",
        "src": "http://d.duotuwang.com/2021/07/20/25791/0.jpg",
        "mtId": "fe06cbeaec35f3a0",
        "mtName": "\u738b\u5a49\u60a0Queen",
        "jgId": "feilin",
        "jgName": "\u55f2\u56e1\u56e1",
        "href": "http://d.duotuwang.com/2021/07/20/25791/",
        "count": 61,
        "start": 1,
        "hasMtTag": 1,
        "hasJgTag": 1,
        "mtCount": 4,
        "jgCount": 61
    },
    {
        "name": "[FEILIN]\u55f2\u56e1\u56e1 VOL.400 \u738b\u5a49\u60a0Queen",
        "src": "http://d.duotuwang.com/2021/07/05/25629/0.jpg",
        "mtId": "fe06cbeaec35f3a0",
        "mtName": "\u738b\u5a49\u60a0Queen",
        "jgId": "feilin",
        "jgName": "\u55f2\u56e1\u56e1",
        "href": "http://d.duotuwang.com/2021/07/05/25629/",
        "count": 51,
        "start": 1,
        "hasMtTag": 1,
        "hasJgTag": 1,
        "mtCount": 4,
        "jgCount": 61
    },
    {
        "name": "[MiStar]\u9b45\u598d\u793e VOL.291 \u738b\u5a49\u60a0Queen",
        "src": "http://d.duotuwang.com/2019/05/21/16564/0.jpg",
        "mtId": "fe06cbeaec35f3a0",
        "mtName": "\u738b\u5a49\u60a0Queen",
        "jgId": "mistar",
        "jgName": "\u9b45\u598d\u793e",
        "href": "http://d.duotuwang.com/2019/05/21/16564/",
        "count": 43,
        "start": 1,
        "hasMtTag": 1,
        "hasJgTag": 1,
        "mtCount": 4,
        "jgCount": 55
    },
    {
        "name": "[XINGYAN]\u661f\u989c\u793e VOL.115 \u738b\u5a49\u60a0Queen",
        "src": "http://d.duotuwang.com/2019/04/03/15869/0.jpg",
        "mtId": "fe06cbeaec35f3a0",
        "mtName": "\u738b\u5a49\u60a0Queen",
        "jgId": "xingyan",
        "jgName": "\u661f\u989c\u793e",
        "href": "http://d.duotuwang.com/2019/04/03/15869/",
        "count": 41,
        "start": 1,
        "hasMtTag": 1,
        "hasJgTag": 1,
        "mtCount": 4,
        "jgCount": 25
    },
    {
        "name": "[XINGYAN]\u661f\u989c\u793e VOL.113 \u738b\u5a49\u60a0Queen",
        "src": "http://d.duotuwang.com/2019/03/15/14541/0.jpg",
        "mtId": "fe06cbeaec35f3a0",
        "mtName": "\u738b\u5a49\u60a0Queen",
        "jgId": "xingyan",
        "jgName": "\u661f\u989c\u793e",
        "href": "http://d.duotuwang.com/2019/03/15/14541/",
        "count": 41,
        "start": 1,
        "hasMtTag": 1,
        "hasJgTag": 1,
        "mtCount": 4,
        "jgCount": 25
    },
    {
        "name": "[CANDY]\u7f51\u7ea2\u9986 VOL.069 \u738b\u5a49\u60a0Queen",
        "src": "http://d.duotuwang.com/2019/01/14/10371/0.jpg",
        "mtId": "fe06cbeaec35f3a0",
        "mtName": "\u738b\u5a49\u60a0Queen",
        "jgId": "candy",
        "jgName": "\u7cd6\u679c\u753b\u62a5",
        "href": "http://d.duotuwang.com/2019/01/14/10371/",
        "count": 39,
        "start": 1,
        "hasMtTag": 1,
        "hasJgTag": 1,
        "mtCount": 4,
        "jgCount": 15
    }
]