[
    {
        "name": "[BoLoli]\u6ce2\u841d\u793e Vol.026 \u5218\u5a05\u5e0c",
        "src": "http://d.duotuwang.com/2015/05/25/774/0.jpg",
        "mtId": "23dd723114851316",
        "mtName": "\u5218\u5a05\u5e0c",
        "jgId": "bololi",
        "jgName": "\u6ce2\u841d\u793e",
        "href": "http://d.duotuwang.com/2015/05/25/774/",
        "count": 81,
        "start": 1,
        "hasMtTag": 1,
        "hasJgTag": 1,
        "mtCount": 4,
        "jgCount": 40
    },
    {
        "name": "[UGirlsAPP]\u7231\u5c24\u7269 NO.011 \u5218\u5a05\u5e0c",
        "src": "http://d.duotuwang.com/2015/05/15/4361/0.jpg",
        "mtId": "23dd723114851316",
        "mtName": "\u5218\u5a05\u5e0c",
        "jgId": "ugirlsapp",
        "jgName": "\u7231\u5c24\u7269",
        "href": "http://d.duotuwang.com/2015/05/15/4361/",
        "count": 40,
        "start": 1,
        "hasMtTag": 1,
        "hasJgTag": 1,
        "mtCount": 4,
        "jgCount": 397
    },
    {
        "name": "[BoLoli]\u6ce2\u841d\u793e Vol.021 \u5218\u5a05\u5e0c",
        "src": "http://d.duotuwang.com/2015/05/11/757/0.jpg",
        "mtId": "23dd723114851316",
        "mtName": "\u5218\u5a05\u5e0c",
        "jgId": "bololi",
        "jgName": "\u6ce2\u841d\u793e",
        "href": "http://d.duotuwang.com/2015/05/11/757/",
        "count": 73,
        "start": 1,
        "hasMtTag": 1,
        "hasJgTag": 1,
        "mtCount": 4,
        "jgCount": 40
    },
    {
        "name": "[UGirlsAPP]\u7231\u5c24\u7269 NO.009 2014\u4e16\u754c\u676f\u8db3\u7403\u5b9d\u8d1d\u7279\u520a",
        "src": "http://d.duotuwang.com/2015/05/09/4367/0.jpg",
        "mtId": "23dd723114851316",
        "mtName": "\u5218\u5a05\u5e0c",
        "jgId": "ugirlsapp",
        "jgName": "\u7231\u5c24\u7269",
        "href": "http://d.duotuwang.com/2015/05/09/4367/",
        "count": 28,
        "start": 1,
        "hasMtTag": 1,
        "hasJgTag": 1,
        "mtCount": 4,
        "jgCount": 397
    },
    {
        "name": "[BoLoli]\u6ce2\u841d\u793e Vol.014 \u5218\u5a05\u5e0c",
        "src": "http://d.duotuwang.com/2015/04/22/739/0.jpg",
        "mtId": "23dd723114851316",
        "mtName": "\u5218\u5a05\u5e0c",
        "jgId": "bololi",
        "jgName": "\u6ce2\u841d\u793e",
        "href": "http://d.duotuwang.com/2015/04/22/739/",
        "count": 80,
        "start": 1,
        "hasMtTag": 1,
        "hasJgTag": 1,
        "mtCount": 4,
        "jgCount": 40
    },
    {
        "name": "[UGirls]\u5c24\u679c\u7f51 E021 \u5218\u5a05\u5e0c",
        "src": "http://d.duotuwang.com/2014/07/07/3021/0.jpg",
        "mtId": "23dd723114851316",
        "mtName": "\u5218\u5a05\u5e0c",
        "jgId": "ugirls",
        "jgName": "\u5c24\u679c\u7f51",
        "href": "http://d.duotuwang.com/2014/07/07/3021/",
        "count": 33,
        "start": 1,
        "hasMtTag": 1,
        "hasJgTag": 1,
        "mtCount": 4,
        "jgCount": 79
    }
]