[
    {
        "id": "644015651",
        "title": "\u4e00\u5929\u4e0d\u770b\u6d51\u8eab\u96be\u53d7",
        "src": "http://v-huya-img2.msstatic.com/screenshot/2203/644015651/99.jpg?x-oss-process=style/460x268&amp;amp;v=a35b9e7600369667941f1a3aa15392081642524977",
        "url": "http://videotx-platform.cdn.huya.com/1048585/1199520110371/34929953/3ff12d10001f0505f06e255de870260f.m3u8?bitrate=2057&client=106&definition=1300&pid=1199520110371&scene=vod&vid=644015651"
    },
    {
        "id": "635397913",
        "title": "\u81f4 \u547d \u5fa1 \u59d0",
        "src": "http://v-huya-img2.msstatic.com/screenshot/2201/635397913/99.jpg?x-oss-process=style/460x268&amp;amp;v=97cb368a56115b6257cc505a8777a6631641507834",
        "url": "http://videohw-platform.cdn.huya.com/1048585/1199520110371/34478513/c62e53ad1a2d1e9fd6a246042c30271e.m3u8?bitrate=2062&client=106&definition=1300&pid=1199520110371&scene=vod&vid=635397913"
    },
    {
        "id": "632387637",
        "title": "\u4f60\u5728\u60f3\u4ec0\u4e48\uff1f",
        "src": "http://v-huya-img2.msstatic.com/screenshot/2252/632387637/99.jpg?x-oss-process=style/460x268&amp;amp;v=26cf5dbf222a68ac411ca986d491e6d91641021907",
        "url": "http://videohw-platform.cdn.huya.com/1048585/1199520110371/34269569/0311e9643e7c4f20838ef61c52b0b86c.m3u8?bitrate=2040&client=106&definition=1300&pid=1199520110371&scene=vod&vid=632387637"
    },
    {
        "id": "632014757",
        "title": "2021\u5e74\u5168\u7403TOP100\u6700\u7f8e\u4e3d\u7684\u9762\u5b54",
        "src": "http://v-huya-img2.msstatic.com/screenshot/2152/632014757/99.jpg?x-oss-process=style/460x268&amp;amp;v=2e3ff38c2614ea46d0ec7e1928e895d21640954544",
        "url": "http://videotx-platform.cdn.huya.com/1048585/1199520110371/34238039/bc30f719c99141d899a230663922162a.m3u8?bitrate=1596&client=106&definition=1300&pid=1199520110371&scene=vod&vid=632014757"
    },
    {
        "id": "630431055",
        "title": "\u8fd9\u9ed1\u4e1d\u8001\u5a46\uff0c\u8c01\u770b\u4e0d\u8ff7\u7cca\u554a\uff1f",
        "src": "http://v-huya-img2.msstatic.com/screenshot/2152/630431055/99.jpg?x-oss-process=style/460x268&amp;amp;v=d46e28f62cb62fd3d531b6d401a269541640691519",
        "url": "http://videobd-platform.cdn.huya.com/1048585/1199520110371/34064323/047f87dde59950182ec1ea47fece38bf.m3u8?bitrate=1817&client=106&definition=1300&pid=1199520110371&scene=vod&vid=630431055"
    },
    {
        "id": "629013797",
        "title": "\u771f\u767d\u554a",
        "src": "http://v-huya-img2.msstatic.com/screenshot/2151/629013797/99.jpg?x-oss-process=style/460x268&amp;amp;v=e5dac66cb50eb3c56fe0cc0804dc7c911640441568",
        "url": "http://videotx-platform.cdn.huya.com/1048585/1199520110371/33963889/be53e5844c65a0355869e7b54b1608ac.m3u8?bitrate=2071&client=106&definition=1300&pid=1199520110371&scene=vod&vid=629013797"
    },
    {
        "id": "623635737",
        "title": "\u4e3a\u4e86\u5fc3\u60c5\u6109\u60a6",
        "src": "http://v-huya-img2.msstatic.com/screenshot/2150/623635737/99.jpg?x-oss-process=style/460x268&amp;amp;v=3ee647aadfcb11fecd9ddd2c9ae53d861639614874",
        "url": "http://videobd-platform.cdn.huya.com/1048585/1199520110371/33095763/bcd9d67cd8733f7ffe415ca90714cf11.m3u8?bitrate=1925&client=106&definition=1300&pid=1199520110371&scene=vod&vid=623635737"
    },
    {
        "id": "625275091",
        "title": "\u5e78\u798f\u873f\u8712\u5728\u4e00\u8def\u7ef5\u957f\u7684\u631a\u7231\u91cc\uff0c\u9189\u4e86\u65e5\u51fa\uff0c\u4e5f\u9189\u4e86\u5915\u9633",
        "src": "http://v-huya-img2.msstatic.com/screenshot/2150/625275091/99.jpg?x-oss-process=style/460x268&amp;amp;v=e84cf66a5060ebd2b639a8fb6980dfaf1639886750",
        "url": "http://videobd-platform.cdn.huya.com/1048585/1199520110371/33252611/c37f4492608924aa4a9ef1a8e1469f2c.m3u8?bitrate=1557&client=106&definition=1300&pid=1199520110371&scene=vod&vid=625275091"
    },
    {
        "id": "623615123",
        "title": "\u771f\u7684\u597d\u54c7\u585e",
        "src": "http://v-huya-img2.msstatic.com/screenshot/2150/623615123/99.jpg?x-oss-process=style/460x268&amp;amp;v=f52e72ce59d78ef15510e5ead71464a91639606995",
        "url": "http://videobd-platform.cdn.huya.com/1048585/1199520110371/33092525/c1a6e5df38bd1f34daa5d26bfdcf714b.m3u8?bitrate=2073&client=106&definition=1300&pid=1199520110371&scene=vod&vid=623615123"
    },
    {
        "id": "621972477",
        "title": "\u4eca\u65e5\u4efd\u7684\u9ed1\u4e1d\u8001\u5a46\u6765\u5566\uff0c\u770b\u5b8c\u5fc3\u60c5\u6109\u60a6",
        "src": "http://v-huya-img2.msstatic.com/screenshot/2150/621972477/99.jpg?x-oss-process=style/460x268&amp;amp;v=e94b5d25f00fc1afaf668ddb4c8de2281639333610",
        "url": "http://videobd-platform.cdn.huya.com/1048585/1199520110371/32896165/2eabb8970a41fa14eb4dccdfdafb23aa.m3u8?bitrate=1846&client=106&definition=1300&pid=1199520110371&scene=vod&vid=621972477"
    },
    {
        "id": "621956715",
        "title": "\u767d\u4e1d\u6218\u795e",
        "src": "http://v-huya-img2.msstatic.com/screenshot/2150/621956715/99.jpg?x-oss-process=style/460x268&amp;amp;v=b8ca23ed8b310e7c8449a9f9d4d9ea7a1639331824",
        "url": "http://videohw-platform.cdn.huya.com/1048585/1199520110371/32895235/5619d8dee85ced6b72cbc1ea21f03bc8.m3u8?bitrate=2096&client=106&definition=1300&pid=1199520110371&scene=vod&vid=621956715"
    },
    {
        "id": "621951313",
        "title": "\u5f88\u6709\u97f5\u5473",
        "src": "http://v-huya-img2.msstatic.com/screenshot/2150/621951313/99.jpg?x-oss-process=style/460x268&amp;amp;v=9121c22967baa56c929760df008ee47a1639330899",
        "url": "http://videotx-platform.cdn.huya.com/1048585/1199520110371/32894775/cb060d5f0231b4ffb83d8ddb21348be9.m3u8?bitrate=2079&client=106&definition=1300&pid=1199520110371&scene=vod&vid=621951313"
    },
    {
        "id": "620275691",
        "title": "\u8fd9\u4e2a\u89c6\u89d2\u65e0\u654c",
        "src": "http://v-huya-img2.msstatic.com/screenshot/2149/620275691/99.jpg?x-oss-process=style/460x268&amp;amp;v=a036d33de94712d256d63ad2073f8de21639066710",
        "url": "http://videohw-platform.cdn.huya.com/1048585/1199520110371/32711063/6e3c678fe52d78e66bf92e15337c6a11.m3u8?bitrate=1764&client=106&definition=1300&pid=1199520110371&scene=vod&vid=620275691"
    },
    {
        "id": "620103507",
        "title": "\u4f60\u7684\u77e5\u5fc3\u5927\u59d0\u59d0",
        "src": "http://v-huya-img2.msstatic.com/screenshot/2149/620103507/99.jpg?x-oss-process=style/460x268&amp;amp;v=5a0de6ed27dca8e1322528a3722fcfd01639049331",
        "url": "http://videotx-platform.cdn.huya.com/1048585/1199520110371/32697559/7b3bc1d58d81582068aef994f03248a5.m3u8?bitrate=1945&client=106&definition=1300&pid=1199520110371&scene=vod&vid=620103507"
    },
    {
        "id": "618827437",
        "title": "\u9ed1\u8272\u73ab\u7470",
        "src": "http://v-huya-img2.msstatic.com/screenshot/2149/618827437/99.jpg?x-oss-process=style/460x268&amp;amp;v=3b6680bdf5119b772565f6b074d6f5a21638823640",
        "url": "http://videotx-platform.cdn.huya.com/1048585/1199520110371/32583949/d92f2d1d283f0d7d5722aef68b0a974e.m3u8?bitrate=1894&client=106&definition=1300&pid=1199520110371&scene=vod&vid=618827437"
    }
]