[
    {
        "name": "[XIUREN]\u79c0\u4eba\u7f51 No.5555 \u5f20\u6b23\u6b23",
        "src": "http://d.duotuwang.com/2022/09/07/31303/0.jpg",
        "mtId": "52bb8739508919a0",
        "mtName": "\u5f20\u6b23\u6b23",
        "jgId": "xiuren",
        "jgName": "\u79c0\u4eba\u7f51",
        "href": "http://d.duotuwang.com/2022/09/07/31303/",
        "count": 80,
        "start": 1,
        "hasMtTag": 1,
        "hasJgTag": 1,
        "mtCount": 5,
        "jgCount": 750
    },
    {
        "name": "[XIAOYU]\u8bed\u753b\u754c VOL.845 \u5f20\u6b23\u6b23",
        "src": "http://d.duotuwang.com/2022/08/18/31048/0.jpg",
        "mtId": "52bb8739508919a0",
        "mtName": "\u5f20\u6b23\u6b23",
        "jgId": "xiaoyu",
        "jgName": "\u8bed\u753b\u754c",
        "href": "http://d.duotuwang.com/2022/08/18/31048/",
        "count": 72,
        "start": 1,
        "hasMtTag": 1,
        "hasJgTag": 1,
        "mtCount": 5,
        "jgCount": 155
    },
    {
        "name": "[XIAOYU]\u8bed\u753b\u754c VOL.832 \u5f20\u6b23\u6b23",
        "src": "http://d.duotuwang.com/2022/08/01/30841/0.jpg",
        "mtId": "52bb8739508919a0",
        "mtName": "\u5f20\u6b23\u6b23",
        "jgId": "xiaoyu",
        "jgName": "\u8bed\u753b\u754c",
        "href": "http://d.duotuwang.com/2022/08/01/30841/",
        "count": 71,
        "start": 1,
        "hasMtTag": 1,
        "hasJgTag": 1,
        "mtCount": 5,
        "jgCount": 155
    },
    {
        "name": "[XIAOYU]\u8bed\u753b\u754c VOL.823 \u5f20\u6b23\u6b23",
        "src": "http://d.duotuwang.com/2022/07/19/30646/0.jpg",
        "mtId": "52bb8739508919a0",
        "mtName": "\u5f20\u6b23\u6b23",
        "jgId": "xiaoyu",
        "jgName": "\u8bed\u753b\u754c",
        "href": "http://d.duotuwang.com/2022/07/19/30646/",
        "count": 71,
        "start": 1,
        "hasMtTag": 1,
        "hasJgTag": 1,
        "mtCount": 5,
        "jgCount": 155
    },
    {
        "name": "[XIAOYU]\u8bed\u753b\u754c VOL.813 \u5f20\u6b23\u6b23",
        "src": "http://d.duotuwang.com/2022/07/05/30573/0.jpg",
        "mtId": "52bb8739508919a0",
        "mtName": "\u5f20\u6b23\u6b23",
        "jgId": "xiaoyu",
        "jgName": "\u8bed\u753b\u754c",
        "href": "http://d.duotuwang.com/2022/07/05/30573/",
        "count": 73,
        "start": 1,
        "hasMtTag": 1,
        "hasJgTag": 1,
        "mtCount": 5,
        "jgCount": 155
    },
    {
        "name": "[XIUREN]\u79c0\u4eba\u7f51 No.4782 \u5f20\u6b23\u6b23",
        "src": "http://d.duotuwang.com/2022/03/28/29259/0.jpg",
        "mtId": "52bb8739508919a0",
        "mtName": "\u5f20\u6b23\u6b23",
        "jgId": "xiuren",
        "jgName": "\u79c0\u4eba\u7f51",
        "href": "http://d.duotuwang.com/2022/03/28/29259/",
        "count": 83,
        "start": 1,
        "hasMtTag": 1,
        "hasJgTag": 1,
        "mtCount": 5,
        "jgCount": 750
    }
]