[
    {
        "name": "[XIAOYU]\u8bed\u753b\u754c VOL.716 \u5f20\u6b23\u6b23",
        "src": "http://d.duotuwang.com/2022/02/15/28469/0.jpg",
        "mtId": "52bb8739508919a0",
        "mtName": "\u5f20\u6b23\u6b23",
        "jgId": "xiaoyu",
        "jgName": "\u8bed\u753b\u754c",
        "href": "http://d.duotuwang.com/2022/02/15/28469/",
        "count": 64,
        "start": 1,
        "hasMtTag": 1,
        "hasJgTag": 1,
        "mtCount": 5,
        "jgCount": 155
    },
    {
        "name": "[XIUREN]\u79c0\u4eba\u7f51 No.4520 \u5f20\u6b23\u6b23",
        "src": "http://d.duotuwang.com/2022/01/27/28409/0.jpg",
        "mtId": "52bb8739508919a0",
        "mtName": "\u5f20\u6b23\u6b23",
        "jgId": "xiuren",
        "jgName": "\u79c0\u4eba\u7f51",
        "href": "http://d.duotuwang.com/2022/01/27/28409/",
        "count": 73,
        "start": 1,
        "hasMtTag": 1,
        "hasJgTag": 1,
        "mtCount": 5,
        "jgCount": 750
    },
    {
        "name": "[XIAOYU]\u8bed\u753b\u754c VOL.690 \u5f20\u6b23\u6b23",
        "src": "http://d.duotuwang.com/2022/01/05/28029/0.jpg",
        "mtId": "52bb8739508919a0",
        "mtName": "\u5f20\u6b23\u6b23",
        "jgId": "xiaoyu",
        "jgName": "\u8bed\u753b\u754c",
        "href": "http://d.duotuwang.com/2022/01/05/28029/",
        "count": 68,
        "start": 1,
        "hasMtTag": 1,
        "hasJgTag": 1,
        "mtCount": 5,
        "jgCount": 155
    },
    {
        "name": "[XIAOYU]\u8bed\u753b\u754c VOL.676 \u5f20\u6b23\u6b23",
        "src": "http://d.duotuwang.com/2021/12/15/27745/0.jpg",
        "mtId": "52bb8739508919a0",
        "mtName": "\u5f20\u6b23\u6b23",
        "jgId": "xiaoyu",
        "jgName": "\u8bed\u753b\u754c",
        "href": "http://d.duotuwang.com/2021/12/15/27745/",
        "count": 68,
        "start": 1,
        "hasMtTag": 1,
        "hasJgTag": 1,
        "mtCount": 5,
        "jgCount": 155
    },
    {
        "name": "[XIAOYU]\u8bed\u753b\u754c VOL.661 \u5f20\u6b23\u6b23",
        "src": "http://d.duotuwang.com/2021/11/24/27472/0.jpg",
        "mtId": "52bb8739508919a0",
        "mtName": "\u5f20\u6b23\u6b23",
        "jgId": "xiaoyu",
        "jgName": "\u8bed\u753b\u754c",
        "href": "http://d.duotuwang.com/2021/11/24/27472/",
        "count": 58,
        "start": 1,
        "hasMtTag": 1,
        "hasJgTag": 1,
        "mtCount": 5,
        "jgCount": 155
    },
    {
        "name": "[XIUREN]\u79c0\u4eba\u7f51 No.4188 \u5f20\u6b23\u6b23",
        "src": "http://d.duotuwang.com/2021/11/09/27323/0.jpg",
        "mtId": "52bb8739508919a0",
        "mtName": "\u5f20\u6b23\u6b23",
        "jgId": "xiuren",
        "jgName": "\u79c0\u4eba\u7f51",
        "href": "http://d.duotuwang.com/2021/11/09/27323/",
        "count": 67,
        "start": 1,
        "hasMtTag": 1,
        "hasJgTag": 1,
        "mtCount": 5,
        "jgCount": 750
    }
]