[
    {
        "name": "[XIUREN]\u79c0\u4eba\u7f51 No.3547 \u5f20\u6b23\u6b23",
        "src": "http://d.duotuwang.com/2021/06/16/25447/0.jpg",
        "mtId": "52bb8739508919a0",
        "mtName": "\u5f20\u6b23\u6b23",
        "jgId": "xiuren",
        "jgName": "\u79c0\u4eba\u7f51",
        "href": "http://d.duotuwang.com/2021/06/16/25447/",
        "count": 56,
        "start": 1,
        "hasMtTag": 1,
        "hasJgTag": 1,
        "mtCount": 5,
        "jgCount": 750
    },
    {
        "name": "[XIUREN]\u79c0\u4eba\u7f51 No.3511 \u5f20\u6b23\u6b23",
        "src": "http://d.duotuwang.com/2021/06/07/25411/0.jpg",
        "mtId": "52bb8739508919a0",
        "mtName": "\u5f20\u6b23\u6b23",
        "jgId": "xiuren",
        "jgName": "\u79c0\u4eba\u7f51",
        "href": "http://d.duotuwang.com/2021/06/07/25411/",
        "count": 57,
        "start": 1,
        "hasMtTag": 1,
        "hasJgTag": 1,
        "mtCount": 5,
        "jgCount": 750
    },
    {
        "name": " [UGirlsAPP]\u7231\u5c24\u7269 No.2081 \u5f20\u6b23\u6b23 \u8c03\u76ae\u7684\u80cc\u5e26\u88e4",
        "src": "http://d.duotuwang.com/2021/05/07/25056/0.jpg",
        "mtId": "52bb8739508919a0",
        "mtName": "\u5f20\u6b23\u6b23",
        "jgId": "ugirlsapp",
        "jgName": "\u7231\u5c24\u7269",
        "href": "http://d.duotuwang.com/2021/05/07/25056/",
        "count": 35,
        "start": 1,
        "hasMtTag": 1,
        "hasJgTag": 1,
        "mtCount": 5,
        "jgCount": 397
    },
    {
        "name": "[FEILIN]\u55f2\u56e1\u56e1 VOL.379 \u5f20\u6b23\u6b23",
        "src": "http://d.duotuwang.com/2021/03/10/24215/0.jpg",
        "mtId": "52bb8739508919a0",
        "mtName": "\u5f20\u6b23\u6b23",
        "jgId": "feilin",
        "jgName": "\u55f2\u56e1\u56e1",
        "href": "http://d.duotuwang.com/2021/03/10/24215/",
        "count": 33,
        "start": 1,
        "hasMtTag": 1,
        "hasJgTag": 1,
        "mtCount": 5,
        "jgCount": 61
    },
    {
        "name": "[FEILIN]\u55f2\u56e1\u56e1 VOL.375 \u5f20\u6b23\u6b23",
        "src": "http://d.duotuwang.com/2021/02/23/24211/0.jpg",
        "mtId": "52bb8739508919a0",
        "mtName": "\u5f20\u6b23\u6b23",
        "jgId": "feilin",
        "jgName": "\u55f2\u56e1\u56e1",
        "href": "http://d.duotuwang.com/2021/02/23/24211/",
        "count": 42,
        "start": 1,
        "hasMtTag": 1,
        "hasJgTag": 1,
        "mtCount": 5,
        "jgCount": 61
    },
    {
        "name": "[FEILIN]\u55f2\u56e1\u56e1 VOL.366 \u5f20\u6b23\u6b23",
        "src": "http://d.duotuwang.com/2021/01/11/23792/0.jpg",
        "mtId": "52bb8739508919a0",
        "mtName": "\u5f20\u6b23\u6b23",
        "jgId": "feilin",
        "jgName": "\u55f2\u56e1\u56e1",
        "href": "http://d.duotuwang.com/2021/01/11/23792/",
        "count": 39,
        "start": 1,
        "hasMtTag": 1,
        "hasJgTag": 1,
        "mtCount": 5,
        "jgCount": 61
    }
]