[
    {
        "name": "[XIAOYU]\u8bed\u753b\u754c VOL.282 \u6768\u6668\u6668sugar 2/2",
        "src": "http://d.duotuwang.com/2020/04/03/20285/0.jpg",
        "mtId": "48bada5e7225ec9f",
        "mtName": "\u6768\u6668\u6668sugar",
        "jgId": "xiaoyu",
        "jgName": "\u8bed\u753b\u754c",
        "href": "http://d.duotuwang.com/2020/04/03/20285/",
        "count": 60,
        "start": 47,
        "hasMtTag": 1,
        "hasJgTag": 1,
        "mtCount": 89,
        "jgCount": 155
    },
    {
        "name": "[XIAOYU]\u8bed\u753b\u754c VOL.282 \u6768\u6668\u6668sugar 1/2",
        "src": "http://d.duotuwang.com/2020/04/03/20177/0.jpg",
        "mtId": "48bada5e7225ec9f",
        "mtName": "\u6768\u6668\u6668sugar",
        "jgId": "xiaoyu",
        "jgName": "\u8bed\u753b\u754c",
        "href": "http://d.duotuwang.com/2020/04/03/20177/",
        "count": 46,
        "start": 1,
        "hasMtTag": 1,
        "hasJgTag": 1,
        "mtCount": 89,
        "jgCount": 155
    },
    {
        "name": "[XIAOYU]\u8bed\u753b\u754c VOL.281 Carry 2/2",
        "src": "http://d.duotuwang.com/2020/04/02/20284/0.jpg",
        "mtId": "eaba1ecd7edb60f2",
        "mtName": "Carry",
        "jgId": "xiaoyu",
        "jgName": "\u8bed\u753b\u754c",
        "href": "http://d.duotuwang.com/2020/04/02/20284/",
        "count": 46,
        "start": 60,
        "hasMtTag": 1,
        "hasJgTag": 1,
        "mtCount": 9,
        "jgCount": 155
    },
    {
        "name": "[XIAOYU]\u8bed\u753b\u754c VOL.281 Carry 1/2",
        "src": "http://d.duotuwang.com/2020/04/02/20156/0.jpg",
        "mtId": "eaba1ecd7edb60f2",
        "mtName": "Carry",
        "jgId": "xiaoyu",
        "jgName": "\u8bed\u753b\u754c",
        "href": "http://d.duotuwang.com/2020/04/02/20156/",
        "count": 59,
        "start": 1,
        "hasMtTag": 1,
        "hasJgTag": 1,
        "mtCount": 9,
        "jgCount": 155
    },
    {
        "name": "[XIAOYU]\u8bed\u753b\u754c VOL.280 \u829d\u829dBooty",
        "src": "http://d.duotuwang.com/2020/04/01/20094/0.jpg",
        "mtId": "8fe458bd9af7ab1d",
        "mtName": "\u829d\u829dBooty",
        "jgId": "xiaoyu",
        "jgName": "\u8bed\u753b\u754c",
        "href": "http://d.duotuwang.com/2020/04/01/20094/",
        "count": 79,
        "start": 1,
        "hasMtTag": 1,
        "hasJgTag": 1,
        "mtCount": 56,
        "jgCount": 155
    },
    {
        "name": "[XIAOYU]\u8bed\u753b\u754c VOL.279 \u5468\u601d\u4e54Betty",
        "src": "http://d.duotuwang.com/2020/03/31/20107/0.jpg",
        "mtId": "6bff679139f29cb3",
        "mtName": "\u5468\u601d\u4e54Betty",
        "jgId": "xiaoyu",
        "jgName": "\u8bed\u753b\u754c",
        "href": "http://d.duotuwang.com/2020/03/31/20107/",
        "count": 74,
        "start": 1,
        "hasMtTag": 1,
        "hasJgTag": 1,
        "mtCount": 2,
        "jgCount": 155
    }
]