[
    {
        "name": "[XIAOYU]\u8bed\u753b\u754c VOL.799 \u6797\u661f\u9611",
        "src": "http://d.duotuwang.com/2022/06/15/30264/0.jpg",
        "mtId": "ae97554bce4f86d1",
        "mtName": "\u6797\u661f\u9611",
        "jgId": "xiaoyu",
        "jgName": "\u8bed\u753b\u754c",
        "href": "http://d.duotuwang.com/2022/06/15/30264/",
        "count": 86,
        "start": 1,
        "hasMtTag": 1,
        "hasJgTag": 1,
        "mtCount": 8,
        "jgCount": 155
    },
    {
        "name": "[XIAOYU]\u8bed\u753b\u754c VOL.798 \u738b\u99a8\u7476yanni",
        "src": "http://d.duotuwang.com/2022/06/14/30200/0.jpg",
        "mtId": "ee305435592cf245",
        "mtName": "\u738b\u99a8\u7476yanni",
        "jgId": "xiaoyu",
        "jgName": "\u8bed\u753b\u754c",
        "href": "http://d.duotuwang.com/2022/06/14/30200/",
        "count": 100,
        "start": 1,
        "hasMtTag": 1,
        "hasJgTag": 1,
        "mtCount": 29,
        "jgCount": 155
    },
    {
        "name": "[XIAOYU]\u8bed\u753b\u754c VOL.797 \u5976\u74f6.",
        "src": "http://d.duotuwang.com/2022/06/13/30199/0.jpg",
        "mtId": "4b7b846f8dd02ffb",
        "mtName": "\u5976\u74f6\u5b50",
        "jgId": "xiaoyu",
        "jgName": "\u8bed\u753b\u754c",
        "href": "http://d.duotuwang.com/2022/06/13/30199/",
        "count": 83,
        "start": 1,
        "hasMtTag": 1,
        "hasJgTag": 1,
        "mtCount": 7,
        "jgCount": 155
    },
    {
        "name": "[XIAOYU]\u8bed\u753b\u754c VOL.796 \u6768\u6668\u6668Yome",
        "src": "http://d.duotuwang.com/2022/06/10/30198/0.jpg",
        "mtId": "48bada5e7225ec9f",
        "mtName": "\u6768\u6668\u6668sugar",
        "jgId": "xiaoyu",
        "jgName": "\u8bed\u753b\u754c",
        "href": "http://d.duotuwang.com/2022/06/10/30198/",
        "count": 79,
        "start": 1,
        "hasMtTag": 1,
        "hasJgTag": 1,
        "mtCount": 89,
        "jgCount": 155
    },
    {
        "name": "[XIAOYU]\u8bed\u753b\u754c VOL.795 \u738b\u99a8\u7476yanni",
        "src": "http://d.duotuwang.com/2022/06/09/30197/0.jpg",
        "mtId": "ee305435592cf245",
        "mtName": "\u738b\u99a8\u7476yanni",
        "jgId": "xiaoyu",
        "jgName": "\u8bed\u753b\u754c",
        "href": "http://d.duotuwang.com/2022/06/09/30197/",
        "count": 92,
        "start": 1,
        "hasMtTag": 1,
        "hasJgTag": 1,
        "mtCount": 29,
        "jgCount": 155
    },
    {
        "name": "[XIAOYU]\u8bed\u753b\u754c VOL.794 \u90d1\u9896\u59d7Bev",
        "src": "http://d.duotuwang.com/2022/06/08/30115/0.jpg",
        "mtId": "69a179c472dcbd6e",
        "mtName": "\u90d1\u9896\u59d7Bev",
        "jgId": "xiaoyu",
        "jgName": "\u8bed\u753b\u754c",
        "href": "http://d.duotuwang.com/2022/06/08/30115/",
        "count": 85,
        "start": 1,
        "hasMtTag": 1,
        "hasJgTag": 1,
        "mtCount": 7,
        "jgCount": 155
    }
]