[
    {
        "name": "[XIAOYU]\u8bed\u753b\u754c VOL.200 Miko\u9171\u5416 2/2",
        "src": "http://d.duotuwang.com/2019/11/25/18833/0.jpg",
        "mtId": "88591f66036cf08d",
        "mtName": "Miko\u9171\u5416",
        "jgId": "xiaoyu",
        "jgName": "\u8bed\u753b\u754c",
        "href": "http://d.duotuwang.com/2019/11/25/18833/",
        "count": 74,
        "start": 35,
        "hasMtTag": 1,
        "hasJgTag": 1,
        "mtCount": 2,
        "jgCount": 155
    },
    {
        "name": "[XIAOYU]\u8bed\u753b\u754c VOL.200 Miko\u9171\u5416 1/2",
        "src": "http://d.duotuwang.com/2019/11/25/18704/0.jpg",
        "mtId": "88591f66036cf08d",
        "mtName": "Miko\u9171\u5416",
        "jgId": "xiaoyu",
        "jgName": "\u8bed\u753b\u754c",
        "href": "http://d.duotuwang.com/2019/11/25/18704/",
        "count": 34,
        "start": 1,
        "hasMtTag": 1,
        "hasJgTag": 1,
        "mtCount": 2,
        "jgCount": 155
    },
    {
        "name": "[XIAOYU]\u8bed\u753b\u754c VOL.199 \u6768\u6668\u6668sugar 2/2",
        "src": "http://d.duotuwang.com/2019/11/22/18752/0.jpg",
        "mtId": "48bada5e7225ec9f",
        "mtName": "\u6768\u6668\u6668sugar",
        "jgId": "xiaoyu",
        "jgName": "\u8bed\u753b\u754c",
        "href": "http://d.duotuwang.com/2019/11/22/18752/",
        "count": 48,
        "start": 57,
        "hasMtTag": 1,
        "hasJgTag": 1,
        "mtCount": 89,
        "jgCount": 155
    },
    {
        "name": "[XIAOYU]\u8bed\u753b\u754c VOL.199 \u6768\u6668\u6668sugar 1/2",
        "src": "http://d.duotuwang.com/2019/11/22/18641/0.jpg",
        "mtId": "48bada5e7225ec9f",
        "mtName": "\u6768\u6668\u6668sugar",
        "jgId": "xiaoyu",
        "jgName": "\u8bed\u753b\u754c",
        "href": "http://d.duotuwang.com/2019/11/22/18641/",
        "count": 56,
        "start": 1,
        "hasMtTag": 1,
        "hasJgTag": 1,
        "mtCount": 89,
        "jgCount": 155
    },
    {
        "name": "[XIAOYU]\u8bed\u753b\u754c VOL.198 Angela\u5c0f\u70ed\u5df4",
        "src": "http://d.duotuwang.com/2019/11/21/18650/0.jpg",
        "mtId": "e4d09316d8a9d330",
        "mtName": "\u5c0f\u70ed\u5df4",
        "jgId": "xiaoyu",
        "jgName": "\u8bed\u753b\u754c",
        "href": "http://d.duotuwang.com/2019/11/21/18650/",
        "count": 93,
        "start": 1,
        "hasMtTag": 1,
        "hasJgTag": 1,
        "mtCount": 26,
        "jgCount": 155
    },
    {
        "name": "[XIAOYU]\u8bed\u753b\u754c VOL.197 \u829d\u829dBooty 2/2",
        "src": "http://d.duotuwang.com/2019/11/20/18753/0.jpg",
        "mtId": "8fe458bd9af7ab1d",
        "mtName": "\u829d\u829dBooty",
        "jgId": "xiaoyu",
        "jgName": "\u8bed\u753b\u754c",
        "href": "http://d.duotuwang.com/2019/11/20/18753/",
        "count": 64,
        "start": 56,
        "hasMtTag": 1,
        "hasJgTag": 1,
        "mtCount": 56,
        "jgCount": 155
    }
]