[
    {
        "name": "[XIAOYU]\u8bed\u753b\u754c VOL.594 \u6797\u661f\u9611",
        "src": "http://d.duotuwang.com/2021/08/17/26292/0.jpg",
        "mtId": "ae97554bce4f86d1",
        "mtName": "\u6797\u661f\u9611",
        "jgId": "xiaoyu",
        "jgName": "\u8bed\u753b\u754c",
        "href": "http://d.duotuwang.com/2021/08/17/26292/",
        "count": 91,
        "start": 1,
        "hasMtTag": 1,
        "hasJgTag": 1,
        "mtCount": 8,
        "jgCount": 155
    },
    {
        "name": "[XIAOYU]\u8bed\u753b\u754c VOL.593 \u829d\u829dBooty",
        "src": "http://d.duotuwang.com/2021/08/16/26291/0.jpg",
        "mtId": "8fe458bd9af7ab1d",
        "mtName": "\u829d\u829dBooty",
        "jgId": "xiaoyu",
        "jgName": "\u8bed\u753b\u754c",
        "href": "http://d.duotuwang.com/2021/08/16/26291/",
        "count": 88,
        "start": 1,
        "hasMtTag": 1,
        "hasJgTag": 1,
        "mtCount": 56,
        "jgCount": 155
    },
    {
        "name": "[XIAOYU]\u8bed\u753b\u754c VOL.592 \u6768\u6668\u6668Yome",
        "src": "http://d.duotuwang.com/2021/08/13/26290/0.jpg",
        "mtId": "48bada5e7225ec9f",
        "mtName": "\u6768\u6668\u6668sugar",
        "jgId": "xiaoyu",
        "jgName": "\u8bed\u753b\u754c",
        "href": "http://d.duotuwang.com/2021/08/13/26290/",
        "count": 57,
        "start": 1,
        "hasMtTag": 1,
        "hasJgTag": 1,
        "mtCount": 89,
        "jgCount": 155
    },
    {
        "name": "[XIAOYU]\u8bed\u753b\u754c VOL.591 \u7a0b\u7a0b\u7a0b-",
        "src": "http://d.duotuwang.com/2021/08/12/26289/0.jpg",
        "mtId": "db3582bed21e076b",
        "mtName": "\u7a0b\u7a0b\u7a0b-",
        "jgId": "xiaoyu",
        "jgName": "\u8bed\u753b\u754c",
        "href": "http://d.duotuwang.com/2021/08/12/26289/",
        "count": 57,
        "start": 1,
        "hasMtTag": 1,
        "hasJgTag": 1,
        "mtCount": 6,
        "jgCount": 155
    },
    {
        "name": "[XIAOYU]\u8bed\u753b\u754c VOL.590 \u738b\u99a8\u7476yanni",
        "src": "http://d.duotuwang.com/2021/08/11/26098/0.jpg",
        "mtId": "ee305435592cf245",
        "mtName": "\u738b\u99a8\u7476yanni",
        "jgId": "xiaoyu",
        "jgName": "\u8bed\u753b\u754c",
        "href": "http://d.duotuwang.com/2021/08/11/26098/",
        "count": 95,
        "start": 1,
        "hasMtTag": 1,
        "hasJgTag": 1,
        "mtCount": 29,
        "jgCount": 155
    },
    {
        "name": "[XIAOYU]\u8bed\u753b\u754c VOL.589 \u8a00\u6cab",
        "src": "http://d.duotuwang.com/2021/08/10/26097/0.jpg",
        "mtId": "3c6f7e1773bf4c77",
        "mtName": "\u8a00\u6cab",
        "jgId": "xiaoyu",
        "jgName": "\u8bed\u753b\u754c",
        "href": "http://d.duotuwang.com/2021/08/10/26097/",
        "count": 100,
        "start": 1,
        "hasMtTag": 1,
        "hasJgTag": 1,
        "mtCount": 11,
        "jgCount": 155
    }
]