[
    {
        "name": "[XIAOYU]\u8bed\u753b\u754c VOL.576 \u829d\u829dBooty",
        "src": "http://d.duotuwang.com/2021/07/22/25952/0.jpg",
        "mtId": "8fe458bd9af7ab1d",
        "mtName": "\u829d\u829dBooty",
        "jgId": "xiaoyu",
        "jgName": "\u8bed\u753b\u754c",
        "href": "http://d.duotuwang.com/2021/07/22/25952/",
        "count": 83,
        "start": 1,
        "hasMtTag": 1,
        "hasJgTag": 1,
        "mtCount": 56,
        "jgCount": 155
    },
    {
        "name": "[XIAOYU]\u8bed\u753b\u754c VOL.575 \u68a6\u5fc3\u6708",
        "src": "http://d.duotuwang.com/2021/07/21/25823/0.jpg",
        "mtId": "845a90943c4d1633",
        "mtName": "\u68a6\u5fc3\u6708",
        "jgId": "xiaoyu",
        "jgName": "\u8bed\u753b\u754c",
        "href": "http://d.duotuwang.com/2021/07/21/25823/",
        "count": 73,
        "start": 1,
        "hasMtTag": 1,
        "hasJgTag": 1,
        "mtCount": 35,
        "jgCount": 155
    },
    {
        "name": "[XIAOYU]\u8bed\u753b\u754c VOL.574 \u6797\u661f\u9611",
        "src": "http://d.duotuwang.com/2021/07/20/25822/0.jpg",
        "mtId": "ae97554bce4f86d1",
        "mtName": "\u6797\u661f\u9611",
        "jgId": "xiaoyu",
        "jgName": "\u8bed\u753b\u754c",
        "href": "http://d.duotuwang.com/2021/07/20/25822/",
        "count": 78,
        "start": 1,
        "hasMtTag": 1,
        "hasJgTag": 1,
        "mtCount": 8,
        "jgCount": 155
    },
    {
        "name": "[XIAOYU]\u8bed\u753b\u754c VOL.573 \u738b\u99a8\u7476yanni",
        "src": "http://d.duotuwang.com/2021/07/19/25821/0.jpg",
        "mtId": "ee305435592cf245",
        "mtName": "\u738b\u99a8\u7476yanni",
        "jgId": "xiaoyu",
        "jgName": "\u8bed\u753b\u754c",
        "href": "http://d.duotuwang.com/2021/07/19/25821/",
        "count": 78,
        "start": 1,
        "hasMtTag": 1,
        "hasJgTag": 1,
        "mtCount": 29,
        "jgCount": 155
    },
    {
        "name": "[XIAOYU]\u8bed\u753b\u754c VOL.572 \u6768\u6668\u6668Yome",
        "src": "http://d.duotuwang.com/2021/07/16/25820/0.jpg",
        "mtId": "48bada5e7225ec9f",
        "mtName": "\u6768\u6668\u6668sugar",
        "jgId": "xiaoyu",
        "jgName": "\u8bed\u753b\u754c",
        "href": "http://d.duotuwang.com/2021/07/16/25820/",
        "count": 70,
        "start": 1,
        "hasMtTag": 1,
        "hasJgTag": 1,
        "mtCount": 89,
        "jgCount": 155
    },
    {
        "name": "[XIAOYU]\u8bed\u753b\u754c VOL.571 \u8a00\u6cab",
        "src": "http://d.duotuwang.com/2021/07/15/25819/0.jpg",
        "mtId": "3c6f7e1773bf4c77",
        "mtName": "\u8a00\u6cab",
        "jgId": "xiaoyu",
        "jgName": "\u8bed\u753b\u754c",
        "href": "http://d.duotuwang.com/2021/07/15/25819/",
        "count": 70,
        "start": 1,
        "hasMtTag": 1,
        "hasJgTag": 1,
        "mtCount": 11,
        "jgCount": 155
    }
]