[
    {
        "name": "[XIAOYU]\u8bed\u753b\u754c VOL.570 \u68a6\u5fc3\u6708",
        "src": "http://d.duotuwang.com/2021/07/14/25818/0.jpg",
        "mtId": "845a90943c4d1633",
        "mtName": "\u68a6\u5fc3\u6708",
        "jgId": "xiaoyu",
        "jgName": "\u8bed\u753b\u754c",
        "href": "http://d.duotuwang.com/2021/07/14/25818/",
        "count": 61,
        "start": 1,
        "hasMtTag": 1,
        "hasJgTag": 1,
        "mtCount": 35,
        "jgCount": 155
    },
    {
        "name": "[XIAOYU]\u8bed\u753b\u754c VOL.569 \u6708\u97f3\u77b3",
        "src": "http://d.duotuwang.com/2021/07/13/25817/0.jpg",
        "mtId": "ad1cc72dcd927205",
        "mtName": "\u6708\u97f3\u77b3",
        "jgId": "xiaoyu",
        "jgName": "\u8bed\u753b\u754c",
        "href": "http://d.duotuwang.com/2021/07/13/25817/",
        "count": 74,
        "start": 1,
        "hasMtTag": 1,
        "hasJgTag": 1,
        "mtCount": 11,
        "jgCount": 155
    },
    {
        "name": "[XIAOYU]\u8bed\u753b\u754c VOL.568 \u829d\u829dBooty 2/2",
        "src": "http://d.duotuwang.com/2021/07/12/25993/0.jpg",
        "mtId": "8fe458bd9af7ab1d",
        "mtName": "\u829d\u829dBooty",
        "jgId": "xiaoyu",
        "jgName": "\u8bed\u753b\u754c",
        "href": "http://d.duotuwang.com/2021/07/12/25993/",
        "count": 51,
        "start": 53,
        "hasMtTag": 1,
        "hasJgTag": 1,
        "mtCount": 56,
        "jgCount": 155
    },
    {
        "name": "[XIAOYU]\u8bed\u753b\u754c VOL.568 \u829d\u829dBooty 1/2",
        "src": "http://d.duotuwang.com/2021/07/12/25816/0.jpg",
        "mtId": "8fe458bd9af7ab1d",
        "mtName": "\u829d\u829dBooty",
        "jgId": "xiaoyu",
        "jgName": "\u8bed\u753b\u754c",
        "href": "http://d.duotuwang.com/2021/07/12/25816/",
        "count": 52,
        "start": 1,
        "hasMtTag": 1,
        "hasJgTag": 1,
        "mtCount": 56,
        "jgCount": 155
    },
    {
        "name": "[XIAOYU]\u8bed\u753b\u754c VOL.567 \u6768\u6668\u6668Yome",
        "src": "http://d.duotuwang.com/2021/07/09/25815/0.jpg",
        "mtId": "48bada5e7225ec9f",
        "mtName": "\u6768\u6668\u6668sugar",
        "jgId": "xiaoyu",
        "jgName": "\u8bed\u753b\u754c",
        "href": "http://d.duotuwang.com/2021/07/09/25815/",
        "count": 72,
        "start": 1,
        "hasMtTag": 1,
        "hasJgTag": 1,
        "mtCount": 89,
        "jgCount": 155
    },
    {
        "name": "[XIAOYU]\u8bed\u753b\u754c VOL.566 \u5a1c\u6bd4",
        "src": "http://d.duotuwang.com/2021/07/08/25694/0.jpg",
        "mtId": "5928eab0a363c51b",
        "mtName": "\u5a1c\u6bd4",
        "jgId": "xiaoyu",
        "jgName": "\u8bed\u753b\u754c",
        "href": "http://d.duotuwang.com/2021/07/08/25694/",
        "count": 65,
        "start": 1,
        "hasMtTag": 1,
        "hasJgTag": 1,
        "mtCount": 5,
        "jgCount": 155
    }
]