[
    {
        "name": "[XIAOYU]\u8bed\u753b\u754c VOL.547 \u8c46\u74e3\u9171",
        "src": "http://d.duotuwang.com/2021/06/10/25461/0.jpg",
        "mtId": "08803faee9d72468",
        "mtName": "\u8c46\u74e3\u9171",
        "jgId": "xiaoyu",
        "jgName": "\u8bed\u753b\u754c",
        "href": "http://d.duotuwang.com/2021/06/10/25461/",
        "count": 41,
        "start": 1,
        "hasMtTag": 1,
        "hasJgTag": 1,
        "mtCount": 8,
        "jgCount": 155
    },
    {
        "name": "[XIAOYU]\u8bed\u753b\u754c VOL.546 \u4f55\u5609\u9896",
        "src": "http://d.duotuwang.com/2021/06/09/25460/0.jpg",
        "mtId": "ddcc0f5bf2efada3",
        "mtName": "\u4f55\u5609\u9896",
        "jgId": "xiaoyu",
        "jgName": "\u8bed\u753b\u754c",
        "href": "http://d.duotuwang.com/2021/06/09/25460/",
        "count": 61,
        "start": 1,
        "hasMtTag": 1,
        "hasJgTag": 1,
        "mtCount": 14,
        "jgCount": 155
    },
    {
        "name": "[XIAOYU]\u8bed\u753b\u754c VOL.545 \u6797\u661f\u9611",
        "src": "http://d.duotuwang.com/2021/06/08/25459/0.jpg",
        "mtId": "ae97554bce4f86d1",
        "mtName": "\u6797\u661f\u9611",
        "jgId": "xiaoyu",
        "jgName": "\u8bed\u753b\u754c",
        "href": "http://d.duotuwang.com/2021/06/08/25459/",
        "count": 70,
        "start": 1,
        "hasMtTag": 1,
        "hasJgTag": 1,
        "mtCount": 8,
        "jgCount": 155
    },
    {
        "name": "[XIAOYU]\u8bed\u753b\u754c VOL.544 \u829d\u829dBooty",
        "src": "http://d.duotuwang.com/2021/06/07/25458/0.jpg",
        "mtId": "8fe458bd9af7ab1d",
        "mtName": "\u829d\u829dBooty",
        "jgId": "xiaoyu",
        "jgName": "\u8bed\u753b\u754c",
        "href": "http://d.duotuwang.com/2021/06/07/25458/",
        "count": 86,
        "start": 1,
        "hasMtTag": 1,
        "hasJgTag": 1,
        "mtCount": 56,
        "jgCount": 155
    },
    {
        "name": "[XIAOYU]\u8bed\u753b\u754c VOL.543 \u6768\u6668\u6668Yome",
        "src": "http://d.duotuwang.com/2021/06/04/25457/0.jpg",
        "mtId": "48bada5e7225ec9f",
        "mtName": "\u6768\u6668\u6668sugar",
        "jgId": "xiaoyu",
        "jgName": "\u8bed\u753b\u754c",
        "href": "http://d.duotuwang.com/2021/06/04/25457/",
        "count": 72,
        "start": 1,
        "hasMtTag": 1,
        "hasJgTag": 1,
        "mtCount": 89,
        "jgCount": 155
    },
    {
        "name": "[XIAOYU]\u8bed\u753b\u754c VOL.542 \u829d\u829dBooty",
        "src": "http://d.duotuwang.com/2021/06/03/25282/0.jpg",
        "mtId": "8fe458bd9af7ab1d",
        "mtName": "\u829d\u829dBooty",
        "jgId": "xiaoyu",
        "jgName": "\u8bed\u753b\u754c",
        "href": "http://d.duotuwang.com/2021/06/03/25282/",
        "count": 65,
        "start": 1,
        "hasMtTag": 1,
        "hasJgTag": 1,
        "mtCount": 56,
        "jgCount": 155
    }
]