[
    {
        "name": "[XIAOYU]\u8bed\u753b\u754c VOL.457 \u6768\u6668\u6668sugar",
        "src": "http://d.duotuwang.com/2021/01/22/24020/0.jpg",
        "mtId": "48bada5e7225ec9f",
        "mtName": "\u6768\u6668\u6668sugar",
        "jgId": "xiaoyu",
        "jgName": "\u8bed\u753b\u754c",
        "href": "http://d.duotuwang.com/2021/01/22/24020/",
        "count": 55,
        "start": 1,
        "hasMtTag": 1,
        "hasJgTag": 1,
        "mtCount": 89,
        "jgCount": 155
    },
    {
        "name": "[XIAOYU]\u8bed\u753b\u754c VOL.456 \u9648\u68a6babe",
        "src": "http://d.duotuwang.com/2021/01/21/23841/0.jpg",
        "mtId": "4e13c6991b12af47",
        "mtName": "\u9648\u68a6babe",
        "jgId": "xiaoyu",
        "jgName": "\u8bed\u753b\u754c",
        "href": "http://d.duotuwang.com/2021/01/21/23841/",
        "count": 100,
        "start": 1,
        "hasMtTag": 1,
        "hasJgTag": 1,
        "mtCount": 3,
        "jgCount": 155
    },
    {
        "name": "[XIAOYU]\u8bed\u753b\u754c VOL.455 \u6768\u7d2b\u5ae3Cynthia",
        "src": "http://d.duotuwang.com/2021/01/20/23840/0.jpg",
        "mtId": "aca6a5b5e8c338c9",
        "mtName": "\u6768\u7d2b\u5ae3Cynthia",
        "jgId": "xiaoyu",
        "jgName": "\u8bed\u753b\u754c",
        "href": "http://d.duotuwang.com/2021/01/20/23840/",
        "count": 55,
        "start": 1,
        "hasMtTag": 1,
        "hasJgTag": 1,
        "mtCount": 6,
        "jgCount": 155
    },
    {
        "name": "[XIAOYU]\u8bed\u753b\u754c VOL.454 \u4f55\u5609\u9896",
        "src": "http://d.duotuwang.com/2021/01/19/23839/0.jpg",
        "mtId": "ddcc0f5bf2efada3",
        "mtName": "\u4f55\u5609\u9896",
        "jgId": "xiaoyu",
        "jgName": "\u8bed\u753b\u754c",
        "href": "http://d.duotuwang.com/2021/01/19/23839/",
        "count": 62,
        "start": 1,
        "hasMtTag": 1,
        "hasJgTag": 1,
        "mtCount": 14,
        "jgCount": 155
    },
    {
        "name": "[XIAOYU]\u8bed\u753b\u754c VOL.453 \u5948\u6c90\u5b50",
        "src": "http://d.duotuwang.com/2021/01/18/23838/0.jpg",
        "mtId": "82b929f61117c6f6",
        "mtName": "\u5948\u6c90\u5b50",
        "jgId": "xiaoyu",
        "jgName": "\u8bed\u753b\u754c",
        "href": "http://d.duotuwang.com/2021/01/18/23838/",
        "count": 62,
        "start": 1,
        "hasMtTag": 1,
        "hasJgTag": 1,
        "mtCount": 4,
        "jgCount": 155
    },
    {
        "name": "[XIAOYU]\u8bed\u753b\u754c VOL.452 \u6768\u6668\u6668sugar",
        "src": "http://d.duotuwang.com/2021/01/15/23837/0.jpg",
        "mtId": "48bada5e7225ec9f",
        "mtName": "\u6768\u6668\u6668sugar",
        "jgId": "xiaoyu",
        "jgName": "\u8bed\u753b\u754c",
        "href": "http://d.duotuwang.com/2021/01/15/23837/",
        "count": 86,
        "start": 1,
        "hasMtTag": 1,
        "hasJgTag": 1,
        "mtCount": 89,
        "jgCount": 155
    }
]