[
    {
        "name": "[XIAOYU]\u8bed\u753b\u754c VOL.376 \u8a00\u6cab 2/2",
        "src": "http://d.duotuwang.com/2020/09/24/22432/0.jpg",
        "mtId": "3c6f7e1773bf4c77",
        "mtName": "\u8a00\u6cab",
        "jgId": "xiaoyu",
        "jgName": "\u8bed\u753b\u754c",
        "href": "http://d.duotuwang.com/2020/09/24/22432/",
        "count": 48,
        "start": 66,
        "hasMtTag": 1,
        "hasJgTag": 1,
        "mtCount": 11,
        "jgCount": 155
    },
    {
        "name": "[XIAOYU]\u8bed\u753b\u754c VOL.376 \u8a00\u6cab 1/2",
        "src": "http://d.duotuwang.com/2020/09/24/22403/0.jpg",
        "mtId": "3c6f7e1773bf4c77",
        "mtName": "\u8a00\u6cab",
        "jgId": "xiaoyu",
        "jgName": "\u8bed\u753b\u754c",
        "href": "http://d.duotuwang.com/2020/09/24/22403/",
        "count": 65,
        "start": 1,
        "hasMtTag": 1,
        "hasJgTag": 1,
        "mtCount": 11,
        "jgCount": 155
    },
    {
        "name": "[XIAOYU]\u8bed\u753b\u754c VOL.375 \u7eef\u6708\u6a31-Cherry",
        "src": "http://d.duotuwang.com/2020/09/23/22402/0.jpg",
        "mtId": "85e55daf35c53f9e",
        "mtName": "\u7eef\u6708\u6a31-Cherry",
        "jgId": "xiaoyu",
        "jgName": "\u8bed\u753b\u754c",
        "href": "http://d.duotuwang.com/2020/09/23/22402/",
        "count": 48,
        "start": 1,
        "hasMtTag": 1,
        "hasJgTag": 1,
        "mtCount": 26,
        "jgCount": 155
    },
    {
        "name": "[XIAOYU]\u8bed\u753b\u754c VOL.374 \u7a0b\u7a0b\u7a0b-",
        "src": "http://d.duotuwang.com/2020/09/22/22339/0.jpg",
        "mtId": "db3582bed21e076b",
        "mtName": "\u7a0b\u7a0b\u7a0b-",
        "jgId": "xiaoyu",
        "jgName": "\u8bed\u753b\u754c",
        "href": "http://d.duotuwang.com/2020/09/22/22339/",
        "count": 71,
        "start": 1,
        "hasMtTag": 1,
        "hasJgTag": 1,
        "mtCount": 6,
        "jgCount": 155
    },
    {
        "name": "[XIAOYU]\u8bed\u753b\u754c VOL.373 \u8a00\u6cab",
        "src": "http://d.duotuwang.com/2020/09/21/22338/0.jpg",
        "mtId": "3c6f7e1773bf4c77",
        "mtName": "\u8a00\u6cab",
        "jgId": "xiaoyu",
        "jgName": "\u8bed\u753b\u754c",
        "href": "http://d.duotuwang.com/2020/09/21/22338/",
        "count": 82,
        "start": 1,
        "hasMtTag": 1,
        "hasJgTag": 1,
        "mtCount": 11,
        "jgCount": 155
    },
    {
        "name": "[XIAOYU]\u8bed\u753b\u754c VOL.372 \u6768\u6668\u6668sugar",
        "src": "http://d.duotuwang.com/2020/09/18/22337/0.jpg",
        "mtId": "48bada5e7225ec9f",
        "mtName": "\u6768\u6668\u6668sugar",
        "jgId": "xiaoyu",
        "jgName": "\u8bed\u753b\u754c",
        "href": "http://d.duotuwang.com/2020/09/18/22337/",
        "count": 93,
        "start": 1,
        "hasMtTag": 1,
        "hasJgTag": 1,
        "mtCount": 89,
        "jgCount": 155
    }
]