[
    {
        "name": "[Girlt]\u679c\u56e2\u7f51 GT116 \u4f55\u5609\u9896",
        "src": "http://d.duotuwang.com/2018/01/06/8077/0.jpg",
        "mtId": "ddcc0f5bf2efada3",
        "mtName": "\u4f55\u5609\u9896",
        "jgId": "girlt",
        "jgName": "\u679c\u56e2\u7f51",
        "href": "http://d.duotuwang.com/2018/01/06/8077/",
        "count": 53,
        "start": 1,
        "hasMtTag": 1,
        "hasJgTag": 1,
        "mtCount": 14,
        "jgCount": 37
    },
    {
        "name": "[UGirls]\u5c24\u679c\u7f51 U318 \u4f55\u5609\u9896",
        "src": "http://d.duotuwang.com/2017/11/08/6297/0.jpg",
        "mtId": "ddcc0f5bf2efada3",
        "mtName": "\u4f55\u5609\u9896",
        "jgId": "ugirls",
        "jgName": "\u5c24\u679c\u7f51",
        "href": "http://d.duotuwang.com/2017/11/08/6297/",
        "count": 65,
        "start": 1,
        "hasMtTag": 1,
        "hasJgTag": 1,
        "mtCount": 14,
        "jgCount": 79
    }
]