[
    {
        "name": "[UGirls]\u5c24\u679c\u7f51 T027 \u6625\u82b1\u79cb\u6708\u4f55\u65f6\u4e86",
        "src": "http://d.duotuwang.com/2017/09/29/6171/0.jpg",
        "mtId": "9125366ad2c4049f",
        "mtName": "\u8d75\u667a\u598d",
        "jgId": "ugirls",
        "jgName": "\u5c24\u679c\u7f51",
        "href": "http://d.duotuwang.com/2017/09/29/6171/",
        "count": 65,
        "start": 1,
        "hasMtTag": 1,
        "hasJgTag": 1,
        "mtCount": 1,
        "jgCount": 79
    },
    {
        "name": "[UGirlsAPP]\u7231\u5c24\u7269 No.868 \u8d75\u667a\u598d \u7b71\u6167",
        "src": "http://d.duotuwang.com/2017/09/29/6172/0.jpg",
        "mtId": "9125366ad2c4049f",
        "mtName": "\u8d75\u667a\u598d",
        "jgId": "ugirlsapp",
        "jgName": "\u7231\u5c24\u7269",
        "href": "http://d.duotuwang.com/2017/09/29/6172/",
        "count": 40,
        "start": 1,
        "hasMtTag": 1,
        "hasJgTag": 1,
        "mtCount": 1,
        "jgCount": 397
    },
    {
        "name": "[UGirls]\u5c24\u679c\u7f51 U300 \u8d75\u667a\u598d",
        "src": "http://d.duotuwang.com/2017/08/30/5829/0.jpg",
        "mtId": "9125366ad2c4049f",
        "mtName": "\u8d75\u667a\u598d",
        "jgId": "ugirls",
        "jgName": "\u5c24\u679c\u7f51",
        "href": "http://d.duotuwang.com/2017/08/30/5829/",
        "count": 65,
        "start": 1,
        "hasMtTag": 1,
        "hasJgTag": 1,
        "mtCount": 1,
        "jgCount": 79
    }
]