[
    {
        "name": "[UGirls]\u5c24\u679c\u7f51 T019 \u674e\u5a05\u8426 \u8db3\u7403\u5b9d\u8d1d",
        "src": "http://d.duotuwang.com/2016/06/29/3199/0.jpg",
        "mtId": "f6cff3ef68333e71",
        "mtName": "\u674e\u5a05\u8426",
        "jgId": "ugirls",
        "jgName": "\u5c24\u679c\u7f51",
        "href": "http://d.duotuwang.com/2016/06/29/3199/",
        "count": 66,
        "start": 1,
        "hasMtTag": 1,
        "hasJgTag": 1,
        "mtCount": 1,
        "jgCount": 79
    },
    {
        "name": "[UGirlsAPP]\u7231\u5c24\u7269 No.393 \u674e\u5a05\u8426",
        "src": "http://d.duotuwang.com/2016/06/14/4727/0.jpg",
        "mtId": "f6cff3ef68333e71",
        "mtName": "\u674e\u5a05\u8426",
        "jgId": "ugirlsapp",
        "jgName": "\u7231\u5c24\u7269",
        "href": "http://d.duotuwang.com/2016/06/14/4727/",
        "count": 40,
        "start": 1,
        "hasMtTag": 1,
        "hasJgTag": 1,
        "mtCount": 1,
        "jgCount": 397
    },
    {
        "name": "[UGirlsAPP]\u7231\u5c24\u7269 No.314 \u674e\u5a05\u8426",
        "src": "http://d.duotuwang.com/2016/03/28/4663/0.jpg",
        "mtId": "f6cff3ef68333e71",
        "mtName": "\u674e\u5a05\u8426",
        "jgId": "ugirlsapp",
        "jgName": "\u7231\u5c24\u7269",
        "href": "http://d.duotuwang.com/2016/03/28/4663/",
        "count": 40,
        "start": 1,
        "hasMtTag": 1,
        "hasJgTag": 1,
        "mtCount": 1,
        "jgCount": 397
    },
    {
        "name": "[UGirlsAPP]\u7231\u5c24\u7269 No.296 \u674e\u5a05\u8426",
        "src": "http://d.duotuwang.com/2016/03/10/4634/0.jpg",
        "mtId": "f6cff3ef68333e71",
        "mtName": "\u674e\u5a05\u8426",
        "jgId": "ugirlsapp",
        "jgName": "\u7231\u5c24\u7269",
        "href": "http://d.duotuwang.com/2016/03/10/4634/",
        "count": 40,
        "start": 1,
        "hasMtTag": 1,
        "hasJgTag": 1,
        "mtCount": 1,
        "jgCount": 397
    }
]