[
    {
        "name": "[DJAWA Photo] Bambi - USS Bremerton (Azur Lane) Scorching-Hot Training",
        "src": "http://d.duotuwang.com/2020/05/17/27231/0.jpg",
        "mtId": "eea797bd4f94853d",
        "mtName": "DJAWAPhoto",
        "href": "http://d.duotuwang.com/2020/05/17/27231/",
        "count": 76,
        "start": 1,
        "hasMtTag": 1,
        "hasJgTag": 0,
        "mtCount": 40
    },
    {
        "name": "[DJAWA Photo] Bambi - Seraphine The Starry-Eyed Songstress (League of Legends) 3/3",
        "src": "http://d.duotuwang.com/2021/03/26/27230/0.jpg",
        "mtId": "eea797bd4f94853d",
        "mtName": "DJAWAPhoto",
        "href": "http://d.duotuwang.com/2021/03/26/27230/",
        "count": 50,
        "start": 106,
        "hasMtTag": 1,
        "hasJgTag": 0,
        "mtCount": 40
    },
    {
        "name": "[DJAWA Photo] Bambi - Seraphine The Starry-Eyed Songstress (League of Legends) 2/3",
        "src": "http://d.duotuwang.com/2021/03/26/27229/0.jpg",
        "mtId": "eea797bd4f94853d",
        "mtName": "DJAWAPhoto",
        "href": "http://d.duotuwang.com/2021/03/26/27229/",
        "count": 59,
        "start": 47,
        "hasMtTag": 1,
        "hasJgTag": 0,
        "mtCount": 40
    },
    {
        "name": "[DJAWA Photo] Bambi - Seraphine The Starry-Eyed Songstress (League of Legends) 1/3",
        "src": "http://d.duotuwang.com/2021/03/26/27228/0.jpg",
        "mtId": "eea797bd4f94853d",
        "mtName": "DJAWAPhoto",
        "href": "http://d.duotuwang.com/2021/03/26/27228/",
        "count": 46,
        "start": 1,
        "hasMtTag": 1,
        "hasJgTag": 0,
        "mtCount": 40
    },
    {
        "name": "[DJAWA Photo] Bambi - La Rose NoirE 2B 3/3",
        "src": "http://d.duotuwang.com/2021/08/11/27227/0.jpg",
        "mtId": "eea797bd4f94853d",
        "mtName": "DJAWAPhoto",
        "href": "http://d.duotuwang.com/2021/08/11/27227/",
        "count": 79,
        "start": 112,
        "hasMtTag": 1,
        "hasJgTag": 0,
        "mtCount": 40
    },
    {
        "name": "[DJAWA Photo] Bambi - La Rose NoirE 2B 2/3",
        "src": "http://d.duotuwang.com/2021/08/11/27226/0.jpg",
        "mtId": "eea797bd4f94853d",
        "mtName": "DJAWAPhoto",
        "href": "http://d.duotuwang.com/2021/08/11/27226/",
        "count": 45,
        "start": 67,
        "hasMtTag": 1,
        "hasJgTag": 0,
        "mtCount": 40
    }
]