[
    {
        "name": "[DJAWA Photo] Aram - Poolside Summer 2/2",
        "src": "http://d.duotuwang.com/2021/06/26/26992/0.jpg",
        "mtId": "eea797bd4f94853d",
        "mtName": "DJAWAPhoto",
        "href": "http://d.duotuwang.com/2021/06/26/26992/",
        "count": 69,
        "start": 65,
        "hasMtTag": 1,
        "hasJgTag": 0,
        "mtCount": 40
    },
    {
        "name": "[Pure Media] Vol.114 Son Ye-Eun 2/2",
        "src": "http://d.duotuwang.com/2021/10/01/26991/0.jpg",
        "mtId": "0863e388f319a3e1",
        "mtName": "PureMedia",
        "href": "http://d.duotuwang.com/2021/10/01/26991/",
        "count": 55,
        "start": 36,
        "hasMtTag": 1,
        "hasJgTag": 0,
        "mtCount": 6
    },
    {
        "name": "[Pure Media] Vol.114 Son Ye-Eun 1/2",
        "src": "http://d.duotuwang.com/2021/10/01/26990/0.jpg",
        "mtId": "0863e388f319a3e1",
        "mtName": "PureMedia",
        "href": "http://d.duotuwang.com/2021/10/01/26990/",
        "count": 35,
        "start": 1,
        "hasMtTag": 1,
        "hasJgTag": 0,
        "mtCount": 6
    },
    {
        "name": "[Pure Media] Vol.85 Siro",
        "src": "http://d.duotuwang.com/2021/06/13/26989/0.jpg",
        "mtId": "0863e388f319a3e1",
        "mtName": "PureMedia",
        "href": "http://d.duotuwang.com/2021/06/13/26989/",
        "count": 70,
        "start": 1,
        "hasMtTag": 1,
        "hasJgTag": 0,
        "mtCount": 6
    },
    {
        "name": "[Pure Media] Vol.75 Aram",
        "src": "http://d.duotuwang.com/2021/05/01/26988/0.jpg",
        "mtId": "0863e388f319a3e1",
        "mtName": "PureMedia",
        "href": "http://d.duotuwang.com/2021/05/01/26988/",
        "count": 59,
        "start": 1,
        "hasMtTag": 1,
        "hasJgTag": 0,
        "mtCount": 6
    },
    {
        "name": "[Pure Media] Vol.65 Sira",
        "src": "http://d.duotuwang.com/2021/03/20/26987/0.jpg",
        "mtId": "0863e388f319a3e1",
        "mtName": "PureMedia",
        "href": "http://d.duotuwang.com/2021/03/20/26987/",
        "count": 71,
        "start": 1,
        "hasMtTag": 1,
        "hasJgTag": 0,
        "mtCount": 6
    }
]