[
    {
        "name": "[DJAWA Photo] \u59dc\u4ec1\u537f(Kang In-kyung) - Poolside",
        "src": "http://d.duotuwang.com/2018/03/01/26439/0.jpg",
        "mtId": "eea797bd4f94853d",
        "mtName": "DJAWAPhoto",
        "href": "http://d.duotuwang.com/2018/03/01/26439/",
        "count": 62,
        "start": 1,
        "hasMtTag": 1,
        "hasJgTag": 0,
        "mtCount": 40
    },
    {
        "name": "[DJAWA Photo] Jeong Jenny - The Lord of Nightmares",
        "src": "http://d.duotuwang.com/2020/09/19/26438/0.jpg",
        "mtId": "eea797bd4f94853d",
        "mtName": "DJAWAPhoto",
        "href": "http://d.duotuwang.com/2020/09/19/26438/",
        "count": 97,
        "start": 1,
        "hasMtTag": 1,
        "hasJgTag": 0,
        "mtCount": 40
    },
    {
        "name": "[DJAWA Photo] Jeong Jenny - Sailor Stripes",
        "src": "http://d.duotuwang.com/2018/09/28/26437/0.jpg",
        "mtId": "eea797bd4f94853d",
        "mtName": "DJAWAPhoto",
        "href": "http://d.duotuwang.com/2018/09/28/26437/",
        "count": 24,
        "start": 1,
        "hasMtTag": 1,
        "hasJgTag": 0,
        "mtCount": 40
    },
    {
        "name": "[DJAWA Photo] Jeong Jenny - Girls Frontline Type 95 (Pure White Graduation)",
        "src": "http://d.duotuwang.com/2020/06/07/26436/0.jpg",
        "mtId": "eea797bd4f94853d",
        "mtName": "DJAWAPhoto",
        "href": "http://d.duotuwang.com/2020/06/07/26436/",
        "count": 32,
        "start": 1,
        "hasMtTag": 1,
        "hasJgTag": 0,
        "mtCount": 40
    },
    {
        "name": "[DJAWA Photo] Bambi - Destiny Child Rita (Paradise Exiled)",
        "src": "http://d.duotuwang.com/2021/05/09/26435/0.jpg",
        "mtId": "eea797bd4f94853d",
        "mtName": "DJAWAPhoto",
        "href": "http://d.duotuwang.com/2021/05/09/26435/",
        "count": 81,
        "start": 1,
        "hasMtTag": 1,
        "hasJgTag": 0,
        "mtCount": 40
    },
    {
        "name": "[CreamSoda] Bambi - Bambi Vol.5",
        "src": "http://d.duotuwang.com/2019/11/26/26434/0.jpg",
        "mtId": "6d00982b61055fdd",
        "mtName": "CreamSoda",
        "href": "http://d.duotuwang.com/2019/11/26/26434/",
        "count": 63,
        "start": 1,
        "hasMtTag": 1,
        "hasJgTag": 0,
        "mtCount": 7
    }
]