[
    {
        "name": "[BlueCake] Bomi - PoP Star 2/2",
        "src": "http://d.duotuwang.com/2021/07/28/30755/0.jpg",
        "mtId": "3db357fa0fdfaf2c",
        "mtName": "BlueCake",
        "href": "http://d.duotuwang.com/2021/07/28/30755/",
        "count": 39,
        "start": 69,
        "hasMtTag": 1,
        "hasJgTag": 0,
        "mtCount": 4
    },
    {
        "name": "[BlueCake] Bomi - PoP Star 1/2",
        "src": "http://d.duotuwang.com/2021/07/28/30754/0.jpg",
        "mtId": "3db357fa0fdfaf2c",
        "mtName": "BlueCake",
        "href": "http://d.duotuwang.com/2021/07/28/30754/",
        "count": 68,
        "start": 1,
        "hasMtTag": 1,
        "hasJgTag": 0,
        "mtCount": 4
    },
    {
        "name": "[BlueCake] Bomi - Secret Billiard Room 2/2",
        "src": "http://d.duotuwang.com/2021/07/28/30753/0.jpg",
        "mtId": "3db357fa0fdfaf2c",
        "mtName": "BlueCake",
        "href": "http://d.duotuwang.com/2021/07/28/30753/",
        "count": 63,
        "start": 83,
        "hasMtTag": 1,
        "hasJgTag": 0,
        "mtCount": 4
    },
    {
        "name": "[BlueCake] Bomi - Secret Billiard Room 1/2",
        "src": "http://d.duotuwang.com/2021/07/28/30752/0.jpg",
        "mtId": "3db357fa0fdfaf2c",
        "mtName": "BlueCake",
        "href": "http://d.duotuwang.com/2021/07/28/30752/",
        "count": 82,
        "start": 1,
        "hasMtTag": 1,
        "hasJgTag": 0,
        "mtCount": 4
    },
    {
        "name": "[Espacia Korea] ESP#050 EHC - Purm",
        "src": "http://d.duotuwang.com/2021/06/28/30751/0.jpg",
        "mtId": "ae6c134efaafde58",
        "mtName": "EspaciaKorea",
        "href": "http://d.duotuwang.com/2021/06/28/30751/",
        "count": 47,
        "start": 1,
        "hasMtTag": 1,
        "hasJgTag": 0,
        "mtCount": 1
    },
    {
        "name": "[YaHaNii] Biya - Dark Maid 2/2",
        "src": "http://d.duotuwang.com/2021/07/21/30669/0.jpg",
        "mtId": "1a2bec3e6bbf3dad",
        "mtName": "YaHaNii",
        "href": "http://d.duotuwang.com/2021/07/21/30669/",
        "count": 76,
        "start": 76,
        "hasMtTag": 1,
        "hasJgTag": 0,
        "mtCount": 1
    }
]