[
    {
        "name": "[Loozy] Zia - Touch + Anal Plug 1/2",
        "src": "http://d.duotuwang.com/2021/07/21/30662/0.jpg",
        "mtId": "da8d53c966448852",
        "mtName": "Loozy",
        "href": "http://d.duotuwang.com/2021/07/21/30662/",
        "count": 70,
        "start": 1,
        "hasMtTag": 1,
        "hasJgTag": 0,
        "mtCount": 3
    },
    {
        "name": "[K-MODEL] Zia - Photo Class",
        "src": "http://d.duotuwang.com/2021/07/21/30661/0.jpg",
        "mtId": "97d9f8eb15958d21",
        "mtName": "K-MODEL",
        "href": "http://d.duotuwang.com/2021/07/21/30661/",
        "count": 66,
        "start": 1,
        "hasMtTag": 1,
        "hasJgTag": 0,
        "mtCount": 1
    },
    {
        "name": "[Espacia Korea] ESP#058 EHC - Snow",
        "src": "http://d.duotuwang.com/2021/08/21/30660/0.jpg",
        "mtId": "ae6c134efaafde58",
        "mtName": "EspaciaKorea",
        "href": "http://d.duotuwang.com/2021/08/21/30660/",
        "count": 47,
        "start": 1,
        "hasMtTag": 1,
        "hasJgTag": 0,
        "mtCount": 1
    },
    {
        "name": "ggu.bbu Vol.3",
        "src": "http://d.duotuwang.com/2021/04/21/30659/0.jpg",
        "mtId": "ae5eeedf5aa51200",
        "mtName": "ggubbu",
        "href": "http://d.duotuwang.com/2021/04/21/30659/",
        "count": 60,
        "start": 1,
        "hasMtTag": 1,
        "hasJgTag": 0,
        "mtCount": 1
    },
    {
        "name": "[Espacia Korea] ESP#043 ECH - K.D.L",
        "src": "http://d.duotuwang.com/2021/05/21/30658/0.jpg",
        "mtId": "ae6c134efaafde58",
        "mtName": "EspaciaKorea",
        "href": "http://d.duotuwang.com/2021/05/21/30658/",
        "count": 48,
        "start": 1,
        "hasMtTag": 1,
        "hasJgTag": 0,
        "mtCount": 1
    },
    {
        "name": "[DJAWA Photo] Son Ye-Eun - D.s Relationship + SP.Ver 2/2",
        "src": "http://d.duotuwang.com/2021/07/21/30657/0.jpg",
        "mtId": "eea797bd4f94853d",
        "mtName": "DJAWAPhoto",
        "href": "http://d.duotuwang.com/2021/07/21/30657/",
        "count": 40,
        "start": 1,
        "hasMtTag": 1,
        "hasJgTag": 0,
        "mtCount": 40
    }
]