[
    {
        "name": "[BlueCake] Bambi - Naughty Cats Pink + Mint Red 2/2",
        "src": "http://d.duotuwang.com/2021/07/14/30548/0.jpg",
        "mtId": "3db357fa0fdfaf2c",
        "mtName": "BlueCake",
        "href": "http://d.duotuwang.com/2021/07/14/30548/",
        "count": 66,
        "start": 1,
        "hasMtTag": 1,
        "hasJgTag": 0,
        "mtCount": 4
    },
    {
        "name": "[BlueCake] Bambi - Naughty Cats Pink + Mint Red 1/2",
        "src": "http://d.duotuwang.com/2021/07/14/30547/0.jpg",
        "mtId": "3db357fa0fdfaf2c",
        "mtName": "BlueCake",
        "href": "http://d.duotuwang.com/2021/07/14/30547/",
        "count": 77,
        "start": 1,
        "hasMtTag": 1,
        "hasJgTag": 0,
        "mtCount": 4
    },
    {
        "name": "[SaintPhotoLife] Koby - Vol.03",
        "src": "http://d.duotuwang.com/2021/07/07/30398/0.jpg",
        "mtId": "338cf684b6927d79",
        "mtName": "SaintPhotolife",
        "href": "http://d.duotuwang.com/2021/07/07/30398/",
        "count": 65,
        "start": 1,
        "hasMtTag": 1,
        "hasJgTag": 0,
        "mtCount": 7
    },
    {
        "name": "[Lilynah] Lssue Vol.2 \u2013 Play with me",
        "src": "http://d.duotuwang.com/2021/07/07/30397/0.jpg",
        "mtId": "dd75e4426f582a4d",
        "mtName": "Lilynah",
        "href": "http://d.duotuwang.com/2021/07/07/30397/",
        "count": 68,
        "start": 1,
        "hasMtTag": 1,
        "hasJgTag": 0,
        "mtCount": 1
    },
    {
        "name": "[LEEHEE EXPRESS] LEHC-085 - KimWooHyeon",
        "src": "http://d.duotuwang.com/2021/07/07/30396/0.jpg",
        "mtId": "08c22bbfc341e414",
        "mtName": "LEEHEEEXPRESS",
        "href": "http://d.duotuwang.com/2021/07/07/30396/",
        "count": 45,
        "start": 1,
        "hasMtTag": 1,
        "hasJgTag": 0,
        "mtCount": 12
    },
    {
        "name": "[K-MODEL] Zia - After School + X.Ver",
        "src": "http://d.duotuwang.com/2021/07/07/30395/0.jpg",
        "mtId": "97d9f8eb15958d21",
        "mtName": "K-MODEL",
        "href": "http://d.duotuwang.com/2021/07/07/30395/",
        "count": 65,
        "start": 1,
        "hasMtTag": 1,
        "hasJgTag": 0,
        "mtCount": 1
    }
]