[
    {
        "name": "[LEEHEE EXPRESS] LEDG-052A G.su",
        "src": "http://d.duotuwang.com/2020/10/16/30207/0.jpg",
        "mtId": "08c22bbfc341e414",
        "mtName": "LEEHEEEXPRESS",
        "href": "http://d.duotuwang.com/2020/10/16/30207/",
        "count": 49,
        "start": 1,
        "hasMtTag": 1,
        "hasJgTag": 0,
        "mtCount": 12
    },
    {
        "name": "[K-MODEL] Son Ye-Eun - Where are my tools + Full.Ver",
        "src": "http://d.duotuwang.com/2021/06/16/30206/0.jpg",
        "mtId": "97d9f8eb15958d21",
        "mtName": "K-MODEL",
        "href": "http://d.duotuwang.com/2021/06/16/30206/",
        "count": 80,
        "start": 1,
        "hasMtTag": 1,
        "hasJgTag": 0,
        "mtCount": 1
    },
    {
        "name": "[BlueCake] Hikaru Vol.02 Sexy Game",
        "src": "http://d.duotuwang.com/2020/06/16/30205/0.jpg",
        "mtId": "3db357fa0fdfaf2c",
        "mtName": "BlueCake",
        "href": "http://d.duotuwang.com/2020/06/16/30205/",
        "count": 61,
        "start": 1,
        "hasMtTag": 1,
        "hasJgTag": 0,
        "mtCount": 4
    },
    {
        "name": "[BBUTTERMILK] x Pia (\ud53c\uc544) Vol.03 - IN HOTEL with Pia",
        "src": "http://d.duotuwang.com/2021/06/16/30204/0.jpg",
        "mtId": "8196f46de37cb20a",
        "mtName": "BBUTTERMILK",
        "href": "http://d.duotuwang.com/2021/06/16/30204/",
        "count": 97,
        "start": 1,
        "hasMtTag": 1,
        "hasJgTag": 0,
        "mtCount": 1
    },
    {
        "name": "[Pure Media] Vol.152 Hansom 3/3",
        "src": "http://d.duotuwang.com/2022/01/09/30142/0.jpg",
        "mtId": "0863e388f319a3e1",
        "mtName": "PureMedia",
        "href": "http://d.duotuwang.com/2022/01/09/30142/",
        "count": 11,
        "start": 1,
        "hasMtTag": 1,
        "hasJgTag": 0,
        "mtCount": 6
    },
    {
        "name": "[Pure Media] Vol.152 Hansom 2/3",
        "src": "http://d.duotuwang.com/2022/01/09/30141/0.jpg",
        "mtId": "0863e388f319a3e1",
        "mtName": "PureMedia",
        "href": "http://d.duotuwang.com/2022/01/09/30141/",
        "count": 40,
        "start": 1,
        "hasMtTag": 1,
        "hasJgTag": 0,
        "mtCount": 6
    }
]