[
    {
        "name": "[Pure Media] Vol.152 Hansom 1/3",
        "src": "http://d.duotuwang.com/2022/01/09/30140/0.jpg",
        "mtId": "0863e388f319a3e1",
        "mtName": "PureMedia",
        "href": "http://d.duotuwang.com/2022/01/09/30140/",
        "count": 22,
        "start": 1,
        "hasMtTag": 1,
        "hasJgTag": 0,
        "mtCount": 6
    },
    {
        "name": "[LEEHEE EXPRESS] LERB-068B G.su",
        "src": "http://d.duotuwang.com/2022/02/09/30139/0.jpg",
        "mtId": "08c22bbfc341e414",
        "mtName": "LEEHEEEXPRESS",
        "href": "http://d.duotuwang.com/2022/02/09/30139/",
        "count": 50,
        "start": 1,
        "hasMtTag": 1,
        "hasJgTag": 0,
        "mtCount": 12
    },
    {
        "name": "[LEEHEE EXPRESS] LERB-068A G.su",
        "src": "http://d.duotuwang.com/2022/02/09/30138/0.jpg",
        "mtId": "08c22bbfc341e414",
        "mtName": "LEEHEEEXPRESS",
        "href": "http://d.duotuwang.com/2022/02/09/30138/",
        "count": 49,
        "start": 1,
        "hasMtTag": 1,
        "hasJgTag": 0,
        "mtCount": 12
    },
    {
        "name": "[JOApictures] Sia x JOA 20. DECEMBER Vol.4",
        "src": "http://d.duotuwang.com/2021/06/09/30137/0.jpg",
        "mtId": "9146e67d41cee5a6",
        "mtName": "JOApictures",
        "href": "http://d.duotuwang.com/2021/06/09/30137/",
        "count": 51,
        "start": 1,
        "hasMtTag": 1,
        "hasJgTag": 0,
        "mtCount": 2
    },
    {
        "name": "[DJAWA Photo] Zia - Azure Horizons + S.Ver",
        "src": "http://d.duotuwang.com/2021/06/09/30136/0.jpg",
        "mtId": "eea797bd4f94853d",
        "mtName": "DJAWAPhoto",
        "href": "http://d.duotuwang.com/2021/06/09/30136/",
        "count": 54,
        "start": 1,
        "hasMtTag": 1,
        "hasJgTag": 0,
        "mtCount": 40
    },
    {
        "name": "[DJAWA Photo] Maruemon  & Mimmi  - Maid Mansion 2/2",
        "src": "http://d.duotuwang.com/2021/06/09/30135/0.jpg",
        "mtId": "eea797bd4f94853d",
        "mtName": "DJAWAPhoto",
        "href": "http://d.duotuwang.com/2021/06/09/30135/",
        "count": 53,
        "start": 67,
        "hasMtTag": 1,
        "hasJgTag": 0,
        "mtCount": 40
    }
]