[
    {
        "name": "[SaintPhotoLife] Yuna - Vol.17 black",
        "src": "http://d.duotuwang.com/2020/06/02/30004/0.jpg",
        "mtId": "338cf684b6927d79",
        "mtName": "SaintPhotoLife",
        "href": "http://d.duotuwang.com/2020/06/02/30004/",
        "count": 59,
        "start": 1,
        "hasMtTag": 1,
        "hasJgTag": 0,
        "mtCount": 7
    },
    {
        "name": "[X-MODEL] Nnian \u2013 Bibs",
        "src": "http://d.duotuwang.com/2021/06/02/30003/0.jpg",
        "mtId": "e930b3d6935b7d90",
        "mtName": "X-MODEL",
        "href": "http://d.duotuwang.com/2021/06/02/30003/",
        "count": 24,
        "start": 1,
        "hasMtTag": 1,
        "hasJgTag": 0,
        "mtCount": 1
    },
    {
        "name": "[SaintPhotoLife] Yuna - Vol.1 Bloom",
        "src": "http://d.duotuwang.com/2019/11/02/30002/0.jpg",
        "mtId": "338cf684b6927d79",
        "mtName": "SaintPhotoLife",
        "href": "http://d.duotuwang.com/2019/11/02/30002/",
        "count": 51,
        "start": 1,
        "hasMtTag": 1,
        "hasJgTag": 0,
        "mtCount": 7
    },
    {
        "name": "[SaintPhotoLife] Koby - Vol.1 At home",
        "src": "http://d.duotuwang.com/2020/09/02/30001/0.jpg",
        "mtId": "338cf684b6927d79",
        "mtName": "SaintPhotolife",
        "href": "http://d.duotuwang.com/2020/09/02/30001/",
        "count": 63,
        "start": 1,
        "hasMtTag": 1,
        "hasJgTag": 0,
        "mtCount": 7
    },
    {
        "name": "[SaintPhotoLife] Hanari Vol.1",
        "src": "http://d.duotuwang.com/2021/09/15/30000/0.jpg",
        "mtId": "338cf684b6927d79",
        "mtName": "SaintPhotoLife",
        "href": "http://d.duotuwang.com/2021/09/15/30000/",
        "count": 52,
        "start": 1,
        "hasMtTag": 1,
        "hasJgTag": 0,
        "mtCount": 7
    },
    {
        "name": "[Pure Media] Vol.151 Uhye",
        "src": "http://d.duotuwang.com/2021/12/11/29999/0.jpg",
        "mtId": "0863e388f319a3e1",
        "mtName": "PureMedia",
        "href": "http://d.duotuwang.com/2021/12/11/29999/",
        "count": 74,
        "start": 1,
        "hasMtTag": 1,
        "hasJgTag": 0,
        "mtCount": 6
    }
]