[
    {
        "name": "[Pure Media] Vol.06 Sia",
        "src": "http://d.duotuwang.com/2020/01/26/29881/0.jpg",
        "mtId": "0863e388f319a3e1",
        "mtName": "PureMedia",
        "href": "http://d.duotuwang.com/2020/01/26/29881/",
        "count": 65,
        "start": 1,
        "hasMtTag": 1,
        "hasJgTag": 0,
        "mtCount": 6
    },
    {
        "name": "[DJAWA Photo] Bambi - Asuna Undercover Mission - WT 2/2",
        "src": "http://d.duotuwang.com/2021/05/26/29879/0.jpg",
        "mtId": "eea797bd4f94853d",
        "mtName": "DJAWAPhoto",
        "href": "http://d.duotuwang.com/2021/05/26/29879/",
        "count": 44,
        "start": 1,
        "hasMtTag": 1,
        "hasJgTag": 0,
        "mtCount": 40
    },
    {
        "name": "[DJAWA Photo] Bambi - Asuna Undercover Mission - WT 1/2",
        "src": "http://d.duotuwang.com/2021/05/26/29878/0.jpg",
        "mtId": "eea797bd4f94853d",
        "mtName": "DJAWAPhoto",
        "href": "http://d.duotuwang.com/2021/05/26/29878/",
        "count": 51,
        "start": 1,
        "hasMtTag": 1,
        "hasJgTag": 0,
        "mtCount": 40
    },
    {
        "name": "[DJAWA Photo] HaNari - Pink Succubus 1/2",
        "src": "http://d.duotuwang.com/2021/05/26/29877/0.jpg",
        "mtId": "eea797bd4f94853d",
        "mtName": "DJAWAPhoto",
        "href": "http://d.duotuwang.com/2021/05/26/29877/",
        "count": 61,
        "start": 1,
        "hasMtTag": 1,
        "hasJgTag": 0,
        "mtCount": 40
    },
    {
        "name": "[BlueCake] Bambi & Son Ye-Eun - PLAY GAME",
        "src": "http://d.duotuwang.com/2021/05/06/29876/0.jpg",
        "mtId": "3db357fa0fdfaf2c",
        "mtName": "BlueCake",
        "href": "http://d.duotuwang.com/2021/05/06/29876/",
        "count": 44,
        "start": 1,
        "hasMtTag": 1,
        "hasJgTag": 0,
        "mtCount": 4
    },
    {
        "name": "[LEEHEE EXPRESS] LEHF-094A Zia",
        "src": "http://d.duotuwang.com/2022/02/26/29875/0.jpg",
        "mtId": "08c22bbfc341e414",
        "mtName": "LEEHEEEXPRESS",
        "href": "http://d.duotuwang.com/2022/02/26/29875/",
        "count": 69,
        "start": 1,
        "hasMtTag": 1,
        "hasJgTag": 0,
        "mtCount": 12
    }
]