[
    {
        "name": "[DJAWA Photo] Echi - Maid Mansion",
        "src": "http://d.duotuwang.com/2021/04/22/29449/0.jpg",
        "mtId": "eea797bd4f94853d",
        "mtName": "DJAWAPhoto",
        "href": "http://d.duotuwang.com/2021/04/22/29449/",
        "count": 62,
        "start": 1,
        "hasMtTag": 1,
        "hasJgTag": 0,
        "mtCount": 40
    },
    {
        "name": "[CreamSoda] MoMo - MoMo Vol.2",
        "src": "http://d.duotuwang.com/2022/03/12/29448/0.jpg",
        "mtId": "6d00982b61055fdd",
        "mtName": "CreamSoda",
        "href": "http://d.duotuwang.com/2022/03/12/29448/",
        "count": 68,
        "start": 1,
        "hasMtTag": 1,
        "hasJgTag": 0,
        "mtCount": 7
    },
    {
        "name": "[LEEHEE EXPRESS] LEDG-070 - J.A",
        "src": "http://d.duotuwang.com/2021/03/01/29447/0.jpg",
        "mtId": "08c22bbfc341e414",
        "mtName": "LEEHEEEXPRESS",
        "href": "http://d.duotuwang.com/2021/03/01/29447/",
        "count": 53,
        "start": 1,
        "hasMtTag": 1,
        "hasJgTag": 0,
        "mtCount": 12
    },
    {
        "name": "[DJAWA Photo] Zzyuri - Alluring White",
        "src": "http://d.duotuwang.com/2019/12/12/29413/0.jpg",
        "mtId": "eea797bd4f94853d",
        "mtName": "DJAWAPhoto",
        "href": "http://d.duotuwang.com/2019/12/12/29413/",
        "count": 43,
        "start": 1,
        "hasMtTag": 1,
        "hasJgTag": 0,
        "mtCount": 40
    },
    {
        "name": "[DJAWA Photo] Zia - [LoL] Ahri The Baddest 2/2",
        "src": "http://d.duotuwang.com/2021/07/31/29412/0.jpg",
        "mtId": "eea797bd4f94853d",
        "mtName": "DJAWAPhoto",
        "href": "http://d.duotuwang.com/2021/07/31/29412/",
        "count": 59,
        "start": 1,
        "hasMtTag": 1,
        "hasJgTag": 0,
        "mtCount": 40
    },
    {
        "name": "[DJAWA Photo] Zia - [LoL] Ahri The Baddest 1/2",
        "src": "http://d.duotuwang.com/2021/07/31/29411/0.jpg",
        "mtId": "eea797bd4f94853d",
        "mtName": "DJAWAPhoto",
        "href": "http://d.duotuwang.com/2021/07/31/29411/",
        "count": 59,
        "start": 1,
        "hasMtTag": 1,
        "hasJgTag": 0,
        "mtCount": 40
    }
]