[
    {
        "name": "[Loozy] Son Ye-Eun - Maximum Vol.1",
        "src": "http://d.duotuwang.com/2021/03/24/29086/0.jpg",
        "mtId": "da8d53c966448852",
        "mtName": "Loozy",
        "href": "http://d.duotuwang.com/2021/03/24/29086/",
        "count": 59,
        "start": 1,
        "hasMtTag": 1,
        "hasJgTag": 0,
        "mtCount": 3
    },
    {
        "name": "[SaintPhotoLife] Myu_a Vol.10 2/2",
        "src": "http://d.duotuwang.com/2020/12/04/29085/0.jpg",
        "mtId": "338cf684b6927d79",
        "mtName": "SaintPhotoLife",
        "href": "http://d.duotuwang.com/2020/12/04/29085/",
        "count": 30,
        "start": 1,
        "hasMtTag": 1,
        "hasJgTag": 0,
        "mtCount": 7
    },
    {
        "name": "[SaintPhotoLife] Myu_a Vol.10 1/2",
        "src": "http://d.duotuwang.com/2020/12/04/29084/0.jpg",
        "mtId": "338cf684b6927d79",
        "mtName": "SaintPhotoLife",
        "href": "http://d.duotuwang.com/2020/12/04/29084/",
        "count": 30,
        "start": 1,
        "hasMtTag": 1,
        "hasJgTag": 0,
        "mtCount": 7
    },
    {
        "name": "[LEEHEE EXPRESS] LEDG-057A G.su",
        "src": "http://d.duotuwang.com/2021/02/04/29083/0.jpg",
        "mtId": "08c22bbfc341e414",
        "mtName": "LEEHEEEXPRESS",
        "href": "http://d.duotuwang.com/2021/02/04/29083/",
        "count": 42,
        "start": 1,
        "hasMtTag": 1,
        "hasJgTag": 0,
        "mtCount": 12
    },
    {
        "name": "[LEEHEE EXPRESS] LEDG-007 Merry",
        "src": "http://d.duotuwang.com/2019/03/24/29082/0.jpg",
        "mtId": "08c22bbfc341e414",
        "mtName": "LEEHEEEXPRESS",
        "href": "http://d.duotuwang.com/2019/03/24/29082/",
        "count": 45,
        "start": 1,
        "hasMtTag": 1,
        "hasJgTag": 0,
        "mtCount": 12
    },
    {
        "name": "[DJAWA Photo] Zia - Swimming Lessons",
        "src": "http://d.duotuwang.com/2021/03/24/29081/0.jpg",
        "mtId": "eea797bd4f94853d",
        "mtName": "DJAWAPhoto",
        "href": "http://d.duotuwang.com/2021/03/24/29081/",
        "count": 48,
        "start": 1,
        "hasMtTag": 1,
        "hasJgTag": 0,
        "mtCount": 40
    }
]