[
    {
        "name": "[DJAWA Photo] Pia - Leather Black Schoolgirl 2/2",
        "src": "http://d.duotuwang.com/2020/12/02/27527/0.jpg",
        "mtId": "eea797bd4f94853d",
        "mtName": "DJAWAPhoto",
        "href": "http://d.duotuwang.com/2020/12/02/27527/",
        "count": 50,
        "start": 1,
        "hasMtTag": 1,
        "hasJgTag": 0,
        "mtCount": 40
    },
    {
        "name": "[DJAWA Photo] Pia - Leather Black Schoolgirl 1/2",
        "src": "http://d.duotuwang.com/2020/12/02/27526/0.jpg",
        "mtId": "eea797bd4f94853d",
        "mtName": "DJAWAPhoto",
        "href": "http://d.duotuwang.com/2020/12/02/27526/",
        "count": 51,
        "start": 1,
        "hasMtTag": 1,
        "hasJgTag": 0,
        "mtCount": 40
    },
    {
        "name": "[Loozy] Bomi - The Undress",
        "src": "http://d.duotuwang.com/2019/12/02/27525/0.jpg",
        "mtId": "da8d53c966448852",
        "mtName": "Loozy",
        "href": "http://d.duotuwang.com/2019/12/02/27525/",
        "count": 69,
        "start": 1,
        "hasMtTag": 1,
        "hasJgTag": 0,
        "mtCount": 3
    },
    {
        "name": "[CreamSoda] Zia - White Cat",
        "src": "http://d.duotuwang.com/2019/12/02/27524/0.jpg",
        "mtId": "6d00982b61055fdd",
        "mtName": "CreamSoda",
        "href": "http://d.duotuwang.com/2019/12/02/27524/",
        "count": 77,
        "start": 1,
        "hasMtTag": 1,
        "hasJgTag": 0,
        "mtCount": 7
    },
    {
        "name": "[CreamSoda] Nari - Afternoon Sunshine",
        "src": "http://d.duotuwang.com/2019/09/04/27523/0.jpg",
        "mtId": "6d00982b61055fdd",
        "mtName": "CreamSoda",
        "href": "http://d.duotuwang.com/2019/09/04/27523/",
        "count": 84,
        "start": 1,
        "hasMtTag": 1,
        "hasJgTag": 0,
        "mtCount": 7
    },
    {
        "name": "[CreamSoda] Mimmi \u2013 Belt choker",
        "src": "http://d.duotuwang.com/2019/09/26/27522/0.jpg",
        "mtId": "6d00982b61055fdd",
        "mtName": "CreamSoda",
        "href": "http://d.duotuwang.com/2019/09/26/27522/",
        "count": 48,
        "start": 1,
        "hasMtTag": 1,
        "hasJgTag": 0,
        "mtCount": 7
    }
]