[
    {
        "name": "[DJAWA Photo] Jang Joo - Shuten Douji Maid 1/2",
        "src": "http://d.duotuwang.com/2020/03/08/27396/0.jpg",
        "mtId": "eea797bd4f94853d",
        "mtName": "DJAWAPhoto",
        "href": "http://d.duotuwang.com/2020/03/08/27396/",
        "count": 35,
        "start": 1,
        "hasMtTag": 1,
        "hasJgTag": 0,
        "mtCount": 40
    },
    {
        "name": "[DJAWA Photo] Bambi - Tifa Lockhart",
        "src": "http://d.duotuwang.com/2021/01/25/27395/0.jpg",
        "mtId": "eea797bd4f94853d",
        "mtName": "DJAWAPhoto",
        "href": "http://d.duotuwang.com/2021/01/25/27395/",
        "count": 50,
        "start": 1,
        "hasMtTag": 1,
        "hasJgTag": 0,
        "mtCount": 40
    },
    {
        "name": "[DJAWA Photo] Bambi - Nightcrawler",
        "src": "http://d.duotuwang.com/2021/03/06/27394/0.jpg",
        "mtId": "eea797bd4f94853d",
        "mtName": "DJAWAPhoto",
        "href": "http://d.duotuwang.com/2021/03/06/27394/",
        "count": 100,
        "start": 1,
        "hasMtTag": 1,
        "hasJgTag": 0,
        "mtCount": 40
    },
    {
        "name": "[DJAWA Photo] Bambi - Fancy Me",
        "src": "http://d.duotuwang.com/2020/11/25/27393/0.jpg",
        "mtId": "eea797bd4f94853d",
        "mtName": "DJAWAPhoto",
        "href": "http://d.duotuwang.com/2020/11/25/27393/",
        "count": 95,
        "start": 1,
        "hasMtTag": 1,
        "hasJgTag": 0,
        "mtCount": 40
    },
    {
        "name": "[Pure Media] Vol.51 Ayul",
        "src": "http://d.duotuwang.com/2021/01/01/27392/0.jpg",
        "mtId": "0863e388f319a3e1",
        "mtName": "PureMedia",
        "href": "http://d.duotuwang.com/2021/01/01/27392/",
        "count": 71,
        "start": 1,
        "hasMtTag": 1,
        "hasJgTag": 0,
        "mtCount": 6
    },
    {
        "name": "[Loozy] Son Ye-Eun - Summer Caravan",
        "src": "http://d.duotuwang.com/2020/11/25/27391/0.jpg",
        "mtId": "da8d53c966448852",
        "mtName": "Loozy",
        "href": "http://d.duotuwang.com/2020/11/25/27391/",
        "count": 66,
        "start": 1,
        "hasMtTag": 1,
        "hasJgTag": 0,
        "mtCount": 3
    }
]