[
    {
        "name": "[BlueCake] Son Ye-Eun - Pink Oni",
        "src": "http://d.duotuwang.com/2021/05/09/27384/0.jpg",
        "mtId": "3db357fa0fdfaf2c",
        "mtName": "BlueCake",
        "href": "http://d.duotuwang.com/2021/05/09/27384/",
        "count": 98,
        "start": 1,
        "hasMtTag": 1,
        "hasJgTag": 0,
        "mtCount": 4
    },
    {
        "name": "[BlueCake] Jeong Jenny - White 4/4",
        "src": "http://d.duotuwang.com/2020/08/09/27383/0.jpg",
        "mtId": "3db357fa0fdfaf2c",
        "mtName": "BlueCake",
        "href": "http://d.duotuwang.com/2020/08/09/27383/",
        "count": 24,
        "start": 1,
        "hasMtTag": 1,
        "hasJgTag": 0,
        "mtCount": 4
    },
    {
        "name": "[BlueCake] Jeong Jenny - White 3/4",
        "src": "http://d.duotuwang.com/2020/08/09/27382/0.jpg",
        "mtId": "3db357fa0fdfaf2c",
        "mtName": "BlueCake",
        "href": "http://d.duotuwang.com/2020/08/09/27382/",
        "count": 25,
        "start": 1,
        "hasMtTag": 1,
        "hasJgTag": 0,
        "mtCount": 4
    },
    {
        "name": "[BlueCake] Jeong Jenny - White 2/4",
        "src": "http://d.duotuwang.com/2020/08/09/27381/0.jpg",
        "mtId": "3db357fa0fdfaf2c",
        "mtName": "BlueCake",
        "href": "http://d.duotuwang.com/2020/08/09/27381/",
        "count": 24,
        "start": 1,
        "hasMtTag": 1,
        "hasJgTag": 0,
        "mtCount": 4
    },
    {
        "name": "[BlueCake] Jeong Jenny - White 1/4",
        "src": "http://d.duotuwang.com/2020/08/09/27380/0.jpg",
        "mtId": "3db357fa0fdfaf2c",
        "mtName": "BlueCake",
        "href": "http://d.duotuwang.com/2020/08/09/27380/",
        "count": 25,
        "start": 1,
        "hasMtTag": 1,
        "hasJgTag": 0,
        "mtCount": 4
    },
    {
        "name": "[BlueCake] Jamong - Happy Jamong Day",
        "src": "http://d.duotuwang.com/2021/01/22/27379/0.jpg",
        "mtId": "3db357fa0fdfaf2c",
        "mtName": "BlueCake",
        "href": "http://d.duotuwang.com/2021/01/22/27379/",
        "count": 60,
        "start": 1,
        "hasMtTag": 1,
        "hasJgTag": 0,
        "mtCount": 4
    }
]