[
    {
        "name": "[DJAWA Photo] Son Ye-Eun - Bikini Vacation #1 2/3",
        "src": "http://d.duotuwang.com/2021/06/10/27355/0.jpg",
        "mtId": "eea797bd4f94853d",
        "mtName": "DJAWAPhoto",
        "href": "http://d.duotuwang.com/2021/06/10/27355/",
        "count": 28,
        "start": 43,
        "hasMtTag": 1,
        "hasJgTag": 0,
        "mtCount": 40
    },
    {
        "name": "[DJAWA Photo] Son Ye-Eun - Bikini Vacation #1 1/3",
        "src": "http://d.duotuwang.com/2021/06/10/27354/0.jpg",
        "mtId": "eea797bd4f94853d",
        "mtName": "DJAWAPhoto",
        "href": "http://d.duotuwang.com/2021/06/10/27354/",
        "count": 42,
        "start": 1,
        "hasMtTag": 1,
        "hasJgTag": 0,
        "mtCount": 40
    },
    {
        "name": "[DJAWA Photo] Pia - Staycation 2 2/3",
        "src": "http://d.duotuwang.com/2020/09/01/27353/0.jpg",
        "mtId": "eea797bd4f94853d",
        "mtName": "DJAWAPhoto",
        "href": "http://d.duotuwang.com/2020/09/01/27353/",
        "count": 35,
        "start": 1,
        "hasMtTag": 1,
        "hasJgTag": 0,
        "mtCount": 40
    },
    {
        "name": "[DJAWA Photo] Pia - Staycation 2 1/3",
        "src": "http://d.duotuwang.com/2020/09/01/27352/0.jpg",
        "mtId": "eea797bd4f94853d",
        "mtName": "DJAWAPhoto",
        "href": "http://d.duotuwang.com/2020/09/01/27352/",
        "count": 33,
        "start": 1,
        "hasMtTag": 1,
        "hasJgTag": 0,
        "mtCount": 40
    },
    {
        "name": "[DJAWA Photo] Pia - Staycation 2/2",
        "src": "http://d.duotuwang.com/2020/04/01/27351/0.jpg",
        "mtId": "eea797bd4f94853d",
        "mtName": "DJAWAPhoto",
        "href": "http://d.duotuwang.com/2020/04/01/27351/",
        "count": 31,
        "start": 1,
        "hasMtTag": 1,
        "hasJgTag": 0,
        "mtCount": 40
    },
    {
        "name": "[DJAWA Photo] Pia - Staycation 1/2",
        "src": "http://d.duotuwang.com/2020/04/01/27350/0.jpg",
        "mtId": "eea797bd4f94853d",
        "mtName": "DJAWAPhoto",
        "href": "http://d.duotuwang.com/2020/04/01/27350/",
        "count": 37,
        "start": 1,
        "hasMtTag": 1,
        "hasJgTag": 0,
        "mtCount": 40
    }
]