[
    {
        "fileName": "7228f0898fbc11ec8c47f83441e5a109",
        "name": "\u7b2c260\u96c6|\u6597\u9c7c-\u70e6\u70e6by",
        "width": "540",
        "height": "960"
    },
    {
        "fileName": "7228f08a8fbc11eca33cf83441e5a109",
        "name": "\u7b2c261\u96c6|\u6597\u9c7c-Minana\u5440",
        "width": "540",
        "height": "960"
    },
    {
        "fileName": "7228f08b8fbc11ec99b6f83441e5a109",
        "name": "\u7b2c262\u96c6|cc-\u767d\u5996\u5996",
        "width": "540",
        "height": "960"
    },
    {
        "fileName": "7228f08c8fbc11ecac82f83441e5a109",
        "name": "\u7b2c263\u96c6|\u864e\u7259-\u534e\u8000\u5b66\u59d0",
        "width": "540",
        "height": "960"
    },
    {
        "fileName": "7228f08d8fbc11ecb895f83441e5a109",
        "name": "\u7b2c264\u96c6|\u6597\u9c7c-Minana\u5440",
        "width": "540",
        "height": "960"
    },
    {
        "fileName": "7228f08e8fbc11ecb23af83441e5a109",
        "name": "\u7b2c265\u96c6|cc-\u4e54\u5df4\u97f3",
        "width": "540",
        "height": "960"
    },
    {
        "fileName": "7228f08f8fbc11ecbd13f83441e5a109",
        "name": "\u7b2c266\u96c6|\u864e\u7259-\u725b\u5c0f\u8611\u83c7",
        "width": "540",
        "height": "960"
    },
    {
        "fileName": "7228f0908fbc11ec9a4ef83441e5a109",
        "name": "\u7b2c267\u96c6|\u864e\u7259-\u534e\u8000\u5b66\u59d0",
        "width": "540",
        "height": "960"
    },
    {
        "fileName": "7228f0918fbc11ec896af83441e5a109",
        "name": "\u7b2c268\u96c6|\u6597\u9c7c-Minana\u5440",
        "width": "540",
        "height": "960"
    },
    {
        "fileName": "7228f0928fbc11eca7ddf83441e5a109",
        "name": "\u7b2c269\u96c6|\u864e\u7259-\u534e\u8000\u5b66\u59d0",
        "width": "540",
        "height": "960"
    },
    {
        "fileName": "7228f0938fbc11ec8d91f83441e5a109",
        "name": "\u7b2c270\u96c6|\u864e\u7259-\u534e\u8000\u5b66\u59d0",
        "width": "540",
        "height": "960"
    },
    {
        "fileName": "7228f0948fbc11ec9db5f83441e5a109",
        "name": "\u7b2c271\u96c6|\u6597\u9c7c-\u70e6\u70e6by",
        "width": "540",
        "height": "960"
    },
    {
        "fileName": "7228f0958fbc11ec95d3f83441e5a109",
        "name": "\u7b2c272\u96c6|\u6597\u9c7c-Minana\u5440",
        "width": "540",
        "height": "960"
    },
    {
        "fileName": "7228f0968fbc11ec9bdbf83441e5a109",
        "name": "\u7b2c273\u96c6|\u6597\u9c7c-\u6e29\u67e0",
        "width": "540",
        "height": "960"
    },
    {
        "fileName": "7228f0978fbc11eca31af83441e5a109",
        "name": "\u7b2c274\u96c6|\u864e\u7259-\u534e\u8000\u5b66\u59d0",
        "width": "540",
        "height": "960"
    },
    {
        "fileName": "7228f0988fbc11ecbebcf83441e5a109",
        "name": "\u7b2c275\u96c6|\u864e\u7259-RDVIKI",
        "width": "540",
        "height": "960"
    },
    {
        "fileName": "7228f0998fbc11ec8728f83441e5a109",
        "name": "\u7b2c276\u96c6|\u6597\u9c7c-\u738b\u96e8\u6aac\u5440",
        "width": "540",
        "height": "960"
    },
    {
        "fileName": "7228f09a8fbc11ec8ddbf83441e5a109",
        "name": "\u7b2c277\u96c6|cc-\u4e54\u5df4\u97f3",
        "width": "540",
        "height": "960"
    },
    {
        "fileName": "7228f09b8fbc11ec863af83441e5a109",
        "name": "\u7b2c278\u96c6|\u864e\u7259-\u534e\u8000\u5b66\u59d0",
        "width": "540",
        "height": "960"
    },
    {
        "fileName": "7228f09c8fbc11ec939cf83441e5a109",
        "name": "\u7b2c279\u96c6|cc-\u4e54\u5df4\u97f3",
        "width": "540",
        "height": "960"
    }
]