[
    {
        "fileName": "7d6bfc378fbc11ec8c63f83441e5a109",
        "name": "\u7b2c420\u96c6|\u6597\u9c7c-\u5357\u59b9\u513f\u5440",
        "width": "540",
        "height": "960"
    },
    {
        "fileName": "7d6bfc388fbc11ecb9b8f83441e5a109",
        "name": "\u7b2c421\u96c6|\u6597\u9c7c-Minana\u5440",
        "width": "540",
        "height": "960"
    },
    {
        "fileName": "7d6bfc398fbc11eca1d6f83441e5a109",
        "name": "\u7b2c422\u96c6|cc-\u767d\u5996\u5996",
        "width": "540",
        "height": "960"
    },
    {
        "fileName": "7d6bfc3a8fbc11ecb837f83441e5a109",
        "name": "\u7b2c423\u96c6|\u864e\u7259-\u725b\u5c0f\u8611\u83c7",
        "width": "540",
        "height": "960"
    },
    {
        "fileName": "7d6bfc3b8fbc11ec994df83441e5a109",
        "name": "\u7b2c424\u96c6|\u6597\u9c7c-\u4f18\u96c5\u9171",
        "width": "540",
        "height": "960"
    },
    {
        "fileName": "7d6bfc3c8fbc11ec806cf83441e5a109",
        "name": "\u7b2c425\u96c6|\u6597\u9c7c-\u4e00\u53ea\u5c0f\u6708\u4eae\u9738\u9738",
        "width": "540",
        "height": "960"
    },
    {
        "fileName": "7d6bfc3d8fbc11ecb8b2f83441e5a109",
        "name": "\u7b2c426\u96c6|\u6597\u9c7c-pig\u5c0f\u77ed\u77ed",
        "width": "540",
        "height": "960"
    },
    {
        "fileName": "7d6bfc3e8fbc11ec9353f83441e5a109",
        "name": "\u7b2c427\u96c6|\u6597\u9c7c-Minana\u5440",
        "width": "540",
        "height": "960"
    },
    {
        "fileName": "7d6bfc3f8fbc11ec96d4f83441e5a109",
        "name": "\u7b2c428\u96c6|\u864e\u7259-\u590f\u4e00\u6674",
        "width": "540",
        "height": "960"
    },
    {
        "fileName": "7d6bfc408fbc11ecbfacf83441e5a109",
        "name": "\u7b2c429\u96c6|\u864e\u7259-\u725b\u5c0f\u8611\u83c7",
        "width": "540",
        "height": "960"
    },
    {
        "fileName": "7d6bfc418fbc11ec8c9ef83441e5a109",
        "name": "\u7b2c430\u96c6|\u6597\u9c7c-\u4e00\u53ea\u5c0f\u6708\u4eae\u9738\u9738",
        "width": "540",
        "height": "960"
    },
    {
        "fileName": "7d6bfc428fbc11eca669f83441e5a109",
        "name": "\u7b2c431\u96c6|\u6597\u9c7c-\u5c0f\u827a\u4e0d\u559d\u9152",
        "width": "540",
        "height": "960"
    },
    {
        "fileName": "7d6bfc438fbc11ec8067f83441e5a109",
        "name": "\u7b2c432\u96c6|\u6597\u9c7c-\u4e03\u54e5\u5f20\u742a\u683c",
        "width": "540",
        "height": "960"
    },
    {
        "fileName": "7d6bfc448fbc11ec8653f83441e5a109",
        "name": "\u7b2c433\u96c6|\u6597\u9c7c-Chance\u55b5",
        "width": "540",
        "height": "960"
    },
    {
        "fileName": "7d6bfc458fbc11ecabc7f83441e5a109",
        "name": "\u7b2c434\u96c6|\u864e\u7259-\u5b50\u6069",
        "width": "540",
        "height": "960"
    },
    {
        "fileName": "7d6bfc468fbc11ec8ebef83441e5a109",
        "name": "\u7b2c435\u96c6|\u864e\u7259-\u76db\u9e3d\u5c0f6",
        "width": "540",
        "height": "960"
    },
    {
        "fileName": "7d6bfc478fbc11eca7bbf83441e5a109",
        "name": "\u7b2c436\u96c6|\u864e\u7259-\u5168\u7d20\u598down",
        "width": "540",
        "height": "960"
    },
    {
        "fileName": "7d6bfc488fbc11ec86d5f83441e5a109",
        "name": "\u7b2c437\u96c6|\u6597\u9c7c-\u5c0f\u827a\u4e0d\u559d\u9152",
        "width": "540",
        "height": "960"
    },
    {
        "fileName": "7d6bfc498fbc11ecb5f9f83441e5a109",
        "name": "\u7b2c438\u96c6|cc-\u4e54\u5df4\u97f3",
        "width": "540",
        "height": "960"
    },
    {
        "fileName": "7d6bfc4a8fbc11ecbf02f83441e5a109",
        "name": "\u7b2c439\u96c6|\u864e\u7259-\u75e3\u94c3-\u6709\u9c7cer",
        "width": "540",
        "height": "960"
    }
]