[
    {
        "fileName": "64c8705f8fbc11ecaceef83441e5a109",
        "name": "\u7b2c80\u96c6|\u6597\u9c7c-\u4e00\u6e141",
        "width": "540",
        "height": "960"
    },
    {
        "fileName": "64c870608fbc11eca720f83441e5a109",
        "name": "\u7b2c81\u96c6|\u6597\u9c7c-\u4e00\u6e141",
        "width": "540",
        "height": "960"
    },
    {
        "fileName": "64c870618fbc11eca53ef83441e5a109",
        "name": "\u7b2c82\u96c6|\u864e\u7259-\u5e1d\u513f",
        "width": "540",
        "height": "960"
    },
    {
        "fileName": "64c870628fbc11ec99abf83441e5a109",
        "name": "\u7b2c83\u96c6|\u864e\u7259-\u6caa\u5a31\u674e\u516d\u516d",
        "width": "540",
        "height": "960"
    },
    {
        "fileName": "64c870638fbc11ec9031f83441e5a109",
        "name": "\u7b2c84\u96c6|\u864e\u7259-\u6caa\u5a31\u5c0f\u9152",
        "width": "540",
        "height": "960"
    },
    {
        "fileName": "64c870648fbc11ecadacf83441e5a109",
        "name": "\u7b2c85\u96c6|\u864e\u7259-RD\u6e05\u598d",
        "width": "540",
        "height": "960"
    },
    {
        "fileName": "64c870658fbc11ecae4af83441e5a109",
        "name": "\u7b2c86\u96c6|\u864e\u7259-\u5927\u9c7c\u91d1\u7c73\u7c73",
        "width": "540",
        "height": "960"
    },
    {
        "fileName": "64c96e7f8fbc11ecb6acf83441e5a109",
        "name": "\u7b2c87\u96c6|\u864e\u7259-\u5e1d\u513f",
        "width": "540",
        "height": "960"
    },
    {
        "fileName": "64c96e808fbc11ec8ff1f83441e5a109",
        "name": "\u7b2c88\u96c6|\u864e\u7259-\u5976\u6cb9\u7c73yo",
        "width": "540",
        "height": "960"
    },
    {
        "fileName": "64c96e818fbc11eca159f83441e5a109",
        "name": "\u7b2c89\u96c6|\u864e\u7259-\u5976\u6cb9\u7c73yo",
        "width": "540",
        "height": "960"
    },
    {
        "fileName": "64c96e828fbc11eca6eaf83441e5a109",
        "name": "\u7b2c90\u96c6|\u864e\u7259-\u6674\u5c0f\u5154\u5462",
        "width": "540",
        "height": "960"
    },
    {
        "fileName": "64c96e838fbc11ec8f26f83441e5a109",
        "name": "\u7b2c91\u96c6|\u864e\u7259-\u6674\u5c0f\u5154\u5462",
        "width": "540",
        "height": "960"
    },
    {
        "fileName": "64c96e848fbc11ec9468f83441e5a109",
        "name": "\u7b2c92\u96c6|\u864e\u7259-\u6843\u4e00",
        "width": "540",
        "height": "960"
    },
    {
        "fileName": "64c96e858fbc11ecb197f83441e5a109",
        "name": "\u7b2c93\u96c6|\u864e\u7259-\u6843\u4e00",
        "width": "540",
        "height": "960"
    },
    {
        "fileName": "64c96e868fbc11ec835af83441e5a109",
        "name": "\u7b2c94\u96c6|\u864e\u7259-\u897f\u5b50baby",
        "width": "540",
        "height": "960"
    },
    {
        "fileName": "64c96e878fbc11ec9416f83441e5a109",
        "name": "\u7b2c95\u96c6|\u6597\u9c7c-ella\u4ea6\u4ea6",
        "width": "852",
        "height": "480"
    },
    {
        "fileName": "64c96e888fbc11ecb550f83441e5a109",
        "name": "\u7b2c96\u96c6|\u6597\u9c7c-ella\u4ea6\u4ea6",
        "width": "852",
        "height": "480"
    },
    {
        "fileName": "64c96e898fbc11ecabd3f83441e5a109",
        "name": "\u7b2c97\u96c6|\u6597\u9c7c-\u5c0f\u6155\u6797",
        "width": "852",
        "height": "480"
    },
    {
        "fileName": "64c96e8a8fbc11ecb4c3f83441e5a109",
        "name": "\u7b2c98\u96c6|\u6597\u9c7c-\u4e00\u53ea\u5c0f\u6708\u4eae\u9738\u9738",
        "width": "852",
        "height": "480"
    },
    {
        "fileName": "64c96e8b8fbc11ecae91f83441e5a109",
        "name": "\u7b2c99\u96c6|\u6597\u9c7c-\u4e00\u53ea\u5c0f\u6708\u4eae\u9738\u9738",
        "width": "852",
        "height": "480"
    }
]