[
    {
        "fileName": "69238fe38fbc11ecb33ff83441e5a109",
        "name": "\u7b2c140\u96c6|\u864e\u7259-\u5947\u9886\u8499\u8499",
        "width": "540",
        "height": "960"
    },
    {
        "fileName": "69238fe48fbc11ec9936f83441e5a109",
        "name": "\u7b2c141\u96c6|\u864e\u7259-\u5947\u9886\u8499\u8499",
        "width": "540",
        "height": "960"
    },
    {
        "fileName": "69238fe58fbc11ecba71f83441e5a109",
        "name": "\u7b2c142\u96c6|\u864e\u7259-\u5947\u9886\u8499\u8499",
        "width": "540",
        "height": "960"
    },
    {
        "fileName": "69238fe68fbc11ec889af83441e5a109",
        "name": "\u7b2c143\u96c6|\u864e\u7259-\u5168\u7d20\u598down",
        "width": "540",
        "height": "960"
    },
    {
        "fileName": "69238fe78fbc11ec8ebaf83441e5a109",
        "name": "\u7b2c144\u96c6|cc-\u4e54\u5df4\u97f3",
        "width": "540",
        "height": "960"
    },
    {
        "fileName": "69238fe88fbc11ec88dbf83441e5a109",
        "name": "\u7b2c145\u96c6|\u864e\u7259-\u827a\u6b23er",
        "width": "540",
        "height": "960"
    },
    {
        "fileName": "69238fe98fbc11ecaab0f83441e5a109",
        "name": "\u7b2c146\u96c6|\u864e\u7259-\u8212\u82afD",
        "width": "540",
        "height": "960"
    },
    {
        "fileName": "69238fea8fbc11eca99ff83441e5a109",
        "name": "\u7b2c147\u96c6|\u6597\u9c7c-\u738b\u96e8\u6aac\u5440",
        "width": "540",
        "height": "960"
    },
    {
        "fileName": "69238feb8fbc11ec96f7f83441e5a109",
        "name": "\u7b2c148\u96c6|\u6597\u9c7c-\u738b\u96e8\u6aac\u5440",
        "width": "540",
        "height": "960"
    },
    {
        "fileName": "69238fec8fbc11ec8dccf83441e5a109",
        "name": "\u7b2c149\u96c6|cc-\u4e54\u5df4\u97f3",
        "width": "540",
        "height": "960"
    },
    {
        "fileName": "69238fed8fbc11ec8767f83441e5a109",
        "name": "\u7b2c150\u96c6|cc-\u4e54\u5df4\u97f3",
        "width": "540",
        "height": "960"
    },
    {
        "fileName": "69238fee8fbc11ec9b94f83441e5a109",
        "name": "\u7b2c151\u96c6|\u6597\u9c7c-Minana\u5440",
        "width": "540",
        "height": "960"
    },
    {
        "fileName": "69238fef8fbc11ec89f6f83441e5a109",
        "name": "\u7b2c152\u96c6|\u6597\u9c7c-Minana\u5440",
        "width": "540",
        "height": "960"
    },
    {
        "fileName": "69238ff08fbc11ec8ef5f83441e5a109",
        "name": "\u7b2c153\u96c6|\u6597\u9c7c-Minana\u5440",
        "width": "540",
        "height": "960"
    },
    {
        "fileName": "69238ff18fbc11ecad6af83441e5a109",
        "name": "\u7b2c154\u96c6|\u864e\u7259-\u534e\u8000\u5b66\u59d0",
        "width": "540",
        "height": "960"
    },
    {
        "fileName": "69238ff28fbc11ecb8eaf83441e5a109",
        "name": "\u7b2c155\u96c6|\u864e\u7259-\u590f\u4e00\u6674",
        "width": "540",
        "height": "960"
    },
    {
        "fileName": "69238ff38fbc11ecb926f83441e5a109",
        "name": "\u7b2c156\u96c6|\u864e\u7259-\u75e3\u94c3-\u6709\u9c7cer",
        "width": "540",
        "height": "960"
    },
    {
        "fileName": "69238ff48fbc11ec9ccbf83441e5a109",
        "name": "\u7b2c157\u96c6|cc-\u4e54\u5df4\u97f3",
        "width": "540",
        "height": "960"
    },
    {
        "fileName": "69238ff58fbc11ec9879f83441e5a109",
        "name": "\u7b2c158\u96c6|\u864e\u7259-MY\u8f66\u8001\u677f",
        "width": "540",
        "height": "960"
    },
    {
        "fileName": "69238ff68fbc11ecbdc3f83441e5a109",
        "name": "\u7b2c159\u96c6|\u864e\u7259-\u725b\u5c0f\u8611\u83c7",
        "width": "540",
        "height": "960"
    }
]