[
    {
        "name": "[YOUMI]\u5c24\u871c\u835f VOL.563 \u5468\u5927\u840c",
        "src": "http://d.duotuwang.com/2020/11/25/23319/0.jpg",
        "mtId": "211e912dfdb41ee3",
        "mtName": "\u5468\u5927\u840c",
        "jgId": "youmi",
        "jgName": "\u5c24\u871c\u835f",
        "href": "http://d.duotuwang.com/2020/11/25/23319/",
        "count": 45,
        "start": 1,
        "hasMtTag": 1,
        "hasJgTag": 1,
        "mtCount": 10,
        "jgCount": 143
    },
    {
        "name": "[HuaYang]\u82b1\u6f3eshow VOL.327 \u5468\u5927\u840c",
        "src": "http://d.duotuwang.com/2020/11/24/23220/0.jpg",
        "mtId": "211e912dfdb41ee3",
        "mtName": "\u5468\u5927\u840c",
        "jgId": "huayang",
        "jgName": "\u82b1\u6f3eshow",
        "href": "http://d.duotuwang.com/2020/11/24/23220/",
        "count": 38,
        "start": 1,
        "hasMtTag": 1,
        "hasJgTag": 1,
        "mtCount": 10,
        "jgCount": 86
    },
    {
        "name": "[XIUREN]\u79c0\u4eba\u7f51 No.2794 \u5468\u5927\u840c",
        "src": "http://d.duotuwang.com/2020/11/17/23249/0.jpg",
        "mtId": "211e912dfdb41ee3",
        "mtName": "\u5468\u5927\u840c",
        "jgId": "xiuren",
        "jgName": "\u79c0\u4eba\u7f51",
        "href": "http://d.duotuwang.com/2020/11/17/23249/",
        "count": 61,
        "start": 1,
        "hasMtTag": 1,
        "hasJgTag": 1,
        "mtCount": 10,
        "jgCount": 750
    },
    {
        "name": "[HuaYang]\u82b1\u6f3eshow VOL.321 \u5468\u5927\u840c",
        "src": "http://d.duotuwang.com/2020/11/16/23214/0.jpg",
        "mtId": "211e912dfdb41ee3",
        "mtName": "\u5468\u5927\u840c",
        "jgId": "huayang",
        "jgName": "\u82b1\u6f3eshow",
        "href": "http://d.duotuwang.com/2020/11/16/23214/",
        "count": 40,
        "start": 1,
        "hasMtTag": 1,
        "hasJgTag": 1,
        "mtCount": 10,
        "jgCount": 86
    },
    {
        "name": "[XIUREN]\u79c0\u4eba\u7f51 No.2776 \u679c\u513fVictoria&\u5468\u5927\u840c 2/2",
        "src": "http://d.duotuwang.com/2020/11/13/23180/0.jpg",
        "mtId": "fc1868c8a652655f",
        "mtName": "\u679c\u513fVictoria",
        "jgId": "xiuren",
        "jgName": "\u79c0\u4eba\u7f51",
        "href": "http://d.duotuwang.com/2020/11/13/23180/",
        "count": 57,
        "start": 62,
        "hasMtTag": 1,
        "hasJgTag": 1,
        "mtCount": 29,
        "jgCount": 750
    },
    {
        "name": "[XIUREN]\u79c0\u4eba\u7f51 No.2776 \u679c\u513fVictoria&\u5468\u5927\u840c 1/2",
        "src": "http://d.duotuwang.com/2020/11/13/23162/0.jpg",
        "mtId": "fc1868c8a652655f",
        "mtName": "\u679c\u513fVictoria",
        "jgId": "xiuren",
        "jgName": "\u79c0\u4eba\u7f51",
        "href": "http://d.duotuwang.com/2020/11/13/23162/",
        "count": 61,
        "start": 1,
        "hasMtTag": 1,
        "hasJgTag": 1,
        "mtCount": 29,
        "jgCount": 750
    }
]