[
    {
        "name": "[XIUREN]\u79c0\u4eba\u7f51 No.173 \u72d0\u72f8\u5c0f\u59d0Adela 2/2",
        "src": "http://d.duotuwang.com/2014/07/08/2171/02.jpg",
        "mtId": "73aca0368571d160",
        "mtName": "\u72d0\u72f8\u5c0f\u59d0Adela",
        "jgId": "xiuren",
        "jgName": "\u79c0\u4eba\u7f51",
        "href": "http://d.duotuwang.com/2014/07/08/2171/",
        "count": 30,
        "start": 81,
        "hasMtTag": 1,
        "hasJgTag": 1,
        "mtCount": 1,
        "jgCount": 750
    },
    {
        "name": "[XIUREN]\u79c0\u4eba\u7f51 No.173 \u72d0\u72f8\u5c0f\u59d0Adela 1/2",
        "src": "http://d.duotuwang.com/2014/07/08/2129/01.jpg",
        "mtId": "73aca0368571d160",
        "mtName": "\u72d0\u72f8\u5c0f\u59d0Adela",
        "jgId": "xiuren",
        "jgName": "\u79c0\u4eba\u7f51",
        "href": "http://d.duotuwang.com/2014/07/08/2129/",
        "count": 80,
        "start": 1,
        "hasMtTag": 1,
        "hasJgTag": 1,
        "mtCount": 1,
        "jgCount": 750
    }
]