[
    {
        "name": "[Girlt]\u679c\u56e2\u7f51 GT030 \u7199\u6069",
        "src": "http://d.duotuwang.com/2017/07/15/5143/0.jpg",
        "mtId": "2f9a8d34ff8a5cbb",
        "mtName": "\u7199\u6069",
        "jgId": "girlt",
        "jgName": "\u679c\u56e2\u7f51",
        "href": "http://d.duotuwang.com/2017/07/15/5143/",
        "count": 52,
        "start": 1,
        "hasMtTag": 1,
        "hasJgTag": 1,
        "mtCount": 1,
        "jgCount": 37
    },
    {
        "name": "[XIUREN]\u79c0\u4eba\u7f51 No.672 v\u7199\u7199\u7199\u7199\u6069v",
        "src": "http://d.duotuwang.com/2016/12/31/1972/0.jpg",
        "mtId": "2f9a8d34ff8a5cbb",
        "mtName": "v\u7199\u7199\u7199\u7199\u6069v",
        "jgId": "xiuren",
        "jgName": "\u79c0\u4eba\u7f51",
        "href": "http://d.duotuwang.com/2016/12/31/1972/",
        "count": 66,
        "start": 1,
        "hasMtTag": 1,
        "hasJgTag": 1,
        "mtCount": 1,
        "jgCount": 750
    }
]