[
    {
        "name": "[Pure Media] Vol.63 RyuJiHye",
        "src": "http://d.duotuwang.com/2021/03/10/25556/0.jpg",
        "mtId": "0863e388f319a3e1",
        "mtName": "PureMedia",
        "href": "http://d.duotuwang.com/2021/03/10/25556/",
        "count": 73,
        "start": 1,
        "hasMtTag": 1,
        "hasJgTag": 0,
        "mtCount": 6
    }
]