[
    {
        "name": "[MiiTao]\u871c\u6843\u793e VOL.135 \u738b\u9759\u7476",
        "src": "http://d.duotuwang.com/2019/10/31/18425/0.jpg",
        "mtId": "bd810dfdbb4f765b",
        "mtName": "\u738b\u9759\u7476",
        "jgId": "miitao",
        "jgName": "\u871c\u6843\u793e",
        "href": "http://d.duotuwang.com/2019/10/31/18425/",
        "count": 48,
        "start": 1,
        "hasMtTag": 1,
        "hasJgTag": 1,
        "mtCount": 1,
        "jgCount": 25
    },
    {
        "name": "[MiiTao]\u871c\u6843\u793e VOL.130 \u738b\u9759\u7476",
        "src": "http://d.duotuwang.com/2019/07/11/17130/0.jpg",
        "mtId": "bd810dfdbb4f765b",
        "mtName": "\u738b\u9759\u7476",
        "jgId": "miitao",
        "jgName": "\u871c\u6843\u793e",
        "href": "http://d.duotuwang.com/2019/07/11/17130/",
        "count": 49,
        "start": 1,
        "hasMtTag": 1,
        "hasJgTag": 1,
        "mtCount": 1,
        "jgCount": 25
    }
]