[
    {
        "name": "[XIUREN]\u79c0\u4eba\u7f51 No.153 toro\u7fbd\u4f4f",
        "src": "http://d.duotuwang.com/2014/06/05/469/0.jpg",
        "mtId": "f49919f7376b377a",
        "mtName": "toro\u7fbd\u4f4f",
        "jgId": "xiuren",
        "jgName": "\u79c0\u4eba\u7f51",
        "href": "http://d.duotuwang.com/2014/06/05/469/",
        "count": 63,
        "start": 1,
        "hasMtTag": 1,
        "hasJgTag": 1,
        "mtCount": 2,
        "jgCount": 750
    },
    {
        "name": "[XIUREN]\u79c0\u4eba\u7f51 No.141 toro\u7fbd\u4f4f",
        "src": "http://d.duotuwang.com/2014/05/27/460/0.jpg",
        "mtId": "f49919f7376b377a",
        "mtName": "toro\u7fbd\u4f4f",
        "jgId": "xiuren",
        "jgName": "\u79c0\u4eba\u7f51",
        "href": "http://d.duotuwang.com/2014/05/27/460/",
        "count": 62,
        "start": 1,
        "hasMtTag": 1,
        "hasJgTag": 1,
        "mtCount": 2,
        "jgCount": 750
    },
    {
        "name": "[XIUREN]\u79c0\u4eba\u7f51 No.065 toro\u7fbd\u4f4f",
        "src": "http://d.duotuwang.com/2013/12/16/399/0.jpg",
        "mtId": "f49919f7376b377a",
        "mtName": "toro\u7fbd\u4f4f",
        "jgId": "xiuren",
        "jgName": "\u79c0\u4eba\u7f51",
        "href": "http://d.duotuwang.com/2013/12/16/399/",
        "count": 63,
        "start": 1,
        "hasMtTag": 1,
        "hasJgTag": 1,
        "mtCount": 2,
        "jgCount": 750
    },
    {
        "name": "[XIUREN]\u79c0\u4eba\u7f51 No.056 toro\u7fbd\u4f4f",
        "src": "http://d.duotuwang.com/2013/11/29/395/0.jpg",
        "mtId": "f49919f7376b377a",
        "mtName": "toro\u7fbd\u4f4f",
        "jgId": "xiuren",
        "jgName": "\u79c0\u4eba\u7f51",
        "href": "http://d.duotuwang.com/2013/11/29/395/",
        "count": 63,
        "start": 1,
        "hasMtTag": 1,
        "hasJgTag": 1,
        "mtCount": 2,
        "jgCount": 750
    },
    {
        "name": "[XIUREN]\u79c0\u4eba\u7f51 No.014 toro\u7fbd\u4f4f",
        "src": "http://d.duotuwang.com/2013/09/22/360/0.jpg",
        "mtId": "f49919f7376b377a",
        "mtName": "toro\u7fbd\u4f4f",
        "jgId": "xiuren",
        "jgName": "\u79c0\u4eba\u7f51",
        "href": "http://d.duotuwang.com/2013/09/22/360/",
        "count": 91,
        "start": 1,
        "hasMtTag": 1,
        "hasJgTag": 1,
        "mtCount": 2,
        "jgCount": 750
    },
    {
        "name": "[XIUREN]\u79c0\u4eba\u7f51 No.005 toro\u7fbd\u4f4f",
        "src": "http://d.duotuwang.com/2013/09/09/353/0.jpg",
        "mtId": "f49919f7376b377a",
        "mtName": "toro\u7fbd\u4f4f",
        "jgId": "xiuren",
        "jgName": "\u79c0\u4eba\u7f51",
        "href": "http://d.duotuwang.com/2013/09/09/353/",
        "count": 83,
        "start": 1,
        "hasMtTag": 1,
        "hasJgTag": 1,
        "mtCount": 2,
        "jgCount": 750
    }
]