[
    {
        "name": "\u871c\u6c41\u732b\u88d8 NO.018 \u5723\u8bde\u7d22\u5c3c\u5b50",
        "src": "http://d.duotuwang.com/2018/10/29/28981/0.jpg",
        "mtId": "b9420b0ac431dbc7",
        "mtName": "\u871c\u6c41\u732b\u88d8",
        "jgId": "zipai",
        "jgName": "\u81ea\u62cd",
        "href": "http://d.duotuwang.com/2018/10/29/28981/",
        "count": 10,
        "start": 1,
        "hasMtTag": 1,
        "hasJgTag": 1,
        "mtCount": 13,
        "jgCount": 32
    },
    {
        "name": "\u871c\u6c41\u732b\u88d8 NO.017 \u5723\u8bde\u793c\u7269",
        "src": "http://d.duotuwang.com/2018/10/22/28980/0.jpg",
        "mtId": "b9420b0ac431dbc7",
        "mtName": "\u871c\u6c41\u732b\u88d8",
        "jgId": "zipai",
        "jgName": "\u81ea\u62cd",
        "href": "http://d.duotuwang.com/2018/10/22/28980/",
        "count": 40,
        "start": 1,
        "hasMtTag": 1,
        "hasJgTag": 1,
        "mtCount": 13,
        "jgCount": 32
    },
    {
        "name": "\u871c\u6c41\u732b\u88d8 NO.016 \u5c11\u5973\u68a6\u5883",
        "src": "http://d.duotuwang.com/2018/09/17/28979/0.jpg",
        "mtId": "b9420b0ac431dbc7",
        "mtName": "\u871c\u6c41\u732b\u88d8",
        "jgId": "zipai",
        "jgName": "\u81ea\u62cd",
        "href": "http://d.duotuwang.com/2018/09/17/28979/",
        "count": 10,
        "start": 1,
        "hasMtTag": 1,
        "hasJgTag": 1,
        "mtCount": 13,
        "jgCount": 32
    },
    {
        "name": "\u871c\u6c41\u732b\u88d8 NO.015 \u4e09\u4e16\u6751\u6b63",
        "src": "http://d.duotuwang.com/2018/07/20/28978/0.jpg",
        "mtId": "b9420b0ac431dbc7",
        "mtName": "\u871c\u6c41\u732b\u88d8",
        "jgId": "zipai",
        "jgName": "\u81ea\u62cd",
        "href": "http://d.duotuwang.com/2018/07/20/28978/",
        "count": 12,
        "start": 1,
        "hasMtTag": 1,
        "hasJgTag": 1,
        "mtCount": 13,
        "jgCount": 32
    },
    {
        "name": "\u871c\u6c41\u732b\u88d8 NO.014 \u5fcd\u8005",
        "src": "http://d.duotuwang.com/2018/07/01/28977/0.jpg",
        "mtId": "b9420b0ac431dbc7",
        "mtName": "\u871c\u6c41\u732b\u88d8",
        "jgId": "zipai",
        "jgName": "\u81ea\u62cd",
        "href": "http://d.duotuwang.com/2018/07/01/28977/",
        "count": 40,
        "start": 1,
        "hasMtTag": 1,
        "hasJgTag": 1,
        "mtCount": 13,
        "jgCount": 32
    },
    {
        "name": "\u871c\u6c41\u732b\u88d8 NO.013 \u65d7\u888d\u59d0\u59d0",
        "src": "http://d.duotuwang.com/2018/06/17/28976/0.jpg",
        "mtId": "b9420b0ac431dbc7",
        "mtName": "\u871c\u6c41\u732b\u88d8",
        "jgId": "zipai",
        "jgName": "\u81ea\u62cd",
        "href": "http://d.duotuwang.com/2018/06/17/28976/",
        "count": 29,
        "start": 1,
        "hasMtTag": 1,
        "hasJgTag": 1,
        "mtCount": 13,
        "jgCount": 32
    }
]