[
    {
        "name": "\u871c\u6c41\u732b\u88d8 NO.053 \u7edd\u4ee3\u98ce\u534e\u65d7\u888d",
        "src": "http://d.duotuwang.com/2020/09/06/29016/0.jpg",
        "mtId": "b9420b0ac431dbc7",
        "mtName": "\u871c\u6c41\u732b\u88d8",
        "jgId": "zipai",
        "jgName": "\u81ea\u62cd",
        "href": "http://d.duotuwang.com/2020/09/06/29016/",
        "count": 50,
        "start": 1,
        "hasMtTag": 1,
        "hasJgTag": 1,
        "mtCount": 13,
        "jgCount": 32
    },
    {
        "name": "\u871c\u6c41\u732b\u88d8 NO.052 \u76ae\u8863\u821e\u5a18",
        "src": "http://d.duotuwang.com/2020/06/06/29015/0.jpg",
        "mtId": "b9420b0ac431dbc7",
        "mtName": "\u871c\u6c41\u732b\u88d8",
        "jgId": "zipai",
        "jgName": "\u81ea\u62cd",
        "href": "http://d.duotuwang.com/2020/06/06/29015/",
        "count": 45,
        "start": 1,
        "hasMtTag": 1,
        "hasJgTag": 1,
        "mtCount": 13,
        "jgCount": 32
    },
    {
        "name": "\u871c\u6c41\u732b\u88d8 NO.051 \u767d\u8272\u5185\u8863",
        "src": "http://d.duotuwang.com/2020/05/01/29014/0.jpg",
        "mtId": "b9420b0ac431dbc7",
        "mtName": "\u871c\u6c41\u732b\u88d8",
        "jgId": "zipai",
        "jgName": "\u81ea\u62cd",
        "href": "http://d.duotuwang.com/2020/05/01/29014/",
        "count": 38,
        "start": 1,
        "hasMtTag": 1,
        "hasJgTag": 1,
        "mtCount": 13,
        "jgCount": 32
    },
    {
        "name": "\u871c\u6c41\u732b\u88d8 NO.050 \u5973\u8b66",
        "src": "http://d.duotuwang.com/2020/04/30/29013/0.jpg",
        "mtId": "b9420b0ac431dbc7",
        "mtName": "\u871c\u6c41\u732b\u88d8",
        "jgId": "zipai",
        "jgName": "\u81ea\u62cd",
        "href": "http://d.duotuwang.com/2020/04/30/29013/",
        "count": 47,
        "start": 1,
        "hasMtTag": 1,
        "hasJgTag": 1,
        "mtCount": 13,
        "jgCount": 32
    },
    {
        "name": "\u871c\u6c41\u732b\u88d8 NO.049 \u6076\u4fee\u5973",
        "src": "http://d.duotuwang.com/2020/04/24/29012/0.jpg",
        "mtId": "b9420b0ac431dbc7",
        "mtName": "\u871c\u6c41\u732b\u88d8",
        "jgId": "zipai",
        "jgName": "\u81ea\u62cd",
        "href": "http://d.duotuwang.com/2020/04/24/29012/",
        "count": 43,
        "start": 1,
        "hasMtTag": 1,
        "hasJgTag": 1,
        "mtCount": 13,
        "jgCount": 32
    },
    {
        "name": "\u871c\u6c41\u732b\u88d8 NO.048 \u767d\u4e1d\u6bdb\u8863",
        "src": "http://d.duotuwang.com/2020/03/17/29011/0.jpg",
        "mtId": "b9420b0ac431dbc7",
        "mtName": "\u871c\u6c41\u732b\u88d8",
        "jgId": "zipai",
        "jgName": "\u81ea\u62cd",
        "href": "http://d.duotuwang.com/2020/03/17/29011/",
        "count": 40,
        "start": 1,
        "hasMtTag": 1,
        "hasJgTag": 1,
        "mtCount": 13,
        "jgCount": 32
    }
]