[
    {
        "name": "[XIUREN]\u79c0\u4eba\u7f51 No.775 \u6afb\u4e95\u821e",
        "src": "http://d.duotuwang.com/2017/06/23/3954/0.jpg",
        "mtId": "cff0b799cc9ffcd5",
        "mtName": "\u6afb\u4e95\u821e",
        "jgId": "xiuren",
        "jgName": "\u79c0\u4eba\u7f51",
        "href": "http://d.duotuwang.com/2017/06/23/3954/",
        "count": 48,
        "start": 1,
        "hasMtTag": 1,
        "hasJgTag": 1,
        "mtCount": 1,
        "jgCount": 750
    }
]