[
    {
        "name": "[UGirlsAPP]\u7231\u5c24\u7269 No.2138 \u6dc7baby \u751c\u60c5\u51e0\u5ea6",
        "src": "http://d.duotuwang.com/2021/07/25/25936/0.jpg",
        "mtId": "8660b96e7bf2b23a",
        "mtName": "\u6dc7baby",
        "jgId": "ugirlsapp",
        "jgName": "\u7231\u5c24\u7269",
        "href": "http://d.duotuwang.com/2021/07/25/25936/",
        "count": 35,
        "start": 1,
        "hasMtTag": 1,
        "hasJgTag": 1,
        "mtCount": 1,
        "jgCount": 397
    },
    {
        "name": "[UGirlsAPP]\u7231\u5c24\u7269 No.1762 \u6dc7baby \u9999\u6c1b\u60c5\u4eba",
        "src": "http://d.duotuwang.com/2020/03/16/19964/0.jpg",
        "mtId": "8660b96e7bf2b23a",
        "mtName": "\u6dc7baby",
        "jgId": "ugirlsapp",
        "jgName": "\u7231\u5c24\u7269",
        "href": "http://d.duotuwang.com/2020/03/16/19964/",
        "count": 35,
        "start": 1,
        "hasMtTag": 1,
        "hasJgTag": 1,
        "mtCount": 1,
        "jgCount": 397
    }
]