[
    {
        "name": "[YouWu]\u5c24\u7269\u9986 VOL.077 LULU\u5c0f\u7490\u7490",
        "src": "http://d.duotuwang.com/2018/01/08/8149/0.jpg",
        "mtId": "210382b3dce227b2",
        "mtName": "LULU\u5c0f\u7490\u7490",
        "jgId": "youwu",
        "jgName": "\u5c24\u7269\u9986",
        "href": "http://d.duotuwang.com/2018/01/08/8149/",
        "count": 40,
        "start": 1,
        "hasMtTag": 1,
        "hasJgTag": 1,
        "mtCount": 1,
        "jgCount": 29
    },
    {
        "name": "[YouWu]\u5c24\u7269\u9986 VOL.072 LULU\u5c0f\u7490\u7490",
        "src": "http://d.duotuwang.com/2017/12/18/6686/0.jpg",
        "mtId": "210382b3dce227b2",
        "mtName": "LULU\u5c0f\u7490\u7490",
        "jgId": "youwu",
        "jgName": "\u5c24\u7269\u9986",
        "href": "http://d.duotuwang.com/2017/12/18/6686/",
        "count": 45,
        "start": 1,
        "hasMtTag": 1,
        "hasJgTag": 1,
        "mtCount": 1,
        "jgCount": 29
    }
]