[
    {
        "name": "[IMISS]\u7231\u871c\u793e VOL.449 Lavinia\u8089\u8089",
        "src": "http://d.duotuwang.com/2020/03/17/19943/0.jpg",
        "mtId": "e618f72f851c7483",
        "mtName": "Lavinia",
        "jgId": "imiss",
        "jgName": "\u7231\u871c\u793e",
        "href": "http://d.duotuwang.com/2020/03/17/19943/",
        "count": 43,
        "start": 1,
        "hasMtTag": 1,
        "hasJgTag": 1,
        "mtCount": 16,
        "jgCount": 116
    },
    {
        "name": "[XIUREN]\u79c0\u4eba\u7f51 No.2034 Lavinia\u8089\u8089",
        "src": "http://d.duotuwang.com/2020/03/06/19838/0.jpg",
        "mtId": "e618f72f851c7483",
        "mtName": "Lavinia",
        "jgId": "xiuren",
        "jgName": "\u79c0\u4eba\u7f51",
        "href": "http://d.duotuwang.com/2020/03/06/19838/",
        "count": 45,
        "start": 1,
        "hasMtTag": 1,
        "hasJgTag": 1,
        "mtCount": 16,
        "jgCount": 750
    },
    {
        "name": "[IMISS]\u7231\u871c\u793e VOL.446 Lavinia\u8089\u8089",
        "src": "http://d.duotuwang.com/2020/03/03/19766/0.jpg",
        "mtId": "e618f72f851c7483",
        "mtName": "Lavinia",
        "jgId": "imiss",
        "jgName": "\u7231\u871c\u793e",
        "href": "http://d.duotuwang.com/2020/03/03/19766/",
        "count": 38,
        "start": 1,
        "hasMtTag": 1,
        "hasJgTag": 1,
        "mtCount": 16,
        "jgCount": 116
    },
    {
        "name": "[XIUREN]\u79c0\u4eba\u7f51 No.2003 Lavinia\u8089\u8089",
        "src": "http://d.duotuwang.com/2020/02/25/19699/0.jpg",
        "mtId": "e618f72f851c7483",
        "mtName": "Lavinia",
        "jgId": "xiuren",
        "jgName": "\u79c0\u4eba\u7f51",
        "href": "http://d.duotuwang.com/2020/02/25/19699/",
        "count": 36,
        "start": 1,
        "hasMtTag": 1,
        "hasJgTag": 1,
        "mtCount": 16,
        "jgCount": 750
    },
    {
        "name": "[IMISS]\u7231\u871c\u793e VOL.441 Lavinia\u8089\u8089",
        "src": "http://d.duotuwang.com/2020/02/19/19617/0.jpg",
        "mtId": "e618f72f851c7483",
        "mtName": "Lavinia",
        "jgId": "imiss",
        "jgName": "\u7231\u871c\u793e",
        "href": "http://d.duotuwang.com/2020/02/19/19617/",
        "count": 51,
        "start": 1,
        "hasMtTag": 1,
        "hasJgTag": 1,
        "mtCount": 16,
        "jgCount": 116
    },
    {
        "name": "[XIUREN]\u79c0\u4eba\u7f51 No.1984 Lavinia\u8089\u8089",
        "src": "http://d.duotuwang.com/2020/02/18/19588/0.jpg",
        "mtId": "e618f72f851c7483",
        "mtName": "Lavinia",
        "jgId": "xiuren",
        "jgName": "\u79c0\u4eba\u7f51",
        "href": "http://d.duotuwang.com/2020/02/18/19588/",
        "count": 53,
        "start": 1,
        "hasMtTag": 1,
        "hasJgTag": 1,
        "mtCount": 16,
        "jgCount": 750
    }
]