[
    {
        "name": "[IMISS]\u7231\u871c\u793e VOL.361 Lavinia",
        "src": "http://d.duotuwang.com/2019/07/16/17157/0.jpg",
        "mtId": "e618f72f851c7483",
        "mtName": "Lavinia",
        "jgId": "imiss",
        "jgName": "\u7231\u871c\u793e",
        "href": "http://d.duotuwang.com/2019/07/16/17157/",
        "count": 38,
        "start": 1,
        "hasMtTag": 1,
        "hasJgTag": 1,
        "mtCount": 16,
        "jgCount": 116
    },
    {
        "name": "[IMISS]\u7231\u871c\u793e VOL.357 Lavinia",
        "src": "http://d.duotuwang.com/2019/07/03/17046/0.jpg",
        "mtId": "e618f72f851c7483",
        "mtName": "Lavinia",
        "jgId": "imiss",
        "jgName": "\u7231\u871c\u793e",
        "href": "http://d.duotuwang.com/2019/07/03/17046/",
        "count": 46,
        "start": 1,
        "hasMtTag": 1,
        "hasJgTag": 1,
        "mtCount": 16,
        "jgCount": 116
    },
    {
        "name": "[IMISS]\u7231\u871c\u793e VOL.356 Lavinia",
        "src": "http://d.duotuwang.com/2019/06/28/16973/0.jpg",
        "mtId": "e618f72f851c7483",
        "mtName": "Lavinia",
        "jgId": "imiss",
        "jgName": "\u7231\u871c\u793e",
        "href": "http://d.duotuwang.com/2019/06/28/16973/",
        "count": 40,
        "start": 1,
        "hasMtTag": 1,
        "hasJgTag": 1,
        "mtCount": 16,
        "jgCount": 116
    },
    {
        "name": "[IMISS]\u7231\u871c\u793e VOL.352 Lavinia",
        "src": "http://d.duotuwang.com/2019/06/20/16865/0.jpg",
        "mtId": "e618f72f851c7483",
        "mtName": "Lavinia",
        "jgId": "imiss",
        "jgName": "\u7231\u871c\u793e",
        "href": "http://d.duotuwang.com/2019/06/20/16865/",
        "count": 52,
        "start": 1,
        "hasMtTag": 1,
        "hasJgTag": 1,
        "mtCount": 16,
        "jgCount": 116
    },
    {
        "name": "[IMISS]\u7231\u871c\u793e VOL.346 Lavinia",
        "src": "http://d.duotuwang.com/2019/06/06/16757/0.jpg",
        "mtId": "e618f72f851c7483",
        "mtName": "Lavinia",
        "jgId": "imiss",
        "jgName": "\u7231\u871c\u793e",
        "href": "http://d.duotuwang.com/2019/06/06/16757/",
        "count": 52,
        "start": 1,
        "hasMtTag": 1,
        "hasJgTag": 1,
        "mtCount": 16,
        "jgCount": 116
    },
    {
        "name": "[IMISS]\u7231\u871c\u793e VOL.343 Lavinia",
        "src": "http://d.duotuwang.com/2019/05/29/16690/0.jpg",
        "mtId": "e618f72f851c7483",
        "mtName": "Lavinia",
        "jgId": "imiss",
        "jgName": "\u7231\u871c\u793e",
        "href": "http://d.duotuwang.com/2019/05/29/16690/",
        "count": 40,
        "start": 1,
        "hasMtTag": 1,
        "hasJgTag": 1,
        "mtCount": 16,
        "jgCount": 116
    }
]