[
    {
        "name": "[IMISS]\u7231\u871c\u793e VOL.627 Lavinia\u8089\u8089&LindaLinda",
        "src": "http://d.duotuwang.com/2021/09/03/26510/0.jpg",
        "mtId": "e618f72f851c7483",
        "mtName": "Lavinia\u8089\u8089",
        "jgId": "imiss",
        "jgName": "\u7231\u871c\u793e",
        "href": "http://d.duotuwang.com/2021/09/03/26510/",
        "count": 54,
        "start": 1,
        "hasMtTag": 1,
        "hasJgTag": 1,
        "mtCount": 16,
        "jgCount": 116
    },
    {
        "name": "[IMISS]\u7231\u871c\u793e VOL.625 Lavinia\u8089\u8089&LindaLinda",
        "src": "http://d.duotuwang.com/2021/08/19/26242/0.jpg",
        "mtId": "e618f72f851c7483",
        "mtName": "Lavinia\u8089\u8089",
        "jgId": "imiss",
        "jgName": "\u7231\u871c\u793e",
        "href": "http://d.duotuwang.com/2021/08/19/26242/",
        "count": 70,
        "start": 1,
        "hasMtTag": 1,
        "hasJgTag": 1,
        "mtCount": 16,
        "jgCount": 116
    },
    {
        "name": "[IMISS]\u7231\u871c\u793e VOL.622 Lavinia\u8089\u8089&SISY\u601d&LindaLinda",
        "src": "http://d.duotuwang.com/2021/08/06/26074/0.jpg",
        "mtId": "e618f72f851c7483",
        "mtName": "Lavinia\u8089\u8089",
        "jgId": "imiss",
        "jgName": "\u7231\u871c\u793e",
        "href": "http://d.duotuwang.com/2021/08/06/26074/",
        "count": 55,
        "start": 1,
        "hasMtTag": 1,
        "hasJgTag": 1,
        "mtCount": 16,
        "jgCount": 116
    },
    {
        "name": "[IMISS]\u7231\u871c\u793e VOL.619 Lavinia\u8089\u8089",
        "src": "http://d.duotuwang.com/2021/07/30/26071/0.jpg",
        "mtId": "e618f72f851c7483",
        "mtName": "Lavinia\u8089\u8089",
        "jgId": "imiss",
        "jgName": "\u7231\u871c\u793e",
        "href": "http://d.duotuwang.com/2021/07/30/26071/",
        "count": 44,
        "start": 1,
        "hasMtTag": 1,
        "hasJgTag": 1,
        "mtCount": 16,
        "jgCount": 116
    },
    {
        "name": "[IMISS]\u7231\u871c\u793e VOL.616 Lavinia\u8089\u8089",
        "src": "http://d.duotuwang.com/2021/07/21/25801/0.jpg",
        "mtId": "e618f72f851c7483",
        "mtName": "Lavinia\u8089\u8089",
        "jgId": "imiss",
        "jgName": "\u7231\u871c\u793e",
        "href": "http://d.duotuwang.com/2021/07/21/25801/",
        "count": 53,
        "start": 1,
        "hasMtTag": 1,
        "hasJgTag": 1,
        "mtCount": 16,
        "jgCount": 116
    },
    {
        "name": "[IMISS]\u7231\u871c\u793e VOL.611 Lavinia\u8089\u8089&SISY\u601d&LindaLinda",
        "src": "http://d.duotuwang.com/2021/07/08/25796/0.jpg",
        "mtId": "e618f72f851c7483",
        "mtName": "Lavinia\u8089\u8089",
        "jgId": "imiss",
        "jgName": "\u7231\u871c\u793e",
        "href": "http://d.duotuwang.com/2021/07/08/25796/",
        "count": 73,
        "start": 1,
        "hasMtTag": 1,
        "hasJgTag": 1,
        "mtCount": 16,
        "jgCount": 116
    }
]