[
    {
        "name": "[IMISS]\u7231\u871c\u793e VOL.606 Lavinia\u8089\u8089",
        "src": "http://d.duotuwang.com/2021/06/22/25502/0.jpg",
        "mtId": "e618f72f851c7483",
        "mtName": "Lavinia\u8089\u8089",
        "jgId": "imiss",
        "jgName": "\u7231\u871c\u793e",
        "href": "http://d.duotuwang.com/2021/06/22/25502/",
        "count": 42,
        "start": 1,
        "hasMtTag": 1,
        "hasJgTag": 1,
        "mtCount": 16,
        "jgCount": 116
    },
    {
        "name": "[IMISS]\u7231\u871c\u793e VOL.590 Lavinia\u8089\u8089",
        "src": "http://d.duotuwang.com/2021/05/10/24954/0.jpg",
        "mtId": "e618f72f851c7483",
        "mtName": "Lavinia\u8089\u8089",
        "jgId": "imiss",
        "jgName": "\u7231\u871c\u793e",
        "href": "http://d.duotuwang.com/2021/05/10/24954/",
        "count": 71,
        "start": 1,
        "hasMtTag": 1,
        "hasJgTag": 1,
        "mtCount": 16,
        "jgCount": 116
    },
    {
        "name": "[IMISS]\u7231\u871c\u793e VOL.582 Lavinia\u8089\u8089&SISY\u601d",
        "src": "http://d.duotuwang.com/2021/04/25/24834/0.jpg",
        "mtId": "e618f72f851c7483",
        "mtName": "Lavinia\u8089\u8089",
        "jgId": "imiss",
        "jgName": "\u7231\u871c\u793e",
        "href": "http://d.duotuwang.com/2021/04/25/24834/",
        "count": 65,
        "start": 1,
        "hasMtTag": 1,
        "hasJgTag": 1,
        "mtCount": 16,
        "jgCount": 116
    },
    {
        "name": "[IMISS]\u7231\u871c\u793e VOL.579 Lavinia\u8089\u8089",
        "src": "http://d.duotuwang.com/2021/04/21/24831/0.jpg",
        "mtId": "e618f72f851c7483",
        "mtName": "Lavinia\u8089\u8089",
        "jgId": "imiss",
        "jgName": "\u7231\u871c\u793e",
        "href": "http://d.duotuwang.com/2021/04/21/24831/",
        "count": 47,
        "start": 1,
        "hasMtTag": 1,
        "hasJgTag": 1,
        "mtCount": 16,
        "jgCount": 116
    },
    {
        "name": "[IMISS]\u7231\u871c\u793e VOL.573 Lavinia\u8089\u8089",
        "src": "http://d.duotuwang.com/2021/04/08/24712/0.jpg",
        "mtId": "e618f72f851c7483",
        "mtName": "Lavinia\u8089\u8089",
        "jgId": "imiss",
        "jgName": "\u7231\u871c\u793e",
        "href": "http://d.duotuwang.com/2021/04/08/24712/",
        "count": 61,
        "start": 1,
        "hasMtTag": 1,
        "hasJgTag": 1,
        "mtCount": 16,
        "jgCount": 116
    },
    {
        "name": "[IMISS]\u7231\u871c\u793e VOL.570 Lavinia\u8089\u8089&SISY\u601d",
        "src": "http://d.duotuwang.com/2021/03/31/24435/0.jpg",
        "mtId": "e618f72f851c7483",
        "mtName": "Lavinia\u8089\u8089",
        "jgId": "imiss",
        "jgName": "\u7231\u871c\u793e",
        "href": "http://d.duotuwang.com/2021/03/31/24435/",
        "count": 52,
        "start": 1,
        "hasMtTag": 1,
        "hasJgTag": 1,
        "mtCount": 16,
        "jgCount": 116
    }
]