[
    {
        "name": "[MICAT]\u732b\u840c\u699c VOL.024 \u96ea\u745eLisa",
        "src": "http://d.duotuwang.com/2017/07/27/5441/0.jpg",
        "mtId": "38b6e5c30682a933",
        "mtName": "\u96ea\u745eLisa",
        "jgId": "micat",
        "jgName": "\u732b\u840c\u699c",
        "href": "http://d.duotuwang.com/2017/07/27/5441/",
        "count": 46,
        "start": 1,
        "hasMtTag": 1,
        "hasJgTag": 1,
        "mtCount": 2,
        "jgCount": 6
    },
    {
        "name": "[MICAT]\u732b\u840c\u699c VOL.023 \u987e\u5317\u5317",
        "src": "http://d.duotuwang.com/2017/07/21/5245/0.jpg",
        "mtId": "2001aeef4e3b5afe",
        "mtName": "\u987e\u5317\u5317",
        "jgId": "micat",
        "jgName": "\u732b\u840c\u699c",
        "href": "http://d.duotuwang.com/2017/07/21/5245/",
        "count": 42,
        "start": 1,
        "hasMtTag": 1,
        "hasJgTag": 1,
        "mtCount": 1,
        "jgCount": 6
    },
    {
        "name": "[MICAT]\u732b\u840c\u699c VOL.022 \u96ea\u745eLisa",
        "src": "http://d.duotuwang.com/2017/07/20/5249/0.jpg",
        "mtId": "38b6e5c30682a933",
        "mtName": "\u96ea\u745eLisa",
        "jgId": "micat",
        "jgName": "\u732b\u840c\u699c",
        "href": "http://d.duotuwang.com/2017/07/20/5249/",
        "count": 54,
        "start": 1,
        "hasMtTag": 1,
        "hasJgTag": 1,
        "mtCount": 2,
        "jgCount": 6
    },
    {
        "name": "[MICAT]\u732b\u840c\u699c VOL.021 \u840c\u742a\u742aIrene",
        "src": "http://d.duotuwang.com/2017/07/14/5224/0.jpg",
        "mtId": "66729276e15617cd",
        "mtName": "\u840c\u742a\u742aIrene",
        "jgId": "micat",
        "jgName": "\u732b\u840c\u699c",
        "href": "http://d.duotuwang.com/2017/07/14/5224/",
        "count": 50,
        "start": 1,
        "hasMtTag": 1,
        "hasJgTag": 1,
        "mtCount": 7,
        "jgCount": 6
    },
    {
        "name": "[MICAT]\u732b\u840c\u699c VOL.020 \u96ea\u745eLisa",
        "src": "http://d.duotuwang.com/2017/07/12/5231/0.jpg",
        "mtId": "38b6e5c30682a933",
        "mtName": "\u96ea\u745eLisa",
        "jgId": "micat",
        "jgName": "\u732b\u840c\u699c",
        "href": "http://d.duotuwang.com/2017/07/12/5231/",
        "count": 51,
        "start": 1,
        "hasMtTag": 1,
        "hasJgTag": 1,
        "mtCount": 2,
        "jgCount": 6
    },
    {
        "name": "[MICAT]\u732b\u840c\u699c VOL.019 \u96ea\u745eLisa",
        "src": "http://d.duotuwang.com/2017/07/07/4233/0.jpg",
        "mtId": "38b6e5c30682a933",
        "mtName": "\u96ea\u745eLisa",
        "jgId": "micat",
        "jgName": "\u732b\u840c\u699c",
        "href": "http://d.duotuwang.com/2017/07/07/4233/",
        "count": 52,
        "start": 1,
        "hasMtTag": 1,
        "hasJgTag": 1,
        "mtCount": 2,
        "jgCount": 6
    }
]