[
    {
        "name": "[MICAT]\u732b\u840c\u699c VOL.006 \u840c\u742a\u742aIrene",
        "src": "http://d.duotuwang.com/2017/06/05/3928/0.jpg",
        "mtId": "66729276e15617cd",
        "mtName": "\u840c\u742a\u742aIrene",
        "jgId": "micat",
        "jgName": "\u732b\u840c\u699c",
        "href": "http://d.duotuwang.com/2017/06/05/3928/",
        "count": 50,
        "start": 1,
        "hasMtTag": 1,
        "hasJgTag": 1,
        "mtCount": 7,
        "jgCount": 6
    },
    {
        "name": "[MICAT]\u732b\u840c\u699c VOL.005 \u840c\u742a\u742aIrene",
        "src": "http://d.duotuwang.com/2017/06/02/3840/0.jpg",
        "mtId": "66729276e15617cd",
        "mtName": "\u840c\u742a\u742aIrene",
        "jgId": "micat",
        "jgName": "\u732b\u840c\u699c",
        "href": "http://d.duotuwang.com/2017/06/02/3840/",
        "count": 47,
        "start": 1,
        "hasMtTag": 1,
        "hasJgTag": 1,
        "mtCount": 7,
        "jgCount": 6
    },
    {
        "name": "[MICAT]\u732b\u840c\u699c VOL.004 \u753b\u753bsugar",
        "src": "http://d.duotuwang.com/2017/06/01/3842/0.jpg",
        "mtId": "42160901cc2eb524",
        "mtName": "\u753b\u753bsugar",
        "jgId": "micat",
        "jgName": "\u732b\u840c\u699c",
        "href": "http://d.duotuwang.com/2017/06/01/3842/",
        "count": 50,
        "start": 1,
        "hasMtTag": 1,
        "hasJgTag": 1,
        "mtCount": 1,
        "jgCount": 6
    },
    {
        "name": "[MICAT]\u732b\u840c\u699c VOL.003 \u5468\u4e8e\u5e0cdummy",
        "src": "http://d.duotuwang.com/2017/05/23/3858/0.jpg",
        "mtId": "de6bdb42ece2255f",
        "mtName": "\u5468\u4e8e\u5e0cdummy",
        "jgId": "micat",
        "jgName": "\u732b\u840c\u699c",
        "href": "http://d.duotuwang.com/2017/05/23/3858/",
        "count": 45,
        "start": 1,
        "hasMtTag": 1,
        "hasJgTag": 1,
        "mtCount": 59,
        "jgCount": 6
    },
    {
        "name": "[MICAT]\u732b\u840c\u699c VOL.002 \u9ea6\u63d0\u5a1cMitina",
        "src": "http://d.duotuwang.com/2017/05/17/3823/0.jpg",
        "mtId": "81ff3ed1fa732617",
        "mtName": "\u9ea6\u63d0\u5a1cMitina",
        "jgId": "micat",
        "jgName": "\u732b\u840c\u699c",
        "href": "http://d.duotuwang.com/2017/05/17/3823/",
        "count": 50,
        "start": 1,
        "hasMtTag": 1,
        "hasJgTag": 1,
        "mtCount": 1,
        "jgCount": 6
    },
    {
        "name": "[MICAT]\u732b\u840c\u699c VOL.001 \u840c\u742a\u742aIrene",
        "src": "http://d.duotuwang.com/2017/05/10/3836/0.jpg",
        "mtId": "66729276e15617cd",
        "mtName": "\u840c\u742a\u742aIrene",
        "jgId": "micat",
        "jgName": "\u732b\u840c\u699c",
        "href": "http://d.duotuwang.com/2017/05/10/3836/",
        "count": 50,
        "start": 1,
        "hasMtTag": 1,
        "hasJgTag": 1,
        "mtCount": 7,
        "jgCount": 6
    }
]