[
    {
        "name": "[ARTGRAVIA] VOL.406 Kang In-kyung",
        "src": "http://d.duotuwang.com/2022/03/30/30281/0.jpg",
        "mtId": "50fbb2e20587aea8",
        "mtName": "KangInkyung",
        "href": "http://d.duotuwang.com/2022/03/30/30281/",
        "count": 94,
        "start": 1,
        "hasMtTag": 1,
        "hasJgTag": 0,
        "mtCount": 12
    },
    {
        "name": "[ARTGRAVIA] VOL.405",
        "src": "http://d.duotuwang.com/2022/03/28/30203/0.jpg",
        "href": "http://d.duotuwang.com/2022/03/28/30203/",
        "count": 85,
        "start": 1,
        "hasMtTag": 0,
        "hasJgTag": 0
    },
    {
        "name": "[ARTGRAVIA] VOL.401 Kang In-kyung",
        "src": "http://d.duotuwang.com/2022/03/20/29750/0.jpg",
        "mtId": "50fbb2e20587aea8",
        "mtName": "KangInkyung",
        "href": "http://d.duotuwang.com/2022/03/20/29750/",
        "count": 62,
        "start": 1,
        "hasMtTag": 1,
        "hasJgTag": 0,
        "mtCount": 12
    },
    {
        "name": "[ARTGRAVIA] VOL.400 JangJoo",
        "src": "http://d.duotuwang.com/2022/03/15/29749/0.jpg",
        "mtId": "d30758717c45726c",
        "mtName": "JangJoo",
        "href": "http://d.duotuwang.com/2022/03/15/29749/",
        "count": 57,
        "start": 1,
        "hasMtTag": 1,
        "hasJgTag": 0,
        "mtCount": 4
    },
    {
        "name": "[ARTGRAVIA] VOL.399 Korea",
        "src": "http://d.duotuwang.com/2022/03/12/29747/0.jpg",
        "href": "http://d.duotuwang.com/2022/03/12/29747/",
        "count": 57,
        "start": 1,
        "hasMtTag": 0,
        "hasJgTag": 0
    },
    {
        "name": "[ARTGRAVIA] VOL.394 Kang In-kyung",
        "src": "http://d.duotuwang.com/2022/03/03/29748/0.jpg",
        "mtId": "50fbb2e20587aea8",
        "mtName": "KangInkyung",
        "href": "http://d.duotuwang.com/2022/03/03/29748/",
        "count": 37,
        "start": 1,
        "hasMtTag": 1,
        "hasJgTag": 0,
        "mtCount": 12
    }
]