[
    {
        "name": "[ARTGRAVIA] VOL.198 Bambi",
        "src": "http://d.duotuwang.com/2020/08/17/25326/0.jpg",
        "mtId": "809bd0d3406d1144",
        "mtName": "Bambi",
        "href": "http://d.duotuwang.com/2020/08/17/25326/",
        "count": 77,
        "start": 1,
        "hasMtTag": 1,
        "hasJgTag": 0,
        "mtCount": 10
    },
    {
        "name": "[ARTGRAVIA] VOL.197 \u5b6b\u6a02\u6a02",
        "src": "http://d.duotuwang.com/2020/08/15/25325/0.jpg",
        "mtId": "880a9936ac785e47",
        "mtName": "\u5b6b\u6a02\u6a02",
        "href": "http://d.duotuwang.com/2020/08/15/25325/",
        "count": 65,
        "start": 1,
        "hasMtTag": 1,
        "hasJgTag": 0,
        "mtCount": 5
    },
    {
        "name": "[ARTGRAVIA] VOL.195 PIA 1/2",
        "src": "http://d.duotuwang.com/2020/08/10/28762/0.jpg",
        "mtId": "517b32708cb4f13f",
        "mtName": "PIA",
        "href": "http://d.duotuwang.com/2020/08/10/28762/",
        "count": 31,
        "start": 1,
        "hasMtTag": 1,
        "hasJgTag": 0,
        "mtCount": 7
    },
    {
        "name": "[ARTGRAVIA] VOL.195 PIA 2/2",
        "src": "http://d.duotuwang.com/2020/08/10/28778/0.jpg",
        "mtId": "517b32708cb4f13f",
        "mtName": "PIA",
        "href": "http://d.duotuwang.com/2020/08/10/28778/",
        "count": 32,
        "start": 1,
        "hasMtTag": 1,
        "hasJgTag": 0,
        "mtCount": 7
    },
    {
        "name": "[ARTGRAVIA] VOL.193 Jangjoo",
        "src": "http://d.duotuwang.com/2020/08/05/25324/0.jpg",
        "mtId": "d30758717c45726c",
        "mtName": "Jangjoo",
        "href": "http://d.duotuwang.com/2020/08/05/25324/",
        "count": 87,
        "start": 1,
        "hasMtTag": 1,
        "hasJgTag": 0,
        "mtCount": 4
    },
    {
        "name": "[ARTGRAVIA] VOL.192 Bambi 1/2",
        "src": "http://d.duotuwang.com/2020/08/03/28761/0.jpg",
        "mtId": "809bd0d3406d1144",
        "mtName": "Bambi",
        "href": "http://d.duotuwang.com/2020/08/03/28761/",
        "count": 38,
        "start": 1,
        "hasMtTag": 1,
        "hasJgTag": 0,
        "mtCount": 10
    }
]