[
    {
        "name": "[MiiTao]\u871c\u6843\u793e VOL.015 WINNI",
        "src": "http://d.duotuwang.com/2016/06/17/1490/0.jpg",
        "mtId": "15c54d0a948e2a62",
        "mtName": "WINNI",
        "jgId": "miitao",
        "jgName": "\u871c\u6843\u793e",
        "href": "http://d.duotuwang.com/2016/06/17/1490/",
        "count": 56,
        "start": 1,
        "hasMtTag": 1,
        "hasJgTag": 1,
        "mtCount": 1,
        "jgCount": 25
    }
]