[
    {
        "name": "[MyGirl]\u7f8e\u5a9b\u9986 VOL.444 \u65b9\u5b50\u8431 1/2",
        "src": "http://d.duotuwang.com/2020/07/22/21275/0.jpg",
        "mtId": "9987f205a66cb83f",
        "mtName": "\u65b9\u5b50\u8431",
        "jgId": "mygirl",
        "jgName": "\u7f8e\u5a9b\u9986",
        "href": "http://d.duotuwang.com/2020/07/22/21275/",
        "count": 62,
        "start": 1,
        "hasMtTag": 1,
        "hasJgTag": 1,
        "mtCount": 13,
        "jgCount": 110
    },
    {
        "name": "[MFStar]\u6a21\u8303\u5b66\u9662 VOL.350 \u65b9\u5b50\u8431",
        "src": "http://d.duotuwang.com/2020/07/20/21235/0.jpg",
        "mtId": "9987f205a66cb83f",
        "mtName": "\u65b9\u5b50\u8431",
        "jgId": "mfstar",
        "jgName": "\u6a21\u8303\u5b66\u9662",
        "href": "http://d.duotuwang.com/2020/07/20/21235/",
        "count": 66,
        "start": 1,
        "hasMtTag": 1,
        "hasJgTag": 1,
        "mtCount": 13,
        "jgCount": 94
    },
    {
        "name": "[MFStar]\u6a21\u8303\u5b66\u9662 VOL.340 \u65b9\u5b50\u8431",
        "src": "http://d.duotuwang.com/2020/07/06/21072/0.jpg",
        "mtId": "9987f205a66cb83f",
        "mtName": "\u65b9\u5b50\u8431",
        "jgId": "mfstar",
        "jgName": "\u6a21\u8303\u5b66\u9662",
        "href": "http://d.duotuwang.com/2020/07/06/21072/",
        "count": 61,
        "start": 1,
        "hasMtTag": 1,
        "hasJgTag": 1,
        "mtCount": 13,
        "jgCount": 94
    },
    {
        "name": "[IMISS]\u7231\u871c\u793e VOL.476 \u65b9\u5b50\u8431",
        "src": "http://d.duotuwang.com/2020/07/01/21059/0.jpg",
        "mtId": "9987f205a66cb83f",
        "mtName": "\u65b9\u5b50\u8431",
        "jgId": "imiss",
        "jgName": "\u7231\u871c\u793e",
        "href": "http://d.duotuwang.com/2020/07/01/21059/",
        "count": 47,
        "start": 1,
        "hasMtTag": 1,
        "hasJgTag": 1,
        "mtCount": 13,
        "jgCount": 116
    },
    {
        "name": "[IMISS]\u7231\u871c\u793e VOL.472 \u65b9\u5b50\u8431",
        "src": "http://d.duotuwang.com/2020/05/20/20643/0.jpg",
        "mtId": "9987f205a66cb83f",
        "mtName": "\u65b9\u5b50\u8431",
        "jgId": "imiss",
        "jgName": "\u7231\u871c\u793e",
        "href": "http://d.duotuwang.com/2020/05/20/20643/",
        "count": 54,
        "start": 1,
        "hasMtTag": 1,
        "hasJgTag": 1,
        "mtCount": 13,
        "jgCount": 116
    },
    {
        "name": "[MFStar]\u6a21\u8303\u5b66\u9662 VOL.332 \u65b9\u5b50\u8431",
        "src": "http://d.duotuwang.com/2020/05/19/20647/0.jpg",
        "mtId": "9987f205a66cb83f",
        "mtName": "\u65b9\u5b50\u8431",
        "jgId": "mfstar",
        "jgName": "\u6a21\u8303\u5b66\u9662",
        "href": "http://d.duotuwang.com/2020/05/19/20647/",
        "count": 71,
        "start": 1,
        "hasMtTag": 1,
        "hasJgTag": 1,
        "mtCount": 13,
        "jgCount": 94
    }
]