[
    {
        "name": "[XIUREN]\u79c0\u4eba\u7f51 No.3813 \u65b9\u5b50\u8431",
        "src": "http://d.duotuwang.com/2021/08/18/26282/0.jpg",
        "mtId": "9987f205a66cb83f",
        "mtName": "\u65b9\u5b50\u8431",
        "jgId": "xiuren",
        "jgName": "\u79c0\u4eba\u7f51",
        "href": "http://d.duotuwang.com/2021/08/18/26282/",
        "count": 71,
        "start": 1,
        "hasMtTag": 1,
        "hasJgTag": 1,
        "mtCount": 13,
        "jgCount": 750
    },
    {
        "name": "[UGirlsAPP]\u7231\u5c24\u7269 No.2152 \u7ec7\u5973\u68a6",
        "src": "http://d.duotuwang.com/2021/08/14/26217/0.jpg",
        "mtId": "a54d8f09b1be067f",
        "mtName": "\u59ae\u5c0f\u5996",
        "jgId": "ugirlsapp",
        "jgName": "\u7231\u5c24\u7269",
        "href": "http://d.duotuwang.com/2021/08/14/26217/",
        "count": 35,
        "start": 1,
        "hasMtTag": 1,
        "hasJgTag": 1,
        "mtCount": 3,
        "jgCount": 397
    },
    {
        "name": "[MyGirl]\u7f8e\u5a9b\u9986 VOL.567 \u65b9\u5b50\u8431",
        "src": "http://d.duotuwang.com/2021/08/04/26084/0.jpg",
        "mtId": "9987f205a66cb83f",
        "mtName": "\u65b9\u5b50\u8431",
        "jgId": "mygirl",
        "jgName": "\u7f8e\u5a9b\u9986",
        "href": "http://d.duotuwang.com/2021/08/04/26084/",
        "count": 44,
        "start": 1,
        "hasMtTag": 1,
        "hasJgTag": 1,
        "mtCount": 13,
        "jgCount": 110
    },
    {
        "name": "[XIUREN]\u79c0\u4eba\u7f51 No.3616 \u65b9\u5b50\u8431",
        "src": "http://d.duotuwang.com/2021/07/02/25739/0.jpg",
        "mtId": "9987f205a66cb83f",
        "mtName": "\u65b9\u5b50\u8431",
        "jgId": "xiuren",
        "jgName": "\u79c0\u4eba\u7f51",
        "href": "http://d.duotuwang.com/2021/07/02/25739/",
        "count": 51,
        "start": 1,
        "hasMtTag": 1,
        "hasJgTag": 1,
        "mtCount": 13,
        "jgCount": 750
    },
    {
        "name": "[MFStar]\u6a21\u8303\u5b66\u9662 VOL.509 \u65b9\u5b50\u8431",
        "src": "http://d.duotuwang.com/2021/06/28/25643/0.jpg",
        "mtId": "9987f205a66cb83f",
        "mtName": "\u65b9\u5b50\u8431",
        "jgId": "mfstar",
        "jgName": "\u6a21\u8303\u5b66\u9662",
        "href": "http://d.duotuwang.com/2021/06/28/25643/",
        "count": 51,
        "start": 1,
        "hasMtTag": 1,
        "hasJgTag": 1,
        "mtCount": 13,
        "jgCount": 94
    },
    {
        "name": "[MyGirl]\u7f8e\u5a9b\u9986 VOL.545 \u65b9\u5b50\u8431",
        "src": "http://d.duotuwang.com/2021/06/23/25509/0.jpg",
        "mtId": "9987f205a66cb83f",
        "mtName": "\u65b9\u5b50\u8431",
        "jgId": "mygirl",
        "jgName": "\u7f8e\u5a9b\u9986",
        "href": "http://d.duotuwang.com/2021/06/23/25509/",
        "count": 50,
        "start": 1,
        "hasMtTag": 1,
        "hasJgTag": 1,
        "mtCount": 13,
        "jgCount": 110
    }
]