[
    {
        "name": "[XIUREN]\u79c0\u4eba\u7f51 No.2784 \u65b9\u5b50\u8431",
        "src": "http://d.duotuwang.com/2020/11/16/23239/0.jpg",
        "mtId": "9987f205a66cb83f",
        "mtName": "\u65b9\u5b50\u8431",
        "jgId": "xiuren",
        "jgName": "\u79c0\u4eba\u7f51",
        "href": "http://d.duotuwang.com/2020/11/16/23239/",
        "count": 81,
        "start": 1,
        "hasMtTag": 1,
        "hasJgTag": 1,
        "mtCount": 13,
        "jgCount": 750
    },
    {
        "name": "[XIUREN]\u79c0\u4eba\u7f51 No.2760 \u65b9\u5b50\u8431",
        "src": "http://d.duotuwang.com/2020/11/10/23122/0.jpg",
        "mtId": "9987f205a66cb83f",
        "mtName": "\u65b9\u5b50\u8431",
        "jgId": "xiuren",
        "jgName": "\u79c0\u4eba\u7f51",
        "href": "http://d.duotuwang.com/2020/11/10/23122/",
        "count": 52,
        "start": 1,
        "hasMtTag": 1,
        "hasJgTag": 1,
        "mtCount": 13,
        "jgCount": 750
    },
    {
        "name": "[MFStar]\u6a21\u8303\u5b66\u9662 VOL.411 \u65b9\u5b50\u8431",
        "src": "http://d.duotuwang.com/2020/11/06/23073/0.jpg",
        "mtId": "9987f205a66cb83f",
        "mtName": "\u65b9\u5b50\u8431",
        "jgId": "mfstar",
        "jgName": "\u6a21\u8303\u5b66\u9662",
        "href": "http://d.duotuwang.com/2020/11/06/23073/",
        "count": 53,
        "start": 1,
        "hasMtTag": 1,
        "hasJgTag": 1,
        "mtCount": 13,
        "jgCount": 94
    },
    {
        "name": "[XIUREN]\u79c0\u4eba\u7f51 No.2730 \u65b9\u5b50\u8431",
        "src": "http://d.duotuwang.com/2020/11/03/23014/0.jpg",
        "mtId": "9987f205a66cb83f",
        "mtName": "\u65b9\u5b50\u8431",
        "jgId": "xiuren",
        "jgName": "\u79c0\u4eba\u7f51",
        "href": "http://d.duotuwang.com/2020/11/03/23014/",
        "count": 46,
        "start": 1,
        "hasMtTag": 1,
        "hasJgTag": 1,
        "mtCount": 13,
        "jgCount": 750
    },
    {
        "name": "[MFStar]\u6a21\u8303\u5b66\u9662 VOL.408 \u65b9\u5b50\u8431",
        "src": "http://d.duotuwang.com/2020/10/30/22981/0.jpg",
        "mtId": "9987f205a66cb83f",
        "mtName": "\u65b9\u5b50\u8431",
        "jgId": "mfstar",
        "jgName": "\u6a21\u8303\u5b66\u9662",
        "href": "http://d.duotuwang.com/2020/10/30/22981/",
        "count": 61,
        "start": 1,
        "hasMtTag": 1,
        "hasJgTag": 1,
        "mtCount": 13,
        "jgCount": 94
    },
    {
        "name": "[IMISS]\u7231\u871c\u793e VOL.512 \u65b9\u5b50\u8431",
        "src": "http://d.duotuwang.com/2020/10/19/22817/0.jpg",
        "mtId": "9987f205a66cb83f",
        "mtName": "\u65b9\u5b50\u8431",
        "jgId": "imiss",
        "jgName": "\u7231\u871c\u793e",
        "href": "http://d.duotuwang.com/2020/10/19/22817/",
        "count": 60,
        "start": 1,
        "hasMtTag": 1,
        "hasJgTag": 1,
        "mtCount": 13,
        "jgCount": 116
    }
]