[
    {
        "name": "[UGirlsAPP]\u7231\u5c24\u7269 No.1390 \u5218\u5b50\u6f47 \u591c\u8dd1",
        "src": "http://d.duotuwang.com/2019/03/10/11069/0.jpg",
        "mtId": "7dfe4e6cf44a873a",
        "mtName": "\u5218\u5b50\u6f47",
        "jgId": "ugirlsapp",
        "jgName": "\u7231\u5c24\u7269",
        "href": "http://d.duotuwang.com/2019/03/10/11069/",
        "count": 35,
        "start": 1,
        "hasMtTag": 1,
        "hasJgTag": 1,
        "mtCount": 1,
        "jgCount": 397
    }
]