[
    {
        "name": "[MFStar]\u6a21\u8303\u5b66\u9662 VOL.535 \u827e\u5c14\u838eelsa",
        "src": "http://d.duotuwang.com/2021/10/15/27004/0.jpg",
        "mtId": "e29556eba0e7e965",
        "mtName": "\u827e\u5c14\u838eelsa",
        "jgId": "mfstar",
        "jgName": "\u6a21\u8303\u5b66\u9662",
        "href": "http://d.duotuwang.com/2021/10/15/27004/",
        "count": 40,
        "start": 1,
        "hasMtTag": 1,
        "hasJgTag": 1,
        "mtCount": 1,
        "jgCount": 94
    }
]