[
    {
        "name": "[MyGirl]\u7f8e\u5a9b\u9986 VOL.196 Yuli\u9ec4\u4f73\u4e3d",
        "src": "http://d.duotuwang.com/2016/03/15/1312/0.jpg",
        "mtId": "cd8eab76e06d68e2",
        "mtName": "Yuli\u9ec4\u4f73\u4e3d",
        "jgId": "mygirl",
        "jgName": "\u7f8e\u5a9b\u9986",
        "href": "http://d.duotuwang.com/2016/03/15/1312/",
        "count": 53,
        "start": 1,
        "hasMtTag": 1,
        "hasJgTag": 1,
        "mtCount": 1,
        "jgCount": 110
    },
    {
        "name": "[MFStar]\u6a21\u8303\u5b66\u9662 VOL.043 Yuli\u9ec4\u4f73\u4e3d",
        "src": "http://d.duotuwang.com/2016/01/27/1218/0.jpg",
        "mtId": "cd8eab76e06d68e2",
        "mtName": "Yuli\u9ec4\u4f73\u4e3d",
        "jgId": "mfstar",
        "jgName": "\u6a21\u8303\u5b66\u9662",
        "href": "http://d.duotuwang.com/2016/01/27/1218/",
        "count": 41,
        "start": 1,
        "hasMtTag": 1,
        "hasJgTag": 1,
        "mtCount": 1,
        "jgCount": 94
    }
]