[
    {
        "name": "[MFStar]\u6a21\u8303\u5b66\u9662 VOL.240 \u80e1\u6da6\u66e6201712",
        "src": "http://d.duotuwang.com/2019/12/09/18878/0.jpg",
        "mtId": "81213f7452535abd",
        "mtName": "\u80e1\u6da6\u66e6",
        "jgId": "mfstar",
        "jgName": "\u6a21\u8303\u5b66\u9662",
        "href": "http://d.duotuwang.com/2019/12/09/18878/",
        "count": 40,
        "start": 1,
        "hasMtTag": 1,
        "hasJgTag": 1,
        "mtCount": 1,
        "jgCount": 94
    },
    {
        "name": "[MFStar]\u6a21\u8303\u5b66\u9662 VOL.185 \u80e1\u6da6\u66e6201712",
        "src": "http://d.duotuwang.com/2019/04/15/16087/0.jpg",
        "mtId": "81213f7452535abd",
        "mtName": "\u80e1\u6da6\u66e6",
        "jgId": "mfstar",
        "jgName": "\u6a21\u8303\u5b66\u9662",
        "href": "http://d.duotuwang.com/2019/04/15/16087/",
        "count": 40,
        "start": 1,
        "hasMtTag": 1,
        "hasJgTag": 1,
        "mtCount": 1,
        "jgCount": 94
    },
    {
        "name": "[MyGirl]\u7f8e\u5a9b\u9986 VOL.337 \u80e1\u6da6\u66e6201712",
        "src": "http://d.duotuwang.com/2018/12/24/10227/0.jpg",
        "mtId": "81213f7452535abd",
        "mtName": "\u80e1\u6da6\u66e6",
        "jgId": "mygirl",
        "jgName": "\u7f8e\u5a9b\u9986",
        "href": "http://d.duotuwang.com/2018/12/24/10227/",
        "count": 37,
        "start": 1,
        "hasMtTag": 1,
        "hasJgTag": 1,
        "mtCount": 1,
        "jgCount": 110
    },
    {
        "name": "[UGirlsAPP]\u7231\u5c24\u7269 No.1164 \u80e1\u6da6\u66e6 \u6027\u611f\u65b0\u66e6\u671b",
        "src": "http://d.duotuwang.com/2018/07/27/9371/0.jpg",
        "mtId": "81213f7452535abd",
        "mtName": "\u80e1\u6da6\u66e6",
        "jgId": "ugirlsapp",
        "jgName": "\u7231\u5c24\u7269",
        "href": "http://d.duotuwang.com/2018/07/27/9371/",
        "count": 37,
        "start": 1,
        "hasMtTag": 1,
        "hasJgTag": 1,
        "mtCount": 1,
        "jgCount": 397
    },
    {
        "name": "[UGirlsAPP]\u7231\u5c24\u7269 No.564 \u80e1\u6da6\u66e6",
        "src": "http://d.duotuwang.com/2016/12/02/4889/0.jpg",
        "mtId": "81213f7452535abd",
        "mtName": "\u80e1\u6da6\u66e6",
        "jgId": "ugirlsapp",
        "jgName": "\u7231\u5c24\u7269",
        "href": "http://d.duotuwang.com/2016/12/02/4889/",
        "count": 40,
        "start": 1,
        "hasMtTag": 1,
        "hasJgTag": 1,
        "mtCount": 1,
        "jgCount": 397
    }
]