[
    {
        "name": "[XIUREN]\u79c0\u4eba\u7f51 No.5566 Manuela\u739b\u9c81\u5a1c",
        "src": "http://d.duotuwang.com/2022/09/09/31314/0.jpg",
        "mtId": "bf0e52c44e97112d",
        "mtName": "Manuela\u739b\u9c81\u5a1c",
        "jgId": "xiuren",
        "jgName": "\u79c0\u4eba\u7f51",
        "href": "http://d.duotuwang.com/2022/09/09/31314/",
        "count": 65,
        "start": 1,
        "hasMtTag": 1,
        "hasJgTag": 1,
        "mtCount": 10,
        "jgCount": 750
    },
    {
        "name": "[XIUREN]\u79c0\u4eba\u7f51 No.5457 Manuela\u739b\u9c81\u5a1c",
        "src": "http://d.duotuwang.com/2022/08/18/31024/0.jpg",
        "mtId": "bf0e52c44e97112d",
        "mtName": "Manuela\u739b\u9c81\u5a1c",
        "jgId": "xiuren",
        "jgName": "\u79c0\u4eba\u7f51",
        "href": "http://d.duotuwang.com/2022/08/18/31024/",
        "count": 56,
        "start": 1,
        "hasMtTag": 1,
        "hasJgTag": 1,
        "mtCount": 10,
        "jgCount": 750
    },
    {
        "name": "[XIUREN]\u79c0\u4eba\u7f51 No.5370 Manuela\u739b\u9c81\u5a1c",
        "src": "http://d.duotuwang.com/2022/08/02/30827/0.jpg",
        "mtId": "bf0e52c44e97112d",
        "mtName": "Manuela\u739b\u9c81\u5a1c",
        "jgId": "xiuren",
        "jgName": "\u79c0\u4eba\u7f51",
        "href": "http://d.duotuwang.com/2022/08/02/30827/",
        "count": 52,
        "start": 1,
        "hasMtTag": 1,
        "hasJgTag": 1,
        "mtCount": 10,
        "jgCount": 750
    },
    {
        "name": "[XIUREN]\u79c0\u4eba\u7f51 No.5336 Manuela\u739b\u9c81\u5a1c",
        "src": "http://d.duotuwang.com/2022/07/26/30730/0.jpg",
        "mtId": "bf0e52c44e97112d",
        "mtName": "Manuela\u739b\u9c81\u5a1c",
        "jgId": "xiuren",
        "jgName": "\u79c0\u4eba\u7f51",
        "href": "http://d.duotuwang.com/2022/07/26/30730/",
        "count": 77,
        "start": 1,
        "hasMtTag": 1,
        "hasJgTag": 1,
        "mtCount": 10,
        "jgCount": 750
    },
    {
        "name": "[XIUREN]\u79c0\u4eba\u7f51 No.4662 Manuela\u739b\u9c81\u5a1c",
        "src": "http://d.duotuwang.com/2022/03/03/28808/0.jpg",
        "mtId": "bf0e52c44e97112d",
        "mtName": "Manuela\u739b\u9c81\u5a1c",
        "jgId": "xiuren",
        "jgName": "\u79c0\u4eba\u7f51",
        "href": "http://d.duotuwang.com/2022/03/03/28808/",
        "count": 64,
        "start": 1,
        "hasMtTag": 1,
        "hasJgTag": 1,
        "mtCount": 10,
        "jgCount": 750
    },
    {
        "name": "[XIUREN]\u79c0\u4eba\u7f51 No.4504 Manuela\u739b\u9c81\u5a1c",
        "src": "http://d.duotuwang.com/2022/01/24/28317/0.jpg",
        "mtId": "bf0e52c44e97112d",
        "mtName": "Manuela\u739b\u9c81\u5a1c",
        "jgId": "xiuren",
        "jgName": "\u79c0\u4eba\u7f51",
        "href": "http://d.duotuwang.com/2022/01/24/28317/",
        "count": 61,
        "start": 1,
        "hasMtTag": 1,
        "hasJgTag": 1,
        "mtCount": 10,
        "jgCount": 750
    }
]