[
    {
        "name": "[XIUREN]\u79c0\u4eba\u7f51 No.1719 Manuela\u739b\u9c81\u5a1c",
        "src": "http://d.duotuwang.com/2019/10/11/18201/0.jpg",
        "mtId": "bf0e52c44e97112d",
        "mtName": "Manuela\u739b\u9c81\u5a1c",
        "jgId": "xiuren",
        "jgName": "\u79c0\u4eba\u7f51",
        "href": "http://d.duotuwang.com/2019/10/11/18201/",
        "count": 52,
        "start": 1,
        "hasMtTag": 1,
        "hasJgTag": 1,
        "mtCount": 10,
        "jgCount": 750
    },
    {
        "name": "[XIUREN]\u79c0\u4eba\u7f51 No.1638 Manuela\u739b\u9c81\u5a1c",
        "src": "http://d.duotuwang.com/2019/08/22/17729/0.jpg",
        "mtId": "bf0e52c44e97112d",
        "mtName": "Manuela\u739b\u9c81\u5a1c",
        "jgId": "xiuren",
        "jgName": "\u79c0\u4eba\u7f51",
        "href": "http://d.duotuwang.com/2019/08/22/17729/",
        "count": 53,
        "start": 1,
        "hasMtTag": 1,
        "hasJgTag": 1,
        "mtCount": 10,
        "jgCount": 750
    },
    {
        "name": "[XIUREN]\u79c0\u4eba\u7f51 No.1590 Manuela\u739b\u9c81\u5a1c",
        "src": "http://d.duotuwang.com/2019/08/01/17508/0.jpg",
        "mtId": "bf0e52c44e97112d",
        "mtName": "Manuela\u739b\u9c81\u5a1c",
        "jgId": "xiuren",
        "jgName": "\u79c0\u4eba\u7f51",
        "href": "http://d.duotuwang.com/2019/08/01/17508/",
        "count": 78,
        "start": 1,
        "hasMtTag": 1,
        "hasJgTag": 1,
        "mtCount": 10,
        "jgCount": 750
    },
    {
        "name": "[XIUREN]\u79c0\u4eba\u7f51 No.1555 Manuela\u739b\u9c81\u5a1c",
        "src": "http://d.duotuwang.com/2019/07/17/17212/0.jpg",
        "mtId": "bf0e52c44e97112d",
        "mtName": "Manuela\u739b\u9c81\u5a1c",
        "jgId": "xiuren",
        "jgName": "\u79c0\u4eba\u7f51",
        "href": "http://d.duotuwang.com/2019/07/17/17212/",
        "count": 50,
        "start": 1,
        "hasMtTag": 1,
        "hasJgTag": 1,
        "mtCount": 10,
        "jgCount": 750
    },
    {
        "name": "[XIUREN]\u79c0\u4eba\u7f51 No.1537 Manuela\u739b\u9c81\u5a1c",
        "src": "http://d.duotuwang.com/2019/07/08/17066/0.jpg",
        "mtId": "bf0e52c44e97112d",
        "mtName": "Manuela\u739b\u9c81\u5a1c",
        "jgId": "xiuren",
        "jgName": "\u79c0\u4eba\u7f51",
        "href": "http://d.duotuwang.com/2019/07/08/17066/",
        "count": 48,
        "start": 1,
        "hasMtTag": 1,
        "hasJgTag": 1,
        "mtCount": 10,
        "jgCount": 750
    },
    {
        "name": "[XIUREN]\u79c0\u4eba\u7f51 No.1523 Manuela\u739b\u9c81\u5a1c",
        "src": "http://d.duotuwang.com/2019/06/28/16975/0.jpg",
        "mtId": "bf0e52c44e97112d",
        "mtName": "Manuela\u739b\u9c81\u5a1c",
        "jgId": "xiuren",
        "jgName": "\u79c0\u4eba\u7f51",
        "href": "http://d.duotuwang.com/2019/06/28/16975/",
        "count": 50,
        "start": 1,
        "hasMtTag": 1,
        "hasJgTag": 1,
        "mtCount": 10,
        "jgCount": 750
    }
]