[
    {
        "name": "[XIUREN]\u79c0\u4eba\u7f51 No.554 Manuela\u739b\u9c81\u5a1c",
        "src": "http://d.duotuwang.com/2016/07/01/1535/0.jpg",
        "mtId": "bf0e52c44e97112d",
        "mtName": "Manuela\u739b\u9c81\u5a1c",
        "jgId": "xiuren",
        "jgName": "\u79c0\u4eba\u7f51",
        "href": "http://d.duotuwang.com/2016/07/01/1535/",
        "count": 47,
        "start": 1,
        "hasMtTag": 1,
        "hasJgTag": 1,
        "mtCount": 10,
        "jgCount": 750
    },
    {
        "name": "[XIUREN]\u79c0\u4eba\u7f51 No.536 Manuela\u739b\u9c81\u5a1c",
        "src": "http://d.duotuwang.com/2016/06/06/1437/0.jpg",
        "mtId": "bf0e52c44e97112d",
        "mtName": "Manuela\u739b\u9c81\u5a1c",
        "jgId": "xiuren",
        "jgName": "\u79c0\u4eba\u7f51",
        "href": "http://d.duotuwang.com/2016/06/06/1437/",
        "count": 50,
        "start": 1,
        "hasMtTag": 1,
        "hasJgTag": 1,
        "mtCount": 10,
        "jgCount": 750
    },
    {
        "name": "[XIUREN]\u79c0\u4eba\u7f51 No.487 Manuela\u739b\u9c81\u5a1c",
        "src": "http://d.duotuwang.com/2016/02/25/1256/0.jpg",
        "mtId": "bf0e52c44e97112d",
        "mtName": "Manuela\u739b\u9c81\u5a1c",
        "jgId": "xiuren",
        "jgName": "\u79c0\u4eba\u7f51",
        "href": "http://d.duotuwang.com/2016/02/25/1256/",
        "count": 43,
        "start": 1,
        "hasMtTag": 1,
        "hasJgTag": 1,
        "mtCount": 10,
        "jgCount": 750
    },
    {
        "name": "[XIUREN]\u79c0\u4eba\u7f51 No.464 Manuela\u739b\u9c81\u5a1c",
        "src": "http://d.duotuwang.com/2016/01/20/1230/0.jpg",
        "mtId": "bf0e52c44e97112d",
        "mtName": "Manuela\u739b\u9c81\u5a1c",
        "jgId": "xiuren",
        "jgName": "\u79c0\u4eba\u7f51",
        "href": "http://d.duotuwang.com/2016/01/20/1230/",
        "count": 70,
        "start": 1,
        "hasMtTag": 1,
        "hasJgTag": 1,
        "mtCount": 10,
        "jgCount": 750
    },
    {
        "name": "[XIUREN]\u79c0\u4eba\u7f51 No.433 Manuela\u739b\u9c81\u5a1c",
        "src": "http://d.duotuwang.com/2015/12/07/1152/0.jpg",
        "mtId": "bf0e52c44e97112d",
        "mtName": "Manuela\u739b\u9c81\u5a1c",
        "jgId": "xiuren",
        "jgName": "\u79c0\u4eba\u7f51",
        "href": "http://d.duotuwang.com/2015/12/07/1152/",
        "count": 48,
        "start": 1,
        "hasMtTag": 1,
        "hasJgTag": 1,
        "mtCount": 10,
        "jgCount": 750
    },
    {
        "name": "[XIUREN]\u79c0\u4eba\u7f51 No.380 Manuela\u739b\u9c81\u5a1c",
        "src": "http://d.duotuwang.com/2015/08/18/898/0.jpg",
        "mtId": "bf0e52c44e97112d",
        "mtName": "Manuela\u739b\u9c81\u5a1c",
        "jgId": "xiuren",
        "jgName": "\u79c0\u4eba\u7f51",
        "href": "http://d.duotuwang.com/2015/08/18/898/",
        "count": 48,
        "start": 1,
        "hasMtTag": 1,
        "hasJgTag": 1,
        "mtCount": 10,
        "jgCount": 750
    }
]