[
    {
        "name": "[XIUREN]\u79c0\u4eba\u7f51 No.238 \u55b5\u55b5Elita",
        "src": "http://d.duotuwang.com/2014/11/13/604/0.jpg",
        "mtId": "3b0c11a0f6089c85",
        "mtName": "\u55b5\u55b5Elita",
        "jgId": "xiuren",
        "jgName": "\u79c0\u4eba\u7f51",
        "href": "http://d.duotuwang.com/2014/11/13/604/",
        "count": 57,
        "start": 1,
        "hasMtTag": 1,
        "hasJgTag": 1,
        "mtCount": 1,
        "jgCount": 750
    }
]