[
    {
        "name": "[UGirlsAPP]\u7231\u5c24\u7269 No.2256 \u96ea\u5343\u5bfb\u5927\u767d\u5154 \u7981\u6b32\u4e4b\u76ae",
        "src": "http://d.duotuwang.com/2022/01/12/28166/0.jpg",
        "mtId": "8efc6394c13dbd28",
        "mtName": "\u96ea\u5343\u5bfb",
        "jgId": "ugirlsapp",
        "jgName": "\u7231\u5c24\u7269",
        "href": "http://d.duotuwang.com/2022/01/12/28166/",
        "count": 35,
        "start": 1,
        "hasMtTag": 1,
        "hasJgTag": 1,
        "mtCount": 4,
        "jgCount": 397
    },
    {
        "name": "[UGirlsAPP]\u7231\u5c24\u7269 No.2054 \u5973\u513f\u8c37 \u590f\u96e8\u970f&\u590f\u73b2\u8513&M\u68a6baby&\u96ea\u5343\u5bfb\u5927\u767d\u5154&\u5154\u5b50&\u53f6\u747e\u7476&\u5b59\u4e11\u4e11",
        "src": "http://d.duotuwang.com/2021/03/29/24590/0.jpg",
        "mtId": "89b2e2e697273b85",
        "mtName": "\u590f\u96e8\u970f",
        "jgId": "ugirlsapp",
        "jgName": "\u7231\u5c24\u7269",
        "href": "http://d.duotuwang.com/2021/03/29/24590/",
        "count": 32,
        "start": 1,
        "hasMtTag": 1,
        "hasJgTag": 1,
        "mtCount": 1,
        "jgCount": 397
    },
    {
        "name": "[UGirlsAPP]\u7231\u5c24\u7269 No.2009 \u96ea\u5343\u5bfb\u5927\u767d\u5154 \u767d\u53c8\u767d",
        "src": "http://d.duotuwang.com/2021/01/25/23914/0.jpg",
        "mtId": "8efc6394c13dbd28",
        "mtName": "\u96ea\u5343\u5bfb",
        "jgId": "ugirlsapp",
        "jgName": "\u7231\u5c24\u7269",
        "href": "http://d.duotuwang.com/2021/01/25/23914/",
        "count": 35,
        "start": 1,
        "hasMtTag": 1,
        "hasJgTag": 1,
        "mtCount": 4,
        "jgCount": 397
    },
    {
        "name": "[UGirlsAPP]\u7231\u5c24\u7269 No.1962 \u96ea\u5343\u5bfb\u5927\u767d\u5154 \u7130\u706b\u96ea\u5154",
        "src": "http://d.duotuwang.com/2020/11/21/23146/0.jpg",
        "mtId": "8efc6394c13dbd28",
        "mtName": "\u96ea\u5343\u5bfb",
        "jgId": "ugirlsapp",
        "jgName": "\u7231\u5c24\u7269",
        "href": "http://d.duotuwang.com/2020/11/21/23146/",
        "count": 35,
        "start": 1,
        "hasMtTag": 1,
        "hasJgTag": 1,
        "mtCount": 4,
        "jgCount": 397
    },
    {
        "name": "[UGirlsAPP]\u7231\u5c24\u7269 No.1856 \u96ea\u5343\u5bfb\u5927\u767d\u5154 \u5927\u773c\u77aa\u5c0f\u773c",
        "src": "http://d.duotuwang.com/2020/07/01/20973/0.jpg",
        "mtId": "8efc6394c13dbd28",
        "mtName": "\u96ea\u5343\u5bfb",
        "jgId": "ugirlsapp",
        "jgName": "\u7231\u5c24\u7269",
        "href": "http://d.duotuwang.com/2020/07/01/20973/",
        "count": 35,
        "start": 1,
        "hasMtTag": 1,
        "hasJgTag": 1,
        "mtCount": 4,
        "jgCount": 397
    },
    {
        "name": "[UGirlsAPP]\u7231\u5c24\u7269 No.1682 \u4e89\u5947\u6597\u8273",
        "src": "http://d.duotuwang.com/2019/12/27/19154/0.jpg",
        "mtId": "cfe5289ac97bffe3",
        "mtName": "\u82cf\u53ef\u53ef",
        "jgId": "ugirlsapp",
        "jgName": "\u7231\u5c24\u7269",
        "href": "http://d.duotuwang.com/2019/12/27/19154/",
        "count": 35,
        "start": 1,
        "hasMtTag": 1,
        "hasJgTag": 1,
        "mtCount": 3,
        "jgCount": 397
    }
]