[
    {
        "name": "[UGirlsAPP]\u7231\u5c24\u7269 No.692 \u97e9\u6069\u7199",
        "src": "http://d.duotuwang.com/2017/04/11/5047/0.jpg",
        "mtId": "70e29c37b06acf52",
        "mtName": "\u97e9\u6069\u7199",
        "jgId": "ugirlsapp",
        "jgName": "\u7231\u5c24\u7269",
        "href": "http://d.duotuwang.com/2017/04/11/5047/",
        "count": 39,
        "start": 1,
        "hasMtTag": 1,
        "hasJgTag": 1,
        "mtCount": 6,
        "jgCount": 397
    },
    {
        "name": "[DKGirl]DK\u5fa1\u5973\u90ce VOL.012 \u97e9\u6069\u7199",
        "src": "http://d.duotuwang.com/2017/02/16/2202/0.jpg",
        "mtId": "70e29c37b06acf52",
        "mtName": "\u97e9\u6069\u7199",
        "jgId": "dkgirl",
        "jgName": "DK\u5fa1\u5973\u90ce",
        "href": "http://d.duotuwang.com/2017/02/16/2202/",
        "count": 51,
        "start": 1,
        "hasMtTag": 1,
        "hasJgTag": 1,
        "mtCount": 6,
        "jgCount": 20
    },
    {
        "name": "[XIUREN]\u79c0\u4eba\u7f51 No.687 \u97e9\u6069\u7199",
        "src": "http://d.duotuwang.com/2017/01/24/2065/0.jpg",
        "mtId": "70e29c37b06acf52",
        "mtName": "\u97e9\u6069\u7199",
        "jgId": "xiuren",
        "jgName": "\u79c0\u4eba\u7f51",
        "href": "http://d.duotuwang.com/2017/01/24/2065/",
        "count": 68,
        "start": 1,
        "hasMtTag": 1,
        "hasJgTag": 1,
        "mtCount": 6,
        "jgCount": 750
    },
    {
        "name": "[MiStar]\u9b45\u598d\u793e VOL.116 \u97e9\u6069\u7199",
        "src": "http://d.duotuwang.com/2016/09/13/1695/0.jpg",
        "mtId": "70e29c37b06acf52",
        "mtName": "\u97e9\u6069\u7199",
        "jgId": "mistar",
        "jgName": "\u9b45\u598d\u793e",
        "href": "http://d.duotuwang.com/2016/09/13/1695/",
        "count": 50,
        "start": 1,
        "hasMtTag": 1,
        "hasJgTag": 1,
        "mtCount": 6,
        "jgCount": 55
    },
    {
        "name": "[MiStar]\u9b45\u598d\u793e VOL.098 \u97e9\u6069\u7199",
        "src": "http://d.duotuwang.com/2016/07/04/1530/0.jpg",
        "mtId": "70e29c37b06acf52",
        "mtName": "\u97e9\u6069\u7199",
        "jgId": "mistar",
        "jgName": "\u9b45\u598d\u793e",
        "href": "http://d.duotuwang.com/2016/07/04/1530/",
        "count": 60,
        "start": 1,
        "hasMtTag": 1,
        "hasJgTag": 1,
        "mtCount": 6,
        "jgCount": 55
    },
    {
        "name": "[UGirlsAPP]\u7231\u5c24\u7269 No.354 \u97e9\u6069\u7199&\u7c73\u5a05",
        "src": "http://d.duotuwang.com/2016/04/29/5326/0.jpg",
        "mtId": "70e29c37b06acf52",
        "mtName": "\u97e9\u6069\u7199",
        "jgId": "ugirlsapp",
        "jgName": "\u7231\u5c24\u7269",
        "href": "http://d.duotuwang.com/2016/04/29/5326/",
        "count": 40,
        "start": 1,
        "hasMtTag": 1,
        "hasJgTag": 1,
        "mtCount": 6,
        "jgCount": 397
    }
]