[
    {
        "name": "[TGod]\u63a8\u5973\u795e 2016-03-22 \u6c6a\u4f69\u59aePenny",
        "src": "http://d.duotuwang.com/2016/03/22/2507/0.jpg",
        "mtId": "3c8870b6ff6b15a0",
        "mtName": "\u6c6a\u4f69\u59aePenny",
        "jgId": "tgod",
        "jgName": "\u63a8\u5973\u795e",
        "href": "http://d.duotuwang.com/2016/03/22/2507/",
        "count": 15,
        "start": 1,
        "hasMtTag": 1,
        "hasJgTag": 1,
        "mtCount": 1,
        "jgCount": 78
    },
    {
        "name": "[TGod]\u63a8\u5973\u795e 2016-03-11 \u6c6a\u4f69\u59aePenny",
        "src": "http://d.duotuwang.com/2016/03/11/2483/0.jpg",
        "mtId": "3c8870b6ff6b15a0",
        "mtName": "\u6c6a\u4f69\u59aePenny",
        "jgId": "tgod",
        "jgName": "\u63a8\u5973\u795e",
        "href": "http://d.duotuwang.com/2016/03/11/2483/",
        "count": 42,
        "start": 1,
        "hasMtTag": 1,
        "hasJgTag": 1,
        "mtCount": 1,
        "jgCount": 78
    },
    {
        "name": "[TGod]\u63a8\u5973\u795e 2016-01-26 \u6c6a\u4f69\u59aePenny",
        "src": "http://d.duotuwang.com/2016/01/26/2451/0.jpg",
        "mtId": "3c8870b6ff6b15a0",
        "mtName": "\u6c6a\u4f69\u59aePenny",
        "jgId": "tgod",
        "jgName": "\u63a8\u5973\u795e",
        "href": "http://d.duotuwang.com/2016/01/26/2451/",
        "count": 42,
        "start": 1,
        "hasMtTag": 1,
        "hasJgTag": 1,
        "mtCount": 1,
        "jgCount": 78
    },
    {
        "name": "[TGod]\u63a8\u5973\u795e 2016-01-20 \u6c6a\u4f69\u59aePenny",
        "src": "http://d.duotuwang.com/2016/01/20/2455/0.jpg",
        "mtId": "3c8870b6ff6b15a0",
        "mtName": "\u6c6a\u4f69\u59aePenny",
        "jgId": "tgod",
        "jgName": "\u63a8\u5973\u795e",
        "href": "http://d.duotuwang.com/2016/01/20/2455/",
        "count": 54,
        "start": 1,
        "hasMtTag": 1,
        "hasJgTag": 1,
        "mtCount": 1,
        "jgCount": 78
    }
]