[
    {
        "name": "[MiiTao]\u871c\u6843\u793e VOL.059 Gina",
        "src": "http://d.duotuwang.com/2017/04/10/3735/0.jpg",
        "mtId": "f866490953826a88",
        "mtName": "Gina",
        "jgId": "miitao",
        "jgName": "\u871c\u6843\u793e",
        "href": "http://d.duotuwang.com/2017/04/10/3735/",
        "count": 50,
        "start": 1,
        "hasMtTag": 1,
        "hasJgTag": 1,
        "mtCount": 1,
        "jgCount": 25
    },
    {
        "name": "[MiiTao]\u871c\u6843\u793e VOL.058 \u5c0f\u8349\u8393Berry",
        "src": "http://d.duotuwang.com/2017/04/01/3709/0.jpg",
        "mtId": "45f384acc822e150",
        "mtName": "\u5c0f\u8349\u8393Berry",
        "jgId": "miitao",
        "jgName": "\u871c\u6843\u793e",
        "href": "http://d.duotuwang.com/2017/04/01/3709/",
        "count": 50,
        "start": 1,
        "hasMtTag": 1,
        "hasJgTag": 1,
        "mtCount": 1,
        "jgCount": 25
    },
    {
        "name": "[MiiTao]\u871c\u6843\u793e VOL.057 Lra",
        "src": "http://d.duotuwang.com/2017/03/27/3687/0.jpg",
        "mtId": "d14ccec17497d3db",
        "mtName": "Lra",
        "jgId": "miitao",
        "jgName": "\u871c\u6843\u793e",
        "href": "http://d.duotuwang.com/2017/03/27/3687/",
        "count": 50,
        "start": 1,
        "hasMtTag": 1,
        "hasJgTag": 1,
        "mtCount": 1,
        "jgCount": 25
    },
    {
        "name": "[MiiTao]\u871c\u6843\u793e VOL.056 \u6728\u5948\u5948",
        "src": "http://d.duotuwang.com/2017/03/20/3664/0.jpg",
        "mtId": "2f6f7bcdebdcc21d",
        "mtName": "\u6728\u5948\u5948",
        "jgId": "miitao",
        "jgName": "\u871c\u6843\u793e",
        "href": "http://d.duotuwang.com/2017/03/20/3664/",
        "count": 60,
        "start": 1,
        "hasMtTag": 1,
        "hasJgTag": 1,
        "mtCount": 1,
        "jgCount": 25
    },
    {
        "name": "[MiiTao]\u871c\u6843\u793e VOL.055 Lra",
        "src": "http://d.duotuwang.com/2017/03/13/3641/0.jpg",
        "mtId": "d14ccec17497d3db",
        "mtName": "Lra",
        "jgId": "miitao",
        "jgName": "\u871c\u6843\u793e",
        "href": "http://d.duotuwang.com/2017/03/13/3641/",
        "count": 50,
        "start": 1,
        "hasMtTag": 1,
        "hasJgTag": 1,
        "mtCount": 1,
        "jgCount": 25
    },
    {
        "name": "[MiiTao]\u871c\u6843\u793e VOL.054 \u6843\u4e43\u9999Tina",
        "src": "http://d.duotuwang.com/2017/03/06/3619/0.jpg",
        "mtId": "b2a48b6ac234dc31",
        "mtName": "\u6843\u4e43\u9999Tina",
        "jgId": "miitao",
        "jgName": "\u871c\u6843\u793e",
        "href": "http://d.duotuwang.com/2017/03/06/3619/",
        "count": 52,
        "start": 1,
        "hasMtTag": 1,
        "hasJgTag": 1,
        "mtCount": 2,
        "jgCount": 25
    }
]