[
    {
        "name": "[MiiTao]\u871c\u6843\u793e VOL.035 Rola",
        "src": "http://d.duotuwang.com/2016/10/31/1781/0.jpg",
        "mtId": "b17c98db0d3e11db",
        "mtName": "Rola",
        "jgId": "miitao",
        "jgName": "\u871c\u6843\u793e",
        "href": "http://d.duotuwang.com/2016/10/31/1781/",
        "count": 50,
        "start": 1,
        "hasMtTag": 1,
        "hasJgTag": 1,
        "mtCount": 1,
        "jgCount": 25
    },
    {
        "name": "[MiiTao]\u871c\u6843\u793e VOL.034 Rola",
        "src": "http://d.duotuwang.com/2016/10/24/1769/0.jpg",
        "mtId": "b17c98db0d3e11db",
        "mtName": "Rola",
        "jgId": "miitao",
        "jgName": "\u871c\u6843\u793e",
        "href": "http://d.duotuwang.com/2016/10/24/1769/",
        "count": 50,
        "start": 1,
        "hasMtTag": 1,
        "hasJgTag": 1,
        "mtCount": 1,
        "jgCount": 25
    },
    {
        "name": "[MiiTao]\u871c\u6843\u793e VOL.033 Rola",
        "src": "http://d.duotuwang.com/2016/10/18/1739/0.jpg",
        "mtId": "b17c98db0d3e11db",
        "mtName": "Rola",
        "jgId": "miitao",
        "jgName": "\u871c\u6843\u793e",
        "href": "http://d.duotuwang.com/2016/10/18/1739/",
        "count": 49,
        "start": 1,
        "hasMtTag": 1,
        "hasJgTag": 1,
        "mtCount": 1,
        "jgCount": 25
    },
    {
        "name": "[MiiTao]\u871c\u6843\u793e VOL.032 Rola",
        "src": "http://d.duotuwang.com/2016/10/09/1722/0.jpg",
        "mtId": "b17c98db0d3e11db",
        "mtName": "Rola",
        "jgId": "miitao",
        "jgName": "\u871c\u6843\u793e",
        "href": "http://d.duotuwang.com/2016/10/09/1722/",
        "count": 65,
        "start": 1,
        "hasMtTag": 1,
        "hasJgTag": 1,
        "mtCount": 1,
        "jgCount": 25
    },
    {
        "name": "[MiiTao]\u871c\u6843\u793e VOL.031 Suki",
        "src": "http://d.duotuwang.com/2016/09/30/1698/0.jpg",
        "mtId": "8a1c2ca4d1a31b63",
        "mtName": "Suki",
        "jgId": "miitao",
        "jgName": "\u871c\u6843\u793e",
        "href": "http://d.duotuwang.com/2016/09/30/1698/",
        "count": 70,
        "start": 1,
        "hasMtTag": 1,
        "hasJgTag": 1,
        "mtCount": 1,
        "jgCount": 25
    },
    {
        "name": "[MiiTao]\u871c\u6843\u793e VOL.030 \u4f0a\u7433",
        "src": "http://d.duotuwang.com/2016/09/26/1709/0.jpg",
        "mtId": "8658931f6964de95",
        "mtName": "\u4f0a\u7433",
        "jgId": "miitao",
        "jgName": "\u871c\u6843\u793e",
        "href": "http://d.duotuwang.com/2016/09/26/1709/",
        "count": 66,
        "start": 1,
        "hasMtTag": 1,
        "hasJgTag": 1,
        "mtCount": 1,
        "jgCount": 25
    }
]