[
    {
        "name": "[MiiTao]\u871c\u6843\u793e VOL.017 \u6c90\u5b50\u7199V",
        "src": "http://d.duotuwang.com/2016/06/24/1513/0.jpg",
        "mtId": "55c4c0981ae05809",
        "mtName": "\u6c90\u5b50\u7199V",
        "jgId": "miitao",
        "jgName": "\u871c\u6843\u793e",
        "href": "http://d.duotuwang.com/2016/06/24/1513/",
        "count": 51,
        "start": 1,
        "hasMtTag": 1,
        "hasJgTag": 1,
        "mtCount": 2,
        "jgCount": 25
    },
    {
        "name": "[MiiTao]\u871c\u6843\u793e VOL.016 \u6c90\u5b50\u7199V",
        "src": "http://d.duotuwang.com/2016/06/21/1481/0.jpg",
        "mtId": "55c4c0981ae05809",
        "mtName": "\u6c90\u5b50\u7199V",
        "jgId": "miitao",
        "jgName": "\u871c\u6843\u793e",
        "href": "http://d.duotuwang.com/2016/06/21/1481/",
        "count": 50,
        "start": 1,
        "hasMtTag": 1,
        "hasJgTag": 1,
        "mtCount": 2,
        "jgCount": 25
    },
    {
        "name": "[MiiTao]\u871c\u6843\u793e VOL.015 WINNI",
        "src": "http://d.duotuwang.com/2016/06/17/1490/0.jpg",
        "mtId": "15c54d0a948e2a62",
        "mtName": "WINNI",
        "jgId": "miitao",
        "jgName": "\u871c\u6843\u793e",
        "href": "http://d.duotuwang.com/2016/06/17/1490/",
        "count": 56,
        "start": 1,
        "hasMtTag": 1,
        "hasJgTag": 1,
        "mtCount": 1,
        "jgCount": 25
    },
    {
        "name": "[MiiTao]\u871c\u6843\u793e VOL.014 \u7c73\u742aMIKI",
        "src": "http://d.duotuwang.com/2016/06/14/1894/0.jpg",
        "mtId": "6c7edc57ea5bdc3d",
        "mtName": "\u7c73\u742aMIKI",
        "jgId": "miitao",
        "jgName": "\u871c\u6843\u793e",
        "href": "http://d.duotuwang.com/2016/06/14/1894/",
        "count": 60,
        "start": 1,
        "hasMtTag": 1,
        "hasJgTag": 1,
        "mtCount": 1,
        "jgCount": 25
    },
    {
        "name": "[MiiTao]\u871c\u6843\u793e VOL.013 \u6653\u96ef",
        "src": "http://d.duotuwang.com/2016/06/12/1463/0.jpg",
        "mtId": "d53972d9d8896768",
        "mtName": "\u6653\u96ef",
        "jgId": "miitao",
        "jgName": "\u871c\u6843\u793e",
        "href": "http://d.duotuwang.com/2016/06/12/1463/",
        "count": 63,
        "start": 1,
        "hasMtTag": 1,
        "hasJgTag": 1,
        "mtCount": 1,
        "jgCount": 25
    },
    {
        "name": "[MiiTao]\u871c\u6843\u793e VOL.012 \u8431\u8431Cecilia",
        "src": "http://d.duotuwang.com/2016/06/08/1471/0.jpg",
        "mtId": "27c1bfacec4d6cf6",
        "mtName": "\u8431\u8431Cecilia",
        "jgId": "miitao",
        "jgName": "\u871c\u6843\u793e",
        "href": "http://d.duotuwang.com/2016/06/08/1471/",
        "count": 50,
        "start": 1,
        "hasMtTag": 1,
        "hasJgTag": 1,
        "mtCount": 2,
        "jgCount": 25
    }
]