[
    {
        "name": "[HuaYan]\u82b1\u306e\u989c VOL.068 \u7eef\u6708\u6a31-Cherry",
        "src": "http://d.duotuwang.com/2019/06/24/16902/0.jpg",
        "mtId": "85e55daf35c53f9e",
        "mtName": "\u7eef\u6708\u6a31-Cherry",
        "jgId": "huayan",
        "jgName": "\u82b1\u306e\u989c",
        "href": "http://d.duotuwang.com/2019/06/24/16902/",
        "count": 51,
        "start": 1,
        "hasMtTag": 1,
        "hasJgTag": 1,
        "mtCount": 26,
        "jgCount": 13
    },
    {
        "name": "[HuaYan]\u82b1\u306e\u989c VOL.067 \u5c0f\u6cab\u7433",
        "src": "http://d.duotuwang.com/2019/06/18/16881/0.jpg",
        "mtId": "68cef523a35aff27",
        "mtName": "\u5c0f\u6cab\u7433",
        "jgId": "huayan",
        "jgName": "\u82b1\u306e\u989c",
        "href": "http://d.duotuwang.com/2019/06/18/16881/",
        "count": 50,
        "start": 1,
        "hasMtTag": 1,
        "hasJgTag": 1,
        "mtCount": 4,
        "jgCount": 13
    },
    {
        "name": "[HuaYan]\u82b1\u306e\u989c VOL.066 \u5c0f\u5c24\u5948",
        "src": "http://d.duotuwang.com/2019/05/07/16412/0.jpg",
        "mtId": "ebef91bb28e0661a",
        "mtName": "\u5c0f\u5c24\u5948",
        "jgId": "huayan",
        "jgName": "\u82b1\u306e\u989c",
        "href": "http://d.duotuwang.com/2019/05/07/16412/",
        "count": 45,
        "start": 1,
        "hasMtTag": 1,
        "hasJgTag": 1,
        "mtCount": 7,
        "jgCount": 13
    },
    {
        "name": "[HuaYan]\u82b1\u306e\u989c VOL.065 Angela\u559c\u6b22\u732b",
        "src": "http://d.duotuwang.com/2019/04/25/16168/0.jpg",
        "mtId": "e4d09316d8a9d330",
        "mtName": "\u5c0f\u70ed\u5df4",
        "jgId": "huayan",
        "jgName": "\u82b1\u306e\u989c",
        "href": "http://d.duotuwang.com/2019/04/25/16168/",
        "count": 41,
        "start": 1,
        "hasMtTag": 1,
        "hasJgTag": 1,
        "mtCount": 26,
        "jgCount": 13
    },
    {
        "name": "[HuaYan]\u82b1\u306e\u989c VOL.064 \u829d\u829dBooty",
        "src": "http://d.duotuwang.com/2019/04/02/15871/0.jpg",
        "mtId": "8fe458bd9af7ab1d",
        "mtName": "\u829d\u829dBooty",
        "jgId": "huayan",
        "jgName": "\u82b1\u306e\u989c",
        "href": "http://d.duotuwang.com/2019/04/02/15871/",
        "count": 52,
        "start": 1,
        "hasMtTag": 1,
        "hasJgTag": 1,
        "mtCount": 56,
        "jgCount": 13
    },
    {
        "name": "[HuaYan]\u82b1\u306e\u989c VOL.063 \u5c0f\u6cab\u7433",
        "src": "http://d.duotuwang.com/2019/03/20/14583/0.jpg",
        "mtId": "68cef523a35aff27",
        "mtName": "\u5c0f\u6cab\u7433",
        "jgId": "huayan",
        "jgName": "\u82b1\u306e\u989c",
        "href": "http://d.duotuwang.com/2019/03/20/14583/",
        "count": 45,
        "start": 1,
        "hasMtTag": 1,
        "hasJgTag": 1,
        "mtCount": 4,
        "jgCount": 13
    }
]