[
    {
        "name": "[YOUMI]\u5c24\u871c\u835f VOL.680 \u6731\u53ef\u513fFlower",
        "src": "http://d.duotuwang.com/2021/08/11/26105/0.jpg",
        "mtId": "6ded6be4a79e57ac",
        "mtName": "\u6731\u53ef\u513fFlower",
        "jgId": "youmi",
        "jgName": "\u5c24\u871c\u835f",
        "href": "http://d.duotuwang.com/2021/08/11/26105/",
        "count": 52,
        "start": 1,
        "hasMtTag": 1,
        "hasJgTag": 1,
        "mtCount": 38,
        "jgCount": 143
    },
    {
        "name": "[HuaYang]\u82b1\u6f3eshow VOL.437 \u6731\u53ef\u513fFlower",
        "src": "http://d.duotuwang.com/2021/08/09/26070/0.jpg",
        "mtId": "6ded6be4a79e57ac",
        "mtName": "\u6731\u53ef\u513fFlower",
        "jgId": "huayang",
        "jgName": "\u82b1\u6f3eshow",
        "href": "http://d.duotuwang.com/2021/08/09/26070/",
        "count": 52,
        "start": 1,
        "hasMtTag": 1,
        "hasJgTag": 1,
        "mtCount": 38,
        "jgCount": 86
    },
    {
        "name": "[HuaYang]\u82b1\u6f3eshow VOL.436 \u6731\u53ef\u513fFlower",
        "src": "http://d.duotuwang.com/2021/08/06/26069/0.jpg",
        "mtId": "6ded6be4a79e57ac",
        "mtName": "\u6731\u53ef\u513fFlower",
        "jgId": "huayang",
        "jgName": "\u82b1\u6f3eshow",
        "href": "http://d.duotuwang.com/2021/08/06/26069/",
        "count": 53,
        "start": 1,
        "hasMtTag": 1,
        "hasJgTag": 1,
        "mtCount": 38,
        "jgCount": 86
    },
    {
        "name": "[XIUREN]\u79c0\u4eba\u7f51 No.3749 \u6731\u53ef\u513fFlower",
        "src": "http://d.duotuwang.com/2021/08/03/26125/0.jpg",
        "mtId": "6ded6be4a79e57ac",
        "mtName": "\u6731\u53ef\u513fFlower",
        "jgId": "xiuren",
        "jgName": "\u79c0\u4eba\u7f51",
        "href": "http://d.duotuwang.com/2021/08/03/26125/",
        "count": 56,
        "start": 1,
        "hasMtTag": 1,
        "hasJgTag": 1,
        "mtCount": 38,
        "jgCount": 750
    },
    {
        "name": "[YOUMI]\u5c24\u871c\u835f VOL.676 \u6731\u53ef\u513fFlower",
        "src": "http://d.duotuwang.com/2021/08/02/26101/0.jpg",
        "mtId": "6ded6be4a79e57ac",
        "mtName": "\u6731\u53ef\u513fFlower",
        "jgId": "youmi",
        "jgName": "\u5c24\u871c\u835f",
        "href": "http://d.duotuwang.com/2021/08/02/26101/",
        "count": 55,
        "start": 1,
        "hasMtTag": 1,
        "hasJgTag": 1,
        "mtCount": 38,
        "jgCount": 143
    },
    {
        "name": "[YOUMI]\u5c24\u871c\u835f VOL.675 \u6731\u53ef\u513fFlower",
        "src": "http://d.duotuwang.com/2021/07/30/26100/0.jpg",
        "mtId": "6ded6be4a79e57ac",
        "mtName": "\u6731\u53ef\u513fFlower",
        "jgId": "youmi",
        "jgName": "\u5c24\u871c\u835f",
        "href": "http://d.duotuwang.com/2021/07/30/26100/",
        "count": 47,
        "start": 1,
        "hasMtTag": 1,
        "hasJgTag": 1,
        "mtCount": 38,
        "jgCount": 143
    }
]