[
    {
        "name": "[QingDouKe]\u9752\u8c46\u5ba2 2017-05-27 \u54c8\u62ff",
        "src": "http://d.duotuwang.com/2017/05/27/4035/0.jpg",
        "mtId": "5a5ff61d85269ff5",
        "mtName": "\u54c8\u62ff",
        "jgId": "qingdouke",
        "jgName": "\u9752\u8c46\u5ba2",
        "href": "http://d.duotuwang.com/2017/05/27/4035/",
        "count": 53,
        "start": 1,
        "hasMtTag": 1,
        "hasJgTag": 1,
        "mtCount": 1,
        "jgCount": 23
    },
    {
        "name": "[QingDouKe]\u9752\u8c46\u5ba2 2016-12-29 \u54c8\u62ff",
        "src": "http://d.duotuwang.com/2016/12/29/2704/0.jpg",
        "mtId": "5a5ff61d85269ff5",
        "mtName": "\u54c8\u62ff",
        "jgId": "qingdouke",
        "jgName": "\u9752\u8c46\u5ba2",
        "href": "http://d.duotuwang.com/2016/12/29/2704/",
        "count": 50,
        "start": 1,
        "hasMtTag": 1,
        "hasJgTag": 1,
        "mtCount": 1,
        "jgCount": 23
    },
    {
        "name": "[QingDouKe]\u9752\u8c46\u5ba2 2016-12-02 \u54c8\u62ff",
        "src": "http://d.duotuwang.com/2016/12/02/2712/0.jpg",
        "mtId": "5a5ff61d85269ff5",
        "mtName": "\u54c8\u62ff",
        "jgId": "qingdouke",
        "jgName": "\u9752\u8c46\u5ba2",
        "href": "http://d.duotuwang.com/2016/12/02/2712/",
        "count": 43,
        "start": 1,
        "hasMtTag": 1,
        "hasJgTag": 1,
        "mtCount": 1,
        "jgCount": 23
    },
    {
        "name": "[toutiaogirls]\u5934\u6761\u5973\u795e 2016-05-19 \u54c8\u62ff",
        "src": "http://d.duotuwang.com/2016/05/19/3316/0.jpg",
        "mtId": "5a5ff61d85269ff5",
        "mtName": "\u54c8\u62ff",
        "jgId": "toutiaogirls",
        "jgName": "\u5934\u6761\u5973\u795e",
        "href": "http://d.duotuwang.com/2016/05/19/3316/",
        "count": 60,
        "start": 1,
        "hasMtTag": 1,
        "hasJgTag": 1,
        "mtCount": 1,
        "jgCount": 133
    },
    {
        "name": "[toutiaogirls]\u5934\u6761\u5973\u795e 2016-03-15 \u54c8\u62ff",
        "src": "http://d.duotuwang.com/2016/03/15/3573/0.jpg",
        "mtId": "5a5ff61d85269ff5",
        "mtName": "\u54c8\u62ff",
        "jgId": "toutiaogirls",
        "jgName": "\u5934\u6761\u5973\u795e",
        "href": "http://d.duotuwang.com/2016/03/15/3573/",
        "count": 33,
        "start": 1,
        "hasMtTag": 1,
        "hasJgTag": 1,
        "mtCount": 1,
        "jgCount": 133
    }
]