[
    {
        "name": "[YouMei]\u5c24\u7f8e \u68a6\u5a1c \u4e13\u5c5e\u673a\u957f",
        "src": "http://d.duotuwang.com/2020/01/20/19471/0.jpg",
        "mtId": "506d69e3d12ed444",
        "mtName": "\u68a6\u5a1c",
        "jgId": "youmei",
        "jgName": "\u5c24\u7f8e\u7f51",
        "href": "http://d.duotuwang.com/2020/01/20/19471/",
        "count": 21,
        "start": 1,
        "hasMtTag": 1,
        "hasJgTag": 1,
        "mtCount": 2,
        "jgCount": 47
    },
    {
        "name": "[YouMei]\u5c24\u7f8e \u68a6\u5a1c \u591c\u732b\u5b9d\u8d1d",
        "src": "http://d.duotuwang.com/2020/01/08/19345/0.jpg",
        "mtId": "506d69e3d12ed444",
        "mtName": "\u68a6\u5a1c",
        "jgId": "youmei",
        "jgName": "\u5c24\u7f8e\u7f51",
        "href": "http://d.duotuwang.com/2020/01/08/19345/",
        "count": 27,
        "start": 1,
        "hasMtTag": 1,
        "hasJgTag": 1,
        "mtCount": 2,
        "jgCount": 47
    },
    {
        "name": "[YouMei]\u5c24\u7f8e \u68a6\u5a1c \u64c2\u53f0\u5b9d\u8d1d",
        "src": "http://d.duotuwang.com/2020/01/03/19256/0.jpg",
        "mtId": "506d69e3d12ed444",
        "mtName": "\u68a6\u5a1c",
        "jgId": "youmei",
        "jgName": "\u5c24\u7f8e\u7f51",
        "href": "http://d.duotuwang.com/2020/01/03/19256/",
        "count": 32,
        "start": 1,
        "hasMtTag": 1,
        "hasJgTag": 1,
        "mtCount": 2,
        "jgCount": 47
    }
]