[
    {
        "name": "[MFStar]\u6a21\u8303\u5b66\u9662 VOL.444 fairy\u5982\u6b4c",
        "src": "http://d.duotuwang.com/2021/01/21/23821/0.jpg",
        "mtId": "f4ae050e165dd4b4",
        "mtName": "fairy\u5982\u6b4c",
        "jgId": "mfstar",
        "jgName": "\u6a21\u8303\u5b66\u9662",
        "href": "http://d.duotuwang.com/2021/01/21/23821/",
        "count": 39,
        "start": 1,
        "hasMtTag": 1,
        "hasJgTag": 1,
        "mtCount": 4,
        "jgCount": 94
    },
    {
        "name": "[XIUREN]\u79c0\u4eba\u7f51 No.2994 fairy\u5982\u6b4c",
        "src": "http://d.duotuwang.com/2021/01/12/23863/0.jpg",
        "mtId": "f4ae050e165dd4b4",
        "mtName": "fairy\u5982\u6b4c",
        "jgId": "xiuren",
        "jgName": "\u79c0\u4eba\u7f51",
        "href": "http://d.duotuwang.com/2021/01/12/23863/",
        "count": 70,
        "start": 1,
        "hasMtTag": 1,
        "hasJgTag": 1,
        "mtCount": 4,
        "jgCount": 750
    },
    {
        "name": "[XIUREN]\u79c0\u4eba\u7f51 No.2956 fairy\u5982\u6b4c",
        "src": "http://d.duotuwang.com/2020/12/30/23727/0.jpg",
        "mtId": "f4ae050e165dd4b4",
        "mtName": "fairy\u5982\u6b4c",
        "jgId": "xiuren",
        "jgName": "\u79c0\u4eba\u7f51",
        "href": "http://d.duotuwang.com/2020/12/30/23727/",
        "count": 40,
        "start": 1,
        "hasMtTag": 1,
        "hasJgTag": 1,
        "mtCount": 4,
        "jgCount": 750
    },
    {
        "name": "[XIUREN]\u79c0\u4eba\u7f51 No.2901 fairy\u5982\u6b4c",
        "src": "http://d.duotuwang.com/2020/12/16/23544/0.jpg",
        "mtId": "f4ae050e165dd4b4",
        "mtName": "fairy\u5982\u6b4c",
        "jgId": "xiuren",
        "jgName": "\u79c0\u4eba\u7f51",
        "href": "http://d.duotuwang.com/2020/12/16/23544/",
        "count": 100,
        "start": 1,
        "hasMtTag": 1,
        "hasJgTag": 1,
        "mtCount": 4,
        "jgCount": 750
    },
    {
        "name": "[XIUREN]\u79c0\u4eba\u7f51 No.2843 fairy\u5982\u6b4c",
        "src": "http://d.duotuwang.com/2020/12/01/23380/0.jpg",
        "mtId": "f4ae050e165dd4b4",
        "mtName": "fairy\u5982\u6b4c",
        "jgId": "xiuren",
        "jgName": "\u79c0\u4eba\u7f51",
        "href": "http://d.duotuwang.com/2020/12/01/23380/",
        "count": 35,
        "start": 1,
        "hasMtTag": 1,
        "hasJgTag": 1,
        "mtCount": 4,
        "jgCount": 750
    },
    {
        "name": "[XIUREN]\u79c0\u4eba\u7f51 No.2792 fairy\u5982\u6b4c",
        "src": "http://d.duotuwang.com/2020/11/17/23247/0.jpg",
        "mtId": "f4ae050e165dd4b4",
        "mtName": "fairy\u5982\u6b4c",
        "jgId": "xiuren",
        "jgName": "\u79c0\u4eba\u7f51",
        "href": "http://d.duotuwang.com/2020/11/17/23247/",
        "count": 35,
        "start": 1,
        "hasMtTag": 1,
        "hasJgTag": 1,
        "mtCount": 4,
        "jgCount": 750
    }
]