[
    {
        "name": "[IMISS]\u7231\u871c\u793e VOL.551 \u6768\u7d2b\u5ae3Cynthia",
        "src": "http://d.duotuwang.com/2021/02/08/23981/0.jpg",
        "mtId": "aca6a5b5e8c338c9",
        "mtName": "\u6768\u7d2b\u5ae3Cynthia",
        "jgId": "imiss",
        "jgName": "\u7231\u871c\u793e",
        "href": "http://d.duotuwang.com/2021/02/08/23981/",
        "count": 60,
        "start": 1,
        "hasMtTag": 1,
        "hasJgTag": 1,
        "mtCount": 6,
        "jgCount": 116
    },
    {
        "name": "[IMISS]\u7231\u871c\u793e VOL.547 \u6768\u7d2b\u5ae3Cynthia",
        "src": "http://d.duotuwang.com/2021/01/27/23977/0.jpg",
        "mtId": "aca6a5b5e8c338c9",
        "mtName": "\u6768\u7d2b\u5ae3Cynthia",
        "jgId": "imiss",
        "jgName": "\u7231\u871c\u793e",
        "href": "http://d.duotuwang.com/2021/01/27/23977/",
        "count": 54,
        "start": 1,
        "hasMtTag": 1,
        "hasJgTag": 1,
        "mtCount": 6,
        "jgCount": 116
    },
    {
        "name": "[IMISS]\u7231\u871c\u793e VOL.546 \u6768\u7d2b\u5ae3Cynthia",
        "src": "http://d.duotuwang.com/2021/01/22/23976/0.jpg",
        "mtId": "aca6a5b5e8c338c9",
        "mtName": "\u6768\u7d2b\u5ae3Cynthia",
        "jgId": "imiss",
        "jgName": "\u7231\u871c\u793e",
        "href": "http://d.duotuwang.com/2021/01/22/23976/",
        "count": 55,
        "start": 1,
        "hasMtTag": 1,
        "hasJgTag": 1,
        "mtCount": 6,
        "jgCount": 116
    },
    {
        "name": "[XIAOYU]\u8bed\u753b\u754c VOL.455 \u6768\u7d2b\u5ae3Cynthia",
        "src": "http://d.duotuwang.com/2021/01/20/23840/0.jpg",
        "mtId": "aca6a5b5e8c338c9",
        "mtName": "\u6768\u7d2b\u5ae3Cynthia",
        "jgId": "xiaoyu",
        "jgName": "\u8bed\u753b\u754c",
        "href": "http://d.duotuwang.com/2021/01/20/23840/",
        "count": 55,
        "start": 1,
        "hasMtTag": 1,
        "hasJgTag": 1,
        "mtCount": 6,
        "jgCount": 155
    },
    {
        "name": "[IMISS]\u7231\u871c\u793e VOL.544 \u6768\u7d2b\u5ae3Cynthia",
        "src": "http://d.duotuwang.com/2021/01/15/23809/0.jpg",
        "mtId": "aca6a5b5e8c338c9",
        "mtName": "\u6768\u7d2b\u5ae3Cynthia",
        "jgId": "imiss",
        "jgName": "\u7231\u871c\u793e",
        "href": "http://d.duotuwang.com/2021/01/15/23809/",
        "count": 62,
        "start": 1,
        "hasMtTag": 1,
        "hasJgTag": 1,
        "mtCount": 6,
        "jgCount": 116
    },
    {
        "name": "[XIAOYU]\u8bed\u753b\u754c VOL.445 \u6768\u7d2b\u5ae3Cynthia",
        "src": "http://d.duotuwang.com/2021/01/06/23715/0.jpg",
        "mtId": "aca6a5b5e8c338c9",
        "mtName": "\u6768\u7d2b\u5ae3Cynthia",
        "jgId": "xiaoyu",
        "jgName": "\u8bed\u753b\u754c",
        "href": "http://d.duotuwang.com/2021/01/06/23715/",
        "count": 76,
        "start": 1,
        "hasMtTag": 1,
        "hasJgTag": 1,
        "mtCount": 6,
        "jgCount": 155
    }
]