[
    {
        "name": "[toutiaogirls]\u5934\u6761\u5973\u795e 2018-04-08 \u51af\u96ea\u5a072M\u767d\u6c99\u53d1",
        "src": "http://d.duotuwang.com/2018/04/08/8653/0.jpg",
        "mtId": "41ab5678cb11b1db",
        "mtName": "\u51af\u96ea\u5a07",
        "jgId": "toutiaogirls",
        "jgName": "\u5934\u6761\u5973\u795e",
        "href": "http://d.duotuwang.com/2018/04/08/8653/",
        "count": 62,
        "start": 1,
        "hasMtTag": 1,
        "hasJgTag": 1,
        "mtCount": 3,
        "jgCount": 133
    },
    {
        "name": "[toutiaogirls]\u5934\u6761\u5973\u795e 2018-03-29 \u51af\u96ea\u5a07",
        "src": "http://d.duotuwang.com/2018/03/29/8547/0.jpg",
        "mtId": "41ab5678cb11b1db",
        "mtName": "\u51af\u96ea\u5a07",
        "jgId": "toutiaogirls",
        "jgName": "\u5934\u6761\u5973\u795e",
        "href": "http://d.duotuwang.com/2018/03/29/8547/",
        "count": 20,
        "start": 1,
        "hasMtTag": 1,
        "hasJgTag": 1,
        "mtCount": 3,
        "jgCount": 133
    },
    {
        "name": "[toutiaogirls]\u5934\u6761\u5973\u795e 2018-02-02 \u96ea\u5a07",
        "src": "http://d.duotuwang.com/2018/02/02/8097/0.jpg",
        "mtId": "41ab5678cb11b1db",
        "mtName": "\u96ea\u5a07",
        "jgId": "toutiaogirls",
        "jgName": "\u5934\u6761\u5973\u795e",
        "href": "http://d.duotuwang.com/2018/02/02/8097/",
        "count": 26,
        "start": 1,
        "hasMtTag": 1,
        "hasJgTag": 1,
        "mtCount": 3,
        "jgCount": 133
    },
    {
        "name": "[toutiaogirls]\u5934\u6761\u5973\u795e 2017-12-24 \u5a1c\u4f9d\u7075\u513f&\u68a6\u5fc3\u73a5&\u51af\u96ea\u5a07",
        "src": "http://d.duotuwang.com/2017/12/24/6748/0.jpg",
        "mtId": "91d9c781fb3a24db",
        "mtName": "\u5a1c\u4f9d\u7075\u513f",
        "jgId": "toutiaogirls",
        "jgName": "\u5934\u6761\u5973\u795e",
        "href": "http://d.duotuwang.com/2017/12/24/6748/",
        "count": 20,
        "start": 1,
        "hasMtTag": 1,
        "hasJgTag": 1,
        "mtCount": 5,
        "jgCount": 133
    },
    {
        "name": "[toutiaogirls]\u5934\u6761\u5973\u795e 2017-12-23 \u5a1c\u4f9d\u7075\u513f&\u68a6\u5fc3\u73a5&\u51af\u96ea\u5a07",
        "src": "http://d.duotuwang.com/2017/12/23/6747/0.jpg",
        "mtId": "91d9c781fb3a24db",
        "mtName": "\u5a1c\u4f9d\u7075\u513f",
        "jgId": "toutiaogirls",
        "jgName": "\u5934\u6761\u5973\u795e",
        "href": "http://d.duotuwang.com/2017/12/23/6747/",
        "count": 28,
        "start": 1,
        "hasMtTag": 1,
        "hasJgTag": 1,
        "mtCount": 5,
        "jgCount": 133
    },
    {
        "name": "[toutiaogirls]\u5934\u6761\u5973\u795e 2017-11-06 \u96ea\u5a07",
        "src": "http://d.duotuwang.com/2017/11/06/6319/0.jpg",
        "mtId": "41ab5678cb11b1db",
        "mtName": "\u96ea\u5a07",
        "jgId": "toutiaogirls",
        "jgName": "\u5934\u6761\u5973\u795e",
        "href": "http://d.duotuwang.com/2017/11/06/6319/",
        "count": 30,
        "start": 1,
        "hasMtTag": 1,
        "hasJgTag": 1,
        "mtCount": 3,
        "jgCount": 133
    }
]