[
    {
        "name": "[UGirls]\u5c24\u679c\u7f51 U193 \u5c0f\u7d2b\u85e4",
        "src": "http://d.duotuwang.com/2016/07/20/3213/0.jpg",
        "mtId": "8508853750445221",
        "mtName": "\u5c0f\u7d2b\u85e4",
        "jgId": "ugirls",
        "jgName": "\u5c24\u679c\u7f51",
        "href": "http://d.duotuwang.com/2016/07/20/3213/",
        "count": 65,
        "start": 1,
        "hasMtTag": 1,
        "hasJgTag": 1,
        "mtCount": 1,
        "jgCount": 79
    },
    {
        "name": "[UGirlsAPP]\u7231\u5c24\u7269 No.424 \u5c0f\u7d2b\u85e4",
        "src": "http://d.duotuwang.com/2016/07/15/4744/0.jpg",
        "mtId": "8508853750445221",
        "mtName": "\u5c0f\u7d2b\u85e4",
        "jgId": "ugirlsapp",
        "jgName": "\u7231\u5c24\u7269",
        "href": "http://d.duotuwang.com/2016/07/15/4744/",
        "count": 40,
        "start": 1,
        "hasMtTag": 1,
        "hasJgTag": 1,
        "mtCount": 1,
        "jgCount": 397
    },
    {
        "name": "[UGirlsAPP]\u7231\u5c24\u7269 No.406 \u5c0f\u7d2b\u85e4",
        "src": "http://d.duotuwang.com/2016/06/27/4761/0.jpg",
        "mtId": "8508853750445221",
        "mtName": "\u5c0f\u7d2b\u85e4",
        "jgId": "ugirlsapp",
        "jgName": "\u7231\u5c24\u7269",
        "href": "http://d.duotuwang.com/2016/06/27/4761/",
        "count": 40,
        "start": 1,
        "hasMtTag": 1,
        "hasJgTag": 1,
        "mtCount": 1,
        "jgCount": 397
    },
    {
        "name": "[TGod]\u63a8\u5973\u795e 2016-05-07 \u9999\u6e2f\u5c0f\u7d2b\u85e4kristalivy",
        "src": "http://d.duotuwang.com/2016/05/07/2562/0.jpg",
        "mtId": "8508853750445221",
        "mtName": "\u5c0f\u7d2b\u85e4kristalivy",
        "jgId": "tgod",
        "jgName": "\u63a8\u5973\u795e",
        "href": "http://d.duotuwang.com/2016/05/07/2562/",
        "count": 41,
        "start": 1,
        "hasMtTag": 1,
        "hasJgTag": 1,
        "mtCount": 1,
        "jgCount": 78
    },
    {
        "name": "[TGod]\u63a8\u5973\u795e 2016-04-16 \u9999\u6e2f\u5c0f\u7d2b\u85e4kristalivy",
        "src": "http://d.duotuwang.com/2016/04/16/2546/0.jpg",
        "mtId": "8508853750445221",
        "mtName": "\u5c0f\u7d2b\u85e4kristalivy",
        "jgId": "tgod",
        "jgName": "\u63a8\u5973\u795e",
        "href": "http://d.duotuwang.com/2016/04/16/2546/",
        "count": 41,
        "start": 1,
        "hasMtTag": 1,
        "hasJgTag": 1,
        "mtCount": 1,
        "jgCount": 78
    }
]