[
    {
        "name": "[XIUREN]\u79c0\u4eba\u7f51 No.2244 bunny\u4e03\u4e03",
        "src": "http://d.duotuwang.com/2020/05/14/20610/0.jpg",
        "mtId": "95116806adafed5f",
        "mtName": "bunny\u4e03\u4e03",
        "jgId": "xiuren",
        "jgName": "\u79c0\u4eba\u7f51",
        "href": "http://d.duotuwang.com/2020/05/14/20610/",
        "count": 40,
        "start": 1,
        "hasMtTag": 1,
        "hasJgTag": 1,
        "mtCount": 1,
        "jgCount": 750
    },
    {
        "name": "[XIUREN]\u79c0\u4eba\u7f51 No.2203 bunny\u4e03\u4e03",
        "src": "http://d.duotuwang.com/2020/04/29/20412/0.jpg",
        "mtId": "95116806adafed5f",
        "mtName": "bunny\u4e03\u4e03",
        "jgId": "xiuren",
        "jgName": "\u79c0\u4eba\u7f51",
        "href": "http://d.duotuwang.com/2020/04/29/20412/",
        "count": 48,
        "start": 1,
        "hasMtTag": 1,
        "hasJgTag": 1,
        "mtCount": 1,
        "jgCount": 750
    },
    {
        "name": "[XIUREN]\u79c0\u4eba\u7f51 No.2173 bunny\u4e03\u4e03",
        "src": "http://d.duotuwang.com/2020/04/21/20309/0.jpg",
        "mtId": "95116806adafed5f",
        "mtName": "bunny\u4e03\u4e03",
        "jgId": "xiuren",
        "jgName": "\u79c0\u4eba\u7f51",
        "href": "http://d.duotuwang.com/2020/04/21/20309/",
        "count": 50,
        "start": 1,
        "hasMtTag": 1,
        "hasJgTag": 1,
        "mtCount": 1,
        "jgCount": 750
    }
]