[
    {
        "name": "[WingS]\u5f71\u79c1\u835f VOL.013 \u554a\u72f8",
        "src": "http://d.duotuwang.com/2016/08/26/1616/0.jpg",
        "mtId": "9056aaa317ced838",
        "mtName": "\u554a\u72f8",
        "jgId": "wings",
        "jgName": "\u5f71\u79c1\u835f",
        "href": "http://d.duotuwang.com/2016/08/26/1616/",
        "count": 55,
        "start": 1,
        "hasMtTag": 1,
        "hasJgTag": 1,
        "mtCount": 1,
        "jgCount": 4
    },
    {
        "name": "[WingS]\u5f71\u79c1\u835f VOL.007 \u554a\u72f8",
        "src": "http://d.duotuwang.com/2016/07/13/1551/0.jpg",
        "mtId": "9056aaa317ced838",
        "mtName": "\u554a\u72f8",
        "jgId": "wings",
        "jgName": "\u5f71\u79c1\u835f",
        "href": "http://d.duotuwang.com/2016/07/13/1551/",
        "count": 80,
        "start": 1,
        "hasMtTag": 1,
        "hasJgTag": 1,
        "mtCount": 1,
        "jgCount": 4
    }
]