[
    {
        "name": "[TGod]\u63a8\u5973\u795e 2015-05-08 \u4e07\u6167\u5a67 \u9f9a\u7d2b",
        "src": "http://d.duotuwang.com/2015/05/08/2321/0.jpg",
        "mtId": "250ef09cb27337ec",
        "mtName": "\u4e07\u6167\u5a67",
        "jgId": "tgod",
        "jgName": "\u63a8\u5973\u795e",
        "href": "http://d.duotuwang.com/2015/05/08/2321/",
        "count": 50,
        "start": 1,
        "hasMtTag": 1,
        "hasJgTag": 1,
        "mtCount": 1,
        "jgCount": 78
    }
]