[
    {
        "id": "42822747",
        "title": "\u5566\u5566\u5566\u5566\u5f00\u64ad\u4e86 \u53ef\u4ee5\u89c2\u770b\u4e86\u89e3\u4e00\u6ce2",
        "src": "http://v-huya-img.huya.com/1829/42822747/4-460x268.jpg",
        "url": "http://huya-w21.huya.com/1829/42822747/1300/88aa3835d95c144f58a3b33d276aa71a.m3u8?bitrate=928&client=14&definition=1300&pid=1572204739&scene=vod&vid=42822747"
    },
    {
        "id": "42822559",
        "title": "\u6210\u90fd\u65b0\u4e3b\u64ad\u5566\u5566\u5566\u5566",
        "src": "http://v-huya-img.huya.com/1829/42822559/4-460x268.jpg",
        "url": "http://huya-w10.huya.com/1829/42822559/1300/fc2f6462b6fb72aeee11f830458ae189.m3u8?bitrate=929&client=14&definition=1300&pid=1572204739&scene=vod&vid=42822559"
    },
    {
        "id": "31049467",
        "title": "\u8db3\u7403\u5b9d\u8d1d\u70ed\u821e\u4e86\u89e3\u4e00\u4e0b~",
        "src": "http://v-huya-img.huya.com/1824/31049467/99-460x268.jpg",
        "url": "http://huya-w20.huya.com/1824/31049467/1300/7fa0313f1af7e2374b2cb8b175600e57.m3u8?bitrate=933&client=25&definition=1300&pid=1572204739&scene=vod&vid=31049467"
    },
    {
        "id": "29611429",
        "title": "\u6cab\u6cab\u2014\u2014\u624b\u67aa\u821e\u300aGashina\u300b",
        "src": "http://v-huya-img.huya.com/1819/29611429/4-460x268.jpg",
        "url": "http://huya-w20.huya.com/1819/29611429/1300/fdd28239c333e1ddabadcd177ae98532.m3u8?bitrate=926&client=25&definition=1300&pid=1572204739&scene=vod&vid=29611429"
    }
]