[
    {
        "name": "[UGirlsAPP]\u7231\u5c24\u7269 No.1825 \u66f2\u4f51\u7199 \u5929\u4f7f\u7684\u60c5\u4e66",
        "src": "http://d.duotuwang.com/2020/05/18/20674/0.jpg",
        "mtId": "3dfccd97093f0a99",
        "mtName": "\u66f2\u4f51\u7199",
        "jgId": "ugirlsapp",
        "jgName": "\u7231\u5c24\u7269",
        "href": "http://d.duotuwang.com/2020/05/18/20674/",
        "count": 35,
        "start": 1,
        "hasMtTag": 1,
        "hasJgTag": 1,
        "mtCount": 1,
        "jgCount": 397
    },
    {
        "name": "[UGirlsAPP]\u7231\u5c24\u7269 No.1722 \u66f2\u4f51\u7199 \u7231\u4f60\u6ca1\u5dee",
        "src": "http://d.duotuwang.com/2020/02/05/19496/0.jpg",
        "mtId": "3dfccd97093f0a99",
        "mtName": "\u66f2\u4f51\u7199",
        "jgId": "ugirlsapp",
        "jgName": "\u7231\u5c24\u7269",
        "href": "http://d.duotuwang.com/2020/02/05/19496/",
        "count": 35,
        "start": 1,
        "hasMtTag": 1,
        "hasJgTag": 1,
        "mtCount": 1,
        "jgCount": 397
    },
    {
        "name": "[UGirlsAPP]\u7231\u5c24\u7269 No.1640 \u66f2\u4f51\u7199 \u60c5\u6b4c\u604b\u66f2",
        "src": "http://d.duotuwang.com/2019/11/15/18675/0.jpg",
        "mtId": "3dfccd97093f0a99",
        "mtName": "\u66f2\u4f51\u7199",
        "jgId": "ugirlsapp",
        "jgName": "\u7231\u5c24\u7269",
        "href": "http://d.duotuwang.com/2019/11/15/18675/",
        "count": 35,
        "start": 1,
        "hasMtTag": 1,
        "hasJgTag": 1,
        "mtCount": 1,
        "jgCount": 397
    }
]