[
    {
        "name": "[XIUREN]\u79c0\u4eba\u7f51 No.1510 Egg_\u5c24\u59ae\u4e1d",
        "src": "http://d.duotuwang.com/2019/06/21/16914/0.jpg",
        "mtId": "ad6ceea13469d7db",
        "mtName": "Egg-\u5c24\u59ae\u4e1d",
        "jgId": "xiuren",
        "jgName": "\u79c0\u4eba\u7f51",
        "href": "http://d.duotuwang.com/2019/06/21/16914/",
        "count": 53,
        "start": 1,
        "hasMtTag": 1,
        "hasJgTag": 1,
        "mtCount": 29,
        "jgCount": 750
    },
    {
        "name": "[YOUMI]\u5c24\u871c\u835f VOL.308 Egg_\u5c24\u59ae\u4e1d",
        "src": "http://d.duotuwang.com/2019/05/21/16560/0.jpg",
        "mtId": "ad6ceea13469d7db",
        "mtName": "Egg-\u5c24\u59ae\u4e1d",
        "jgId": "youmi",
        "jgName": "\u5c24\u871c\u835f",
        "href": "http://d.duotuwang.com/2019/05/21/16560/",
        "count": 42,
        "start": 1,
        "hasMtTag": 1,
        "hasJgTag": 1,
        "mtCount": 29,
        "jgCount": 143
    },
    {
        "name": "[XIUREN]\u79c0\u4eba\u7f51 No.1450 Egg_\u5c24\u59ae\u4e1d",
        "src": "http://d.duotuwang.com/2019/05/14/16507/0.jpg",
        "mtId": "ad6ceea13469d7db",
        "mtName": "Egg-\u5c24\u59ae\u4e1d",
        "jgId": "xiuren",
        "jgName": "\u79c0\u4eba\u7f51",
        "href": "http://d.duotuwang.com/2019/05/14/16507/",
        "count": 42,
        "start": 1,
        "hasMtTag": 1,
        "hasJgTag": 1,
        "mtCount": 29,
        "jgCount": 750
    },
    {
        "name": "[XIUREN]\u79c0\u4eba\u7f51 No.1441 Egg_\u5c24\u59ae\u4e1d",
        "src": "http://d.duotuwang.com/2019/05/09/16448/0.jpg",
        "mtId": "ad6ceea13469d7db",
        "mtName": "Egg-\u5c24\u59ae\u4e1d",
        "jgId": "xiuren",
        "jgName": "\u79c0\u4eba\u7f51",
        "href": "http://d.duotuwang.com/2019/05/09/16448/",
        "count": 46,
        "start": 1,
        "hasMtTag": 1,
        "hasJgTag": 1,
        "mtCount": 29,
        "jgCount": 750
    },
    {
        "name": "[UGirlsAPP]\u7231\u5c24\u7269 No.1437 \u5c24\u59ae\u4e1d \u5c01\u795e",
        "src": "http://d.duotuwang.com/2019/04/26/16268/0.jpg",
        "mtId": "ad6ceea13469d7db",
        "mtName": "\u5c24\u59ae\u4e1d",
        "jgId": "ugirlsapp",
        "jgName": "\u7231\u5c24\u7269",
        "href": "http://d.duotuwang.com/2019/04/26/16268/",
        "count": 30,
        "start": 1,
        "hasMtTag": 1,
        "hasJgTag": 1,
        "mtCount": 29,
        "jgCount": 397
    },
    {
        "name": "[YOUMI]\u5c24\u871c\u835f VOL.296 Egg_\u5c24\u59ae\u4e1d",
        "src": "http://d.duotuwang.com/2019/04/23/16181/0.jpg",
        "mtId": "ad6ceea13469d7db",
        "mtName": "Egg-\u5c24\u59ae\u4e1d",
        "jgId": "youmi",
        "jgName": "\u5c24\u871c\u835f",
        "href": "http://d.duotuwang.com/2019/04/23/16181/",
        "count": 42,
        "start": 1,
        "hasMtTag": 1,
        "hasJgTag": 1,
        "mtCount": 29,
        "jgCount": 143
    }
]