[
    {
        "id": "595749135",
        "title": "\u3010\u963f\u7a00\u7a00\u3011 \u6c34\u58f0/ \u6572\u51fb/ \u6309\u6469\u8033\u6735 /\u706b\u67f4",
        "src": "http://v-huya-img2.msstatic.com/screenshot/2142/595749135/99.jpg?x-oss-process=style/460x268&amp;amp;v=bda1909ae31516aa1846ae488c7410371634979987",
        "url": "http://videotx-platform.cdn.huya.com/1048585/1152629002/30118439/40e63ae228972e27f4f0806573734d38.m3u8?bitrate=1042&client=106&definition=1300&pid=1152629002&scene=vod&vid=595749135"
    },
    {
        "id": "595100439",
        "title": "\u3010\u89e3\u538b\u3011\u963f\u7a00\u7a00/\u8033\u8fb9\u5462\u5583",
        "src": "http://v-huya-img2.msstatic.com/screenshot/2142/595100439/99.jpg?x-oss-process=style/460x268&amp;amp;v=e7e46bd93c6fb720a0bc0da14a8db8211634880767",
        "url": "http://videohw-platform.cdn.huya.com/1048585/1152629002/29997559/c5fb06ff5f548e0044f703d7c0e92cf8.m3u8?bitrate=1020&client=106&definition=1300&pid=1152629002&scene=vod&vid=595100439"
    },
    {
        "id": "594579017",
        "title": "\u3010\u89e3\u538b\u3011\u963f\u7a00\u7a00/\u5fc3\u8df3/\u8f7b\u8bed/ \u6572\u51fb/\u9e45\u6bdb\u68d2",
        "src": "http://v-huya-img2.msstatic.com/screenshot/2142/594579017/99.jpg?x-oss-process=style/460x268&amp;amp;v=c24e7ef9d2f7a9ec8e1485b0f78cd9e11634800110",
        "url": "http://videotx-platform.cdn.huya.com/1048585/1152629002/29910343/f1414a4521ca8b78c521d51c0943d626.m3u8?bitrate=1168&client=106&definition=1300&pid=1152629002&scene=vod&vid=594579017"
    },
    {
        "id": "593548273",
        "title": "\u70ed\u821e\u4e2d\u3010\u963f\u7a00\u7a00\u3011",
        "src": "http://v-huya-img2.msstatic.com/screenshot/2142/593548273/99.jpg?x-oss-process=style/460x268&amp;amp;v=b04b4da087e3ee53273b2f1cb878d0d01634621449",
        "url": "http://videohw-platform.cdn.huya.com/1048585/1152629002/29814769/e88dc0dc4d1f1780cd0e9aeb920a1a72.m3u8?bitrate=2100&client=106&definition=1300&pid=1152629002&scene=vod&vid=593548273"
    },
    {
        "id": "593100183",
        "title": "\u3010\u89e3\u538b\u3011\u963f\u7a00\u7a00/\u8f7b\u8bed/\u6076\u9f99\u5486\u54ee/\u6572\u51fb/\u6c34\u6f0f",
        "src": "http://v-huya-img2.msstatic.com/screenshot/2142/593100183/99.jpg?x-oss-process=style/460x268&amp;amp;amp;amp;v=c33d3d19e1453762e58fe318a52cb24f1634545672",
        "url": "http://videohw-platform.cdn.huya.com/1048585/1152629002/29762433/f24f12b17ad964ec8f215f7b0a39b49e.m3u8?bitrate=1297&client=106&definition=1300&pid=1152629002&scene=vod&vid=593100183"
    },
    {
        "id": "592665975",
        "title": "\u3010\u89e3\u538b\u3011\u963f\u7a00\u7a00/\u76f4\u5347\u673a  /\u5fc3\u8df3/ \u4f4e\u8bed",
        "src": "http://v-huya-img2.msstatic.com/screenshot/2141/592665975/99.jpg?x-oss-process=style/460x268&amp;amp;v=c92cfc37ede280e96ebc2da0a24ea4111634467735",
        "url": "http://videotx-platform.cdn.huya.com/1048585/1152629002/29725287/c7249d46f2de86ad3c192870e657bbf7.m3u8?bitrate=914&client=106&definition=1300&pid=1152629002&scene=vod&vid=592665975"
    },
    {
        "id": "591493815",
        "title": "\u70ed\u821e\u4e2d\u3010\u963f\u7a00\u7a00\u3011",
        "src": "http://v-huya-img2.msstatic.com/screenshot/2141/591493815/99.jpg?x-oss-process=style/460x268&amp;amp;v=a2935f35eae6412e9a64c56d1eb660411634275882",
        "url": "http://videobd-platform.cdn.huya.com/1048585/1152629002/29625961/d677fa59cd4430465f414e11e06f6836.m3u8?bitrate=2077&client=106&definition=1300&pid=1152629002&scene=vod&vid=591493815"
    },
    {
        "id": "591057713",
        "title": "\u3010\u89e3\u538b\u3011\u963f\u7a00\u7a00/\u8e29\u8e0f\u58f0/ \u6469\u64e6\u58f0/ \u5462\u5583/ \u76f4\u5347\u673a",
        "src": "http://v-huya-img2.msstatic.com/screenshot/2141/591057713/99.jpg?x-oss-process=style/460x268&amp;amp;v=7cf55260807ed653a17b38635e9f418d1634202482",
        "url": "http://videotx-platform.cdn.huya.com/1048585/1152629002/29586485/ae5cb8304419f62c93daa560aa3faa44.m3u8?bitrate=1226&client=106&definition=1300&pid=1152629002&scene=vod&vid=591057713"
    },
    {
        "id": "590146791",
        "title": "\u6211\u53d1\u5e03\u4e86\u4e00\u4e2a\u65b0\u89c6\u9891\uff0c\u5feb\u6765\u56f4\u89c2\u5427\uff01",
        "src": "http://v-huya-img2.msstatic.com/screenshot/2141/590146791/99.jpg?x-oss-process=style/460x268&amp;amp;amp;amp;v=e5eb6dc856731536214472928f5d98411634040888",
        "url": "http://videohw-platform.cdn.huya.com/1048585/1152629002/29499711/c8994ab65983bbf188501aac6f65e80a.m3u8?bitrate=1241&client=106&definition=1300&pid=1152629002&scene=vod&vid=590146791"
    },
    {
        "id": "589994053",
        "title": "\u542c\u8bf4\u4f60\u4eec\u559c\u6b22\u770b\u8fd9\u4e2a\uff1f\u3010\u963f\u7a00\u7a00\u3011",
        "src": "http://v-huya-img2.msstatic.com/screenshot/2141/589994053/99.jpg?x-oss-process=style/460x268&amp;amp;v=bec991c1aebea03ab8e763b30031504a1634017495",
        "url": "http://videohw-platform.cdn.huya.com/1048585/1152629002/29482187/fbe293d79af85166d6bd126ab87053d6.m3u8?bitrate=2098&client=106&definition=1300&pid=1152629002&scene=vod&vid=589994053"
    },
    {
        "id": "589515025",
        "title": "\u3010\u89e3\u538b\u3011\u963f\u7a00\u7a00/\u6572\u51fb/\u4ed9\u5973\u68d2/\u76f4\u5347\u673a/\u6076\u9f99\u5486\u54ee/\u8f7b\u8bed",
        "src": "http://v-huya-img2.msstatic.com/screenshot/2141/589515025/99.jpg?x-oss-process=style/460x268&amp;amp;v=64c2a0279fd600cfeefb654ea5fa1c931633933509",
        "url": "http://videohw-platform.cdn.huya.com/1048585/1152629002/29439483/f6fe7bab8c539089e8eb5f5c890a2e91.m3u8?bitrate=1222&client=106&definition=1300&pid=1152629002&scene=vod&vid=589515025"
    },
    {
        "id": "588649471",
        "title": "\u3010\u89e3\u538b\u3011\u963f\u7a00\u7a00/\u8f7b\u8bed/\u82a6\u835f\u80f6/\u6c34\u6f0f",
        "src": "http://v-huya-img2.msstatic.com/screenshot/2140/588649471/99.jpg?x-oss-process=style/460x268&amp;amp;v=54d9540afa9d33638406742fcd9abae71633784786",
        "url": "http://videobd-platform.cdn.huya.com/1048585/1152629002/29353997/d1d54752f5599b1398fa3a2d7f942628.m3u8?bitrate=1208&client=106&definition=1300&pid=1152629002&scene=vod&vid=588649471"
    },
    {
        "id": "587636525",
        "title": "\u6211\u548c\u68d2\u68d2\u7cd6\u90a3\u4e2a\u751c\uff1f\u3010\u963f\u7a00\u7a00\u3011",
        "src": "http://v-huya-img2.msstatic.com/screenshot/2140/587636525/99.jpg?x-oss-process=style/460x268&amp;amp;v=ef90dc9de74c6e4d9940263d773e7eb31633610987",
        "url": "http://videobd-platform.cdn.huya.com/1048585/1152629002/29256947/60108f7efc3c6d3bfcd154008eaae8ca.m3u8?bitrate=2103&client=106&definition=1300&pid=1152629002&scene=vod&vid=587636525"
    },
    {
        "id": "587519897",
        "title": "\u3010\u89e3\u538b\u3011\u963f\u7a00\u7a00/\u82a6\u835f\u80f6/ \u76f4\u5347\u673a/\u4ed9\u5973\u68d2",
        "src": "http://v-huya-img2.msstatic.com/screenshot/2140/587519897/99.jpg?x-oss-process=style/460x268&amp;amp;v=1cc27dba9bccb70a8a65e64fb6d71bbe1633594911",
        "url": "http://videotx-platform.cdn.huya.com/1048585/1152629002/29245965/46d9922e75f44b094f9b7bcbb69d227d.m3u8?bitrate=1301&client=106&definition=1300&pid=1152629002&scene=vod&vid=587519897"
    },
    {
        "id": "587004017",
        "title": "\u3010\u8212\u670d\u3011\uff08\u963f\u7a00\u7a00\uff09\u8033\u8fb9\u5462\u5583/ \u4ed9\u5973\u68d2 /\u6076\u9f99\u5486\u54ee",
        "src": "http://v-huya-img2.msstatic.com/screenshot/2140/587004017/99.jpg?x-oss-process=style/460x268&amp;amp;v=c644b8a2c8f82b5e80d096a73d817cf51633529667",
        "url": "http://videotx-platform.cdn.huya.com/1048585/1152629002/29201369/a04d5226a9ee89cf161842f6891a2da3.m3u8?bitrate=1053&client=106&definition=1300&pid=1152629002&scene=vod&vid=587004017"
    }
]