[
    {
        "name": "[XIUREN]\u79c0\u4eba\u7f51 No.4406 \u7f8e\u4e03Mia",
        "src": "http://d.duotuwang.com/2021/12/30/28010/0.jpg",
        "mtId": "58a8832e511f67e3",
        "mtName": "\u7f8e\u4e03Mia",
        "jgId": "xiuren",
        "jgName": "\u79c0\u4eba\u7f51",
        "href": "http://d.duotuwang.com/2021/12/30/28010/",
        "count": 61,
        "start": 1,
        "hasMtTag": 1,
        "hasJgTag": 1,
        "mtCount": 9,
        "jgCount": 750
    },
    {
        "name": "[XIUREN]\u79c0\u4eba\u7f51 No.4342 \u7f8e\u4e03Mia",
        "src": "http://d.duotuwang.com/2021/12/16/27819/0.jpg",
        "mtId": "58a8832e511f67e3",
        "mtName": "\u7f8e\u4e03Mia",
        "jgId": "xiuren",
        "jgName": "\u79c0\u4eba\u7f51",
        "href": "http://d.duotuwang.com/2021/12/16/27819/",
        "count": 69,
        "start": 1,
        "hasMtTag": 1,
        "hasJgTag": 1,
        "mtCount": 9,
        "jgCount": 750
    },
    {
        "name": "[XIUREN]\u79c0\u4eba\u7f51 No.4317 \u7f8e\u4e03Mia",
        "src": "http://d.duotuwang.com/2021/12/09/27720/0.jpg",
        "mtId": "58a8832e511f67e3",
        "mtName": "\u7f8e\u4e03Mia",
        "jgId": "xiuren",
        "jgName": "\u79c0\u4eba\u7f51",
        "href": "http://d.duotuwang.com/2021/12/09/27720/",
        "count": 67,
        "start": 1,
        "hasMtTag": 1,
        "hasJgTag": 1,
        "mtCount": 9,
        "jgCount": 750
    },
    {
        "name": "[XIUREN]\u79c0\u4eba\u7f51 No.4275 \u7f8e\u4e03Mia",
        "src": "http://d.duotuwang.com/2021/11/29/27560/0.jpg",
        "mtId": "58a8832e511f67e3",
        "mtName": "\u7f8e\u4e03Mia",
        "jgId": "xiuren",
        "jgName": "\u79c0\u4eba\u7f51",
        "href": "http://d.duotuwang.com/2021/11/29/27560/",
        "count": 69,
        "start": 1,
        "hasMtTag": 1,
        "hasJgTag": 1,
        "mtCount": 9,
        "jgCount": 750
    },
    {
        "name": "[XIUREN]\u79c0\u4eba\u7f51 No.4213 \u7f8e\u4e03Mia",
        "src": "http://d.duotuwang.com/2021/11/15/27422/0.jpg",
        "mtId": "58a8832e511f67e3",
        "mtName": "\u7f8e\u4e03Mia",
        "jgId": "xiuren",
        "jgName": "\u79c0\u4eba\u7f51",
        "href": "http://d.duotuwang.com/2021/11/15/27422/",
        "count": 47,
        "start": 1,
        "hasMtTag": 1,
        "hasJgTag": 1,
        "mtCount": 9,
        "jgCount": 750
    },
    {
        "name": "[XIUREN]\u79c0\u4eba\u7f51 No.4143 \u7f8e\u4e03Mia",
        "src": "http://d.duotuwang.com/2021/11/01/27174/0.jpg",
        "mtId": "58a8832e511f67e3",
        "mtName": "\u7f8e\u4e03Mia",
        "jgId": "xiuren",
        "jgName": "\u79c0\u4eba\u7f51",
        "href": "http://d.duotuwang.com/2021/11/01/27174/",
        "count": 63,
        "start": 1,
        "hasMtTag": 1,
        "hasJgTag": 1,
        "mtCount": 9,
        "jgCount": 750
    }
]