[
    {
        "name": "[XIUREN]\u79c0\u4eba\u7f51 No.2548 \u7f8e\u4e03Mia",
        "src": "http://d.duotuwang.com/2020/09/10/22121/0.jpg",
        "mtId": "58a8832e511f67e3",
        "mtName": "\u7f8e\u4e03Mia",
        "jgId": "xiuren",
        "jgName": "\u79c0\u4eba\u7f51",
        "href": "http://d.duotuwang.com/2020/09/10/22121/",
        "count": 48,
        "start": 1,
        "hasMtTag": 1,
        "hasJgTag": 1,
        "mtCount": 9,
        "jgCount": 750
    },
    {
        "name": "[XIUREN]\u79c0\u4eba\u7f51 No.2516 \u7f8e\u4e03Mia",
        "src": "http://d.duotuwang.com/2020/09/02/21877/0.jpg",
        "mtId": "58a8832e511f67e3",
        "mtName": "\u7f8e\u4e03Mia",
        "jgId": "xiuren",
        "jgName": "\u79c0\u4eba\u7f51",
        "href": "http://d.duotuwang.com/2020/09/02/21877/",
        "count": 52,
        "start": 1,
        "hasMtTag": 1,
        "hasJgTag": 1,
        "mtCount": 9,
        "jgCount": 750
    },
    {
        "name": "[XIUREN]\u79c0\u4eba\u7f51 No.2488 \u7f8e\u4e03Mia",
        "src": "http://d.duotuwang.com/2020/08/26/21849/0.jpg",
        "mtId": "58a8832e511f67e3",
        "mtName": "\u7f8e\u4e03Mia",
        "jgId": "xiuren",
        "jgName": "\u79c0\u4eba\u7f51",
        "href": "http://d.duotuwang.com/2020/08/26/21849/",
        "count": 40,
        "start": 1,
        "hasMtTag": 1,
        "hasJgTag": 1,
        "mtCount": 9,
        "jgCount": 750
    },
    {
        "name": "[MFStar]\u6a21\u8303\u5b66\u9662 VOL.353 \u7f8e\u4e03Mia",
        "src": "http://d.duotuwang.com/2020/07/23/21652/0.jpg",
        "mtId": "58a8832e511f67e3",
        "mtName": "\u7f8e\u4e03Mia",
        "jgId": "mfstar",
        "jgName": "\u6a21\u8303\u5b66\u9662",
        "href": "http://d.duotuwang.com/2020/07/23/21652/",
        "count": 45,
        "start": 1,
        "hasMtTag": 1,
        "hasJgTag": 1,
        "mtCount": 9,
        "jgCount": 94
    },
    {
        "name": "[MFStar]\u6a21\u8303\u5b66\u9662 VOL.347 \u7f8e\u4e03Mia",
        "src": "http://d.duotuwang.com/2020/07/15/21153/0.jpg",
        "mtId": "58a8832e511f67e3",
        "mtName": "\u7f8e\u4e03Mia",
        "jgId": "mfstar",
        "jgName": "\u6a21\u8303\u5b66\u9662",
        "href": "http://d.duotuwang.com/2020/07/15/21153/",
        "count": 41,
        "start": 1,
        "hasMtTag": 1,
        "hasJgTag": 1,
        "mtCount": 9,
        "jgCount": 94
    }
]