[
    {
        "name": "[UGirls]\u5c24\u679c\u7f51 U159 \u4ed9\u59ae",
        "src": "http://d.duotuwang.com/2016/03/04/3171/0.jpg",
        "mtId": "6c408c16a8593f10",
        "mtName": "\u4ed9\u59ae",
        "jgId": "ugirls",
        "jgName": "\u5c24\u679c\u7f51",
        "href": "http://d.duotuwang.com/2016/03/04/3171/",
        "count": 65,
        "start": 1,
        "hasMtTag": 1,
        "hasJgTag": 1,
        "mtCount": 1,
        "jgCount": 79
    },
    {
        "name": "[UGirlsAPP]\u7231\u5c24\u7269 No.260 \u4ed9\u59ae",
        "src": "http://d.duotuwang.com/2016/02/02/4620/0.jpg",
        "mtId": "6c408c16a8593f10",
        "mtName": "\u4ed9\u59ae",
        "jgId": "ugirlsapp",
        "jgName": "\u7231\u5c24\u7269",
        "href": "http://d.duotuwang.com/2016/02/02/4620/",
        "count": 40,
        "start": 1,
        "hasMtTag": 1,
        "hasJgTag": 1,
        "mtCount": 1,
        "jgCount": 397
    }
]