[
    {
        "name": "[MiStar]\u9b45\u598d\u793e VOL.275 \u8d75\u6b22\u989cJessica",
        "src": "http://d.duotuwang.com/2019/03/28/14710/0.jpg",
        "mtId": "72d1e61a0a079ad7",
        "mtName": "\u8d75\u6b22\u989cJessica",
        "jgId": "mistar",
        "jgName": "\u9b45\u598d\u793e",
        "href": "http://d.duotuwang.com/2019/03/28/14710/",
        "count": 45,
        "start": 1,
        "hasMtTag": 1,
        "hasJgTag": 1,
        "mtCount": 1,
        "jgCount": 55
    },
    {
        "name": "[MiStar]\u9b45\u598d\u793e VOL.044 \u8d75\u6b22\u989cJessica",
        "src": "http://d.duotuwang.com/2015/11/23/1106/0.jpg",
        "mtId": "72d1e61a0a079ad7",
        "mtName": "\u8d75\u6b22\u989cJessica",
        "jgId": "mistar",
        "jgName": "\u9b45\u598d\u793e",
        "href": "http://d.duotuwang.com/2015/11/23/1106/",
        "count": 50,
        "start": 1,
        "hasMtTag": 1,
        "hasJgTag": 1,
        "mtCount": 1,
        "jgCount": 55
    },
    {
        "name": "[MiStar]\u9b45\u598d\u793e VOL.029 \u8d75\u6b22\u989cJessica",
        "src": "http://d.duotuwang.com/2015/08/26/1897/0.jpg",
        "mtId": "72d1e61a0a079ad7",
        "mtName": "\u8d75\u6b22\u989cJessica",
        "jgId": "mistar",
        "jgName": "\u9b45\u598d\u793e",
        "href": "http://d.duotuwang.com/2015/08/26/1897/",
        "count": 55,
        "start": 1,
        "hasMtTag": 1,
        "hasJgTag": 1,
        "mtCount": 1,
        "jgCount": 55
    },
    {
        "name": "[MiStar]\u9b45\u598d\u793e VOL.022 \u8d75\u6b22\u989cJessica",
        "src": "http://d.duotuwang.com/2015/07/13/846/0.jpg",
        "mtId": "72d1e61a0a079ad7",
        "mtName": "\u8d75\u6b22\u989cJessica",
        "jgId": "mistar",
        "jgName": "\u9b45\u598d\u793e",
        "href": "http://d.duotuwang.com/2015/07/13/846/",
        "count": 60,
        "start": 1,
        "hasMtTag": 1,
        "hasJgTag": 1,
        "mtCount": 1,
        "jgCount": 55
    }
]