[
    {
        "name": "[LEEHEE EXPRESS] LERB-085B Nari",
        "src": "http://d.duotuwang.com/2022/04/02/29984/0.jpg",
        "mtId": "08c22bbfc341e414",
        "mtName": "LEEHEEEXPRESS",
        "href": "http://d.duotuwang.com/2022/04/02/29984/",
        "count": 54,
        "start": 1,
        "hasMtTag": 1,
        "hasJgTag": 0,
        "mtCount": 12
    },
    {
        "name": "[LEEHEE EXPRESS] LEHF-097 Nari",
        "src": "http://d.duotuwang.com/2022/03/02/29983/0.jpg",
        "mtId": "08c22bbfc341e414",
        "mtName": "LEEHEEEXPRESS",
        "href": "http://d.duotuwang.com/2022/03/02/29983/",
        "count": 53,
        "start": 1,
        "hasMtTag": 1,
        "hasJgTag": 0,
        "mtCount": 12
    },
    {
        "name": "[CreamSoda] Nari - Afternoon Sunshine",
        "src": "http://d.duotuwang.com/2019/09/04/27523/0.jpg",
        "mtId": "6d00982b61055fdd",
        "mtName": "CreamSoda",
        "href": "http://d.duotuwang.com/2019/09/04/27523/",
        "count": 84,
        "start": 1,
        "hasMtTag": 1,
        "hasJgTag": 0,
        "mtCount": 7
    }
]