[
    {
        "name": "[WingS]\u5f71\u79c1\u835f VOL.003 \u590f\u6653Maggy",
        "src": "http://d.duotuwang.com/2016/06/12/1464/0.jpg",
        "mtId": "6acdb97c569d914b",
        "mtName": "\u590f\u6653Maggy",
        "jgId": "wings",
        "jgName": "\u5f71\u79c1\u835f",
        "href": "http://d.duotuwang.com/2016/06/12/1464/",
        "count": 60,
        "start": 1,
        "hasMtTag": 1,
        "hasJgTag": 1,
        "mtCount": 1,
        "jgCount": 4
    },
    {
        "name": "[XIUREN]\u79c0\u4eba\u7f51 No.503 \u590f\u6653Maggy",
        "src": "http://d.duotuwang.com/2016/04/06/1318/0.jpg",
        "mtId": "6acdb97c569d914b",
        "mtName": "\u590f\u6653Maggy",
        "jgId": "xiuren",
        "jgName": "\u79c0\u4eba\u7f51",
        "href": "http://d.duotuwang.com/2016/04/06/1318/",
        "count": 50,
        "start": 1,
        "hasMtTag": 1,
        "hasJgTag": 1,
        "mtCount": 1,
        "jgCount": 750
    }
]