[
    {
        "name": "[XIUREN]\u79c0\u4eba\u7f51 No.4206 Arude\u8587\u8587",
        "src": "http://d.duotuwang.com/2021/11/12/27415/0.jpg",
        "mtId": "ab265d1ad7ad11b8",
        "mtName": "Arude\u8587\u8587",
        "jgId": "xiuren",
        "jgName": "\u79c0\u4eba\u7f51",
        "href": "http://d.duotuwang.com/2021/11/12/27415/",
        "count": 50,
        "start": 1,
        "hasMtTag": 1,
        "hasJgTag": 1,
        "mtCount": 3,
        "jgCount": 750
    },
    {
        "name": "[XIUREN]\u79c0\u4eba\u7f51 No.4194 Arude\u8587\u8587",
        "src": "http://d.duotuwang.com/2021/11/10/27329/0.jpg",
        "mtId": "ab265d1ad7ad11b8",
        "mtName": "Arude\u8587\u8587",
        "jgId": "xiuren",
        "jgName": "\u79c0\u4eba\u7f51",
        "href": "http://d.duotuwang.com/2021/11/10/27329/",
        "count": 61,
        "start": 1,
        "hasMtTag": 1,
        "hasJgTag": 1,
        "mtCount": 3,
        "jgCount": 750
    },
    {
        "name": "[XIUREN]\u79c0\u4eba\u7f51 No.4080 Arude\u8587\u8587",
        "src": "http://d.duotuwang.com/2021/10/19/27038/0.jpg",
        "mtId": "ab265d1ad7ad11b8",
        "mtName": "Arude\u8587\u8587",
        "jgId": "xiuren",
        "jgName": "\u79c0\u4eba\u7f51",
        "href": "http://d.duotuwang.com/2021/10/19/27038/",
        "count": 70,
        "start": 1,
        "hasMtTag": 1,
        "hasJgTag": 1,
        "mtCount": 3,
        "jgCount": 750
    },
    {
        "name": "[XIUREN]\u79c0\u4eba\u7f51 No.3656 Arude\u8587\u8587",
        "src": "http://d.duotuwang.com/2021/07/13/25859/0.jpg",
        "mtId": "ab265d1ad7ad11b8",
        "mtName": "Arude\u8587\u8587",
        "jgId": "xiuren",
        "jgName": "\u79c0\u4eba\u7f51",
        "href": "http://d.duotuwang.com/2021/07/13/25859/",
        "count": 65,
        "start": 1,
        "hasMtTag": 1,
        "hasJgTag": 1,
        "mtCount": 3,
        "jgCount": 750
    },
    {
        "name": "[XIUREN]\u79c0\u4eba\u7f51 No.3617 Arude\u8587\u8587",
        "src": "http://d.duotuwang.com/2021/07/02/25740/0.jpg",
        "mtId": "ab265d1ad7ad11b8",
        "mtName": "Arude\u8587\u8587",
        "jgId": "xiuren",
        "jgName": "\u79c0\u4eba\u7f51",
        "href": "http://d.duotuwang.com/2021/07/02/25740/",
        "count": 71,
        "start": 1,
        "hasMtTag": 1,
        "hasJgTag": 1,
        "mtCount": 3,
        "jgCount": 750
    },
    {
        "name": "[FEILIN]\u55f2\u56e1\u56e1 VOL.399 Arude\u8587\u8587",
        "src": "http://d.duotuwang.com/2021/07/01/25628/0.jpg",
        "mtId": "ab265d1ad7ad11b8",
        "mtName": "Arude\u8587\u8587",
        "jgId": "feilin",
        "jgName": "\u55f2\u56e1\u56e1",
        "href": "http://d.duotuwang.com/2021/07/01/25628/",
        "count": 61,
        "start": 1,
        "hasMtTag": 1,
        "hasJgTag": 1,
        "mtCount": 3,
        "jgCount": 61
    }
]